/I"..\..\FColladaSWIG"

/I"..\..\..\rageAssetBuild\Rage.Build\rtfs"

/I"..\..\..\..\..\..\rage\3rdParty\FeelingSoftware\FCollada"
/I"..\..\..\..\..\..\rage\3rdParty\FeelingSoftware\FCollada\LibXML\include"

/I"..\..\..\..\..\..\rage\3rdParty\ruby\ruby-1.8.7\lib\ruby\1.8\i386-mswin32_80"



