 INFO WbExplorer: blah 63909
 INFO WbExplorer: blah 63910
 INFO WbExplorer: blah 63911
 INFO WbExplorer: blah 63912
 INFO WbExplorer: blah 63913
 INFO WbExplorer: blah 63914
 INFO WbExplorer: blah 63915
 INFO WbExplorer: blah 63916
 INFO WbExplorer: blah 63917
 INFO WbExplorer: blah 63918
 INFO WbExplorer: blah 63919
 INFO WbExplorer: blah 63920
 INFO WbExplorer: blah 63921
 INFO WbExplorer: blah 63922
 INFO WbExplorer: blah 63923
 INFO WbExplorer: blah 63924
 INFO WbExplorer: blah 63925
 INFO WbExplorer: blah 63926
 INFO WbExplorer: blah 63927
 INFO WbExplorer: blah 63928
 INFO WbExplorer: blah 63929
 INFO WbExplorer: blah 63930
 INFO WbExplorer: blah 63931
 INFO WbExplorer: blah 63932
 INFO WbExplorer: blah 63933
 INFO WbExplorer: blah 63934
 INFO WbExplorer: blah 63935
 INFO WbExplorer: blah 63936
 INFO WbExplorer: blah 63937
 INFO WbExplorer: blah 63938
 INFO WbExplorer: blah 63939
 INFO WbExplorer: blah 63940
 INFO WbExplorer: blah 63941
 INFO WbExplorer: blah 63942
 INFO WbExplorer: blah 63943
 INFO WbExplorer: blah 63944
 INFO WbExplorer: blah 63945
 INFO WbExplorer: blah 63946
 INFO WbExplorer: blah 63947
 INFO WbExplorer: blah 63948
 INFO WbExplorer: blah 63949
 INFO WbExplorer: blah 63950
 INFO WbExplorer: blah 63951
 INFO WbExplorer: blah 63952
 INFO WbExplorer: blah 63953
 INFO WbExplorer: blah 63954
 INFO WbExplorer: blah 63955
 INFO WbExplorer: blah 63956
 INFO WbExplorer: blah 63957
 INFO WbExplorer: blah 63958
 INFO WbExplorer: blah 63959
 INFO WbExplorer: blah 63960
 INFO WbExplorer: blah 63961
 INFO WbExplorer: blah 63962
 INFO WbExplorer: blah 63963
 INFO WbExplorer: blah 63964
 INFO WbExplorer: blah 63965
 INFO WbExplorer: blah 63966
 INFO WbExplorer: blah 63967
 INFO WbExplorer: blah 63968
 INFO WbExplorer: blah 63969
 INFO WbExplorer: blah 63970
 INFO WbExplorer: blah 63971
 INFO WbExplorer: blah 63972
 INFO WbExplorer: blah 63973
 INFO WbExplorer: blah 63974
 INFO WbExplorer: blah 63975
 INFO WbExplorer: blah 63976
 INFO WbExplorer: blah 63977
 INFO WbExplorer: blah 63978
 INFO WbExplorer: blah 63979
 INFO WbExplorer: blah 63980
 INFO WbExplorer: blah 63981
 INFO WbExplorer: blah 63982
 INFO WbExplorer: blah 63983
 INFO WbExplorer: blah 63984
 INFO WbExplorer: blah 63985
 INFO WbExplorer: blah 63986
 INFO WbExplorer: blah 63987
 INFO WbExplorer: blah 63988
 INFO WbExplorer: blah 63989
 INFO WbExplorer: blah 63990
 INFO WbExplorer: blah 63991
 INFO WbExplorer: blah 63992
 INFO WbExplorer: blah 63993
 INFO WbExplorer: blah 63994
 INFO WbExplorer: blah 63995
 INFO WbExplorer: blah 63996
 INFO WbExplorer: blah 63997
 INFO WbExplorer: blah 63998
 INFO WbExplorer: blah 63999
 INFO WbExplorer: blah 64000
 INFO WbExplorer: blah 64001
 INFO WbExplorer: blah 64002
 INFO WbExplorer: blah 64003
 INFO WbExplorer: blah 64004
 INFO WbExplorer: blah 64005
 INFO WbExplorer: blah 64006
 INFO WbExplorer: blah 64007
 INFO WbExplorer: blah 64008
 INFO WbExplorer: blah 64009
 INFO WbExplorer: blah 64010
 INFO WbExplorer: blah 64011
 INFO WbExplorer: blah 64012
 INFO WbExplorer: blah 64013
 INFO WbExplorer: blah 64014
 INFO WbExplorer: blah 64015
 INFO WbExplorer: blah 64016
 INFO WbExplorer: blah 64017
 INFO WbExplorer: blah 64018
 INFO WbExplorer: blah 64019
 INFO WbExplorer: blah 64020
 INFO WbExplorer: blah 64021
 INFO WbExplorer: blah 64022
 INFO WbExplorer: blah 64023
 INFO WbExplorer: blah 64024
 INFO WbExplorer: blah 64025
 INFO WbExplorer: blah 64026
 INFO WbExplorer: blah 64027
 INFO WbExplorer: blah 64028
 INFO WbExplorer: blah 64029
 INFO WbExplorer: blah 64030
 INFO WbExplorer: blah 64031
 INFO WbExplorer: blah 64032
 INFO WbExplorer: blah 64033
 INFO WbExplorer: blah 64034
 INFO WbExplorer: blah 64035
 INFO WbExplorer: blah 64036
 INFO WbExplorer: blah 64037
 INFO WbExplorer: blah 64038
 INFO WbExplorer: blah 64039
 INFO WbExplorer: blah 64040
 INFO WbExplorer: blah 64041
 INFO WbExplorer: blah 64042
 INFO WbExplorer: blah 64043
 INFO WbExplorer: blah 64044
 INFO WbExplorer: blah 64045
 INFO WbExplorer: blah 64046
 INFO WbExplorer: blah 64047
 INFO WbExplorer: blah 64048
 INFO WbExplorer: blah 64049
 INFO WbExplorer: blah 64050
 INFO WbExplorer: blah 64051
 INFO WbExplorer: blah 64052
 INFO WbExplorer: blah 64053
 INFO WbExplorer: blah 64054
 INFO WbExplorer: blah 64055
 INFO WbExplorer: blah 64056
 INFO WbExplorer: blah 64057
 INFO WbExplorer: blah 64058
 INFO WbExplorer: blah 64059
 INFO WbExplorer: blah 64060
 INFO WbExplorer: blah 64061
 INFO WbExplorer: blah 64062
 INFO WbExplorer: blah 64063
 INFO WbExplorer: blah 64064
 INFO WbExplorer: blah 64065
 INFO WbExplorer: blah 64066
 INFO WbExplorer: blah 64067
 INFO WbExplorer: blah 64068
 INFO WbExplorer: blah 64069
 INFO WbExplorer: blah 64070
 INFO WbExplorer: blah 64071
 INFO WbExplorer: blah 64072
 INFO WbExplorer: blah 64073
 INFO WbExplorer: blah 64074
 INFO WbExplorer: blah 64075
 INFO WbExplorer: blah 64076
 INFO WbExplorer: blah 64077
 INFO WbExplorer: blah 64078
 INFO WbExplorer: blah 64079
 INFO WbExplorer: blah 64080
 INFO WbExplorer: blah 64081
 INFO WbExplorer: blah 64082
 INFO WbExplorer: blah 64083
 INFO WbExplorer: blah 64084
 INFO WbExplorer: blah 64085
 INFO WbExplorer: blah 64086
 INFO WbExplorer: blah 64087
 INFO WbExplorer: blah 64088
 INFO WbExplorer: blah 64089
 INFO WbExplorer: blah 64090
 INFO WbExplorer: blah 64091
 INFO WbExplorer: blah 64092
 INFO WbExplorer: blah 64093
 INFO WbExplorer: blah 64094
 INFO WbExplorer: blah 64095
 INFO WbExplorer: blah 64096
 INFO WbExplorer: blah 64097
 INFO WbExplorer: blah 64098
 INFO WbExplorer: blah 64099
 INFO WbExplorer: blah 64100
 INFO WbExplorer: blah 64101
 INFO WbExplorer: blah 64102
 INFO WbExplorer: blah 64103
 INFO WbExplorer: blah 64104
 INFO WbExplorer: blah 64105
 INFO WbExplorer: blah 64106
 INFO WbExplorer: blah 64107
 INFO WbExplorer: blah 64108
 INFO WbExplorer: blah 64109
 INFO WbExplorer: blah 64110
 INFO WbExplorer: blah 64111
 INFO WbExplorer: blah 64112
 INFO WbExplorer: blah 64113
 INFO WbExplorer: blah 64114
 INFO WbExplorer: blah 64115
 INFO WbExplorer: blah 64116
 INFO WbExplorer: blah 64117
 INFO WbExplorer: blah 64118
 INFO WbExplorer: blah 64119
 INFO WbExplorer: blah 64120
 INFO WbExplorer: blah 64121
 INFO WbExplorer: blah 64122
 INFO WbExplorer: blah 64123
 INFO WbExplorer: blah 64124
 INFO WbExplorer: blah 64125
 INFO WbExplorer: blah 64126
 INFO WbExplorer: blah 64127
 INFO WbExplorer: blah 64128
 INFO WbExplorer: blah 64129
 INFO WbExplorer: blah 64130
 INFO WbExplorer: blah 64131
 INFO WbExplorer: blah 64132
 INFO WbExplorer: blah 64133
 INFO WbExplorer: blah 64134
 INFO WbExplorer: blah 64135
 INFO WbExplorer: blah 64136
 INFO WbExplorer: blah 64137
 INFO WbExplorer: blah 64138
 INFO WbExplorer: blah 64139
 INFO WbExplorer: blah 64140
 INFO WbExplorer: blah 64141
 INFO WbExplorer: blah 64142
 INFO WbExplorer: blah 64143
 INFO WbExplorer: blah 64144
 INFO WbExplorer: blah 64145
 INFO WbExplorer: blah 64146
 INFO WbExplorer: blah 64147
 INFO WbExplorer: blah 64148
 INFO WbExplorer: blah 64149
 INFO WbExplorer: blah 64150
 INFO WbExplorer: blah 64151
 INFO WbExplorer: blah 64152
 INFO WbExplorer: blah 64153
 INFO WbExplorer: blah 64154
 INFO WbExplorer: blah 64155
 INFO WbExplorer: blah 64156
 INFO WbExplorer: blah 64157
 INFO WbExplorer: blah 64158
 INFO WbExplorer: blah 64159
 INFO WbExplorer: blah 64160
 INFO WbExplorer: blah 64161
 INFO WbExplorer: blah 64162
 INFO WbExplorer: blah 64163
 INFO WbExplorer: blah 64164
 INFO WbExplorer: blah 64165
 INFO WbExplorer: blah 64166
 INFO WbExplorer: blah 64167
 INFO WbExplorer: blah 64168
 INFO WbExplorer: blah 64169
 INFO WbExplorer: blah 64170
 INFO WbExplorer: blah 64171
 INFO WbExplorer: blah 64172
 INFO WbExplorer: blah 64173
 INFO WbExplorer: blah 64174
 INFO WbExplorer: blah 64175
 INFO WbExplorer: blah 64176
 INFO WbExplorer: blah 64177
 INFO WbExplorer: blah 64178
 INFO WbExplorer: blah 64179
 INFO WbExplorer: blah 64180
 INFO WbExplorer: blah 64181
 INFO WbExplorer: blah 64182
 INFO WbExplorer: blah 64183
 INFO WbExplorer: blah 64184
 INFO WbExplorer: blah 64185
 INFO WbExplorer: blah 64186
 INFO WbExplorer: blah 64187
 INFO WbExplorer: blah 64188
 INFO WbExplorer: blah 64189
 INFO WbExplorer: blah 64190
 INFO WbExplorer: blah 64191
 INFO WbExplorer: blah 64192
 INFO WbExplorer: blah 64193
 INFO WbExplorer: blah 64194
 INFO WbExplorer: blah 64195
 INFO WbExplorer: blah 64196
 INFO WbExplorer: blah 64197
 INFO WbExplorer: blah 64198
 INFO WbExplorer: blah 64199
 INFO WbExplorer: blah 64200
 INFO WbExplorer: blah 64201
 INFO WbExplorer: blah 64202
 INFO WbExplorer: blah 64203
 INFO WbExplorer: blah 64204
 INFO WbExplorer: blah 64205
 INFO WbExplorer: blah 64206
 INFO WbExplorer: blah 64207
 INFO WbExplorer: blah 64208
 INFO WbExplorer: blah 64209
 INFO WbExplorer: blah 64210
 INFO WbExplorer: blah 64211
 INFO WbExplorer: blah 64212
 INFO WbExplorer: blah 64213
 INFO WbExplorer: blah 64214
 INFO WbExplorer: blah 64215
 INFO WbExplorer: blah 64216
 INFO WbExplorer: blah 64217
 INFO WbExplorer: blah 64218
 INFO WbExplorer: blah 64219
 INFO WbExplorer: blah 64220
 INFO WbExplorer: blah 64221
 INFO WbExplorer: blah 64222
 INFO WbExplorer: blah 64223
 INFO WbExplorer: blah 64224
 INFO WbExplorer: blah 64225
 INFO WbExplorer: blah 64226
 INFO WbExplorer: blah 64227
 INFO WbExplorer: blah 64228
 INFO WbExplorer: blah 64229
 INFO WbExplorer: blah 64230
 INFO WbExplorer: blah 64231
 INFO WbExplorer: blah 64232
 INFO WbExplorer: blah 64233
 INFO WbExplorer: blah 64234
 INFO WbExplorer: blah 64235
 INFO WbExplorer: blah 64236
 INFO WbExplorer: blah 64237
 INFO WbExplorer: blah 64238
 INFO WbExplorer: blah 64239
 INFO WbExplorer: blah 64240
 INFO WbExplorer: blah 64241
 INFO WbExplorer: blah 64242
 INFO WbExplorer: blah 64243
 INFO WbExplorer: blah 64244
 INFO WbExplorer: blah 64245
 INFO WbExplorer: blah 64246
 INFO WbExplorer: blah 64247
 INFO WbExplorer: blah 64248
 INFO WbExplorer: blah 64249
 INFO WbExplorer: blah 64250
 INFO WbExplorer: blah 64251
 INFO WbExplorer: blah 64252
 INFO WbExplorer: blah 64253
 INFO WbExplorer: blah 64254
 INFO WbExplorer: blah 64255
 INFO WbExplorer: blah 64256
 INFO WbExplorer: blah 64257
 INFO WbExplorer: blah 64258
 INFO WbExplorer: blah 64259
 INFO WbExplorer: blah 64260
 INFO WbExplorer: blah 64261
 INFO WbExplorer: blah 64262
 INFO WbExplorer: blah 64263
 INFO WbExplorer: blah 64264
 INFO WbExplorer: blah 64265
 INFO WbExplorer: blah 64266
 INFO WbExplorer: blah 64267
 INFO WbExplorer: blah 64268
 INFO WbExplorer: blah 64269
 INFO WbExplorer: blah 64270
 INFO WbExplorer: blah 64271
 INFO WbExplorer: blah 64272
 INFO WbExplorer: blah 64273
 INFO WbExplorer: blah 64274
 INFO WbExplorer: blah 64275
 INFO WbExplorer: blah 64276
 INFO WbExplorer: blah 64277
 INFO WbExplorer: blah 64278
 INFO WbExplorer: blah 64279
 INFO WbExplorer: blah 64280
 INFO WbExplorer: blah 64281
 INFO WbExplorer: blah 64282
 INFO WbExplorer: blah 64283
 INFO WbExplorer: blah 64284
 INFO WbExplorer: blah 64285
 INFO WbExplorer: blah 64286
 INFO WbExplorer: blah 64287
 INFO WbExplorer: blah 64288
 INFO WbExplorer: blah 64289
 INFO WbExplorer: blah 64290
 INFO WbExplorer: blah 64291
 INFO WbExplorer: blah 64292
 INFO WbExplorer: blah 64293
 INFO WbExplorer: blah 64294
 INFO WbExplorer: blah 64295
 INFO WbExplorer: blah 64296
 INFO WbExplorer: blah 64297
 INFO WbExplorer: blah 64298
 INFO WbExplorer: blah 64299
 INFO WbExplorer: blah 64300
 INFO WbExplorer: blah 64301
 INFO WbExplorer: blah 64302
 INFO WbExplorer: blah 64303
 INFO WbExplorer: blah 64304
 INFO WbExplorer: blah 64305
 INFO WbExplorer: blah 64306
 INFO WbExplorer: blah 64307
 INFO WbExplorer: blah 64308
 INFO WbExplorer: blah 64309
 INFO WbExplorer: blah 64310
 INFO WbExplorer: blah 64311
 INFO WbExplorer: blah 64312
 INFO WbExplorer: blah 64313
 INFO WbExplorer: blah 64314
 INFO WbExplorer: blah 64315
 INFO WbExplorer: blah 64316
 INFO WbExplorer: blah 64317
 INFO WbExplorer: blah 64318
 INFO WbExplorer: blah 64319
 INFO WbExplorer: blah 64320
 INFO WbExplorer: blah 64321
 INFO WbExplorer: blah 64322
 INFO WbExplorer: blah 64323
 INFO WbExplorer: blah 64324
 INFO WbExplorer: blah 64325
 INFO WbExplorer: blah 64326
 INFO WbExplorer: blah 64327
 INFO WbExplorer: blah 64328
 INFO WbExplorer: blah 64329
 INFO WbExplorer: blah 64330
 INFO WbExplorer: blah 64331
 INFO WbExplorer: blah 64332
 INFO WbExplorer: blah 64333
 INFO WbExplorer: blah 64334
 INFO WbExplorer: blah 64335
 INFO WbExplorer: blah 64336
 INFO WbExplorer: blah 64337
 INFO WbExplorer: blah 64338
 INFO WbExplorer: blah 64339
 INFO WbExplorer: blah 64340
 INFO WbExplorer: blah 64341
 INFO WbExplorer: blah 64342
 INFO WbExplorer: blah 64343
 INFO WbExplorer: blah 64344
 INFO WbExplorer: blah 64345
 INFO WbExplorer: blah 64346
 INFO WbExplorer: blah 64347
 INFO WbExplorer: blah 64348
 INFO WbExplorer: blah 64349
 INFO WbExplorer: blah 64350
 INFO WbExplorer: blah 64351
 INFO WbExplorer: blah 64352
 INFO WbExplorer: blah 64353
 INFO WbExplorer: blah 64354
 INFO WbExplorer: blah 64355
 INFO WbExplorer: blah 64356
 INFO WbExplorer: blah 64357
 INFO WbExplorer: blah 64358
 INFO WbExplorer: blah 64359
 INFO WbExplorer: blah 64360
 INFO WbExplorer: blah 64361
 INFO WbExplorer: blah 64362
 INFO WbExplorer: blah 64363
 INFO WbExplorer: blah 64364
 INFO WbExplorer: blah 64365
 INFO WbExplorer: blah 64366
 INFO WbExplorer: blah 64367
 INFO WbExplorer: blah 64368
 INFO WbExplorer: blah 64369
 INFO WbExplorer: blah 64370
 INFO WbExplorer: blah 64371
 INFO WbExplorer: blah 64372
 INFO WbExplorer: blah 64373
 INFO WbExplorer: blah 64374
 INFO WbExplorer: blah 64375
 INFO WbExplorer: blah 64376
 INFO WbExplorer: blah 64377
 INFO WbExplorer: blah 64378
 INFO WbExplorer: blah 64379
 INFO WbExplorer: blah 64380
 INFO WbExplorer: blah 64381
 INFO WbExplorer: blah 64382
 INFO WbExplorer: blah 64383
 INFO WbExplorer: blah 64384
 INFO WbExplorer: blah 64385
 INFO WbExplorer: blah 64386
 INFO WbExplorer: blah 64387
 INFO WbExplorer: blah 64388
 INFO WbExplorer: blah 64389
 INFO WbExplorer: blah 64390
 INFO WbExplorer: blah 64391
 INFO WbExplorer: blah 64392
 INFO WbExplorer: blah 64393
 INFO WbExplorer: blah 64394
 INFO WbExplorer: blah 64395
 INFO WbExplorer: blah 64396
 INFO WbExplorer: blah 64397
 INFO WbExplorer: blah 64398
 INFO WbExplorer: blah 64399
 INFO WbExplorer: blah 64400
 INFO WbExplorer: blah 64401
 INFO WbExplorer: blah 64402
 INFO WbExplorer: blah 64403
 INFO WbExplorer: blah 64404
 INFO WbExplorer: blah 64405
 INFO WbExplorer: blah 64406
 INFO WbExplorer: blah 64407
 INFO WbExplorer: blah 64408
 INFO WbExplorer: blah 64409
 INFO WbExplorer: blah 64410
 INFO WbExplorer: blah 64411
 INFO WbExplorer: blah 64412
 INFO WbExplorer: blah 64413
 INFO WbExplorer: blah 64414
 INFO WbExplorer: blah 64415
 INFO WbExplorer: blah 64416
 INFO WbExplorer: blah 64417
 INFO WbExplorer: blah 64418
 INFO WbExplorer: blah 64419
 INFO WbExplorer: blah 64420
 INFO WbExplorer: blah 64421
 INFO WbExplorer: blah 64422
 INFO WbExplorer: blah 64423
 INFO WbExplorer: blah 64424
 INFO WbExplorer: blah 64425
 INFO WbExplorer: blah 64426
 INFO WbExplorer: blah 64427
 INFO WbExplorer: blah 64428
 INFO WbExplorer: blah 64429
 INFO WbExplorer: blah 64430
 INFO WbExplorer: blah 64431
 INFO WbExplorer: blah 64432
 INFO WbExplorer: blah 64433
 INFO WbExplorer: blah 64434
 INFO WbExplorer: blah 64435
 INFO WbExplorer: blah 64436
 INFO WbExplorer: blah 64437
 INFO WbExplorer: blah 64438
 INFO WbExplorer: blah 64439
 INFO WbExplorer: blah 64440
 INFO WbExplorer: blah 64441
 INFO WbExplorer: blah 64442
