 INFO WbExplorer: blah 12111
 INFO WbExplorer: blah 12112
 INFO WbExplorer: blah 12113
 INFO WbExplorer: blah 12114
 INFO WbExplorer: blah 12115
 INFO WbExplorer: blah 12116
 INFO WbExplorer: blah 12117
 INFO WbExplorer: blah 12118
 INFO WbExplorer: blah 12119
 INFO WbExplorer: blah 12120
 INFO WbExplorer: blah 12121
 INFO WbExplorer: blah 12122
 INFO WbExplorer: blah 12123
 INFO WbExplorer: blah 12124
 INFO WbExplorer: blah 12125
 INFO WbExplorer: blah 12126
 INFO WbExplorer: blah 12127
 INFO WbExplorer: blah 12128
 INFO WbExplorer: blah 12129
 INFO WbExplorer: blah 12130
 INFO WbExplorer: blah 12131
 INFO WbExplorer: blah 12132
 INFO WbExplorer: blah 12133
 INFO WbExplorer: blah 12134
 INFO WbExplorer: blah 12135
 INFO WbExplorer: blah 12136
 INFO WbExplorer: blah 12137
 INFO WbExplorer: blah 12138
 INFO WbExplorer: blah 12139
 INFO WbExplorer: blah 12140
 INFO WbExplorer: blah 12141
 INFO WbExplorer: blah 12142
 INFO WbExplorer: blah 12143
 INFO WbExplorer: blah 12144
 INFO WbExplorer: blah 12145
 INFO WbExplorer: blah 12146
 INFO WbExplorer: blah 12147
 INFO WbExplorer: blah 12148
 INFO WbExplorer: blah 12149
 INFO WbExplorer: blah 12150
 INFO WbExplorer: blah 12151
 INFO WbExplorer: blah 12152
 INFO WbExplorer: blah 12153
 INFO WbExplorer: blah 12154
 INFO WbExplorer: blah 12155
 INFO WbExplorer: blah 12156
 INFO WbExplorer: blah 12157
 INFO WbExplorer: blah 12158
 INFO WbExplorer: blah 12159
 INFO WbExplorer: blah 12160
 INFO WbExplorer: blah 12161
 INFO WbExplorer: blah 12162
 INFO WbExplorer: blah 12163
 INFO WbExplorer: blah 12164
 INFO WbExplorer: blah 12165
 INFO WbExplorer: blah 12166
 INFO WbExplorer: blah 12167
 INFO WbExplorer: blah 12168
 INFO WbExplorer: blah 12169
 INFO WbExplorer: blah 12170
 INFO WbExplorer: blah 12171
 INFO WbExplorer: blah 12172
 INFO WbExplorer: blah 12173
 INFO WbExplorer: blah 12174
 INFO WbExplorer: blah 12175
 INFO WbExplorer: blah 12176
 INFO WbExplorer: blah 12177
 INFO WbExplorer: blah 12178
 INFO WbExplorer: blah 12179
 INFO WbExplorer: blah 12180
 INFO WbExplorer: blah 12181
 INFO WbExplorer: blah 12182
 INFO WbExplorer: blah 12183
 INFO WbExplorer: blah 12184
 INFO WbExplorer: blah 12185
 INFO WbExplorer: blah 12186
 INFO WbExplorer: blah 12187
 INFO WbExplorer: blah 12188
 INFO WbExplorer: blah 12189
 INFO WbExplorer: blah 12190
 INFO WbExplorer: blah 12191
 INFO WbExplorer: blah 12192
 INFO WbExplorer: blah 12193
 INFO WbExplorer: blah 12194
 INFO WbExplorer: blah 12195
 INFO WbExplorer: blah 12196
 INFO WbExplorer: blah 12197
 INFO WbExplorer: blah 12198
 INFO WbExplorer: blah 12199
 INFO WbExplorer: blah 12200
 INFO WbExplorer: blah 12201
 INFO WbExplorer: blah 12202
 INFO WbExplorer: blah 12203
 INFO WbExplorer: blah 12204
 INFO WbExplorer: blah 12205
 INFO WbExplorer: blah 12206
 INFO WbExplorer: blah 12207
 INFO WbExplorer: blah 12208
 INFO WbExplorer: blah 12209
 INFO WbExplorer: blah 12210
 INFO WbExplorer: blah 12211
 INFO WbExplorer: blah 12212
 INFO WbExplorer: blah 12213
 INFO WbExplorer: blah 12214
 INFO WbExplorer: blah 12215
 INFO WbExplorer: blah 12216
 INFO WbExplorer: blah 12217
 INFO WbExplorer: blah 12218
 INFO WbExplorer: blah 12219
 INFO WbExplorer: blah 12220
 INFO WbExplorer: blah 12221
 INFO WbExplorer: blah 12222
 INFO WbExplorer: blah 12223
 INFO WbExplorer: blah 12224
 INFO WbExplorer: blah 12225
 INFO WbExplorer: blah 12226
 INFO WbExplorer: blah 12227
 INFO WbExplorer: blah 12228
 INFO WbExplorer: blah 12229
 INFO WbExplorer: blah 12230
 INFO WbExplorer: blah 12231
 INFO WbExplorer: blah 12232
 INFO WbExplorer: blah 12233
 INFO WbExplorer: blah 12234
 INFO WbExplorer: blah 12235
 INFO WbExplorer: blah 12236
 INFO WbExplorer: blah 12237
 INFO WbExplorer: blah 12238
 INFO WbExplorer: blah 12239
 INFO WbExplorer: blah 12240
 INFO WbExplorer: blah 12241
 INFO WbExplorer: blah 12242
 INFO WbExplorer: blah 12243
 INFO WbExplorer: blah 12244
 INFO WbExplorer: blah 12245
 INFO WbExplorer: blah 12246
 INFO WbExplorer: blah 12247
 INFO WbExplorer: blah 12248
 INFO WbExplorer: blah 12249
 INFO WbExplorer: blah 12250
 INFO WbExplorer: blah 12251
 INFO WbExplorer: blah 12252
 INFO WbExplorer: blah 12253
 INFO WbExplorer: blah 12254
 INFO WbExplorer: blah 12255
 INFO WbExplorer: blah 12256
 INFO WbExplorer: blah 12257
 INFO WbExplorer: blah 12258
 INFO WbExplorer: blah 12259
 INFO WbExplorer: blah 12260
 INFO WbExplorer: blah 12261
 INFO WbExplorer: blah 12262
 INFO WbExplorer: blah 12263
 INFO WbExplorer: blah 12264
 INFO WbExplorer: blah 12265
 INFO WbExplorer: blah 12266
 INFO WbExplorer: blah 12267
 INFO WbExplorer: blah 12268
 INFO WbExplorer: blah 12269
 INFO WbExplorer: blah 12270
 INFO WbExplorer: blah 12271
 INFO WbExplorer: blah 12272
 INFO WbExplorer: blah 12273
 INFO WbExplorer: blah 12274
 INFO WbExplorer: blah 12275
 INFO WbExplorer: blah 12276
 INFO WbExplorer: blah 12277
 INFO WbExplorer: blah 12278
 INFO WbExplorer: blah 12279
 INFO WbExplorer: blah 12280
 INFO WbExplorer: blah 12281
 INFO WbExplorer: blah 12282
 INFO WbExplorer: blah 12283
 INFO WbExplorer: blah 12284
 INFO WbExplorer: blah 12285
 INFO WbExplorer: blah 12286
 INFO WbExplorer: blah 12287
 INFO WbExplorer: blah 12288
 INFO WbExplorer: blah 12289
 INFO WbExplorer: blah 12290
 INFO WbExplorer: blah 12291
 INFO WbExplorer: blah 12292
 INFO WbExplorer: blah 12293
 INFO WbExplorer: blah 12294
 INFO WbExplorer: blah 12295
 INFO WbExplorer: blah 12296
 INFO WbExplorer: blah 12297
 INFO WbExplorer: blah 12298
 INFO WbExplorer: blah 12299
 INFO WbExplorer: blah 12300
 INFO WbExplorer: blah 12301
 INFO WbExplorer: blah 12302
 INFO WbExplorer: blah 12303
 INFO WbExplorer: blah 12304
 INFO WbExplorer: blah 12305
 INFO WbExplorer: blah 12306
 INFO WbExplorer: blah 12307
 INFO WbExplorer: blah 12308
 INFO WbExplorer: blah 12309
 INFO WbExplorer: blah 12310
 INFO WbExplorer: blah 12311
 INFO WbExplorer: blah 12312
 INFO WbExplorer: blah 12313
 INFO WbExplorer: blah 12314
 INFO WbExplorer: blah 12315
 INFO WbExplorer: blah 12316
 INFO WbExplorer: blah 12317
 INFO WbExplorer: blah 12318
 INFO WbExplorer: blah 12319
 INFO WbExplorer: blah 12320
 INFO WbExplorer: blah 12321
 INFO WbExplorer: blah 12322
 INFO WbExplorer: blah 12323
 INFO WbExplorer: blah 12324
 INFO WbExplorer: blah 12325
 INFO WbExplorer: blah 12326
 INFO WbExplorer: blah 12327
 INFO WbExplorer: blah 12328
 INFO WbExplorer: blah 12329
 INFO WbExplorer: blah 12330
 INFO WbExplorer: blah 12331
 INFO WbExplorer: blah 12332
 INFO WbExplorer: blah 12333
 INFO WbExplorer: blah 12334
 INFO WbExplorer: blah 12335
 INFO WbExplorer: blah 12336
 INFO WbExplorer: blah 12337
 INFO WbExplorer: blah 12338
 INFO WbExplorer: blah 12339
 INFO WbExplorer: blah 12340
 INFO WbExplorer: blah 12341
 INFO WbExplorer: blah 12342
 INFO WbExplorer: blah 12343
 INFO WbExplorer: blah 12344
 INFO WbExplorer: blah 12345
 INFO WbExplorer: blah 12346
 INFO WbExplorer: blah 12347
 INFO WbExplorer: blah 12348
 INFO WbExplorer: blah 12349
 INFO WbExplorer: blah 12350
 INFO WbExplorer: blah 12351
 INFO WbExplorer: blah 12352
 INFO WbExplorer: blah 12353
 INFO WbExplorer: blah 12354
 INFO WbExplorer: blah 12355
 INFO WbExplorer: blah 12356
 INFO WbExplorer: blah 12357
 INFO WbExplorer: blah 12358
 INFO WbExplorer: blah 12359
 INFO WbExplorer: blah 12360
 INFO WbExplorer: blah 12361
 INFO WbExplorer: blah 12362
 INFO WbExplorer: blah 12363
 INFO WbExplorer: blah 12364
 INFO WbExplorer: blah 12365
 INFO WbExplorer: blah 12366
 INFO WbExplorer: blah 12367
 INFO WbExplorer: blah 12368
 INFO WbExplorer: blah 12369
 INFO WbExplorer: blah 12370
 INFO WbExplorer: blah 12371
 INFO WbExplorer: blah 12372
 INFO WbExplorer: blah 12373
 INFO WbExplorer: blah 12374
 INFO WbExplorer: blah 12375
 INFO WbExplorer: blah 12376
 INFO WbExplorer: blah 12377
 INFO WbExplorer: blah 12378
 INFO WbExplorer: blah 12379
 INFO WbExplorer: blah 12380
 INFO WbExplorer: blah 12381
 INFO WbExplorer: blah 12382
 INFO WbExplorer: blah 12383
 INFO WbExplorer: blah 12384
 INFO WbExplorer: blah 12385
 INFO WbExplorer: blah 12386
 INFO WbExplorer: blah 12387
 INFO WbExplorer: blah 12388
 INFO WbExplorer: blah 12389
 INFO WbExplorer: blah 12390
 INFO WbExplorer: blah 12391
 INFO WbExplorer: blah 12392
 INFO WbExplorer: blah 12393
 INFO WbExplorer: blah 12394
 INFO WbExplorer: blah 12395
 INFO WbExplorer: blah 12396
 INFO WbExplorer: blah 12397
 INFO WbExplorer: blah 12398
 INFO WbExplorer: blah 12399
 INFO WbExplorer: blah 12400
 INFO WbExplorer: blah 12401
 INFO WbExplorer: blah 12402
 INFO WbExplorer: blah 12403
 INFO WbExplorer: blah 12404
 INFO WbExplorer: blah 12405
 INFO WbExplorer: blah 12406
 INFO WbExplorer: blah 12407
 INFO WbExplorer: blah 12408
 INFO WbExplorer: blah 12409
 INFO WbExplorer: blah 12410
 INFO WbExplorer: blah 12411
 INFO WbExplorer: blah 12412
 INFO WbExplorer: blah 12413
 INFO WbExplorer: blah 12414
 INFO WbExplorer: blah 12415
 INFO WbExplorer: blah 12416
 INFO WbExplorer: blah 12417
 INFO WbExplorer: blah 12418
 INFO WbExplorer: blah 12419
 INFO WbExplorer: blah 12420
 INFO WbExplorer: blah 12421
 INFO WbExplorer: blah 12422
 INFO WbExplorer: blah 12423
 INFO WbExplorer: blah 12424
 INFO WbExplorer: blah 12425
 INFO WbExplorer: blah 12426
 INFO WbExplorer: blah 12427
 INFO WbExplorer: blah 12428
 INFO WbExplorer: blah 12429
 INFO WbExplorer: blah 12430
 INFO WbExplorer: blah 12431
 INFO WbExplorer: blah 12432
 INFO WbExplorer: blah 12433
 INFO WbExplorer: blah 12434
 INFO WbExplorer: blah 12435
 INFO WbExplorer: blah 12436
 INFO WbExplorer: blah 12437
 INFO WbExplorer: blah 12438
 INFO WbExplorer: blah 12439
 INFO WbExplorer: blah 12440
 INFO WbExplorer: blah 12441
 INFO WbExplorer: blah 12442
 INFO WbExplorer: blah 12443
 INFO WbExplorer: blah 12444
 INFO WbExplorer: blah 12445
 INFO WbExplorer: blah 12446
 INFO WbExplorer: blah 12447
 INFO WbExplorer: blah 12448
 INFO WbExplorer: blah 12449
 INFO WbExplorer: blah 12450
 INFO WbExplorer: blah 12451
 INFO WbExplorer: blah 12452
 INFO WbExplorer: blah 12453
 INFO WbExplorer: blah 12454
 INFO WbExplorer: blah 12455
 INFO WbExplorer: blah 12456
 INFO WbExplorer: blah 12457
 INFO WbExplorer: blah 12458
 INFO WbExplorer: blah 12459
 INFO WbExplorer: blah 12460
 INFO WbExplorer: blah 12461
 INFO WbExplorer: blah 12462
 INFO WbExplorer: blah 12463
 INFO WbExplorer: blah 12464
 INFO WbExplorer: blah 12465
 INFO WbExplorer: blah 12466
 INFO WbExplorer: blah 12467
 INFO WbExplorer: blah 12468
 INFO WbExplorer: blah 12469
 INFO WbExplorer: blah 12470
 INFO WbExplorer: blah 12471
 INFO WbExplorer: blah 12472
 INFO WbExplorer: blah 12473
 INFO WbExplorer: blah 12474
 INFO WbExplorer: blah 12475
 INFO WbExplorer: blah 12476
 INFO WbExplorer: blah 12477
 INFO WbExplorer: blah 12478
 INFO WbExplorer: blah 12479
 INFO WbExplorer: blah 12480
 INFO WbExplorer: blah 12481
 INFO WbExplorer: blah 12482
 INFO WbExplorer: blah 12483
 INFO WbExplorer: blah 12484
 INFO WbExplorer: blah 12485
 INFO WbExplorer: blah 12486
 INFO WbExplorer: blah 12487
 INFO WbExplorer: blah 12488
 INFO WbExplorer: blah 12489
 INFO WbExplorer: blah 12490
 INFO WbExplorer: blah 12491
 INFO WbExplorer: blah 12492
 INFO WbExplorer: blah 12493
 INFO WbExplorer: blah 12494
 INFO WbExplorer: blah 12495
 INFO WbExplorer: blah 12496
 INFO WbExplorer: blah 12497
 INFO WbExplorer: blah 12498
 INFO WbExplorer: blah 12499
 INFO WbExplorer: blah 12500
 INFO WbExplorer: blah 12501
 INFO WbExplorer: blah 12502
 INFO WbExplorer: blah 12503
 INFO WbExplorer: blah 12504
 INFO WbExplorer: blah 12505
 INFO WbExplorer: blah 12506
 INFO WbExplorer: blah 12507
 INFO WbExplorer: blah 12508
 INFO WbExplorer: blah 12509
 INFO WbExplorer: blah 12510
 INFO WbExplorer: blah 12511
 INFO WbExplorer: blah 12512
 INFO WbExplorer: blah 12513
 INFO WbExplorer: blah 12514
 INFO WbExplorer: blah 12515
 INFO WbExplorer: blah 12516
 INFO WbExplorer: blah 12517
 INFO WbExplorer: blah 12518
 INFO WbExplorer: blah 12519
 INFO WbExplorer: blah 12520
 INFO WbExplorer: blah 12521
 INFO WbExplorer: blah 12522
 INFO WbExplorer: blah 12523
 INFO WbExplorer: blah 12524
 INFO WbExplorer: blah 12525
 INFO WbExplorer: blah 12526
 INFO WbExplorer: blah 12527
 INFO WbExplorer: blah 12528
 INFO WbExplorer: blah 12529
 INFO WbExplorer: blah 12530
 INFO WbExplorer: blah 12531
 INFO WbExplorer: blah 12532
 INFO WbExplorer: blah 12533
 INFO WbExplorer: blah 12534
 INFO WbExplorer: blah 12535
 INFO WbExplorer: blah 12536
 INFO WbExplorer: blah 12537
 INFO WbExplorer: blah 12538
 INFO WbExplorer: blah 12539
 INFO WbExplorer: blah 12540
 INFO WbExplorer: blah 12541
 INFO WbExplorer: blah 12542
 INFO WbExplorer: blah 12543
 INFO WbExplorer: blah 12544
 INFO WbExplorer: blah 12545
 INFO WbExplorer: blah 12546
 INFO WbExplorer: blah 12547
 INFO WbExplorer: blah 12548
 INFO WbExplorer: blah 12549
 INFO WbExplorer: blah 12550
 INFO WbExplorer: blah 12551
 INFO WbExplorer: blah 12552
 INFO WbExplorer: blah 12553
 INFO WbExplorer: blah 12554
 INFO WbExplorer: blah 12555
 INFO WbExplorer: blah 12556
 INFO WbExplorer: blah 12557
 INFO WbExplorer: blah 12558
 INFO WbExplorer: blah 12559
 INFO WbExplorer: blah 12560
 INFO WbExplorer: blah 12561
 INFO WbExplorer: blah 12562
 INFO WbExplorer: blah 12563
 INFO WbExplorer: blah 12564
 INFO WbExplorer: blah 12565
 INFO WbExplorer: blah 12566
 INFO WbExplorer: blah 12567
 INFO WbExplorer: blah 12568
 INFO WbExplorer: blah 12569
 INFO WbExplorer: blah 12570
 INFO WbExplorer: blah 12571
 INFO WbExplorer: blah 12572
 INFO WbExplorer: blah 12573
 INFO WbExplorer: blah 12574
 INFO WbExplorer: blah 12575
 INFO WbExplorer: blah 12576
 INFO WbExplorer: blah 12577
 INFO WbExplorer: blah 12578
 INFO WbExplorer: blah 12579
 INFO WbExplorer: blah 12580
 INFO WbExplorer: blah 12581
 INFO WbExplorer: blah 12582
 INFO WbExplorer: blah 12583
 INFO WbExplorer: blah 12584
 INFO WbExplorer: blah 12585
 INFO WbExplorer: blah 12586
 INFO WbExplorer: blah 12587
 INFO WbExplorer: blah 12588
 INFO WbExplorer: blah 12589
 INFO WbExplorer: blah 12590
 INFO WbExplorer: blah 12591
 INFO WbExplorer: blah 12592
 INFO WbExplorer: blah 12593
 INFO WbExplorer: blah 12594
 INFO WbExplorer: blah 12595
 INFO WbExplorer: blah 12596
 INFO WbExplorer: blah 12597
 INFO WbExplorer: blah 12598
 INFO WbExplorer: blah 12599
 INFO WbExplorer: blah 12600
 INFO WbExplorer: blah 12601
 INFO WbExplorer: blah 12602
 INFO WbExplorer: blah 12603
 INFO WbExplorer: blah 12604
 INFO WbExplorer: blah 12605
 INFO WbExplorer: blah 12606
 INFO WbExplorer: blah 12607
 INFO WbExplorer: blah 12608
 INFO WbExplorer: blah 12609
 INFO WbExplorer: blah 12610
 INFO WbExplorer: blah 12611
 INFO WbExplorer: blah 12612
 INFO WbExplorer: blah 12613
 INFO WbExplorer: blah 12614
 INFO WbExplorer: blah 12615
 INFO WbExplorer: blah 12616
 INFO WbExplorer: blah 12617
 INFO WbExplorer: blah 12618
 INFO WbExplorer: blah 12619
 INFO WbExplorer: blah 12620
 INFO WbExplorer: blah 12621
 INFO WbExplorer: blah 12622
 INFO WbExplorer: blah 12623
 INFO WbExplorer: blah 12624
 INFO WbExplorer: blah 12625
 INFO WbExplorer: blah 12626
 INFO WbExplorer: blah 12627
 INFO WbExplorer: blah 12628
 INFO WbExplorer: blah 12629
 INFO WbExplorer: blah 12630
 INFO WbExplorer: blah 12631
 INFO WbExplorer: blah 12632
 INFO WbExplorer: blah 12633
 INFO WbExplorer: blah 12634
 INFO WbExplorer: blah 12635
 INFO WbExplorer: blah 12636
 INFO WbExplorer: blah 12637
 INFO WbExplorer: blah 12638
 INFO WbExplorer: blah 12639
 INFO WbExplorer: blah 12640
 INFO WbExplorer: blah 12641
 INFO WbExplorer: blah 12642
 INFO WbExplorer: blah 12643
 INFO WbExplorer: blah 12644
