 INFO WbExplorer: blah 32403
 INFO WbExplorer: blah 32404
 INFO WbExplorer: blah 32405
 INFO WbExplorer: blah 32406
 INFO WbExplorer: blah 32407
 INFO WbExplorer: blah 32408
 INFO WbExplorer: blah 32409
 INFO WbExplorer: blah 32410
 INFO WbExplorer: blah 32411
 INFO WbExplorer: blah 32412
 INFO WbExplorer: blah 32413
 INFO WbExplorer: blah 32414
 INFO WbExplorer: blah 32415
 INFO WbExplorer: blah 32416
 INFO WbExplorer: blah 32417
 INFO WbExplorer: blah 32418
 INFO WbExplorer: blah 32419
 INFO WbExplorer: blah 32420
 INFO WbExplorer: blah 32421
 INFO WbExplorer: blah 32422
 INFO WbExplorer: blah 32423
 INFO WbExplorer: blah 32424
 INFO WbExplorer: blah 32425
 INFO WbExplorer: blah 32426
 INFO WbExplorer: blah 32427
 INFO WbExplorer: blah 32428
 INFO WbExplorer: blah 32429
 INFO WbExplorer: blah 32430
 INFO WbExplorer: blah 32431
 INFO WbExplorer: blah 32432
 INFO WbExplorer: blah 32433
 INFO WbExplorer: blah 32434
 INFO WbExplorer: blah 32435
 INFO WbExplorer: blah 32436
 INFO WbExplorer: blah 32437
 INFO WbExplorer: blah 32438
 INFO WbExplorer: blah 32439
 INFO WbExplorer: blah 32440
 INFO WbExplorer: blah 32441
 INFO WbExplorer: blah 32442
 INFO WbExplorer: blah 32443
 INFO WbExplorer: blah 32444
 INFO WbExplorer: blah 32445
 INFO WbExplorer: blah 32446
 INFO WbExplorer: blah 32447
 INFO WbExplorer: blah 32448
 INFO WbExplorer: blah 32449
 INFO WbExplorer: blah 32450
 INFO WbExplorer: blah 32451
 INFO WbExplorer: blah 32452
 INFO WbExplorer: blah 32453
 INFO WbExplorer: blah 32454
 INFO WbExplorer: blah 32455
 INFO WbExplorer: blah 32456
 INFO WbExplorer: blah 32457
 INFO WbExplorer: blah 32458
 INFO WbExplorer: blah 32459
 INFO WbExplorer: blah 32460
 INFO WbExplorer: blah 32461
 INFO WbExplorer: blah 32462
 INFO WbExplorer: blah 32463
 INFO WbExplorer: blah 32464
 INFO WbExplorer: blah 32465
 INFO WbExplorer: blah 32466
 INFO WbExplorer: blah 32467
 INFO WbExplorer: blah 32468
 INFO WbExplorer: blah 32469
 INFO WbExplorer: blah 32470
 INFO WbExplorer: blah 32471
 INFO WbExplorer: blah 32472
 INFO WbExplorer: blah 32473
 INFO WbExplorer: blah 32474
 INFO WbExplorer: blah 32475
 INFO WbExplorer: blah 32476
 INFO WbExplorer: blah 32477
 INFO WbExplorer: blah 32478
 INFO WbExplorer: blah 32479
 INFO WbExplorer: blah 32480
 INFO WbExplorer: blah 32481
 INFO WbExplorer: blah 32482
 INFO WbExplorer: blah 32483
 INFO WbExplorer: blah 32484
 INFO WbExplorer: blah 32485
 INFO WbExplorer: blah 32486
 INFO WbExplorer: blah 32487
 INFO WbExplorer: blah 32488
 INFO WbExplorer: blah 32489
 INFO WbExplorer: blah 32490
 INFO WbExplorer: blah 32491
 INFO WbExplorer: blah 32492
 INFO WbExplorer: blah 32493
 INFO WbExplorer: blah 32494
 INFO WbExplorer: blah 32495
 INFO WbExplorer: blah 32496
 INFO WbExplorer: blah 32497
 INFO WbExplorer: blah 32498
 INFO WbExplorer: blah 32499
 INFO WbExplorer: blah 32500
 INFO WbExplorer: blah 32501
 INFO WbExplorer: blah 32502
 INFO WbExplorer: blah 32503
 INFO WbExplorer: blah 32504
 INFO WbExplorer: blah 32505
 INFO WbExplorer: blah 32506
 INFO WbExplorer: blah 32507
 INFO WbExplorer: blah 32508
 INFO WbExplorer: blah 32509
 INFO WbExplorer: blah 32510
 INFO WbExplorer: blah 32511
 INFO WbExplorer: blah 32512
 INFO WbExplorer: blah 32513
 INFO WbExplorer: blah 32514
 INFO WbExplorer: blah 32515
 INFO WbExplorer: blah 32516
 INFO WbExplorer: blah 32517
 INFO WbExplorer: blah 32518
 INFO WbExplorer: blah 32519
 INFO WbExplorer: blah 32520
 INFO WbExplorer: blah 32521
 INFO WbExplorer: blah 32522
 INFO WbExplorer: blah 32523
 INFO WbExplorer: blah 32524
 INFO WbExplorer: blah 32525
 INFO WbExplorer: blah 32526
 INFO WbExplorer: blah 32527
 INFO WbExplorer: blah 32528
 INFO WbExplorer: blah 32529
 INFO WbExplorer: blah 32530
 INFO WbExplorer: blah 32531
 INFO WbExplorer: blah 32532
 INFO WbExplorer: blah 32533
 INFO WbExplorer: blah 32534
 INFO WbExplorer: blah 32535
 INFO WbExplorer: blah 32536
 INFO WbExplorer: blah 32537
 INFO WbExplorer: blah 32538
 INFO WbExplorer: blah 32539
 INFO WbExplorer: blah 32540
 INFO WbExplorer: blah 32541
 INFO WbExplorer: blah 32542
 INFO WbExplorer: blah 32543
 INFO WbExplorer: blah 32544
 INFO WbExplorer: blah 32545
 INFO WbExplorer: blah 32546
 INFO WbExplorer: blah 32547
 INFO WbExplorer: blah 32548
 INFO WbExplorer: blah 32549
 INFO WbExplorer: blah 32550
 INFO WbExplorer: blah 32551
 INFO WbExplorer: blah 32552
 INFO WbExplorer: blah 32553
 INFO WbExplorer: blah 32554
 INFO WbExplorer: blah 32555
 INFO WbExplorer: blah 32556
 INFO WbExplorer: blah 32557
 INFO WbExplorer: blah 32558
 INFO WbExplorer: blah 32559
 INFO WbExplorer: blah 32560
 INFO WbExplorer: blah 32561
 INFO WbExplorer: blah 32562
 INFO WbExplorer: blah 32563
 INFO WbExplorer: blah 32564
 INFO WbExplorer: blah 32565
 INFO WbExplorer: blah 32566
 INFO WbExplorer: blah 32567
 INFO WbExplorer: blah 32568
 INFO WbExplorer: blah 32569
 INFO WbExplorer: blah 32570
 INFO WbExplorer: blah 32571
 INFO WbExplorer: blah 32572
 INFO WbExplorer: blah 32573
 INFO WbExplorer: blah 32574
 INFO WbExplorer: blah 32575
 INFO WbExplorer: blah 32576
 INFO WbExplorer: blah 32577
 INFO WbExplorer: blah 32578
 INFO WbExplorer: blah 32579
 INFO WbExplorer: blah 32580
 INFO WbExplorer: blah 32581
 INFO WbExplorer: blah 32582
 INFO WbExplorer: blah 32583
 INFO WbExplorer: blah 32584
 INFO WbExplorer: blah 32585
 INFO WbExplorer: blah 32586
 INFO WbExplorer: blah 32587
 INFO WbExplorer: blah 32588
 INFO WbExplorer: blah 32589
 INFO WbExplorer: blah 32590
 INFO WbExplorer: blah 32591
 INFO WbExplorer: blah 32592
 INFO WbExplorer: blah 32593
 INFO WbExplorer: blah 32594
 INFO WbExplorer: blah 32595
 INFO WbExplorer: blah 32596
 INFO WbExplorer: blah 32597
 INFO WbExplorer: blah 32598
 INFO WbExplorer: blah 32599
 INFO WbExplorer: blah 32600
 INFO WbExplorer: blah 32601
 INFO WbExplorer: blah 32602
 INFO WbExplorer: blah 32603
 INFO WbExplorer: blah 32604
 INFO WbExplorer: blah 32605
 INFO WbExplorer: blah 32606
 INFO WbExplorer: blah 32607
 INFO WbExplorer: blah 32608
 INFO WbExplorer: blah 32609
 INFO WbExplorer: blah 32610
 INFO WbExplorer: blah 32611
 INFO WbExplorer: blah 32612
 INFO WbExplorer: blah 32613
 INFO WbExplorer: blah 32614
 INFO WbExplorer: blah 32615
 INFO WbExplorer: blah 32616
 INFO WbExplorer: blah 32617
 INFO WbExplorer: blah 32618
 INFO WbExplorer: blah 32619
 INFO WbExplorer: blah 32620
 INFO WbExplorer: blah 32621
 INFO WbExplorer: blah 32622
 INFO WbExplorer: blah 32623
 INFO WbExplorer: blah 32624
 INFO WbExplorer: blah 32625
 INFO WbExplorer: blah 32626
 INFO WbExplorer: blah 32627
 INFO WbExplorer: blah 32628
 INFO WbExplorer: blah 32629
 INFO WbExplorer: blah 32630
 INFO WbExplorer: blah 32631
 INFO WbExplorer: blah 32632
 INFO WbExplorer: blah 32633
 INFO WbExplorer: blah 32634
 INFO WbExplorer: blah 32635
 INFO WbExplorer: blah 32636
 INFO WbExplorer: blah 32637
 INFO WbExplorer: blah 32638
 INFO WbExplorer: blah 32639
 INFO WbExplorer: blah 32640
 INFO WbExplorer: blah 32641
 INFO WbExplorer: blah 32642
 INFO WbExplorer: blah 32643
 INFO WbExplorer: blah 32644
 INFO WbExplorer: blah 32645
 INFO WbExplorer: blah 32646
 INFO WbExplorer: blah 32647
 INFO WbExplorer: blah 32648
 INFO WbExplorer: blah 32649
 INFO WbExplorer: blah 32650
 INFO WbExplorer: blah 32651
 INFO WbExplorer: blah 32652
 INFO WbExplorer: blah 32653
 INFO WbExplorer: blah 32654
 INFO WbExplorer: blah 32655
 INFO WbExplorer: blah 32656
 INFO WbExplorer: blah 32657
 INFO WbExplorer: blah 32658
 INFO WbExplorer: blah 32659
 INFO WbExplorer: blah 32660
 INFO WbExplorer: blah 32661
 INFO WbExplorer: blah 32662
 INFO WbExplorer: blah 32663
 INFO WbExplorer: blah 32664
 INFO WbExplorer: blah 32665
 INFO WbExplorer: blah 32666
 INFO WbExplorer: blah 32667
 INFO WbExplorer: blah 32668
 INFO WbExplorer: blah 32669
 INFO WbExplorer: blah 32670
 INFO WbExplorer: blah 32671
 INFO WbExplorer: blah 32672
 INFO WbExplorer: blah 32673
 INFO WbExplorer: blah 32674
 INFO WbExplorer: blah 32675
 INFO WbExplorer: blah 32676
 INFO WbExplorer: blah 32677
 INFO WbExplorer: blah 32678
 INFO WbExplorer: blah 32679
 INFO WbExplorer: blah 32680
 INFO WbExplorer: blah 32681
 INFO WbExplorer: blah 32682
 INFO WbExplorer: blah 32683
 INFO WbExplorer: blah 32684
 INFO WbExplorer: blah 32685
 INFO WbExplorer: blah 32686
 INFO WbExplorer: blah 32687
 INFO WbExplorer: blah 32688
 INFO WbExplorer: blah 32689
 INFO WbExplorer: blah 32690
 INFO WbExplorer: blah 32691
 INFO WbExplorer: blah 32692
 INFO WbExplorer: blah 32693
 INFO WbExplorer: blah 32694
 INFO WbExplorer: blah 32695
 INFO WbExplorer: blah 32696
 INFO WbExplorer: blah 32697
 INFO WbExplorer: blah 32698
 INFO WbExplorer: blah 32699
 INFO WbExplorer: blah 32700
 INFO WbExplorer: blah 32701
 INFO WbExplorer: blah 32702
 INFO WbExplorer: blah 32703
 INFO WbExplorer: blah 32704
 INFO WbExplorer: blah 32705
 INFO WbExplorer: blah 32706
 INFO WbExplorer: blah 32707
 INFO WbExplorer: blah 32708
 INFO WbExplorer: blah 32709
 INFO WbExplorer: blah 32710
 INFO WbExplorer: blah 32711
 INFO WbExplorer: blah 32712
 INFO WbExplorer: blah 32713
 INFO WbExplorer: blah 32714
 INFO WbExplorer: blah 32715
 INFO WbExplorer: blah 32716
 INFO WbExplorer: blah 32717
 INFO WbExplorer: blah 32718
 INFO WbExplorer: blah 32719
 INFO WbExplorer: blah 32720
 INFO WbExplorer: blah 32721
 INFO WbExplorer: blah 32722
 INFO WbExplorer: blah 32723
 INFO WbExplorer: blah 32724
 INFO WbExplorer: blah 32725
 INFO WbExplorer: blah 32726
 INFO WbExplorer: blah 32727
 INFO WbExplorer: blah 32728
 INFO WbExplorer: blah 32729
 INFO WbExplorer: blah 32730
 INFO WbExplorer: blah 32731
 INFO WbExplorer: blah 32732
 INFO WbExplorer: blah 32733
 INFO WbExplorer: blah 32734
 INFO WbExplorer: blah 32735
 INFO WbExplorer: blah 32736
 INFO WbExplorer: blah 32737
 INFO WbExplorer: blah 32738
 INFO WbExplorer: blah 32739
 INFO WbExplorer: blah 32740
 INFO WbExplorer: blah 32741
 INFO WbExplorer: blah 32742
 INFO WbExplorer: blah 32743
 INFO WbExplorer: blah 32744
 INFO WbExplorer: blah 32745
 INFO WbExplorer: blah 32746
 INFO WbExplorer: blah 32747
 INFO WbExplorer: blah 32748
 INFO WbExplorer: blah 32749
 INFO WbExplorer: blah 32750
 INFO WbExplorer: blah 32751
 INFO WbExplorer: blah 32752
 INFO WbExplorer: blah 32753
 INFO WbExplorer: blah 32754
 INFO WbExplorer: blah 32755
 INFO WbExplorer: blah 32756
 INFO WbExplorer: blah 32757
 INFO WbExplorer: blah 32758
 INFO WbExplorer: blah 32759
 INFO WbExplorer: blah 32760
 INFO WbExplorer: blah 32761
 INFO WbExplorer: blah 32762
 INFO WbExplorer: blah 32763
 INFO WbExplorer: blah 32764
 INFO WbExplorer: blah 32765
 INFO WbExplorer: blah 32766
 INFO WbExplorer: blah 32767
 INFO WbExplorer: blah 32768
 INFO WbExplorer: blah 32769
 INFO WbExplorer: blah 32770
 INFO WbExplorer: blah 32771
 INFO WbExplorer: blah 32772
 INFO WbExplorer: blah 32773
 INFO WbExplorer: blah 32774
 INFO WbExplorer: blah 32775
 INFO WbExplorer: blah 32776
 INFO WbExplorer: blah 32777
 INFO WbExplorer: blah 32778
 INFO WbExplorer: blah 32779
 INFO WbExplorer: blah 32780
 INFO WbExplorer: blah 32781
 INFO WbExplorer: blah 32782
 INFO WbExplorer: blah 32783
 INFO WbExplorer: blah 32784
 INFO WbExplorer: blah 32785
 INFO WbExplorer: blah 32786
 INFO WbExplorer: blah 32787
 INFO WbExplorer: blah 32788
 INFO WbExplorer: blah 32789
 INFO WbExplorer: blah 32790
 INFO WbExplorer: blah 32791
 INFO WbExplorer: blah 32792
 INFO WbExplorer: blah 32793
 INFO WbExplorer: blah 32794
 INFO WbExplorer: blah 32795
 INFO WbExplorer: blah 32796
 INFO WbExplorer: blah 32797
 INFO WbExplorer: blah 32798
 INFO WbExplorer: blah 32799
 INFO WbExplorer: blah 32800
 INFO WbExplorer: blah 32801
 INFO WbExplorer: blah 32802
 INFO WbExplorer: blah 32803
 INFO WbExplorer: blah 32804
 INFO WbExplorer: blah 32805
 INFO WbExplorer: blah 32806
 INFO WbExplorer: blah 32807
 INFO WbExplorer: blah 32808
 INFO WbExplorer: blah 32809
 INFO WbExplorer: blah 32810
 INFO WbExplorer: blah 32811
 INFO WbExplorer: blah 32812
 INFO WbExplorer: blah 32813
 INFO WbExplorer: blah 32814
 INFO WbExplorer: blah 32815
 INFO WbExplorer: blah 32816
 INFO WbExplorer: blah 32817
 INFO WbExplorer: blah 32818
 INFO WbExplorer: blah 32819
 INFO WbExplorer: blah 32820
 INFO WbExplorer: blah 32821
 INFO WbExplorer: blah 32822
 INFO WbExplorer: blah 32823
 INFO WbExplorer: blah 32824
 INFO WbExplorer: blah 32825
 INFO WbExplorer: blah 32826
 INFO WbExplorer: blah 32827
 INFO WbExplorer: blah 32828
 INFO WbExplorer: blah 32829
 INFO WbExplorer: blah 32830
 INFO WbExplorer: blah 32831
 INFO WbExplorer: blah 32832
 INFO WbExplorer: blah 32833
 INFO WbExplorer: blah 32834
 INFO WbExplorer: blah 32835
 INFO WbExplorer: blah 32836
 INFO WbExplorer: blah 32837
 INFO WbExplorer: blah 32838
 INFO WbExplorer: blah 32839
 INFO WbExplorer: blah 32840
 INFO WbExplorer: blah 32841
 INFO WbExplorer: blah 32842
 INFO WbExplorer: blah 32843
 INFO WbExplorer: blah 32844
 INFO WbExplorer: blah 32845
 INFO WbExplorer: blah 32846
 INFO WbExplorer: blah 32847
 INFO WbExplorer: blah 32848
 INFO WbExplorer: blah 32849
 INFO WbExplorer: blah 32850
 INFO WbExplorer: blah 32851
 INFO WbExplorer: blah 32852
 INFO WbExplorer: blah 32853
 INFO WbExplorer: blah 32854
 INFO WbExplorer: blah 32855
 INFO WbExplorer: blah 32856
 INFO WbExplorer: blah 32857
 INFO WbExplorer: blah 32858
 INFO WbExplorer: blah 32859
 INFO WbExplorer: blah 32860
 INFO WbExplorer: blah 32861
 INFO WbExplorer: blah 32862
 INFO WbExplorer: blah 32863
 INFO WbExplorer: blah 32864
 INFO WbExplorer: blah 32865
 INFO WbExplorer: blah 32866
 INFO WbExplorer: blah 32867
 INFO WbExplorer: blah 32868
 INFO WbExplorer: blah 32869
 INFO WbExplorer: blah 32870
 INFO WbExplorer: blah 32871
 INFO WbExplorer: blah 32872
 INFO WbExplorer: blah 32873
 INFO WbExplorer: blah 32874
 INFO WbExplorer: blah 32875
 INFO WbExplorer: blah 32876
 INFO WbExplorer: blah 32877
 INFO WbExplorer: blah 32878
 INFO WbExplorer: blah 32879
 INFO WbExplorer: blah 32880
 INFO WbExplorer: blah 32881
 INFO WbExplorer: blah 32882
 INFO WbExplorer: blah 32883
 INFO WbExplorer: blah 32884
 INFO WbExplorer: blah 32885
 INFO WbExplorer: blah 32886
 INFO WbExplorer: blah 32887
 INFO WbExplorer: blah 32888
 INFO WbExplorer: blah 32889
 INFO WbExplorer: blah 32890
 INFO WbExplorer: blah 32891
 INFO WbExplorer: blah 32892
 INFO WbExplorer: blah 32893
 INFO WbExplorer: blah 32894
 INFO WbExplorer: blah 32895
 INFO WbExplorer: blah 32896
 INFO WbExplorer: blah 32897
 INFO WbExplorer: blah 32898
 INFO WbExplorer: blah 32899
 INFO WbExplorer: blah 32900
 INFO WbExplorer: blah 32901
 INFO WbExplorer: blah 32902
 INFO WbExplorer: blah 32903
 INFO WbExplorer: blah 32904
 INFO WbExplorer: blah 32905
 INFO WbExplorer: blah 32906
 INFO WbExplorer: blah 32907
 INFO WbExplorer: blah 32908
 INFO WbExplorer: blah 32909
 INFO WbExplorer: blah 32910
 INFO WbExplorer: blah 32911
 INFO WbExplorer: blah 32912
 INFO WbExplorer: blah 32913
 INFO WbExplorer: blah 32914
 INFO WbExplorer: blah 32915
 INFO WbExplorer: blah 32916
 INFO WbExplorer: blah 32917
 INFO WbExplorer: blah 32918
 INFO WbExplorer: blah 32919
 INFO WbExplorer: blah 32920
 INFO WbExplorer: blah 32921
 INFO WbExplorer: blah 32922
 INFO WbExplorer: blah 32923
 INFO WbExplorer: blah 32924
 INFO WbExplorer: blah 32925
 INFO WbExplorer: blah 32926
 INFO WbExplorer: blah 32927
 INFO WbExplorer: blah 32928
 INFO WbExplorer: blah 32929
 INFO WbExplorer: blah 32930
 INFO WbExplorer: blah 32931
 INFO WbExplorer: blah 32932
 INFO WbExplorer: blah 32933
 INFO WbExplorer: blah 32934
 INFO WbExplorer: blah 32935
 INFO WbExplorer: blah 32936
