^X:\GTA5\SCRIPT\DEV\TOOLS\EMAILSTAR\EMAILSTAR\EMAILERSEDITDIALOG.RESX
^X:\GTA5\SCRIPT\DEV\TOOLS\EMAILSTAR\EMAILSTAR\EMAILPICKDIALOG.RESX
^X:\GTA5\SCRIPT\DEV\TOOLS\EMAILSTAR\EMAILSTAR\PROPERTIES\RESOURCES.RESX
^X:\GTA5\SCRIPT\DEV\TOOLS\EMAILSTAR\EMAILSTAR\EMAILSTAR.RESX
