-- Vertex data (56 verts)
#([-0.1,-0.04,1.05], [-0.1,-0.04,-1.15], [-0.1,0.04,1.05], [-0.1,0.04,-1.15], [1,-0.04,-1.15], [1,0.04,-1.15], [1.55,-0.04,1.05], [1.55,-0.04,-1.15], [1,-0.04,1.05], [1,0.04,1.05], [1.55,0.04,1.05], [1.55,0.04,-1.15], [0.89,-0.08,-0.09], [0.91,-0.08,-0.13], [0.89,-0.03,-0.13], [0.88,-0.03,-0.1], [0.85,-0.08,-0.08], [0.85,-0.03,-0.1], [0.81,-0.08,-0.11], [0.83,-0.03,-0.11], [0.81,-0.08,-0.15], [0.83,-0.03,-0.14], [0.85,-0.08,-0.18], [0.85,-0.03,-0.16], [0.89,-0.08,-0.17], [0.88,-0.03,-0.16], [0.82,0.08,-0.09], [0.81,0.08,-0.13], [0.82,0.03,-0.13], [0.84,0.03,-0.1], [0.87,0.08,-0.08], [0.86,0.03,-0.1], [0.9,0.08,-0.11], [0.89,0.03,-0.11], [0.9,0.08,-0.15], [0.89,0.03,-0.14], [0.87,0.08,-0.18], [0.86,0.03,-0.16], [0.82,0.08,-0.17], [0.84,0.03,-0.16], [-0.1,-0.06,-1.15], [-0.1,-0.06,1.05], [-0.15,-0.06,1.1], [-0.15,-0.06,-1.15], [1.55,-0.06,1.05], [1.6,-0.06,1.1], [1.55,-0.06,-1.15], [1.6,-0.06,-1.15], [1.55,0.06,-1.15], [1.55,0.06,1.05], [1.6,0.06,1.1], [1.6,0.06,-1.15], [-0.1,0.06,1.05], [-0.15,0.06,1.1], [-0.1,0.06,-1.15], [-0.15,0.06,-1.15])
-- Face data (82 faces)
#([2,5,9], [9,1,2], [9,10,3], [3,1,9], [3,4,2], [2,1,3], [2,4,6], [6,5,2], [4,3,10], [10,6,4], [8,7,9], [9,5,8], [9,7,11], [11,10,9], [11,7,8], [8,12,11], [8,5,6], [6,12,8], [12,6,10], [10,11,12], [15,16,13], [13,14,15], [16,18,17], [17,13,16], [18,20,19], [19,17,18], [20,22,21], [21,19,20], [22,24,23], [23,21,22], [24,26,25], [25,23,24], [26,15,14], [14,25,26], [25,14,13], [13,17,19], [25,13,19], [19,21,23], [25,19,23], [29,30,27], [27,28,29], [30,32,31], [31,27,30], [32,34,33], [33,31,32], [34,36,35], [35,33,34], [36,38,37], [37,35,36], [38,40,39], [39,37,38], [40,29,28], [28,39,40], [39,28,27], [27,31,33], [39,27,33], [33,35,37], [39,33,37], [41,42,43], [43,44,41], [42,45,46], [46,43,42], [45,47,48], [48,46,45], [49,50,51], [51,52,49], [50,53,54], [54,51,50], [53,55,56], [56,54,53], [47,45,50], [50,49,47], [45,42,53], [53,50,45], [42,41,55], [55,53,42], [44,43,54], [54,56,44], [43,46,51], [51,54,43], [46,48,52], [52,51,46])
-- Smoothing data (82 faces)
#(1, 1, 4, 4, 2, 2, 4, 4, 1, 1, 1, 1, 4, 4, 2, 2, 4, 4, 1, 1, 8, 8, 8, 8, 8, 8, 8, 8, 8, 8, 8, 8, 8, 8, 1, 1, 1, 1, 1, 8, 8, 8, 8, 8, 8, 8, 8, 8, 8, 8, 8, 8, 8, 1, 1, 1, 1, 1, 1, 1, 1, 1, 1, 1, 1, 1, 1, 1, 1, 1, 2, 2, 4, 4, 2, 2, 2, 2, 4, 4, 2, 2)
-- Edge-visibility data (82 edges)
#(#{1..2}, #{1..2}, #{1..2}, #{1..2}, #{1..2}, #{1..2}, #{1..2}, #{1..2}, #{1..2}, #{1..2}, #{1..2}, #{1..2}, #{1..2}, #{1..2}, #{1..2}, #{1..2}, #{1..2}, #{1..2}, #{1..2}, #{1..2}, #{1..2}, #{1..2}, #{1..2}, #{1..2}, #{1..2}, #{1..2}, #{1..2}, #{1..2}, #{1..2}, #{1..2}, #{1..2}, #{1..2}, #{1..2}, #{1..2}, #{1..2}, #{1..2}, #{}, #{1..2}, #{3}, #{1..2}, #{1..2}, #{1..2}, #{1..2}, #{1..2}, #{1..2}, #{1..2}, #{1..2}, #{1..2}, #{1..2}, #{1..2}, #{1..2}, #{1..2}, #{1..2}, #{1..2}, #{1..2}, #{}, #{1..2}, #{3}, #{1..2}, #{1..2}, #{1..2}, #{1..2}, #{1..2}, #{1..2}, #{1..2}, #{1..2}, #{1..2}, #{1..2}, #{1..2}, #{1..2}, #{1..2}, #{1..2}, #{1..2}, #{1..2}, #{1..2}, #{1..2}, #{1..2}, #{1..2}, #{1..2}, #{1..2}, #{1..2}, #{1..2})
