-- Vertex data (22 verts)
#([0,0.08,-0.41], [0.33,1.24,-0.41], [-0.01,-0.01,-0.32], [-0.01,-0.01,0.11], [0.08,0,-0.41], [1.24,0.33,-0.41], [0.11,-1.79,-0.41], [1.79,-1.79,-0.41], [0.01,-1.79,-0.32], [0.01,-1.79,0.41], [1.32,-0.61,-0.41], [0.09,-0.61,-0.41], [0.01,-0.61,-0.32], [0.01,-0.61,0.11], [-1.79,0.12,-0.41], [-1.79,1.79,-0.41], [-0.61,1.32,-0.41], [-0.61,0.09,-0.41], [-0.61,0.01,-0.32], [-1.79,0.01,-0.32], [-0.61,0.01,0.11], [-1.79,0.01,0.41])
-- Face data (27 faces)
#([2,1,5], [5,6,2], [3,5,1], [7,8,11], [11,12,7], [7,12,13], [13,9,7], [9,13,14], [14,10,9], [11,6,5], [5,12,11], [12,5,3], [3,13,12], [3,4,14], [14,13,3], [16,15,17], [18,17,15], [18,15,19], [20,19,15], [19,20,21], [22,21,20], [2,17,1], [18,1,17], [1,18,3], [19,3,18], [4,3,21], [19,21,3])
-- Smoothing data (27 faces)
#(1, 1, 1, 1, 1, 1, 1, 1, 1, 1, 1, 1, 1, 1, 1, 1, 1, 1, 1, 1, 1, 1, 1, 1, 1, 1, 1)
-- Edge-visibility data (27 edges)
#(#{1..2}, #{1..2}, #{1..3}, #{1..2}, #{1..2}, #{1..2}, #{1..2}, #{1..2}, #{1..2}, #{1..2}, #{1..2}, #{1..2}, #{1..2}, #{1..2}, #{1..2}, #{1, 3}, #{1, 3}, #{1, 3}, #{1, 3}, #{1, 3}, #{1, 3}, #{1, 3}, #{1, 3}, #{1, 3}, #{1, 3}, #{1, 3}, #{1, 3})
