-- Vertex data (8 verts)
#([-1.48,-0.78,-0.41], [-1.48,0.89,-0.41], [-1.48,-0.89,-0.32], [-1.48,-0.89,0.41], [1.48,-0.78,-0.41], [1.48,0.89,-0.41], [1.48,-0.89,-0.32], [1.48,-0.89,0.41])
-- Face data (6 faces)
#([5,6,2], [2,1,5], [7,5,1], [1,3,7], [8,7,3], [3,4,8])
-- Smoothing data (6 faces)
#(1, 1, 1, 1, 1, 1)
-- Edge-visibility data (6 edges)
#(#{1..2}, #{1..2}, #{1..2}, #{1..2}, #{1..2}, #{1..2})
