DirectXShaderCompiler   afff6a3c51777511a8a9e65012e370d6a103ac94
SPIRV-Headers           dcf23bdabacc3c54b83b1f9367e7a8adb27f8d87
SPIRV-Tools             2c2fee797908ffb1aab96a3b7265baaada1a0e12
effcee                  ee537bcf7ece236c560cec62910f5d393b24dd23
googletest              34d5d22b6441fd7d91898a48097a18e29d137ace
re2                     4c916c947ab7f2ba2d280bb8c87540c365d30695
