movertranslation,*,0.0001,maxdecompressioncost=60;
moverrotation,*,0.0001,maxdecompressioncost=60;
bonetranslation,#0,0.0001,maxdecompressioncost=60;
bonerotation,#0,0.0001,maxdecompressioncost=60;
bonetranslation,*,0.0002;
bonerotation,*,0.0002;
cameratranslation,*,0.0001;
camerarotation,*,0.0001;
cameraFOV,*,0.0001;
cameraDOF,*,0.0001;
facialtranslation,*,0.0001;
facialrotation,*,0.0001;
facialControl,*,0.0001;
color,*,0.0005;
lightIntensity,*,0.0005;
lightFallOff,*,0.0005;
lightConeAngle,*,0.0005;
*,*,channellinearbias=1.5,maxdecompressioncost=80;