movertranslation,*,0.0005,15,maxdecompressioncost=60;
moverrotation,*,0.0005,15,maxdecompressioncost=60;
bonetranslation,#0,0.005,15,maxdecompressioncost=60;
bonerotation,#0,0.0005,15,maxdecompressioncost=60;
generictranslation,*,0.00001,15;
genericrotation,*,0.00001,15;
bonerotation,*clav*,0.005,15;
bonerotation,*arm*,0.005,15;
bonerotation,*Arm*,0.005,15;
bonerotation,*Prop*,0.005,15;
bonerotation,*IK*,0.005,15;
bonerotation,*Finger*,0.009,5;
bonerotation,*Neck*,0.01,15;
bonerotation,*Head*,0.01,15;
bonerotation,*Spine*,0.0005,15;
bonerotation,*Thigh*,0.005,15;
bonerotation,*Calf*,0.005,15;
bonerotation,*Foot*,0.01,15;
bonerotation,*Toe*,0.005,15;
bonetranslation,*,0.001,15;
bonerotation,*,0.01,15;
cameratranslation,*,0.00001,15;
camerarotation,*,0.00001,15;
cameraFOV,*,0.00001,15;
cameraDOF,*,0.00001,15;
facialtranslation,*,0.00001,15;
facialrotation,*,0.00001,15;
facialControl,*,0.00001,15;
shaderSlideU,*,0.00001,15;
shaderSlideV,*,0.00001,15;