'HandMiddleToWrist':'8.78894042969'
'HandInToWrist':'2.63378596306'
'HandBottomToWrist':'1.07863891125'
'FootMiddleToAnkle':'13.0911312103'
'FootBottomToAnkle':'6.59952020645'
'FootBackToAnkle':'5.69209718704'
'HandBackToWrist':'0.01'
'FootOutToAnkle':'7.02223777771'
'FootFrontToMiddle':'6.65828800201'
'HandFrontToMiddle':'8.78894042969'
'HandOutToWrist':'3.44968438148'
'FootInToAnkle':'3.91946768761'
