'HandMiddleToWrist':'8.7093372345'
'HandInToWrist':'2.19390082359'
'HandBottomToWrist':'0.75341874361'
'FootMiddleToAnkle':'10.192858696'
'FootBottomToAnkle':'6.5995182991'
'FootBackToAnkle':'6.59798288345'
'HandBackToWrist':'0.01'
'FootOutToAnkle':'5.06604623795'
'FootFrontToMiddle':'6.59798288345'
'HandFrontToMiddle':'8.7093372345'
'HandOutToWrist':'3.57850813866'
'FootInToAnkle':'4.45548582077'
