'HandMiddleToWrist':'8.70933532715'
'HandInToWrist':'3.22050833702'
'HandBottomToWrist':'0.01'
'FootMiddleToAnkle':'14.0627689362'
'FootBottomToAnkle':'6.59896993637'
'FootBackToAnkle':'5.42570304871'
'HandBackToWrist':'1.60089027882'
'FootOutToAnkle':'6.2872505188'
'FootFrontToMiddle':'10.3986816406'
'HandFrontToMiddle':'8.70933532715'
'HandOutToWrist':'3.13472890854'
'FootInToAnkle':'4.85640144348'
6976852'

