'HandMiddleToWrist':'8.70933532715'
'HandInToWrist':'2.18481898308'
'HandBottomToWrist':'1.75509607792'
'FootMiddleToAnkle':'13.1959629059'
'FootBottomToAnkle':'6.5995426178'
'FootBackToAnkle':'6.59798145294'
'HandBackToWrist':'0.01'
'FootOutToAnkle':'3.82909011841'
'FootFrontToMiddle':'6.59798145294'
'HandFrontToMiddle':'8.70933532715'
'HandOutToWrist':'2.99529099464'
'FootInToAnkle':'5.12077522278'
