'HandMiddleToWrist':'10.1263484955'
'HandInToWrist':'3.74949908257'
'HandBottomToWrist':'1.26844906807'
'FootMiddleToAnkle':'16.723815918'
'FootBottomToAnkle':'8.82981014252'
'FootBackToAnkle':'6.93460226059'
'HandBackToWrist':'0.01'
'FootOutToAnkle':'5.76831483841'
'FootFrontToMiddle':'7.6714758873'
'HandFrontToMiddle':'10.1263484955'
'HandOutToWrist':'2.57896065712'
'FootInToAnkle':'6.36315536499'
