'HandMiddleToWrist':'10.1263418198'
'HandInToWrist':'3.70560264587'
'HandBottomToWrist':'1.47877657413'
'FootMiddleToAnkle':'14.890455246'
'FootBottomToAnkle':'8.82982826233'
'FootBackToAnkle':'8.01748943329'
'HandBackToWrist':'0.01'
'FootOutToAnkle':'7.11314535141'
'FootFrontToMiddle':'7.67147064209'
'HandFrontToMiddle':'10.1263418198'
'HandOutToWrist':'3.56602144241'
'FootInToAnkle':'5.99649524689'
