'HandMiddleToWrist':'10.1263523102'
'HandInToWrist':'2.95349884033'
'HandBottomToWrist':'1.39817118645'
'FootMiddleToAnkle':'15.3429584503'
'FootBottomToAnkle':'8.82980537415'
'FootBackToAnkle':'5.67829990387'
'HandBackToWrist':'0.01'
'FootOutToAnkle':'6.25856542587'
'FootFrontToMiddle':'7.67147922516'
'HandFrontToMiddle':'10.1263523102'
'HandOutToWrist':'1.77792525291'
'FootInToAnkle':'4.80706739426'
