'HandMiddleToWrist':'10.1263542175'
'HandInToWrist':'3.040817976'
'HandBottomToWrist':'1.40816605091'
'FootMiddleToAnkle':'15.3429603577'
'FootBottomToAnkle':'8.82978534698'
'FootBackToAnkle':'5.80034017563'
'HandBackToWrist':'0.01'
'FootOutToAnkle':'5.56903171539'
'FootFrontToMiddle':'7.12116098404'
'HandFrontToMiddle':'10.1263542175'
'HandOutToWrist':'2.36724948883'
'FootInToAnkle':'5.97206735611'
