'HandMiddleToWrist':'10.1263542175'
'HandInToWrist':'2.35511755943'
'HandBottomToWrist':'1.49618577957'
'FootMiddleToAnkle':'13.8009223938'
'FootBottomToAnkle':'8.82978534698'
'FootBackToAnkle':'6.68046855927'
'HandBackToWrist':'0.01'
'FootOutToAnkle':'6.09019374847'
'FootFrontToMiddle':'8.2803401947'
'HandFrontToMiddle':'10.1263542175'
'HandOutToWrist':'3.37137317657'
'FootInToAnkle':'7.79824590683'
