'HandMiddleToWrist':'10.1263418198'
'HandInToWrist':'2.98670506477'
'HandBottomToWrist':'1.05619895458'
'FootMiddleToAnkle':'14.8985128403'
'FootBottomToAnkle':'8.82984256744'
'FootBackToAnkle':'6.34861660004'
'HandBackToWrist':'0.01'
'FootOutToAnkle':'6.9301867485'
'FootFrontToMiddle':'8.96473693848'
'HandFrontToMiddle':'10.1263418198'
'HandOutToWrist':'2.85568261147'
'FootInToAnkle':'5.16198921204'

047966'
