'HandMiddleToWrist':'8.70933532715'
'HandInToWrist':'3.12144041061'
'HandBottomToWrist':'1.07024633884'
'FootMiddleToAnkle':'11.8389797211'
'FootBottomToAnkle':'6.59896993637'
'FootBackToAnkle':'6.59798145294'
'HandBackToWrist':'0.01'
'FootOutToAnkle':'3.06278181076'
'FootFrontToMiddle':'6.59798145294'
'HandFrontToMiddle':'8.70933532715'
'HandOutToWrist':'4.34952163696'
'FootInToAnkle':'3.40489840508'
98145294'
