'HandMiddleToWrist':'10.1263484955'
'HandInToWrist':'4.40036916733'
'HandBottomToWrist':'0.01'
'FootMiddleToAnkle':'15.3429517746'
'FootBottomToAnkle':'8.82981014252'
'FootBackToAnkle':'7.6714758873'
'HandBackToWrist':'0.01'
'FootOutToAnkle':'5.10623311996'
'FootFrontToMiddle':'7.6714758873'
'HandFrontToMiddle':'10.1263484955'
'HandOutToWrist':'4.26861572266'
'FootInToAnkle':'6.34590435028'
le':'5.1654047966'
