'HandMiddleToWrist':'10.1263418198'
'HandInToWrist':'2.84638547897'
'HandBottomToWrist':'1.41519963741'
'FootMiddleToAnkle':'15.6828117371'
'FootBottomToAnkle':'8.82982826233'
'FootBackToAnkle':'7.09369134903'
'HandBackToWrist':'0.01'
'FootOutToAnkle':'8.06146812439'
'FootFrontToMiddle':'7.67147064209'
'HandFrontToMiddle':'10.1263418198'
'HandOutToWrist':'3.62638068199'
'FootInToAnkle':'4.94148683548'
