'HandMiddleToWrist':'8.7093372345'
'HandInToWrist':'4.43766021729'
'HandBottomToWrist':'0.898537993431'
'FootMiddleToAnkle':'8.84834671021'
'FootBottomToAnkle':'6.42678260803'
'FootBackToAnkle':'6.59798288345'
'HandBackToWrist':'0.01'
'FootOutToAnkle':'6.59798288345'
'FootFrontToMiddle':'7.69317817688'
'HandFrontToMiddle':'8.7093372345'
'HandOutToWrist':'5.59769296646'
'FootInToAnkle':'6.59798288345'
