'HandMiddleToWrist':'10.1263418198'
'HandInToWrist':'3.75048160553'
'HandBottomToWrist':'1.41921842098'
'FootMiddleToAnkle':'15.9189481735'
'FootBottomToAnkle':'8.82982826233'
'FootBackToAnkle':'7.0704202652'
'HandBackToWrist':'0.01'
'FootOutToAnkle':'6.32918405533'
'FootFrontToMiddle':'7.67147064209'
'HandFrontToMiddle':'10.1263418198'
'HandOutToWrist':'2.85562396049'
'FootInToAnkle':'7.44775629044'
