'HandMiddleToWrist':'10.1263504028'
'HandInToWrist':'2.59550380707'
'HandBottomToWrist':'1.42040276527'
'FootMiddleToAnkle':'11.1345405579'
'FootBottomToAnkle':'8.82981300354'
'FootBackToAnkle':'10.4315500259'
'HandBackToWrist':'0.01'
'FootOutToAnkle':'6.12100887299'
'FootFrontToMiddle':'7.67147731781'
'HandFrontToMiddle':'10.1263504028'
'HandOutToWrist':'3.90922093391'
'FootInToAnkle':'5.12427902222'
