'HandMiddleToWrist':'10.1263418198'
'HandInToWrist':'3.60455513'
'HandBottomToWrist':'1.50960457325'
'FootMiddleToAnkle':'16.585565567'
'FootBottomToAnkle':'8.82980823517'
'FootBackToAnkle':'8.05381679535'
'HandBackToWrist':'0.01'
'FootOutToAnkle':'5.28014945984'
'FootFrontToMiddle':'7.67147159576'
'HandFrontToMiddle':'10.1263418198'
'HandOutToWrist':'3.78035116196'
'FootInToAnkle':'6.22218561172'
