'HandMiddleToWrist':'10.1263418198'
'HandInToWrist':'4.47498703003'
'HandBottomToWrist':'3.27795124054'
'FootMiddleToAnkle':'15.3429412842'
'FootBottomToAnkle':'8.82982826233'
'FootBackToAnkle':'7.67147064209'
'HandBackToWrist':'0.01'
'FootOutToAnkle':'6.38938331604'
'FootFrontToMiddle':'7.67147064209'
'HandFrontToMiddle':'10.1263418198'
'HandOutToWrist':'5.84084510803'
'FootInToAnkle':'6.94549322128'
147064209'
