'HandMiddleToWrist':'10.1263418198'
'HandInToWrist':'10.1263418198'
'HandBottomToWrist':'3.27795100212'
'FootMiddleToAnkle':'15.3429422379'
'FootBottomToAnkle':'8.8298330307'
'FootBackToAnkle':'7.67147111893'
'HandBackToWrist':'0.00999999977648'
'FootOutToAnkle':'7.67147111893'
'FootFrontToMiddle':'7.67147111893'
'HandFrontToMiddle':'10.1263418198'
'HandOutToWrist':'10.1263418198'
'FootInToAnkle':'7.67147111893'
