'HandMiddleToWrist':'10.1263475418'
'HandInToWrist':'3.19602942467'
'HandBottomToWrist':'1.21208751202'
'FootMiddleToAnkle':'14.5370988846'
'FootBottomToAnkle':'8.82979488373'
'FootBackToAnkle':'7.67147493362'
'HandBackToWrist':'0.01'
'FootOutToAnkle':'4.93158197403'
'FootFrontToMiddle':'7.67147493362'
'HandFrontToMiddle':'10.1263475418'
'HandOutToWrist':'2.55134868622'
'FootInToAnkle':'6.22094345093'
