'HandMiddleToWrist':'10.1263456345'
'HandInToWrist':'4.10440635681'
'HandBottomToWrist':'1.51791441441'
'FootMiddleToAnkle':'16.5537376404'
'FootBottomToAnkle':'8.82980632782'
'FootBackToAnkle':'7.39206171036'
'HandBackToWrist':'0.01'
'FootOutToAnkle':'7.67147445679'
'FootFrontToMiddle':'7.67147445679'
'HandFrontToMiddle':'10.1263456345'
'HandOutToWrist':'3.56673336029'
'FootInToAnkle':'7.67147445679'
