'HandMiddleToWrist':'10.1263418198'
'HandInToWrist':'5.72787237167'
'HandBottomToWrist':'0.0644188374281'
'FootMiddleToAnkle':'15.3429412842'
'FootBottomToAnkle':'8.82982826233'
'FootBackToAnkle':'5.10983371735'
'HandBackToWrist':'0.01'
'FootOutToAnkle':'7.67147064209'
'FootFrontToMiddle':'9.4661283493'
'HandFrontToMiddle':'10.1263418198'
'HandOutToWrist':'6.06724023819'
'FootInToAnkle':'7.67147064209'
