'HandMiddleToWrist':'8.7093372345'
'HandInToWrist':'2.34538173676'
'HandBottomToWrist':'1.22483205795'
'FootMiddleToAnkle':'11.3942642212'
'FootBottomToAnkle':'6.5995182991'
'FootBackToAnkle':'8.25836181641'
'HandBackToWrist':'0.01'
'FootOutToAnkle':'3.91736197472'
'FootFrontToMiddle':'6.59798288345'
'HandFrontToMiddle':'8.7093372345'
'HandOutToWrist':'3.87333893776'
'FootInToAnkle':'4.87629938126'
