'HandMiddleToWrist':'8.70933437347'
'HandInToWrist':'2.64518117905'
'HandBottomToWrist':'3.35647892952'
'FootMiddleToAnkle':'8.06302165985'
'FootBottomToAnkle':'6.59952783585'
'FootBackToAnkle':'5.85714387894'
'HandBackToWrist':'0.01'
'FootOutToAnkle':'3.68755078316'
'FootFrontToMiddle':'6.28047943115'
'HandFrontToMiddle':'8.70933437347'
'HandOutToWrist':'3.09706020355'
'FootInToAnkle':'5.27505779266'
