'HandMiddleToWrist':'10.1263418198'
'HandInToWrist':'3.98714494705'
'HandBottomToWrist':'1.05444347858'
'FootMiddleToAnkle':'16.1510372162'
'FootBottomToAnkle':'8.82982826233'
'FootBackToAnkle':'6.73905181885'
'HandBackToWrist':'0.01'
'FootOutToAnkle':'6.22136306763'
'FootFrontToMiddle':'7.36066532135'
'HandFrontToMiddle':'10.1263418198'
'HandOutToWrist':'4.24294471741'
'FootInToAnkle':'6.9168806076'
