'HandMiddleToWrist':'9.48350334167'
'HandInToWrist':'1.57973635197'
'HandBottomToWrist':'2.95946764946'
'FootMiddleToAnkle':'14.0028524399'
'FootBottomToAnkle':'12.8074541092'
'FootBackToAnkle':'6.37841892242'
'HandBackToWrist':'0.01'
'FootOutToAnkle':'5.54330444336'
'FootFrontToMiddle':'4.74137306213'
'HandFrontToMiddle':'9.48350334167'
'HandOutToWrist':'2.99000811577'
'FootInToAnkle':'5.57815599442'
