'HandMiddleToWrist':'10.1263418198'
'HandInToWrist':'5.98258161545'
'HandBottomToWrist':'1.35247170925'
'FootMiddleToAnkle':'15.3429412842'
'FootBottomToAnkle':'8.82982826233'
'FootBackToAnkle':'7.67147064209'
'HandBackToWrist':'0.01'
'FootOutToAnkle':'6.97057771683'
'FootFrontToMiddle':'7.67147064209'
'HandFrontToMiddle':'10.1263418198'
'HandOutToWrist':'6.25883245468'
'FootInToAnkle':'8.00668048859'
