'HandMiddleToWrist':'8.70933532715'
'HandInToWrist':'1.95079159737'
'HandBottomToWrist':'1.35273206234'
'FootMiddleToAnkle':'16.2695045471'
'FootBottomToAnkle':'6.5995426178'
'FootBackToAnkle':'7.1568069458'
'HandBackToWrist':'0.01'
'FootOutToAnkle':'6.08628368378'
'FootFrontToMiddle':'6.59798145294'
'HandFrontToMiddle':'8.70933532715'
'HandOutToWrist':'3.30250024796'
'FootInToAnkle':'5.22961568832'
