'HandMiddleToWrist':'8.97590065002'
'HandInToWrist':'2.06190562248'
'HandBottomToWrist':'1.37575125694'
'FootMiddleToAnkle':'13.5998497009'
'FootBottomToAnkle':'7.50070381165'
'FootBackToAnkle':'5.2373085022'
'HandBackToWrist':'0.01'
'FootOutToAnkle':'4.14032363892'
'FootFrontToMiddle':'4.48707008362'
'HandFrontToMiddle':'8.97590065002'
'HandOutToWrist':'2.04407286644'
'FootInToAnkle':'5.33301353455'
