'HandMiddleToWrist':'10.1193809509'
'HandInToWrist':'2.31156635284'
'HandBottomToWrist':'1.38872826099'
'FootMiddleToAnkle':'13.8321123123'
'FootBottomToAnkle':'7.58299255371'
'FootBackToAnkle':'5.53026533127'
'HandBackToWrist':'0.01'
'FootOutToAnkle':'5.21109247208'
'FootFrontToMiddle':'7.66619777679'
'HandFrontToMiddle':'10.1193809509'
'HandOutToWrist':'1.9062691927'
'FootInToAnkle':'7.01472043991'
