'HandMiddleToWrist':'10.1263418198'
'HandInToWrist':'3.59121465683'
'HandBottomToWrist':'1.34191024303'
'FootMiddleToAnkle':'16.1442565918'
'FootBottomToAnkle':'8.82982826233'
'FootBackToAnkle':'7.504529953'
'HandBackToWrist':'0.01'
'FootOutToAnkle':'5.77417564392'
'FootFrontToMiddle':'7.67147064209'
'HandFrontToMiddle':'10.1263418198'
'HandOutToWrist':'3.27499890327'
'FootInToAnkle':'5.45795965195'
