'HandMiddleToWrist':'10.1263523102'
'HandInToWrist':'3.03419089317'
'HandBottomToWrist':'1.31554710865'
'FootMiddleToAnkle':'17.1104278564'
'FootBottomToAnkle':'8.82980537415'
'FootBackToAnkle':'4.68506622314'
'HandBackToWrist':'0.01'
'FootOutToAnkle':'5.73743677139'
'FootFrontToMiddle':'7.67147922516'
'HandFrontToMiddle':'10.1263523102'
'HandOutToWrist':'2.45286607742'
'FootInToAnkle':'6.76295661926'
