'HandMiddleToWrist':'10.1263418198'
'HandInToWrist':'3.43434524536'
'HandBottomToWrist':'1.29784071445'
'FootMiddleToAnkle':'13.9900398254'
'FootBottomToAnkle':'8.82982826233'
'FootBackToAnkle':'6.25707387924'
'HandBackToWrist':'0.01'
'FootOutToAnkle':'5.11276626587'
'FootFrontToMiddle':'7.67147064209'
'HandFrontToMiddle':'10.1263418198'
'HandOutToWrist':'3.23752188683'
'FootInToAnkle':'5.11276626587'
