'HandMiddleToWrist':'10.1263418198'
'HandInToWrist':'2.96395492554'
'HandBottomToWrist':'1.50627946854'
'FootMiddleToAnkle':'16.0463905334'
'FootBottomToAnkle':'8.82982826233'
'FootBackToAnkle':'6.71222114563'
'HandBackToWrist':'0.01'
'FootOutToAnkle':'6.52973365784'
'FootFrontToMiddle':'7.67147064209'
'HandFrontToMiddle':'10.1263418198'
'HandOutToWrist':'3.21674513817'
'FootInToAnkle':'8.03682613373'
