'HandMiddleToWrist':'10.1263418198'
'HandInToWrist':'3.67180967331'
'HandBottomToWrist':'2.02112698555'
'FootMiddleToAnkle':'15.3429412842'
'FootBottomToAnkle':'8.82982826233'
'FootBackToAnkle':'7.67147064209'
'HandBackToWrist':'0.01'
'FootOutToAnkle':'7.67147064209'
'FootFrontToMiddle':'8.29501247406'
'HandFrontToMiddle':'10.1263418198'
'HandOutToWrist':'2.81753325462'
'FootInToAnkle':'7.67147064209'
147064209'
