'HandMiddleToWrist':'8.7093372345'
'HandInToWrist':'2.99453425407'
'HandBottomToWrist':'1.62347662449'
'FootMiddleToAnkle':'14.8356733322'
'FootBottomToAnkle':'6.5995182991'
'FootBackToAnkle':'5.23219013214'
'HandBackToWrist':'0.01'
'FootOutToAnkle':'5.8352894783'
'FootFrontToMiddle':'6.59798288345'
'HandFrontToMiddle':'8.7093372345'
'HandOutToWrist':'3.84350752831'
'FootInToAnkle':'4.91998291016'
