'HandMiddleToWrist':'8.70933437347'
'HandInToWrist':'2.75881099701'
'HandBottomToWrist':'0.828060984612'
'FootMiddleToAnkle':'8.06890201569'
'FootBottomToAnkle':'6.5995426178'
'FootBackToAnkle':'6.5979809761'
'HandBackToWrist':'0.01'
'FootOutToAnkle':'4.52834177017'
'FootFrontToMiddle':'6.5979809761'
'HandFrontToMiddle':'8.70933437347'
'HandOutToWrist':'2.92183899879'
'FootInToAnkle':'5.15408611298'
