'HandMiddleToWrist':'8.70933628082'
'HandInToWrist':'1.62316226959'
'HandBottomToWrist':'1.14063501358'
'FootMiddleToAnkle':'9.56709384918'
'FootBottomToAnkle':'6.59952878952'
'FootBackToAnkle':'5.33152484894'
'HandBackToWrist':'0.01'
'FootOutToAnkle':'4.20476436615'
'FootFrontToMiddle':'5.31771183014'
'HandFrontToMiddle':'8.70933628082'
'HandOutToWrist':'3.34475040436'
'FootInToAnkle':'4.36165380478'
