'HandMiddleToWrist':'8.70933628082'
'HandInToWrist':'1.77846729755'
'HandBottomToWrist':'0.908581018448'
'FootMiddleToAnkle':'12.6742753983'
'FootBottomToAnkle':'6.59952878952'
'FootBackToAnkle':'7.43268585205'
'HandBackToWrist':'0.01'
'FootOutToAnkle':'3.90638279915'
'FootFrontToMiddle':'6.59798240662'
'HandFrontToMiddle':'8.70933628082'
'HandOutToWrist':'3.70437788963'
'FootInToAnkle':'5.11760282516'
