'HandMiddleToWrist':'10.1263418198'
'HandInToWrist':'3.53627204895'
'HandBottomToWrist':'1.25796866417'
'FootMiddleToAnkle':'16.2875728607'
'FootBottomToAnkle':'8.82982826233'
'FootBackToAnkle':'6.9967341423'
'HandBackToWrist':'0.01'
'FootOutToAnkle':'4.51969814301'
'FootFrontToMiddle':'7.67147064209'
'HandFrontToMiddle':'10.1263418198'
'HandOutToWrist':'3.39300942421'
'FootInToAnkle':'6.0656876564'
