'HandMiddleToWrist':'10.1263418198'
'HandInToWrist':'3.91136646271'
'HandBottomToWrist':'1.2578868866'
'FootMiddleToAnkle':'18.2035274506'
'FootBottomToAnkle':'8.82984256744'
'FootBackToAnkle':'6.87029218674'
'HandBackToWrist':'0.01'
'FootOutToAnkle':'6.02477073669'
'FootFrontToMiddle':'7.0672659874'
'HandFrontToMiddle':'10.1263418198'
'HandOutToWrist':'3.19683074951'
'FootInToAnkle':'7.84206485748'
54047966'
