'HandMiddleToWrist':'10.1263418198'
'HandInToWrist':'4.40088605881'
'HandBottomToWrist':'1.05619895458'
'FootMiddleToAnkle':'14.8985128403'
'FootBottomToAnkle':'8.82984256744'
'FootBackToAnkle':'8.34903526306'
'HandBackToWrist':'0.01'
'FootOutToAnkle':'6.06651973724'
'FootFrontToMiddle':'6.89763641357'
'HandFrontToMiddle':'10.1263418198'
'HandOutToWrist':'4.80627727509'
'FootInToAnkle':'7.32115697861'
047966'
