'HandMiddleToWrist':'10.1263484955'
'HandInToWrist':'3.8908894062'
'HandBottomToWrist':'1.49053645134'
'FootMiddleToAnkle':'15.3429517746'
'FootBottomToAnkle':'8.82981014252'
'FootBackToAnkle':'8.73555278778'
'HandBackToWrist':'0.01'
'FootOutToAnkle':'4.37340402603'
'FootFrontToMiddle':'7.6714758873'
'HandFrontToMiddle':'10.1263484955'
'HandOutToWrist':'3.44549942017'
'FootInToAnkle':'6.51269388199'
