'HandMiddleToWrist':'10.1263418198'
'HandInToWrist':'3.25869059563'
'HandBottomToWrist':'1.27849602699'
'FootMiddleToAnkle':'16.2884159088'
'FootBottomToAnkle':'8.82980823517'
'FootBackToAnkle':'6.90327548981'
'HandBackToWrist':'0.01'
'FootOutToAnkle':'5.07797527313'
'FootFrontToMiddle':'7.67147159576'
'HandFrontToMiddle':'10.1263418198'
'HandOutToWrist':'2.48331046104'
'FootInToAnkle':'5.80693769455'
