'HandMiddleToWrist':'10.1263418198'
'HandInToWrist':'4.36427164078'
'HandBottomToWrist':'1.4058560133'
'FootMiddleToAnkle':'15.4342441559'
'FootBottomToAnkle':'8.82984256744'
'FootBackToAnkle':'7.57520055771'
'HandBackToWrist':'0.01'
'FootOutToAnkle':'6.48683166504'
'FootFrontToMiddle':'7.67147254944'
'HandFrontToMiddle':'10.1263418198'
'HandOutToWrist':'3.65240931511'
'FootInToAnkle':'6.41389465332'
4047966'
