'HandMiddleToWrist':'10.1263418198'
'HandInToWrist':'3.82978153229'
'HandBottomToWrist':'1.13029313087'
'FootMiddleToAnkle':'17.8485431671'
'FootBottomToAnkle':'8.82982826233'
'FootBackToAnkle':'6.59764146805'
'HandBackToWrist':'0.01'
'FootOutToAnkle':'7.67147064209'
'FootFrontToMiddle':'7.67147064209'
'HandFrontToMiddle':'10.1263418198'
'HandOutToWrist':'3.04271149635'
'FootInToAnkle':'7.67147064209'
