'HandMiddleToWrist':'10.1263418198'
'HandInToWrist':'3.48818087578'
'HandBottomToWrist':'1.48654317856'
'FootMiddleToAnkle':'19.4440612793'
'FootBottomToAnkle':'8.82982826233'
'FootBackToAnkle':'9.05128669739'
'HandBackToWrist':'0.01'
'FootOutToAnkle':'6.58491277695'
'FootFrontToMiddle':'7.67147064209'
'HandFrontToMiddle':'10.1263418198'
'HandOutToWrist':'3.74349474907'
'FootInToAnkle':'6.02215909958'
