'HandMiddleToWrist':'10.1263542175'
'HandInToWrist':'4.49210500717'
'HandBottomToWrist':'1.37517726421'
'FootMiddleToAnkle':'17.4550971985'
'FootBottomToAnkle':'8.82978534698'
'FootBackToAnkle':'7.97823381424'
'HandBackToWrist':'0.01'
'FootOutToAnkle':'5.80355405807'
'FootFrontToMiddle':'7.67148017883'
'HandFrontToMiddle':'10.1263542175'
'HandOutToWrist':'2.78538131714'
'FootInToAnkle':'4.71393060684'
