bone,index,CTRL_Jaw.X,CTRL_Jaw.Y,CTRL_LowerLip.X,CTRL_LowerLip.Y,CTRL_UpperLip.X,CTRL_UpperLip.Y,CTRL_L_Mouth.X,CTRL_L_Mouth.Y,CTRL_Mouth.X,CTRL_Mouth.Y,CTRL_R_Mouth.X,CTRL_R_Mouth.Y,CTRL_LowerLip_Curl.X,CTRL_LowerLip_Curl.Y,CTRL_UpperLip_Curl.X,CTRL_UpperLip_Curl.Y,CTRL_L_Cheek.X,CTRL_L_Cheek.Y,CTRL_R_Cheek.X,CTRL_R_Cheek.Y
open_pose,0,0.0,-0.649602472782135,0.0,0.0,0.0,0.19531948864459991,0.0,0.0,0.0,0.25122615694999695,0.0,0.0,0.0,0.0,0.0,0.0,0.0,0.0,0.0,0.0
open_pose,1,0.0,0.7112292647361755,0.0,0.0,0.0,0.6124404668807983,0.0,0.0,0.0,0.25122615694999695,0.0,0.0,0.0,0.0,0.0,0.0,0.0,0.0,0.0,0.0
FV,0,0.0,0.0,0.0,0.0,0.0,0.5807273387908936,0.0,0.0,0.0,0.0,0.0,0.0,0.0,0.5323334336280823,0.0,0.0,0.0,0.0,0.0,0.0
FV,1,0.0,0.0,0.0,0.19357579946517944,0.0,0.0,0.0,0.0,0.0,0.0,0.0,0.0,0.0,-0.6128484010696411,0.0,0.0,0.0,0.0,0.0,0.0
W_pose,0,0.0,-0.2601538300514221,0.0,0.6503845453262329,0.0,-1.0,-0.7804614305496216,-0.6937435269355774,0.0,0.0,0.6070255637168884,-0.5203076004981995,0.0,-0.8238204121589661,0.0,1.0,0.0,0.0,0.0,0.0
W_pose,1,0.0,0.0,0.0,-0.51091468334198,0.0,0.4323124289512634,0.4323124289512634,0.0,0.0,0.0,-0.27510789036750793,0.0,0.0,0.0,0.0,0.0,0.0,0.0,0.0,0.0
IH,0,0.0,-0.17343588173389435,0.0,0.13007690012454987,0.0,0.3035127818584442,0.4335896670818329,0.0,0.0,0.0,-0.3902307152748108,0.0,0.0,0.0,0.0,0.0,0.0,0.0,0.0,0.0
IH,1,0.0,0.0,0.0,0.0,0.0,0.0,0.0,-0.3813985288143158,0.0,0.0,0.0,-0.3813985288143158,0.0,0.0,0.0,0.0,0.0,0.0,0.0,0.0
wide_pose,0,0.0,0.0,0.0,0.0,0.0,0.0,1.0,0.0,0.0,0.0,-1.0,0.0,0.0,0.0,0.0,0.0,0.0,0.0,0.0,0.0
wide_pose,1,0.0,0.0,0.0,0.0,0.0,0.41991356015205383,-1.0,0.0,0.0,0.0,1.0,0.0,0.0,0.0,0.0,0.0,0.0,0.0,0.0,0.0
PBM,0,0.0,0.0,0.0,0.0,0.0,0.0,0.0,0.0,0.0,0.0,0.0,0.0,0.0,0.4839394688606262,0.0,-0.3871515691280365,0.0,0.0,0.0,0.0
PBM,1,0.0,-0.2903636693954468,0.0,-0.1451818346977234,0.0,0.0,0.0,0.0,0.0,0.0,0.0,0.0,0.0,0.0,0.0,0.0,0.0,0.0,0.0,0.0
ShCh,0,0.0,-0.10416590422391891,0.0,0.3645806610584259,0.0,0.0,-0.41666361689567566,0.0,0.0,0.0,0.4687465727329254,0.0,0.0,-0.7812442779541016,0.0,1.0,0.0,0.0,0.0,0.0
ShCh,1,0.0,0.0,0.0,0.0,0.0,0.0,0.0,0.0,0.0,0.0,0.0,0.0,0.0,0.677078366279602,0.0,-0.15624885261058807,0.0,0.0,0.0,0.0
