<?xml version="1.0" encoding="UTF-8"?>

<PointerArray>
	<Children>
		<Item type="DerivedClassB">
			<BaseFloat value="1234.000000"/>
			<DerivedVector x="100.000000" y="0.000000" z="0.000000"/>
		</Item>
		<Item type="DerivedClassA">
			<BaseFloat value="2.000000"/>
			<DerivedInt value="45"/>
		</Item>
	</Children>
</PointerArray>