0, ,Sat Mar 31,Fri Apr 06,Thu Apr 12,Thu Apr 12,Fri Apr 13,Sat Apr 14,Sat Apr 14,Tue Apr 17,Wed Apr 18,Thu Apr 19,Fri Apr 20,Sat Apr 21,Sat Apr 21,Wed Apr 25,Fri Apr 27,Sat May 12,Tue May 15,Wed May 16,Fri May 18,Mon May 21,Mon May 21,Mon May 21,Tue May 22,Fri May 25,Thu Jun 07,Thu Jun 14,Wed Jun 20,Tue Jun 26,Fri Jun 29,Thu Jul 12,Fri Aug 03,Mon Aug 20,Fri Aug 31,Wed Oct 24,Fri Oct 26
1,data/effects/ptfx, , , , , , , , , , , ,2, , , ,1, , , , , , , , ,1, , , , , ,3, , , , 
2,levels/gta5/_citye/citye_xr,3, , , , , , , , , , , , , , , , , , , , , , , , , , , , , , , , , , 
3,levels/gta5/_citye/downtown_01/downtown, , , , , , , ,1, , , , , , , ,1,1,1,1, , , ,5,1,1,1,1,1,1,1,1, , , , 
4,levels/gta5/_citye/downtown_01/dt1_00,2, , , , , , , , , , , , , , , , , , , , , , , , , , , , , , , , , , 
5,levels/gta5/_citye/downtown_01/dt1_01, , , , , , , , , , , , , , , , , , , , , , , , , , , , ,4, , , , , , 
6,levels/gta5/_citye/downtown_01/dt1_02, , , , , , , , , , , , , , , , , , , , , , , , , , , , , , , , ,2, , 
7,levels/gta5/_citye/downtown_01/dt1_05, , , , , , , , , , , , , , , , , , , , , , , , , , ,4, ,6, , , , , , 
8,levels/gta5/_citye/downtown_01/dt1_06, , , , , , , , , , , ,39, , , , , , , , , , , , , , , , , , , , , , , 
9,levels/gta5/_citye/downtown_01/dt1_08, , , , , , , , , , , , , , , , , , ,1, , , ,1, , , , , , , , , , , , 
10,levels/gta5/_citye/downtown_01/dt1_09, , , , , , , , , , , ,4, , , , , , , , , , ,3,1, , , , , , , , , , , 
11,levels/gta5/_citye/downtown_01/dt1_17, , , , , , , , , , , , , , , , , , , , , , ,7,1, , , , , , , , , , , 
12,levels/gta5/_citye/downtown_01/dt1_18, , , , , , , , , , , , , , , , , , , , , , ,12, , , , , , , , , , , , 
13,levels/gta5/_citye/downtown_01/dt1_19, , , , , , , , , , , , , , , , , , , , , , ,4, , , , , , , , , , , , 
14,levels/gta5/_citye/downtown_01/dt1_20, , , , , , ,1, , , , , , , , , , , , , , , ,9, , , , , , , , , , , , 
15,levels/gta5/_citye/downtown_01/dt1_21, , , , , , , , , , , ,20, ,1,1,5, , , , , , ,6, , , , , , , , , , , , 
16,levels/gta5/_citye/downtown_01/dt1_22, , , , , , , , , , , , , , , , , , , , , , ,16, , , , , , , , , , , , 
17,levels/gta5/_citye/downtown_01/dt1_23, , , , , , , , , , , , , , , , , , , , , , ,14, , , , , , , , , , , , 
18,levels/gta5/_citye/downtown_01/dt1_25, , , , , , , , , , , , , , , , , , , , , , , , , , , , , ,2,2, , , , 
19,levels/gta5/_citye/downtown_01/dt1_lod, , , , , , , , , , , , , , , , , , , , , , ,2, , , , , , , , , , , , 
20,levels/gta5/_citye/downtown_01/dt1_rd1, , , , , , , , , , , , , , , , , , , , , , , ,2, , , , , , , , , , , 
21,levels/gta5/_citye/downtown_01/fwy_01, , , , , ,58, , , , , , , , , , , , , , , , , ,4, , , , , , , , , , , 
22,levels/gta5/_citye/downtown_01/fwy_04, , , , , , , , , , , , , , , , , ,3, , , , , , , , , , , , , , , , , 
23,levels/gta5/_citye/hollywood_01/hollywood, , , , , , , , , , , , , , , , , ,1, , , , , , , , , , , , , , ,1, , 
24,levels/gta5/_citye/hollywood_01/hw1_01, , , , , , , , , , , , , , , , , ,13,13, , , ,13, , , , , , , , , , , , 
25,levels/gta5/_citye/hollywood_01/hw1_02, , , , , , , ,1, , , , , ,1, , , , , , , , , , , , , , , , , , , , , 
26,levels/gta5/_citye/hollywood_01/hw1_06,2,2, , ,2,2,2,2,2,2,2,2,2,2,2,2,2,2,2, , , ,2,63,2,2,2,2,2,2,2, ,2, , 
27,levels/gta5/_citye/hollywood_01/hw1_07, , , , , , , , , , , ,2, , , , , , , , , , , , , , , , , , , , , , , 
28,levels/gta5/_citye/hollywood_01/hw1_08, , , , , , , , , , , , , , , , , ,7, , , , , , , , , , , , , , , , , 
29,levels/gta5/_citye/hollywood_01/hw1_09, , , , , , , , , , , , , , , , , ,8, , , , , , , , , , , , , , , , , 
30,levels/gta5/_citye/hollywood_01/hw1_10, , , , , , , , , , , , , , , ,14, , , , , , ,7, , , , , , , , , , , , 
31,levels/gta5/_citye/hollywood_01/hw1_13, , , , , , , , , , , , , ,1, , , ,2, , , , , , , , ,4, , , , , , , , 
32,levels/gta5/_citye/hollywood_01/hw1_14, , , , , , , , , , , , , ,1, , , , , , , , , , , , , , , , , , , , , 
33,levels/gta5/_citye/hollywood_01/hw1_15,12, , , , , , , , , , , , , , ,34, , , , , , , , , , , , , , , , , , , 
34,levels/gta5/_citye/hollywood_01/hw1_18, , , , , , , , , , , , , , , , , , , , , , ,9, , , , , , , , , , , , 
35,levels/gta5/_citye/hollywood_01/hw1_19, , , , , , , , , , , , , , , , , , , , , , , , , , ,34, , , , , , , , 
36,levels/gta5/_citye/hollywood_01/hw1_23, , , , , , , , , , , , , , , ,9, , , , , , , , , , , , , , , , , , , 
37,levels/gta5/_citye/hollywood_01/hw1_28, , , , , , , , , , , , , , , , , , , , , , , ,1, , , , , , , , , , , 
38,levels/gta5/_citye/hollywood_01/hw1_rd,153, , , , , , , , , , , , , , ,7, , , , , , , , , , , , , , , , , , , 
39,levels/gta5/_citye/indust_01/id1_04, , , , , , , , , , , , , , , , , ,6, , , , , , , , , , , , , , , , , 
40,levels/gta5/_citye/indust_01/id1_05, , , , , , , , , , , , , , , , , , , , , , , , , , ,2, , , , , , , , 
41,levels/gta5/_citye/indust_01/id1_13, , , , , , , , , , , , , , , , , , , , , , , , , ,17, , , , , , , , , 
42,levels/gta5/_citye/indust_01/id1_19, , , , , , , , , , , , , , , , , , , , , , ,18, , , , , , , , , ,4, , 
43,levels/gta5/_citye/indust_01/id1_26, , , , , , , , , , , , , , , , , , , , , , ,3, , , , , , , , , , , , 
44,levels/gta5/_citye/indust_01/id1_29,5,1, , ,1,1,1,1,1,1,1,1,1,1,1,3,3,2,5, , , ,5,2,2,2,2,2,2,2,1, , , , 
45,levels/gta5/_citye/indust_01/id1_31,2, , , , , , , , , , , , , , , , , , , , , , , , , , , , , , , , , , 
46,levels/gta5/_citye/indust_01/id1_32, , , , , , , , , , , , , , , , , , , , , , , , , , , , , , , , ,8, , 
47,levels/gta5/_citye/indust_01/id1_33, ,13, , , , , , , , , , , , , , , , , , , , , , , , , , , , , , , , , 
48,levels/gta5/_citye/indust_01/id1_rd, , , , , , , , , , , , , , , ,15, , , , , , , , , , , , , , , , , , , 
49,levels/gta5/_citye/indust_01/indust_01, , , , , , , , , , , , , , , , ,4,4,4, , , ,4,4,4,4, , , , , , , , , 
50,levels/gta5/_citye/indust_02/id2_00_a,2, , , , , , , , , , ,2, , , , , , , , , , , , , , , , , , , , , , , 
51,levels/gta5/_citye/indust_02/id2_01, , , , , , , , , , , , , , , , , , , , , , ,2,1, , , , , , , , , , , 
52,levels/gta5/_citye/indust_02/id2_02, , , , , , , , , , , ,2, , , , , , , , , , , , , , , , , , , , , , , 
53,levels/gta5/_citye/indust_02/id2_04, , , , , , , , , , , , , , , , , , , , , , ,10, , , , , , , , , , , , 
54,levels/gta5/_citye/indust_02/id2_06, , , , , , , , , , , , , , , , , , , , , , , ,1, , , , , , , , , , , 
55,levels/gta5/_citye/indust_02/id2_07, , , , , , , , , , , , , , , , , , ,20, , , ,20, , , , , , , , , , , , 
56,levels/gta5/_citye/indust_02/id2_12, , , , , , , , , , , ,2, , , , , , , , , , ,4, , , , , , , , , , , , 
57,levels/gta5/_citye/indust_02/id2_13, , , , , , , , , , , , , , , , , , , , , , ,9, , , , , , , , , , , , 
58,levels/gta5/_citye/indust_02/id2_14, , , , , , , , , , , , , , , , , , , , , , ,2, , , , , , , , , , , , 
59,levels/gta5/_citye/indust_02/id2_15, , , , , , , , , , , , , , , , , , , , , , ,5, , , , , , , , , , , , 
60,levels/gta5/_citye/indust_02/id2_18, , , , , , , , , , , , , , , , , , , , , , ,7, , , , , , , , , , , , 
61,levels/gta5/_citye/indust_02/id2_21, , , , , , , , , , , , , , , , , , , , , , ,9, , , , , , , , , , , , 
62,levels/gta5/_citye/indust_02/id2_21_a,4, , , , , , , , , ,3, , , , , , , , , , , ,8, , , , , , , , , , , , 
63,levels/gta5/_citye/indust_02/id2_21_b,3, , , , , , , , , , , , , , , , , , , , , , , , , , , , , , , , , , 
64,levels/gta5/_citye/indust_02/id2_21_e,32, , , , , , , , , , , , , , , , , , , , , , ,18, , , , , , , , , , , 
65,levels/gta5/_citye/indust_02/id2_21_g, , , , , , , , , , , , , , , , , , , , , , , , , ,3, , , , , , , , , 
66,levels/gta5/_citye/indust_02/id2_rd, , , , , , , , , , , ,1, , , , , , , , , , , , , , , , , , , , , , , 
67,levels/gta5/_citye/port_01/po1_02, , , , , , , , , , , ,5, , , , , , , , , , , , , , , , , , , , , , , 
68,levels/gta5/_citye/port_01/po1_03, , , , , , , , , , , , , , , , , , , , , , , , ,60, , , , , , , , , , 
69,levels/gta5/_citye/port_01/po1_04, , , , , , ,13, , , , ,6, ,1, , , , , , , , , , , ,14,11, , , , , , , , 
70,levels/gta5/_citye/port_01/po1_05, , , , , , , , , , , ,122, , , , , , , , , , ,17, , , , , , , , , , , , 
71,levels/gta5/_citye/port_01/po1_06,32, , , , , , , , , , , , , , , , , , , , , , , , , , , ,5, , , , , , 
72,levels/gta5/_citye/port_01/po1_07, , , , , , , , , , , , , , , , , , , , , , ,55, , , ,16, ,56, , , , , , 
73,levels/gta5/_citye/port_01/po1_08, , , , , , , , , , , , ,4, , , ,5,3, , , , , , ,22, , ,7, , ,12, , , , 
74,levels/gta5/_citye/port_01/po1_09, , , , , , , , , , , ,1, , , , , , , , , , , , , , , , , , , , , , , 
75,levels/gta5/_citye/port_01/po1_10, , , , , , , , , , , ,3, ,62, , , , , , , , ,695, ,11, ,8,2,6, , , , , , 
76,levels/gta5/_citye/port_01/po1_lod, , , , , , , , , , , ,2, , , , , , , , , , , , , , , , , , , , , , , 
77,levels/gta5/_citye/port_01/po1_rd, , , , , , , , , , , , , , , , , , , , , , , , , , ,9, , , , , , , , 
78,levels/gta5/_citye/port_01/port, , , , , , , , , , , ,9, , , , , , , , , , , , , , , , , , , , , , , 
79,levels/gta5/_citye/scentral_01/sc1_00f, , , , , , , , , , , , , , , , , , , , , , , , , , ,5, , , , , , , , 
80,levels/gta5/_citye/scentral_01/sc1_01, , , , , , , , , , , , , , , , , , ,4, , , ,4, , , , , , , , , ,48, , 
81,levels/gta5/_citye/scentral_01/sc1_02,1,1, , ,1,1,1,1,1,1,1,1,1,1,1,1,1,1,1, , , ,1,1,1,1,1,1,1,1,1, ,1, , 
82,levels/gta5/_citye/scentral_01/sc1_03, , , , , , , , , , , , , , , , , , , , , , , ,16, , ,10, , , , , , , , 
83,levels/gta5/_citye/scentral_01/sc1_09, , , , , , , , , , , , , , , , , , ,2, , , ,2, , , , , , , , , , , , 
84,levels/gta5/_citye/scentral_01/sc1_10,68, , , , , , , , , , , , , , , , , , , , , , , , , , , , , , , , , , 
85,levels/gta5/_citye/scentral_01/sc1_13, , , , , , , , , , , , , , , , , , , , , , , ,1, , , , , , , , , , , 
86,levels/gta5/_citye/scentral_01/sc1_15, , , , , , , , , , , , , , , , , , , , , , , , ,23, , , , , , , , , , 
87,levels/gta5/_citye/scentral_01/sc1_19, , , , , , , , , , , , , , , , , ,11,11, , , ,11,1, , , , , , , , , , , 
88,levels/gta5/_citye/scentral_01/sc1_24, , , , , , , , , , , , , , , , , , , , , , , , , , , , ,1, , , , , , 
89,levels/gta5/_citye/scentral_01/sc1_25,2,2, , ,2,2,2,2,2,2,2,2,2,2,2,1,1,1,1, , , ,1,1,2,2,2,2,2, , , , , , 
90,levels/gta5/_citye/scentral_01/sc1_29,1,1, , ,1,1,1,1,1,1,1,1,1, , , , , , , , , , , , , , , , , , , , , , 
91,levels/gta5/_citye/scentral_01/sc1_32, , , , , , , , , , , , , , , , , ,13, , , , , , , , , , , , , , , , , 
92,levels/gta5/_citye/scentral_01/sc1_emissive, , , , , , , , , , , , , , , , , , , , , , , , ,60,60,60,60, , , , , , , 
93,levels/gta5/_citye/scentral_01/scentral, , , , , , , , , , , , , , , , , , , , , , , , , , , , , , ,1, , , , 
94,levels/gta5/_citye/sunset/bt1_04, , , , , , , , , , , , , ,5, , , , ,73, , , ,73, , , , , , , , , , , , 
95,levels/gta5/_citye/sunset/ss1_02, , , , , , , , , , , , , , , , , , , , , , , , , ,2, , , , , , , , , 
96,levels/gta5/_citye/sunset/ss1_08, , , , , , , , , , , , , , , , , ,9, , , , , , , , ,5, ,4, , , , , , 
97,levels/gta5/_citye/sunset/ss1_09, , , , , , , , , , , , , , , , , , , , , , , , , , ,2, , , , , , , , 
98,levels/gta5/_citye/sunset/ss1_13, , , , , , , , , , , , , ,1, , , , , , , , , , , , , , , , , , , , , 
99,levels/gta5/_citye/sunset/ss1_emissive, , , , , , , , , , , , , , , , , ,37, , , , , , , , , , , , , , , , , 
100,levels/gta5/_cityw/airport_01/ap1_01_a, , , , , , , , , , , , , , , , , , , , , , ,14, , , , , , , , , , , , 
101,levels/gta5/_cityw/airport_01/ap1_01_b, , , , , , , , , , , , , , , , , , ,2, , , ,2, , , , ,6, , , , , , , 
102,levels/gta5/_cityw/airport_01/ap1_01_d, , , , , , , , , , , ,39, , , , , , , , , , , , , , , , , , , , , , , 
103,levels/gta5/_cityw/airport_01/ap1_01_props, , , , , , , , , , , , , , , ,109,109,109,109, , , ,109,95,95,95,95,95,95,95,93, ,77, , 
104,levels/gta5/_cityw/airport_01/ap1_02, , , , , , , , , , , , , , , , , , , , , , , , , , , ,4, , , , , , , 
105,levels/gta5/_cityw/airport_01/ap1_04, , , , , , , , , , , , , , , , , , , , , , , , ,108, , ,9,1, , , , , , 
106,levels/gta5/_cityw/airport_01/ap1_emissive, , , , , , , , , , , , , , , , , , , , , , , , , , , ,16, , , , , , , 
107,levels/gta5/_cityw/beverly_01/bh1_02,5, , , , , , , , , , , , , , , , , , , , , , , , , , , , , , , , , , 
108,levels/gta5/_cityw/beverly_01/bh1_03,13, , , , , , , , , , , , , , , , , , , , , , , , , , , , , , , , , , 
109,levels/gta5/_cityw/beverly_01/bh1_04, , , , , , , , , , , ,15, , , , , , , , , , , , , , , , , , , , , , , 
110,levels/gta5/_cityw/beverly_01/bh1_07, , , , , , , , ,2, , , , , , , , , , , , , , , , , , , , , , , , , , 
111,levels/gta5/_cityw/beverly_01/bh1_08, , , , , , ,3, ,2, , , , , , ,15, , , , , , , , , , , , , , , , , , , 
112,levels/gta5/_cityw/beverly_01/bh1_09, , , , , , , , ,4, , , , , , , , , , , , , , , , , , , , , , , , , , 
113,levels/gta5/_cityw/beverly_01/bh1_13, , , , , , , , , , , , , , , , , , , , , , , ,1, , , , , , , , , , , 
114,levels/gta5/_cityw/beverly_01/bh1_15, , , , , , , , ,2, , , , , , , , , , , , , , , , , , , , , , , , , , 
115,levels/gta5/_cityw/beverly_01/bh1_17, , , , , , , , , , , , , , , , , , , , , , , , , , , , , , ,5, , , , 
116,levels/gta5/_cityw/beverly_01/bh1_21, , , , , , , , ,3, , , , , , , , , , , , , , , , , , , , , , , , , , 
117,levels/gta5/_cityw/beverly_01/bh1_22, , , , , , , ,3,1, , , , , , , , , , , , , , , , , , , , , , , , , , 
118,levels/gta5/_cityw/beverly_01/bh1_30,2, , , , , , , ,1, , , , , , , , , , , , , ,25, , , , , , , , , , , , 
119,levels/gta5/_cityw/beverly_01/bh1_31, , , , , , , , , , , , , , , , , , , , , , , , , , , , ,6, , , , , , 
120,levels/gta5/_cityw/beverly_01/bh1_32, , , , , , , , ,2, , , , , , ,2, , , , , , , , , , , , , , , , , , , 
121,levels/gta5/_cityw/beverly_01/bh1_33, , , , , , , , , , , , , , , , , ,1, , , , , , , , ,4, , , , , , , , 
122,levels/gta5/_cityw/beverly_01/bh1_34, , , , , , , , ,7, , , , , , , , , ,3, , , ,3, , , , , , , , , , , , 
123,levels/gta5/_cityw/beverly_01/bh1_35, , , , , , , , ,3, , , , , , , , , , , , , , , , , ,12, , , , , , , , 
124,levels/gta5/_cityw/beverly_01/bh1_36, , , , , , , , ,2, , ,33, , , , , , , , , , , , , , , , , , , , , , , 
125,levels/gta5/_cityw/beverly_01/bh1_37, , , , , , , , , , , , , , , , , , , , , , , , , , ,2, , , , , , , , 
126,levels/gta5/_cityw/beverly_01/bh1_43, ,45, , , , , , , , , , , , , , , , , , , , , , , , , , , ,1,1, , , , 
127,levels/gta5/_cityw/beverly_01/bh1_45, ,18, , , , , , , , , , , , , , , , , , , , , , , , , , , , , , , , , 
128,levels/gta5/_cityw/beverly_01/bh1_46b, ,49, , , , , , , , , , , , , , , , , , , , , , , , , , , , , , , , , 
129,levels/gta5/_cityw/beverly_01/bh1_48, ,95, , , , , , , , , ,41, , , , , , , , , , , , , , , , , , , , , , , 
130,levels/gta5/_cityw/beverly_01/bh1_49, , , , , , , , , , , , , , , , , , , , , , , ,15, , , , , , , , , , , 
131,levels/gta5/_cityw/beverly_01/bh1_emissive_test, , , , , , , , , , , , , , , , , , , , , , , , ,2,2,2,2,2,2,2, ,2, , 
132,levels/gta5/_cityw/beverly_01/bh1_rd, , , , , , , , ,7, , , , , , , , , , , , , , , , , , , , , , , , , , 
133,levels/gta5/_cityw/beverly_01/bh1_rd2, , , , , , , , , ,1, , , , , , , , , , , , , , , , , , , , , , , , , 
134,levels/gta5/_cityw/koreatown_01/kt1_03, , , , , , , , , , , , , , , , , , , , , , , ,1, , , , , , , , , , , 
135,levels/gta5/_cityw/koreatown_01/kt1_04, , , , , , , , , , , , , , , , , , , , , , , ,1, , , , , , , , , , , 
136,levels/gta5/_cityw/koreatown_01/kt1_07, , , , , , , , , , , , , , , , , , , , , , , , ,2,2,38,1,1,1,1, ,1, , 
137,levels/gta5/_cityw/koreatown_01/kt1_08, , , , , , , , , , , , , , , , , , , , , , , ,44, , , , , , , , , , , 
138,levels/gta5/_cityw/koreatown_01/kt1_09, , , , , , , , , , , , , , , , , , , , , , , , , , ,18, , , , , , , , 
139,levels/gta5/_cityw/koreatown_01/kt1_11,54, , , , , , , , , , , , , , , , , , , , , , , , , , , , , , , , , , 
140,levels/gta5/_cityw/koreatown_01/kt1_13, , , , , , , , , , , , , , , , , , , , , , ,7,2, , , , , , , , , , , 
141,levels/gta5/_cityw/marina_xr,7,7, , , , , , , , , , , , , , , , , , , , , , , , , , , , , , , , , 
142,levels/gta5/_cityw/sanpedro_01/sanpedro, , , , , , , , , , , , , , , , , , , , , , ,17, , , , ,1, , , , , , , 
143,levels/gta5/_cityw/sanpedro_01/sp1_01, , , , , , , , , , , , ,1, , , , , , , , , , , , , , , , , , , , , , 
144,levels/gta5/_cityw/sanpedro_01/sp1_03, , , , , , , , , , , , , , , , , ,3, , , , , , , , , , , , , , , , , 
145,levels/gta5/_cityw/sanpedro_01/sp1_06, , , , , , , , , , , , , , , , , , , , , , ,28, , , , , , , , , , , , 
146,levels/gta5/_cityw/sanpedro_01/sp1_10, , , , , , , , , , ,63, , , , , , , , , , , , , , , , , , , , , , , , 
147,levels/gta5/_cityw/sanpedro_01/sp1_11, , , , , , , , , , ,5, , , , , , , ,1, , , ,1, , , , ,3, , , , , , , 
148,levels/gta5/_cityw/sanpedro_01/sp1_12,46, , , , , , , , , , ,13, , , , ,6, , , , , , , , , , , , , , , , , , 
149,levels/gta5/_cityw/sanpedro_01/sp1_emissive, , , , , , , , , , , , , , , , , , , , , , , , ,7,7, , , , , , , , , 
150,levels/gta5/_cityw/sanpedro_01/sp1_rd, , , , ,110, , , , , ,110, , , , , , , , , , , , , , , ,1, , , , , , , , 
151,levels/gta5/_cityw/santamon_01/santamon, , , , , , , , , , , , , , , ,1,1,1,1, , , ,1,2,1, , , , , , , , , , 
152,levels/gta5/_cityw/santamon_01/sm_06, , , , , , , , , , , , , , , , , , , , , , , ,1, , , , , , , , , , , 
153,levels/gta5/_cityw/santamon_01/sm_07,1,1, , ,1,1,1,1,1,1,1,1,1,1,3,1,1,1,1, , , ,1,1,1,1,1,1, , , , , , , 
154,levels/gta5/_cityw/santamon_01/sm_10,35, , , , , , , , , , , , , , , , , , , , , , , , , , , , , , , , , , 
155,levels/gta5/_cityw/santamon_01/sm_11,1, , , , , , , , , , , , , , , , , , , , , , , , , ,12, , , , , , , , 
156,levels/gta5/_cityw/santamon_01/sm_13,9, , , , , , , , , , , , , , , , , , , , , , , , , , , , , , , , , , 
157,levels/gta5/_cityw/santamon_01/sm_18, , , , , , , , , , , , , , , , , , , , , , , , ,5, , , , , , , , , , 
158,levels/gta5/_cityw/santamon_01/sm_19, , , , , , , , , , , , , , , , , , , , , , , , , , ,3,2, , , , , , , 
159,levels/gta5/_cityw/santamon_01/sm_21, , , , , , , , , , , , , , , , , , , , , , , , ,73, , , , , , , , , , 
160,levels/gta5/_cityw/santamon_01/sm_22, , , , , , , , , , , , , , , , , , , , , , , , ,52, , , , , , , , , , 
161,levels/gta5/_cityw/santamon_01/sm_23, , , , , , , , , , , , , , , , , , , , , , , , ,30, , , , , , , , , , 
162,levels/gta5/_cityw/santamon_01/sm_24,37, , , , , , , , , , , , , , , , , , , , , , ,3, , , , , , , , , , , 
163,levels/gta5/_cityw/santamon_01/sm_26, , , , , , , , , , , , , , , , , , , , , , ,1, , , , , , , , , , , , 
164,levels/gta5/_cityw/santamon_01/sm_emissive, , , , , , , , , , , , , , , , , , , , , , , ,30, , , , , , , , , , , 
165,levels/gta5/_cityw/santamon_01/sm_rd, , , , , , , , , , , , , , , ,28, , , , , , , , , , , , , , , , , , , 
166,levels/gta5/_cityw/venice_01/vb_05, , , , , , , , , , , , , , , , ,6, , , , , , ,3,9, , , , , , , , , , 
167,levels/gta5/_cityw/venice_01/vb_17, , , , , , , , , , , , , , , , , , , , , , , , , , ,3, , , , , , , , 
168,levels/gta5/_cityw/venice_01/vb_24, , , , , , , , , , , , , , , ,1, , , , , , , , , , , , , , , , , , , 
169,levels/gta5/_cityw/venice_01/vb_25, , , , , , , , , , , ,13, , , , , , , , , , , , , , , , , , , , , , , 
170,levels/gta5/_cityw/venice_01/vb_27, , , , , , , , , , , , , , , , , , , , , , , , ,34, , , , , , , , , , 
171,levels/gta5/_cityw/venice_01/vb_28, , , , , , , , , , , , , , , , , , , , , , , , ,18, , , , , , , , , , 
172,levels/gta5/_cityw/venice_01/vb_29, , , , , , , , , , , ,8, , , , , , , , , , , , ,26, , , , , , , , , , 
173,levels/gta5/_cityw/venice_01/vb_30, , , , , , , , , , , , , , , , , , , , , , , , ,24, , , , , , , , , , 
174,levels/gta5/_cityw/venice_01/vb_33, , , , , , , , , , , , , , , , , , , , , , ,1, , , , , , , , , , , , 
175,levels/gta5/_cityw/venice_01/vb_35, , , , , , , , , , , , , ,82, , , , , , , , , , , , , , , , , , , , , 
176,levels/gta5/_cityw/venice_01/vb_35b, , , , , , , , , , , , , , , , , , , , , , , , ,10, , , , , , , , , , 
177,levels/gta5/_cityw/venice_01/vb_36, , , , , , , , , , , , , , , , , , , , , , ,16, , , , , , , , , , , , 
178,levels/gta5/_cityw/venice_01/vb_38, , , , , , , , , , , , , , , , , , , , , , ,3, , , , , , , , , , , , 
179,levels/gta5/_cityw/venice_01/vb_39, , , , , , , , , , , , , , , , ,1, , , , , , , , , , , , , , , , , , 
180,levels/gta5/_cityw/venice_01/venice, , , , , , , , , , , , , , , ,1,1, , , , , , , , , , , , , , , , , , 
181,levels/gta5/_hills/cityhills_01/ch1_02,1,1, , ,1,1,1,1,1,1,1,1,1,1,1,1,1,1,1, , , ,1, ,34, , , , , , , , , , 
182,levels/gta5/_hills/cityhills_01/ch1_05, , , , , , , , , , , , , , , , , ,1,1, , , ,1,1,4,4,4,4,4,4,5, ,2, , 
183,levels/gta5/_hills/cityhills_01/ch1_05b,14, , , , , , , , , , , , , , , , , , , , , , , , , , , , , , , , , , 
184,levels/gta5/_hills/cityhills_01/ch1_06c,4, , , , , , , , , , , , , , , , , , , , , , , , , , , , , , , , , , 
185,levels/gta5/_hills/cityhills_01/ch1_06d,1, , , , , , , , , , , , , , , , , , , , , , , , , , , , , , , , , , 
186,levels/gta5/_hills/cityhills_01/ch1_06f,2, , , , , , , , , , ,2, , , , , , , , , , , , , , , , , , , , , , , 
187,levels/gta5/_hills/cityhills_01/ch1_09, , , , , , , , , , , ,14, , , , , , , , , , , ,1, , , , , , , , , , , 
188,levels/gta5/_hills/cityhills_01/ch1_09b, , , , , , , , , , , , , , , , , , , , , , , , ,36, , , , , , , , , , 
189,levels/gta5/_hills/cityhills_01/ch1_12,1,1, , ,1,1,1,1,1,1,1,1,1,1,1,1,1,1,1, , , ,1,1,1,1,1,1,1,1,1, ,1, , 
190,levels/gta5/_hills/cityhills_01/ch1_rdprops,1,1, , ,1,1,1,1,1,1,1,1,1,1,1,1,1,1,1, , , ,1,1,1,1,1,1,1,1,1, ,1, , 
191,levels/gta5/_hills/cityhills_01/cityhills_01, , , , , , , , , , , , , , , , ,2,3,3, , , ,3, , , , , , , , , , , , 
192,levels/gta5/_hills/cityhills_02/ch2_01b, , , , , , , , , , , , , , , , , , , , , , , , , , ,9, , , , , , , , 
193,levels/gta5/_hills/cityhills_02/ch2_03,2, , , , , , , ,13, , , , , , , , , , , , , , , , , , , , , ,15, , , , 
194,levels/gta5/_hills/cityhills_02/ch2_03b, , , , , , , , , , , , , , ,11,12, , , , , , , , , , , , , , , , , , , 
195,levels/gta5/_hills/cityhills_02/ch2_04, , , , , , , , ,2, ,9, , , , , , , , , , , , , , , ,19, , , , , , , , 
196,levels/gta5/_hills/cityhills_02/ch2_05, , , , , , , , ,3, , , , , , , , , , , , , , , , , ,3, , , , , , , , 
197,levels/gta5/_hills/cityhills_02/ch2_05b, , , , , , , , ,2, , , , , , , , , , , , , , , , , , , , ,26, , , , , 
198,levels/gta5/_hills/cityhills_02/ch2_05c, , , , , , , , ,6, , , , , , , , , , , , , , , , , , , , , , , , , , 
199,levels/gta5/_hills/cityhills_02/ch2_05d,11, , , , , , , ,7, , , , , , , , , , , , , , , , , ,8, , , , , , , , 
200,levels/gta5/_hills/cityhills_02/ch2_05e, , , , , , , , ,5, , , , , , , , , , , , , , , , , , , , , , , , , , 
201,levels/gta5/_hills/cityhills_02/ch2_05f, , , , , , , , ,14, , , , , , , , , , , , , , , , , ,6, , ,5, , , , , 
202,levels/gta5/_hills/cityhills_02/ch2_06, , , , , , , , , , , ,12, , , , , , , , , , , , , , ,5, , , , , , , , 
203,levels/gta5/_hills/cityhills_02/ch2_07, , , , , , , , , , , , , , , , , , , , , , , , , , ,9, , , , , , , , 
204,levels/gta5/_hills/cityhills_02/ch2_07b, , , , , , , , , , , , , , , , , , , , , , , , , , ,9, , , , , , , , 
205,levels/gta5/_hills/cityhills_02/ch2_07c, , , , , , , , , , , , , , , , , , , , , , , , , , ,3, ,6, , , , , , 
206,levels/gta5/_hills/cityhills_02/ch2_07d, , , , , , , , , ,69, ,23, , , , , , , , , , , , , , , , , , , , , , , 
207,levels/gta5/_hills/cityhills_02/ch2_08, , , , , , , , , , , , , , , , , , , , , , , , , , ,3, , , , , , , , 
208,levels/gta5/_hills/cityhills_02/ch2_08b, , , , , , , , , , , , , , , , , , , , , , , , , , ,3, , ,4, , , , , 
209,levels/gta5/_hills/cityhills_02/ch2_09b,332, , , , , , , , , , ,6, , , , , , , , , , , , , , , , ,6, , , , , , 
210,levels/gta5/_hills/cityhills_02/ch2_09c, , , , , , , , ,13, , , , , , , , , , , , , , ,23, , , , , ,5, , , , , 
211,levels/gta5/_hills/cityhills_02/ch2_10,5,1, , ,1,1,1,1,1,1,1,1,1,1,1,1,1,1,1, , , ,1,1,1,1,1,1,1,1,1, , , , 
212,levels/gta5/_hills/cityhills_02/ch2_11, , , , , , , , ,14, , , , , , , , , , , , , , , , , ,6, , ,2, , , , , 
213,levels/gta5/_hills/cityhills_02/ch2_11b, , , , , , , , ,8, , , , , , , , , , , , , , , , , , , , , , , , , , 
214,levels/gta5/_hills/cityhills_02/ch2_12b, , , , , , , , , , , , , , , , , , , , , , , , , , ,7, , , , , , , , 
215,levels/gta5/_hills/cityhills_02/ch2_rdprops, , , , , , , , , , , , , , , , , , , , , , , , , , , , , , , , ,1, , 
216,levels/gta5/_hills/cityhills_02/ch2_roads,19, , , , , , , , , , , , , , , , , , , , , , , , , , ,3, , , , , , , 
217,levels/gta5/_hills/cityhills_02/ch2_roadsb,3, , , , , , , , , ,19, , , , , , , , , , , , , , , , , , , , , , , , 
218,levels/gta5/_hills/cityhills_02/cityhills_02,382,382, , ,382,382,382,382,382,382,382,283,283, , ,12, , , , , , , , , , , ,22, , , , , , , 
219,levels/gta5/_hills/cityhills_03/ch3_01, , , , , , , , , , , , , , , ,2,2, , , , , , , , , , , , , , , , , , 
220,levels/gta5/_hills/cityhills_03/ch3_02, , , , , , , , , , , , , , , , , , , , , , , , , , , ,84, , , , , , , 
221,levels/gta5/_hills/cityhills_03/ch3_03, , , , , , , , , , , , , , , , , , , , , , , , , , , ,424, , , , , , , 
222,levels/gta5/_hills/cityhills_03/ch3_04, , , , , , , , , , , ,2, , , , , , , , , , , , , , , ,577, , , , , , , 
223,levels/gta5/_hills/cityhills_03/ch3_06, , , , , , , , , , , ,1,9, , ,1, , , , , , , , , , , ,281, , , , , , , 
224,levels/gta5/_hills/cityhills_03/ch3_07, , , , , , , , , , , , , , , , , , , , , , , , , , , ,108, , , , , , , 
225,levels/gta5/_hills/cityhills_03/ch3_08, , , , , , , , , , , , , , , , , , , , , , , , ,1, , ,462, , , , , , , 
226,levels/gta5/_hills/cityhills_03/ch3_09, , , , , , , , , , , , , , , , , , , , , , , , , , , ,96, , , , , , , 
227,levels/gta5/_hills/cityhills_03/ch3_10, , , , , , , , , , , , , , , ,25, , , , , , , , , , , ,378, , , , , , , 
228,levels/gta5/_hills/cityhills_03/ch3_11, , , , , , , , ,23, , , , , , , , , , , , , , , , , , ,351, , ,4, ,5, , 
229,levels/gta5/_hills/cityhills_03/ch3_12, , , , , , , , , , , , , , , , , , , , , , , , , , , ,201, , , , , , , 
230,levels/gta5/_hills/cityhills_03/ch3_13, ,1, , , , , , , , , , , , , , , , , , , , , , ,3, , ,390, , , , , , , 
231,levels/gta5/_hills/cityhills_03/ch3_14, , , , , , , , , , , , , , , , , , , , , , , , , , , ,155, , , , , , , 
232,levels/gta5/_hills/cityhills_03/ch3_14b, , , , , , , , , , , , , , , , , , , , , , , , , , , ,105, , , , , , , 
233,levels/gta5/_hills/cityhills_03/ch3_lod, , , , , , , , , , , , , , , , , , , , , , , , , , , ,59, , , , , , , 
234,levels/gta5/_hills/cityhills_03/ch3_railway, , , , , , , , , , , , , , , , , , , , , , , , , , , ,93, , , , , , , 
235,levels/gta5/_hills/cityhills_03/ch3_railwyb, , , , , , , , , , , , , , , , , , , , , , , , , , , ,56, , , , , , , 
236,levels/gta5/_hills/cityhills_03/ch3_railwyc, , , , , , , , , , , , , , , , , , , , , , , , , , , ,55, , , , , , , 
237,levels/gta5/_hills/cityhills_03/ch3_rd1, , , , , , , , , , , , , , , , , , , , , , , , , , , ,148, , , , , , , 
238,levels/gta5/_hills/cityhills_03/ch3_rd1a, , , , , , , , , , , , , , , , , , , , , , , , , , , ,102, , , , , , , 
239,levels/gta5/_hills/cityhills_03/ch3_rd1b, , , , , , , , , , , , , , , ,7, , , , , , , , , , , ,57, , , , , , , 
240,levels/gta5/_hills/cityhills_03/ch3_rd2, , , , , , , , , , , , , , , , , , , , , , , , , , , ,146, , , , , , , 
241,levels/gta5/_hills/cityhills_03/ch3_rd2b, , , , , , , , , , , , , , , , , , , , , , , , , , , ,108, , , , , , , 
242,levels/gta5/_hills/country_01/country_01, ,14, , , , , , , , , ,32, , , , , , , , , , , , ,3, ,165, , , , , , , , 
243,levels/gta5/_hills/country_01/cs1_01, , , , , , , , , , , , , , , ,89, , , , , , , , , , , , , ,11, , , , , 
244,levels/gta5/_hills/country_01/cs1_03,1,1, , ,1,1,1,1,1,1,1,1,1,1,1,1,1,1,1, , , ,10,1,1,1,11,1,1, , , ,6, , 
245,levels/gta5/_hills/country_01/cs1_04,1, , , , , , , , , , ,30, , , ,7, , , , , , , , , , , , , , , , , , , 
246,levels/gta5/_hills/country_01/cs1_05,15, , , , , , , , , , , , , , , , , , , , , ,10, , , , , , , , , , , , 
247,levels/gta5/_hills/country_01/cs1_06,2,2, , ,2,2,2,2,2,2,2,2,2,2,2,2,2,24,2, , , ,2,2,2,2,3,2,2,2, , , , , 
248,levels/gta5/_hills/country_01/cs1_07,1,1, , ,1,1,1,1,1,1,1,1,1,1,1,1,1,1,1, , , ,27,11,1,1,4,1,1,1,6, ,1, , 
249,levels/gta5/_hills/country_01/cs1_08, ,35, , , , , , , , , , , , , , , , , , , , , , , , , , , , , , , , , 
250,levels/gta5/_hills/country_01/cs1_09, , , , , , , , , , , , , , , ,6, , , , , , , , , , , , , , , , , , , 
251,levels/gta5/_hills/country_01/cs1_10,1, , , , , , , , , , ,5, , , , , , , , , , , , , , , , , , , , , , , 
252,levels/gta5/_hills/country_01/cs1_11, , , , , , , , , , , , , , , , , , , , , , , , , , ,6, , , , , , , , 
253,levels/gta5/_hills/country_01/cs1_11b,2,1, , ,1,1,1,1,1,1,1,1,1,1,1, , , , , , , , ,1,1,1,67,1,1,2,2, ,2, , 
254,levels/gta5/_hills/country_01/cs1_12, , , , , , , , , , , ,27, , , , , , , , , , , ,35, , , , , , , , , , , 
255,levels/gta5/_hills/country_01/cs1_13,2,2, , ,1,1,1,1,1,1,1,1,1,1,1,1,1,1,1, , , ,1,1,2, , , , ,2,1, ,2, , 
256,levels/gta5/_hills/country_01/cs1_14, , , , , , , , , , , , , , , ,2, , , , , , , , , , , , , , , , , , , 
257,levels/gta5/_hills/country_01/cs1_15b, , , , , , , , , , , , , , , , , , , , , , , , , , ,8, , , , , , , , 
258,levels/gta5/_hills/country_01/cs1_15c, , , , , , , , , , , ,34, , , , , , , , , , , , , , , , , , , , , , , 
259,levels/gta5/_hills/country_01/cs1_railwyb, , , , , , , , , , , , , , , , , , , , , , , , ,2, , , , , , , , , , 
260,levels/gta5/_hills/country_01/cs1_railwyc, , , , , , , , , , , , , , , , , , , , , , , , ,86,86,86,86,86,86,86, ,86, , 
261,levels/gta5/_hills/country_01/cs1_rdprops, , , , , , , , , , , , , , , , , , , , , , , , ,2,2,2,2,2,2,2, ,2, , 
262,levels/gta5/_hills/country_01/cs1_rdprops_pb,36,36, , ,36,36,36,36,36,36,36,36,36,36,36,36,36,36,36, , , ,36,36,36,37,37,37,37,25,29, ,29, , 
263,levels/gta5/_hills/country_01/cs1_roads, , , , , , , , , , , , , , , , , , , , , , ,2, , , , , , , , , , , , 
264,levels/gta5/_hills/country_01/cs1_roadsa, , , , , , , , , , , , , , , , , , , , , , , , , , , , ,108, , , , , , 
265,levels/gta5/_hills/country_02/country_02, , , , , , , , , , , , , , , , , , , , , , ,6,52,4, , , , , , , , , , 
266,levels/gta5/_hills/country_02/cs2_01,1,1, , ,1,1,1,1,1,1,1,1,1,1,1,1,1,1,1, , , ,1, , , , ,625, , , , , , , 
267,levels/gta5/_hills/country_02/cs2_02,3,3, , ,3,3,3,3,3,3,3,3,3,3,3,3,3,3,3, , , ,41,1,1,1,1,1,1,1,1, ,1, , 
268,levels/gta5/_hills/country_02/cs2_03,3,3, , ,3,3,3,3,3,3,3,3,3,3,1,1,1,1,1, , , ,3,1,1,1,1,1,12,59,1, ,3, , 
269,levels/gta5/_hills/country_02/cs2_04,1,1, , ,1,1,1,1,1,1,1,1,1,1,1,1,1,1,1, , , ,1,1, , , , , , ,1, ,1, , 
270,levels/gta5/_hills/country_02/cs2_05, , , , , , , , , , , , , , , , , , , , , , , ,16, , , , ,16, , , , , , 
271,levels/gta5/_hills/country_02/cs2_09,3,3, , ,3,3,3,3,3,3,3,3,3,3,3,3,3,3,3, , , ,12,1,1,1,1,1,1,1,3, ,3, , 
272,levels/gta5/_hills/country_02/cs2_09b, , , , , , , , , , , , , , , , , , , , , , , ,77, , , , , , , , , , , 
273,levels/gta5/_hills/country_02/cs2_30, , , , , , , , , , , , , , , , , , , , , , , ,26, , , , , , , , , , , 
274,levels/gta5/_hills/country_02/cs2_railway, , , , , , , , , , , , , , , , , , , , , , , , ,74, , , , , , , , , , 
275,levels/gta5/_hills/country_02/cs2_railwyb, , , , , , , , , , , , , , , , , , , , , , , , ,48, , , , , , , , , , 
276,levels/gta5/_hills/country_02/cs2_railwyc, , , , , , , , , , , , , , , , , , , , , , , , ,17,17, , , , , , , , , 
277,levels/gta5/_hills/country_02/cs2_rdprops, , , , , , , , , , , , , , , , , , , , , , , , ,4,13,13,13,13,13,39, ,48, , 
278,levels/gta5/_hills/country_02/cs2_roads, , , , , , , , , , , ,8, , , , , , , , , , , , ,4, , , , , , , , , , 
279,levels/gta5/_hills/country_03/country_03, , , , , , , , , , , , , , , , , , , , , , , , ,2, , , , , , , , , , 
280,levels/gta5/_hills/country_03/cs3_03, , , , , , , , , , , ,80, , , , , , , , , , , , , , , , , , , , , , , 
281,levels/gta5/_hills/country_03/cs3_04, , , , , , , , , , , ,1, , , , , , , , , , , , , , , , , , , , , , , 
282,levels/gta5/_hills/country_03/cs3_05,5, , , ,9, , , , , , , , , , , , , , , , , , , , , , , , , , , , , , 
283,levels/gta5/_hills/country_03/cs3_06, , , , , , , , , , , ,3, , , , , , , , , , , , , , , , , , , , , , , 
284,levels/gta5/_hills/country_03/cs3_07,2,2, , ,2,2,6,2,2,2,2,8,6,6,2,2,2,4,2, , , ,2,2,2,2,3,2,2,4,3, ,3, , 
285,levels/gta5/_hills/country_03/cs3_08b, , , , , , , , , , , ,28, , , , , , , , , , , , , , , , , , , , , , , 
286,levels/gta5/_hills/country_03/cs3_lod, , , , , , , , , , , , , , , , , , , , , , , , ,4, , , , , , , , , , 
287,levels/gta5/_hills/country_03/cs3_railway, , , , , , , , , , , , , , , , , , , , , , , , ,60, , , , , , , , , , 
288,levels/gta5/_hills/country_04/country_04, , , , ,8, , , , , , , , , , , , , , , , , , ,16,8,3,3,4,27,3,3, ,3, , 
289,levels/gta5/_hills/country_04/cs4_02,3,3, , ,31,3,3,3,3,3,3,21,3,3,3,3,3,3,3, , , ,3,3,3,3,3,3,3,3,3, , , , 
290,levels/gta5/_hills/country_04/cs4_03, , , , , , , , , , , , , , , , , , , , , , , ,26, , , , , , , , , , , 
291,levels/gta5/_hills/country_04/cs4_04, , , , , , , , , , , , , , , , , , , , , , , , , , ,5, , , , , , , , 
292,levels/gta5/_hills/country_04/cs4_05, , , , , , , , , , , ,11, , , , , , , , , , , , , , , , ,1, , , , , , 
293,levels/gta5/_hills/country_04/cs4_10, , , , , , , , , , , , , , , , , , , , , , , , , , , , , , ,10, , , , 
294,levels/gta5/_hills/country_04/cs4_11, , , , , , , , , , , , , , , , , , , , , , , , ,1, , , , , , , , , , 
295,levels/gta5/_hills/country_04/cs4_12, , , , ,14, , , , , , , , , , , , , , , , , , , , , , , , , , , , , , 
296,levels/gta5/_hills/country_04/cs4_13,1,2, , ,1,1,1,1,1,1,1,1,1,2,2,1,1,1,1, , , ,1,2,2,2,2,1,1,2,2, ,2, , 
297,levels/gta5/_hills/country_04/cs4_lod, , , , , , , , , , , , , , , , , , , , , , , , ,12, , , , , , , , , , 
298,levels/gta5/_hills/country_04/cs4_railway, , , , , , , , , , , , , , , , , , , , , , , , ,80, , , , , , , , , , 
299,levels/gta5/_hills/country_04/cs4_rd_props, , , , ,43,43,43,47,47,48,48,48,48,48,48,48,48,48,48, , , ,48,47,45,45,45,45,45,45,11, ,14, , 
300,levels/gta5/_hills/country_04/cs4_roads, , , , ,10, , , , , , , , , , , , , , , , , ,3, , , , , , , , , , , , 
301,levels/gta5/_hills/country_05/country_05, , , , , , , , , , , , , , , , , , , , , , , ,1, , , , , , , , , , , 
302,levels/gta5/_hills/country_05/cs5_3, , , , , , , , , , , ,1, , , , , , , , , , , ,4, , , , , , , , , , , 
303,levels/gta5/_hills/country_05/cs5_4, , , , , , ,1,7, ,9, , , , , , ,19,1,3, , , ,4,6, ,11, , , ,4, , , , , 
304,levels/gta5/_hills/country_05/cs5_rd_props, , , , , , , , , , , , , , , , , , , , , , , ,8,33,32,32,35,36,41,41, ,55, , 
305,levels/gta5/_hills/country_05/cs5_roads, , , , , , , , , , , , , , , , , , , , , , , ,95,9, , , , , , , , , , 
306,levels/gta5/_hills/country_06/country_06,1, , , , , , , , , , , , , , , , , , , , , , ,9, , , , , , , , , , , 
307,levels/gta5/_hills/country_06/cs6_02,1, , , , , , , , , , , , , , , , , , , , , , , , , , , , , , , , , , 
308,levels/gta5/_hills/country_06/cs6_03, , , , , , , , , , , , , , , ,316,316,316,316, , , ,316,316,316, , , , , , , , , , 
309,levels/gta5/_hills/country_06/cs6_04, , , , , , , , , , , ,9, , , , , , , , , , , , , , ,1, , , , , , , , 
310,levels/gta5/_hills/country_06/cs6_06, , , , , , , , , , , , , , , , , , , , , , , , , , , , , , ,12, , , , 
311,levels/gta5/_hills/country_06/cs6_08, , , , ,7, , , , , , , , , , , , , , , , , ,23, , , , , , , , , , , , 
312,levels/gta5/_hills/country_06/cs6_09, , , , , , , , , , , , , , , , , , , , , , , , , ,6, , , , , , , , , 
313,levels/gta5/_hills/country_06/cs6_10, , , , , , , , , , , , , , , , , , , , , , , , , , , , ,18, , , , , , 
314,levels/gta5/_hills/country_06/cs6_rd_props, , , , , , , , , , , , , ,1,2,33,53,53,53, , , ,53,53,53,53,53,53,53,54,54, ,41, , 
315,levels/gta5/_hills/cs_xref,7,7, , , , , , , , , , , , , , , , , , , , , , , , , , , , , , , , , 
316,levels/gta5/_prologue/plg_04,10,10, , ,10,10,10,10,10,10,10,10,10,10,10,10,10,10,10, , , ,127,14,14,14,14,14,14,14, , , , , 
317,levels/gta5/_prologue/prologueint,2, , , , , , , , , , ,1, , , , , , , , , , , , , , , , , , , , , , , 
318,levels/gta5/destruction/exterior/des_gasstation, , , , , , , , , , , ,52, , , , , , , , , , , , , , , , , , , , , , , 
319,levels/gta5/destruction/interior/des_frenchdoors, , , , , , , , , , , , , , , , , , , , , , ,9, , , , , , , , , , , , 
320,levels/gta5/generic/cutsobjects, , , , , , , , , , , , , , , , , , , , , , , , , , ,1,1,1, , , , , , 
321,levels/gta5/generic/ped_props,1,1, , ,1,1,1,1,1,1,1,1,1,1,1,1,1,1,1, , , ,1,1,1,1,1,1,1,1,1, ,1, , 
322,levels/gta5/interiors/int_props/int_club, , , , , , , , , , , , , , , , , , ,1, , , ,1, , , , , , , , , , , , 
323,levels/gta5/interiors/int_props/int_corporate, , , , , , , , , , , , , , , , , , ,41, , , ,41, , , , , , , , , , , , 
324,levels/gta5/interiors/int_props/int_industrial, , , , , , , , , , , , , , , , , ,44, , , , , , , , ,3, , , , , , , , 
325,levels/gta5/interiors/int_props/int_lev_des, , , , , , , , , , , , , , , , , ,125, , , , , , , , , , , , , , , , , 
326,levels/gta5/interiors/int_props/int_residential, , , , , , , , , , , , , , , , , , , , , , , , , , ,5, , , , , , , , 
327,levels/gta5/interiors/int_props/int_retail, , , , , , , , , , , , , , , , , , ,65, , , ,65, , , , , , , , , , , , 
328,levels/gta5/interiors/int_props/int_services, , , , , , , , , , , , , , , , , ,49, , , , , , , , , , , , , , , , , 
329,levels/gta5/interiors/v_int_1, , , , , , , , , , , , , , , , , , , , , , , , , , , , ,1, , , , , , 
330,levels/gta5/interiors/v_int_13, , , , , , , , , , , , , , , , , , , , , , ,3, , , , , , , , , , , , 
331,levels/gta5/interiors/v_int_15, , , , , , , , , , , , , , , , , , , , , , , , , , , ,6,6, , , , , , 
332,levels/gta5/interiors/v_int_19, , , , , , , , , , , , , , , ,10,6, , , , , , , , , ,1,3,3,3, , , , , 
333,levels/gta5/interiors/v_int_23, , , , , , , , , , , , , , , , , , , , , , , , , , ,13, , , , , , , , 
334,levels/gta5/interiors/v_int_24, , , , , , , , , , , ,36, , , ,2,2,2,2, , , ,2,2,1,1,1, , , , , , , , 
335,levels/gta5/interiors/v_int_30, , , , , , , , , , , , , , , , , , , , , , , , , , ,12, , , , , , , , 
336,levels/gta5/interiors/v_int_34,1,1, , ,1,1,1,1,1,1, , , , , , , , , , , , , , ,12, , , , , , , , , , 
337,levels/gta5/interiors/v_int_35,2,2, , ,2,2,2,2,2,2,2,2,2,2,2,2,2,2,2, , , ,2,2,2,2,2,2,2,2,2, ,2, , 
338,levels/gta5/interiors/v_int_38, , , , , , , , , , , , , , , , , , , , , , , , , , , ,14, , , , , , , 
339,levels/gta5/interiors/v_int_39, , , , , , , , , , , , , , , , , , , , , , , , ,27, , , , , , , , , , 
340,levels/gta5/interiors/v_int_4,1,1, , ,1,1,1,1,1,1,1,1,1,1,1,1,1,1,1, , , ,1,1,1,1,1,1,1,1,1, ,1, , 
341,levels/gta5/interiors/v_int_43, , , , , , , , , , , ,3, , , , , , , , , , , , , , , , , , , , , , , 
342,levels/gta5/interiors/v_int_46,1,1, , ,1, , , , , , , , , , , , , , , , , , , ,14, , , , , , , , , , 
343,levels/gta5/interiors/v_int_47, , , , , , , , , , , , , , , , , , , , , , , , , , ,1, , , , , , , , 
344,levels/gta5/interiors/v_int_53, , , , , , , , , , , , , , , , , , , , , , , , , , , , ,2, , , , , , 
345,levels/gta5/interiors/v_int_6, , , , , , , , , , , , , , , , , , , , , , , , , , ,15, , , , , , , , 
346,levels/gta5/interiors/v_int_60,1, , , , , , , , , , , , , , , , , , , , , , ,20, , , , , , , , , , , 
347,levels/gta5/interiors/v_int_9, , , , , , , , , , , , , , , ,25, , , , , , , , ,9, , ,5, , , , , , , 
348,levels/gta5/props/building/v_rooftop,13,13, , ,13,13,13,13,13,13,13,13,13,13,13,13,13,12,54, , , ,54,13,13,13,13,13,13,13,1, , , , 
349,levels/gta5/props/commercial/v_bar,9, , , , , , , , , , , , , , , , , , , , , , , , , , , , , , , , , , 
350,levels/gta5/props/commercial/v_garage, , , , , , , , , , , ,1, , , , , , , , , , , , , , , , , , , , , , , 
351,levels/gta5/props/commercial/v_office, , , , , , , , , , , , , , , , , , , , , , , , , , , , , , ,2, , , , 
352,levels/gta5/props/industrial/v_airport, , , , , , , , , , , , , , , , , ,77, , , , , , , , , , ,3, , , , , , 
353,levels/gta5/props/industrial/v_industrial, , , , , , , , , , , ,3,1, , , , ,85, , , , , , , , , , , , , , , , , 
354,levels/gta5/props/lev_des/lev_des,71,2, , ,2,2,2,2,2,2,2,2,2,2,2,4,2,2,2, , , ,2,2,4,4,5,4,4,4,4, ,4, , 
355,levels/gta5/props/lev_des/p_v_lev_des_skin,1,1, , ,1,1,1,1,1,1,1,1,1,1,1,1,1,1,1, , , ,1,1,3,1,3,3,3,1,1, ,1, , 
356,levels/gta5/props/lev_des/v_minigame,3, , , , , , , , , , , , , , ,1,2,1,68, , , ,68,1,1,10,10,10,10,1,1, ,1, , 
357,levels/gta5/props/lev_des/v_set_pieces, , , , , , , , , , , , , , , , , , ,3, , , ,3,1,1,1,1,1,1,1,1, , , , 
358,levels/gta5/props/recreational/v_coin_op, , , , , , , , , , , , , , , , ,9, , , , , , , , , , , , , , , , , , 
359,levels/gta5/props/recreational/v_sports, , , , , , , , , , , , , , , , ,14,6,4, , , ,11,8, , ,2, , , , , , , , 
360,levels/gta5/props/residential/v_electrical, , , , , , , , , , , , , , , , , , , , , , , ,13, , , , , , , , , , , 
361,levels/gta5/props/residential/v_garden,1, , , , , , , , , , , , , , , , , , , , , , , ,5, , , , , , , , , , 
362,levels/gta5/props/roadside/v_bins, , , , , , , , , , , , , , , ,1, , , , , , , , , , , , , , , , , , , 
363,levels/gta5/props/roadside/v_fences,3, , , , , , , , , , , , , , , , ,35,35, , , ,35, , , , , , , , , , , , 
364,levels/gta5/props/roadside/v_fences_2,377, , , , , , , , , , , , , , , , , , , , , , , ,425, , , , , ,2, ,4, , 
365,levels/gta5/props/roadside/v_seating_tables, , , , , , , , , , , , , , , , , , , , , , , ,3,7, , , , , , , , , , 
366,levels/gta5/props/roadside/v_storage, , , , , , , , , , , , , , , ,2, , , , , , , , ,8, , , , , , , , , , 
367,levels/gta5/props/roadside/v_utility, , , , , , , , , , , , , , , , , , ,149, , , ,149, , ,14,14,14,14,14,14, ,14, , 
368,levels/gta5/props/rural/v_farm,31, , , , , , , , , , , , , , , , ,57,57, , , ,57, , , ,9, , , , , , , , 
369,levels/gta5/props/vegetation/v_bush, , , , , , , , , , , ,42, , , , , , ,30, , , ,30, , , , , , , , , ,1, , 
370,levels/gta5/props/vegetation/v_ext_veg, , , , , , , , , , , , , , , ,1,1, , , , , , , , , ,3, , , , , , , , 
371,levels/gta5/props/vegetation/v_fanpalm, , , , , , , , , , , , , , , , , ,1,11, , , ,11,1,1,1,52, ,1,1,1, ,1, , 
372,levels/gta5/vehiclemods/cavalcade_mods, , , , , , , , , , , , , , , , ,1,1,1, , , ,1,1,1,1,1,1,1,1, , , , , 
373,levels/gta5/vehiclemods/daemon_mods, , , , , , , , , , , , , , , , ,2,2,2, , , ,2,2,2,2,2,2,2,2,2, ,2, , 
374,levels/gta5/vehiclemods/dominator_mods, , , , , , , , , , , , , , , , ,10,10,10, , , ,10,10,10,10,10,10,10,10,15, ,15, , 
375,levels/gta5/vehiclemods/feroci_mods, , , , , , , , , , , , , , , , , , , , , , , , , , , , , ,1,1, ,1, , 
376,levels/gta5/vehiclemods/pcj_mods, , , , , , , , , , , , , , , , , , , , , , , , , , , , , , ,5, ,5, , 
377,levels/gta5/vehiclemods/penumbra_mods, , , , , , , , , , , , , , , , ,13,13,13, , , ,13,13,13,13,13,13,13,13,13, ,13, , 
378,levels/gta5/vehiclemods/ratloader_mods, , , , , , , , , , , , , , , , ,45,45,45, , , ,45,45,45,45,45,45,45,45,45, ,45, , 
379,levels/gta5/vehiclemods/ruiner_mods, , , , , , , , , , , , , , , , , , , , , , , , , , , , , , ,3, ,3, , 
380,levels/gta5/vehiclemods/sultan_mods, , , , , , , , , , , , , , , , , , , , , , , , , , , , , , ,6, ,6, , 
381,levels/gta5/vehiclemods/tampa_mods, , , , , , , , , , , , , , , , ,1,1,1, , , ,1,1,1,1,1,1,1,1,1, ,1, , 
382,levels/gta5/vehicles, , , , , , , , , , , ,1, , , , , , , , , , , ,89,9, , , , , , , , , , 
