0, ,Sat Mar 31,Fri Apr 06,Thu Apr 12,Thu Apr 12,Fri Apr 13,Sat Apr 14,Sat Apr 14,Tue Apr 17,Wed Apr 18,Thu Apr 19,Fri Apr 20,Sat Apr 21,Sat Apr 21,Wed Apr 25,Fri Apr 27,Sat May 12,Tue May 15,Wed May 16,Fri May 18,Mon May 21,Mon May 21,Mon May 21,Tue May 22,Fri May 25,Thu Jun 07,Thu Jun 14,Wed Jun 20,Tue Jun 26,Fri Jun 29,Thu Jul 12,Fri Aug 03,Mon Aug 20,Fri Aug 31,Wed Oct 24,Fri Oct 26
1,data/cdimages/scaleform_minimap, , , , , , , , , , , , , , , , , , , , , , , , , , , , , , ,2, ,2, , 
2,levels/gta5/_citye/downtown_01/dt1_01, , , , , , , , , , , , , , , , , , , , , , , , , , , ,1, ,1,1, ,1, , 
3,levels/gta5/_citye/downtown_01/dt1_02, , , , , , , , , , , , , , , , , , , , , , , , , , , , , , ,2, ,1, , 
4,levels/gta5/_citye/downtown_01/dt1_03, , , , , , , , , , , , , , , , , , , , , , , , , , , , , ,1,1, ,2, , 
5,levels/gta5/_citye/downtown_01/dt1_07,1,1, , ,1,1,1,1,1,1,1,1,1,1,1,1,1,1,1, , , ,1, , , , , , , , , , , , 
6,levels/gta5/_citye/downtown_01/dt1_11, , , , , , , , , , , , , , , , , , , , , , , , , , , , , ,1,1, ,2, , 
7,levels/gta5/_citye/downtown_01/dt1_13, , , , , , , , , , , , , , , , , , , , , , , , , , , , , , ,2, ,2, , 
8,levels/gta5/_citye/downtown_01/dt1_20, , , , , , , , , , , , , , , , , , , , , , , , , , , , , , ,2, ,1, , 
9,levels/gta5/_citye/downtown_01/dt1_21,1,1, , ,1,1,1,1,1,1,1,1,1,1,1,1,1,1,1, , , ,1, , , , , , , , , , , , 
10,levels/gta5/_citye/downtown_01/dt1_26,1,1, , ,1,1,1,1,1,1,1,1,1,1,1,1,1,1,1, , , ,1, , , , , , , , , , , , 
11,levels/gta5/_citye/hollywood_01/hollywood,2,2, , ,2,2,2,2,2,2,2,2,2,2,2,2,2,2,2, , , ,2, , , , , , , , , , , , 
12,levels/gta5/_citye/hollywood_01/hw1_06, , , , , , , , , , , , , , , ,1,1,1,1, , , ,1, , , , ,1,1,1,1, ,1, , 
13,levels/gta5/_citye/hollywood_01/hw1_15, , , , , , , , , , , , , , , , , , , , , , , , , , , , , , ,3, ,2, , 
14,levels/gta5/_citye/hollywood_01/hw1_16, , , , , , , , , , , , , , , , , , , , , , , , , , , , , , , , ,2, , 
15,levels/gta5/_citye/hollywood_01/hw1_25, , , , , , , , , , , , , , , , , , , , , , , , , , , , , , , , ,2, , 
16,levels/gta5/_citye/hollywood_01/hw1_26, , , , , , , , , , , , , , , , , , , , , , , , , , , , , , , , ,3, , 
17,levels/gta5/_citye/hollywood_01/hw1_27,2,2, , ,2,2,2,2,2,2,2,2,2,2,2,2,2,2,2, , , ,2, , , , , , , , , , , , 
18,levels/gta5/_citye/hollywood_01/hw1_rd, , , , , , , , , , , , , , , , , , , , , , , , , , , ,4,4,4,3, ,3, , 
19,levels/gta5/_citye/indust_01/id1_25, , , , , , , , , , , , , , , , , , , , , , , , , , , , , , , , ,1, , 
20,levels/gta5/_citye/indust_01/id1_29, , , , , , , , , , , , , , , , , , , , , , , , , , , , , , , , ,1, , 
21,levels/gta5/_citye/scentral_01/sc1_00f, , , , , , , , , , , , , , , , , ,1,1, , , ,1, , , , , , , , , , , , 
22,levels/gta5/_citye/scentral_01/sc1_11,2,2, , ,2,2,2,2,2,2,2,2,2,2,1,1,1,1,1, , , ,1, , , , , , , , , , , , 
23,levels/gta5/_citye/scentral_01/sc1_13, , , , , , , , , , , , , , , , , , , , , , , , , , , , , ,5,5, ,4, , 
24,levels/gta5/_citye/scentral_01/sc1_19,1,1, , ,1,1,1,1,1,1,1,1,1,1,1,1, , , , , , , , , , , , , , , , , , , 
25,levels/gta5/_citye/scentral_01/sc1_20,1,1, , ,1,1,1,1,1,1,1,1,1,1,1,1,1,1,1, , , ,1, , , , , , , , , , , , 
26,levels/gta5/_citye/scentral_01/sc1_21, , , , , , , , , , , , , , , , , , , , , , , , , , , , , , ,2, ,2, , 
27,levels/gta5/_citye/scentral_01/sc1_24, , , , , , , , , , , , , , , , , , , , , , , , , , , ,1, ,1,1, ,1, , 
28,levels/gta5/_citye/scentral_01/sc1_29, , , , , , , , , , , , , , , , , , , , , , , , , , , ,1,1,1,1, ,2, , 
29,levels/gta5/_citye/scentral_01/sc1_33,1,1, , ,1,1,1,1,1,1,1,1,1,1,1,1,1,1,1, , , ,1, , , , , , , , , , , , 
30,levels/gta5/_citye/sunset/bt1_02, , , , , , , , , , , , , , , , , , , , , , , , , , , , , , , , ,1, , 
31,levels/gta5/_citye/sunset/bt1_04, , , , , , , , , , , , , , , , , , , , , , , , , , , , , , , , ,2, , 
32,levels/gta5/_citye/sunset/ss1_01, , , , , , , , , , , , , , , , , , , , , , , , , ,1,1,3,3,3,2, ,2, , 
33,levels/gta5/_citye/sunset/ss1_02, , , , , , , , , , , , , , , , , , , , , , , , , ,1,1,1,1,1, , ,2, , 
34,levels/gta5/_citye/sunset/ss1_05, , , , , , , , , , , , , , , , , , , , , , , , , , , ,3,3,3,3, ,4, , 
35,levels/gta5/_citye/sunset/ss1_06b, , , , , , , , , , , , , , , , , , , , , , , , , , , , , , , , ,4, , 
36,levels/gta5/_citye/sunset/ss1_12, , , , , , , , , , , , , , , , , , , , , , , , , , , , , , , , ,2, , 
37,levels/gta5/_citye/sunset/ss1_13, , , , , , , , , , , , , , , , , , , , , , , , , , , , , , , , ,2, , 
38,levels/gta5/_citye/sunset/ss1_rd1, , , , , , , , , , , , , , , , , , , , , , , , , , , ,2,2,2,5, ,6, , 
39,levels/gta5/_cityw/beverly_01/bh1_21, , , , , , , , , , , , , , , , , , , , , , , , , , , , , , ,4, ,4, , 
40,levels/gta5/_cityw/beverly_01/bh1_29, , , , , , , , , , , , , , , , , , , , , , , , , , , , , , ,1, , , , 
41,levels/gta5/_cityw/beverly_01/bh1_30, , , , , , , , , , , , , , , , , , , , , , , , , , , , , , ,2, ,1, , 
42,levels/gta5/_cityw/beverly_01/bh1_31, , , , , , , , , , , , , , , , , , , , , , , , , , , , , , ,4, ,4, , 
43,levels/gta5/_cityw/beverly_01/bh1_35, , , , , , , , , , , , , , , , , , , , , , , , , , , , , , ,1, , , , 
44,levels/gta5/_cityw/beverly_01/bh1_36, , , , , , , , , , , , , , , , , , , , , , , , , , , , , , ,3, ,2, , 
45,levels/gta5/_cityw/beverly_01/bh1_42, , , , , , , , , , , , , , , , , , , , , , , , , , , , , , , , ,2, , 
46,levels/gta5/_cityw/beverly_01/bh1_42b, , , , , , , , , , , , , , , , , , , , , , , , , , , , , , , , ,2, , 
47,levels/gta5/_cityw/beverly_01/bh1_43, , , , , , , , , , , , , , , , , , , , , , , , , , , , , ,3,5, ,4, , 
48,levels/gta5/_cityw/beverly_01/bh1_44, , , , , , , , , , , , , , , , , , , , , , , , , , , , , , ,3, ,2, , 
49,levels/gta5/_cityw/beverly_01/bh1_45, , , , , , , , , , , , , , , , , , , , , , , , , , , , , , , , ,3, , 
50,levels/gta5/_cityw/beverly_01/bh1_46, , , , , , , , , , , , , , , , , , , , , , , , , , , , , , , , ,1, , 
51,levels/gta5/_cityw/beverly_01/bh1_46b, , , , , , , , , , , , , , , , , , , , , , , , , , , , , , , , ,2, , 
52,levels/gta5/_cityw/beverly_01/bh1_47, , , , , , , , , , , , , , , , , , , , , , , , , , , , , , ,2, ,2, , 
53,levels/gta5/_cityw/beverly_01/bh1_48, , , , , , , , , , , , , , , , , , , , , , , , , , , , , , , , ,2, , 
54,levels/gta5/_cityw/beverly_01/bh1_49, , , , , , , , , , , , , , , , , , , , , , , , , , , , , , , , ,2, , 
55,levels/gta5/_cityw/beverly_01/bh1_rd, , , , , , , , , , , , , , , , , , , , , , , , , , , , , , ,5, ,5, , 
56,levels/gta5/_cityw/koreatown_01/kt1_01, , , , , , , , , , , , , , , , , , , , , , , , , , , , , , ,7, ,3, , 
57,levels/gta5/_cityw/koreatown_01/kt1_03, , , , , , , , , , , , , , , , , , , , , , , , , , , , , , , , ,4, , 
58,levels/gta5/_cityw/koreatown_01/kt1_05, , , , , , , , , , , , , , , , , , , , , , , , , , , , , , , , ,2, , 
59,levels/gta5/_cityw/koreatown_01/kt1_17, , , , , , , , , , , , , , , , , , , , , , , , , , , , , , , , ,1, , 
60,levels/gta5/_cityw/koreatown_01/kt1_rd, , , , , , , , , , , , , , , , , , , , , , , , , , , , , , ,4, ,7, , 
61,levels/gta5/_cityw/sanpedro_01/sp1_01, , , , , , , , , , , , , , , , , , , , , , , , , , , , , ,3,2, , , , 
62,levels/gta5/_cityw/sanpedro_01/sp1_04, , , , , , , , , , , , , , , , , , , , , , , , , , , , , ,1,1, , , , 
63,levels/gta5/_cityw/sanpedro_01/sp1_06, , , , , , , , , , , , , , , , , , , , , , , , , , , , ,2,2,1, ,1, , 
64,levels/gta5/_cityw/sanpedro_01/sp1_07, , , , , , , , , , , , , , , , , , , , , , , , , , , , , ,3,2, , , , 
65,levels/gta5/_cityw/sanpedro_01/sp1_10, , , , , , , , , , , , , , , , , , , , , , , , , , , , , ,2,2, ,2, , 
66,levels/gta5/_cityw/sanpedro_01/sp1_11, , , , , , , , , , , , , , , , , , , , , , , , , , , , , ,2,2, ,2, , 
67,levels/gta5/_cityw/sanpedro_01/sp1_12, , , , , , , , , , , , , , , , , , , , , , , , , , , , , ,3,2, ,3, , 
68,levels/gta5/_cityw/santamon_01/sm_18, , , , , , , , , , , , , , , , , , , , , , , , , , , , , , , , ,2, , 
69,levels/gta5/_cityw/santamon_01/sm_19, , , , , , , , , , , , , , , , , , , , , , , , , , , , , , , , ,2, , 
70,levels/gta5/_cityw/santamon_01/sm_rd, , , , , , , , , , , , , , , , , , , , , , , , , , , , , , , , ,4, , 
71,levels/gta5/_cityw/venice_01/vb_05, , , , , , , , , , , , , , , , , , , , , , , , , , , ,1,1,1,2, ,8, , 
72,levels/gta5/_cityw/venice_01/vb_23, , , , , , , , , , , , , , , , , , , , , , , , , , , , , , , , ,2, , 
73,levels/gta5/_cityw/venice_01/vb_25, , , , , , , , , , , , , , , , , , , , , , , , , , , , , , ,4, ,3, , 
74,levels/gta5/_cityw/venice_01/vb_26, , , , , , , , , , , , , , , , , , , , , , , , , , , , , , , , ,2, , 
75,levels/gta5/_cityw/venice_01/vb_29, , , , , , , , , , , , , , , , , , , , , , , , , , , , , , , , ,1, , 
76,levels/gta5/_cityw/venice_01/vb_38, , , , , , , , , , , , , , , , , , , , , , , , , , , ,1,1,1,1, ,1, , 
77,levels/gta5/_cityw/venice_01/vb_39, , , , , , , , , , , , , , , , , , , , , , , , , , , , , , , , ,1, , 
78,levels/gta5/_cityw/venice_01/vb_44, , , , , , , , , , , , , , , , , , , , , , , , , , , , , , , , ,5, , 
79,levels/gta5/_cityw/venice_01/vb_ca,2,2, , ,2,2,2,2,2,2,2,2,2,2,2,2,2,2,2, , , ,2, , , , , , , ,3, ,2, , 
80,levels/gta5/_cityw/venice_01/vb_rd, , , , , , , , , , , , , , , , , , , , , , , , , , , , , , ,3, ,5, , 
81,levels/gta5/_hills/cityhills_01/ch1_01, , , , , , , , , , , , , , , , , , , , , , , , , , , , , , ,4, ,3, , 
82,levels/gta5/_hills/cityhills_01/ch1_02, , , , , , , , , , , , , , , , , , , , , , , , , , , , , , , , ,3, , 
83,levels/gta5/_hills/cityhills_01/ch1_04, , , , , , , , , , , , , , , , , , , , , , , , , , , , , , ,3, ,2, , 
84,levels/gta5/_hills/cityhills_01/ch1_04b, , , , , , , , , , , , , , , , , , ,1, , , ,1, , , , , , , ,2, ,3, , 
85,levels/gta5/_hills/cityhills_01/ch1_05, , , , , , , , , , , , , , , , , , ,3, , , ,3, , , , , , , ,4, ,1, , 
86,levels/gta5/_hills/cityhills_01/ch1_05b, , , , , , , , , , , , , , , , , , , , , , , , , , , , , , ,2, ,1, , 
87,levels/gta5/_hills/cityhills_01/ch1_06e,1,1, , ,1,1,1,1,1,1,1,1,1,1,1,1,1,1,1, , , ,1, , , , , , , , , , , , 
88,levels/gta5/_hills/cityhills_01/ch1_09b, , , , , , , , , , , , , , , , , , ,1, , , ,1, , , , , , , , , , , , 
89,levels/gta5/_hills/cityhills_02/ch2_01,1,1, , ,1,1,1,1,1,1,1,1,1,1,1,1,1,1,1, , , ,1, , , , , , ,2,2, ,1, , 
90,levels/gta5/_hills/cityhills_02/ch2_01b, , , , , , , , , , , , , , , , , , , , , , , , , , , , , ,2,2, ,1, , 
91,levels/gta5/_hills/cityhills_02/ch2_01c, , , , , , , , , , , , , , , , , , , , , , , , , , , , , , , , ,1, , 
92,levels/gta5/_hills/cityhills_02/ch2_02, , , , , , , , , , , , , , , , , , , , , , , , , , , , , ,8,9, ,6, , 
93,levels/gta5/_hills/cityhills_02/ch2_03, , , , , , , , , , , , , , , , , , , , , , , , , , , , , , , , ,3, , 
94,levels/gta5/_hills/cityhills_02/ch2_04,3,3, , ,3,3,3,3,3,3,3,3,3,3,3,1,1, , , , , , , , , , , , , , , , , , 
95,levels/gta5/_hills/cityhills_02/ch2_05b,3,3, , ,3,3,3,3,3,3,3,3,3,3,3,1,1, , , , , , , , , , , , ,1, , ,2, , 
96,levels/gta5/_hills/cityhills_02/ch2_06,5,5, , ,5,2,2,2,2,2,2,3,3,3,3,3,3,3,3, , , ,3, , , , , , , , , ,1, , 
97,levels/gta5/_hills/cityhills_02/ch2_07, , , , , , , , , , , , , , , , , , , , , , , , , , , ,3,3,5,4, ,4, , 
98,levels/gta5/_hills/cityhills_02/ch2_07c, , , , , , , , , , , , , , , , , , , , , , , , , , ,2,2,2,3,3, ,2, , 
99,levels/gta5/_hills/cityhills_02/ch2_07d, , , , , , , , , , , , , , , , , , , , , , , , , , , ,4,4,4,4, ,2, , 
100,levels/gta5/_hills/cityhills_02/ch2_09c, , , , , , , , , , , , , , , , , , , , , , , , , , , , , , ,6, ,5, , 
101,levels/gta5/_hills/cityhills_02/ch2_11, , , , , , , , , , , , , , , , , , , , , , , , , , , , , , , , ,6, , 
102,levels/gta5/_hills/cityhills_02/ch2_11b, , , , , , , , , , , , , , , , , , , , , , , , , , , , , , ,3, ,3, , 
103,levels/gta5/_hills/cityhills_02/ch2_12, , , , , , , , , , , , , , , , , , , , , , , , , , , ,4,4,2,2, ,2, , 
104,levels/gta5/_hills/cityhills_03/ch3_08, ,1, , ,1,1,1,1,1,1,1,1,1,1,1,1,1,1,2, , , ,2, , , , , , , , , , , , 
105,levels/gta5/_hills/cityhills_03/ch3_10, , , , , , , , , , , , , , , , , , , , , , , , , , , , , , , , ,2, , 
106,levels/gta5/_hills/cityhills_03/ch3_11,1,1, , ,1,1,1,1,1,1,1,1,1,1,1,1,1,1,1, , , ,1, , , , , , , , , ,2, , 
107,levels/gta5/_hills/country_01/cs1_01, , , , , , , , , , , , , , , , , , , , , , , , , , , , , ,3,3, ,2, , 
108,levels/gta5/_hills/country_01/cs1_02, , , , , , , , , , , , , , , , , , , , , , , , , , , , , , ,1, , , , 
109,levels/gta5/_hills/country_01/cs1_03, , , , , , , , , , , , , , , , , , , , , , , , , , , , , ,3,2, ,1, , 
110,levels/gta5/_hills/country_01/cs1_04, , , , , , , , , , , , , , , , , , , , , , , , , , , , , ,3,1, ,1, , 
111,levels/gta5/_hills/country_01/cs1_05, , , , , , , , , , , , , , , , , , , , , , , , , , , , , ,3,2, ,1, , 
112,levels/gta5/_hills/country_01/cs1_06, , , , , , , , , , , , , , , , , , , , , , , , , , , , , ,7,5, ,3, , 
113,levels/gta5/_hills/country_01/cs1_07, , , , , , , , , , , , , , , , , , , , , , , , , , , , , ,4,4, ,3, , 
114,levels/gta5/_hills/country_01/cs1_08, , , , , , , , , , , , , , , , , , , , , , , , , , , , , , ,3, ,2, , 
115,levels/gta5/_hills/country_01/cs1_13, , , , , , , , , , , , , , , , , , ,5, , , ,5,1,1,1,1,2,2,2,1, ,1, , 
116,levels/gta5/_hills/country_01/cs1_14, , , , , , , , , , , , , , , , , , ,2, , , ,2, , , , , , , , , ,3, , 
117,levels/gta5/_hills/country_01/cs1_14b, , , , , , , , , , , , , , , , , , ,2, , , ,2, , , , , , , , , ,3, , 
118,levels/gta5/_hills/country_01/cs1_15, , , , , , , , , , , , , , , , , , , , , , , , , , ,1,3,3,5,3, ,2, , 
119,levels/gta5/_hills/country_01/cs1_15b, , , , , , , , , , , , , , , , , , , , , , , , , , , , , ,2,3, ,2, , 
120,levels/gta5/_hills/country_01/cs1_15c, , , , , , , , , , , , , , , , , , , , , , , , , , , , , , ,3, ,2, , 
121,levels/gta5/_hills/country_01/cs1_16, , , , , , , , , , , , , , , , , , , , , , , , , , , ,2,2,4,3, ,2, , 
122,levels/gta5/_hills/country_02/cs2_01, , , , , , , , , , , , , , , , , , ,1, , , ,1, , , , , , ,1, , , , , 
123,levels/gta5/_hills/country_02/cs2_02, , , , , , , , , , , , , , , , , , , , , , , , , , , , , , , , ,1, , 
124,levels/gta5/_hills/country_02/cs2_03, , , , , , , , , , , , , , , , , , , , , , , , , ,2,2,4,4, , , , , , 
125,levels/gta5/_hills/country_02/cs2_04, , , , , , , , , , , , , , , , , , , , , , , , , , , , , ,2,3, ,2, , 
126,levels/gta5/_hills/country_02/cs2_05, , , , , , , , , , , , , , , , , , , , , , , , , ,1,1,1,1,1,1, , , , 
127,levels/gta5/_hills/country_02/cs2_06, , , , , , , , , , , , , , , , , , , , , , , , , , , , , , ,1, , , , 
128,levels/gta5/_hills/country_02/cs2_08, , , , , , , , , , , , , , , , , , , , , , , , , ,2,2,5,5,6,5, ,2, , 
129,levels/gta5/_hills/country_02/cs2_09, , , , , , , , , , , , , , , , , , , , , , , , , , , ,2,2, , , , , , 
130,levels/gta5/_hills/country_02/cs2_30, , , , , , , , , , , , , , , , , , , , , , , , , , , , , , , , ,1, , 
131,levels/gta5/_hills/country_02/cs2_rdprops, , , , , , , , , , , , , , , , , , , , , , , , , ,1,1,1,1,1, , , , , 
132,levels/gta5/_hills/country_02/cs2_roads, , , , , , , , , , , , , , , , , , , , , , , , , ,1,1,1,1,1, , , , , 
133,levels/gta5/_hills/country_03/country_03, , , , , , , , , , , , , , , , , , ,1, , , ,1,1,1,1,1,1,1,1,1, , , , 
134,levels/gta5/_hills/country_03/cs3_02, , , , , , , , , , , , , , , , , , , , , , , , , , , , , , , , ,3, , 
135,levels/gta5/_hills/country_03/cs3_04, , , , , , , , , , , , , , , , , , , , , , , , , , , ,1,1,1,1, ,1, , 
136,levels/gta5/_hills/country_03/cs3_05, , , , , , , , , , , , , , , , , , ,2, , , ,2, , , , , , ,1, , ,1, , 
137,levels/gta5/_hills/country_03/cs3_06, , , , , , , , , , , , , , , , , , ,2, , , ,2, , , , , , , ,4, ,3, , 
138,levels/gta5/_hills/country_03/cs3_07,1,1, , ,1,1,1,1,1,1,1,1,1,1,1,3,3,3,3, , , ,3,2,2,2,2,2,2,2,2, , , , 
139,levels/gta5/_hills/country_03/cs3_08d, , , , , , , , , , , , , , , , , , , , , , , , , , , , , ,2,1, ,1, , 
140,levels/gta5/_hills/country_03/cs3_08g, , , , , , , , , , , , , , , , , , , , , , , , , , , , , ,2,1, ,1, , 
141,levels/gta5/_hills/country_04/cs4_02, , , , , , , , , , , , , , , , , , , , , , , , , , , ,1, , , , , , , 
142,levels/gta5/_hills/country_04/cs4_03, , , , , , , , , , , , , , , , , , , , , , , , , , , , , , , , ,5, , 
143,levels/gta5/_hills/country_04/cs4_04, , , , , , , , , , , , , , , , , , , , , , , , , , , , , , ,4, ,3, , 
144,levels/gta5/_hills/country_04/cs4_05, , , , , , , , , , , , , , , , , , , , , , , , , , , , , , ,4, ,4, , 
145,levels/gta5/_hills/country_04/cs4_06, , , , , , , , , , , , , , , , , , , , , , , , , , , , , , ,4, ,5, , 
146,levels/gta5/_hills/country_04/cs4_07, , , , , , , , , , , , , , , , , , , , , , , , , , , , , , ,4, ,4, , 
147,levels/gta5/_hills/country_04/cs4_08, , , , , , , , , , , , , , , , , , , , , , , , , , , , , , ,4, ,5, , 
148,levels/gta5/_hills/country_04/cs4_09, , , , , , , , , , , , , , , , , , , , , , , , , , , , , , ,4, ,4, , 
149,levels/gta5/_hills/country_04/cs4_10, , , , , , , , , , , , , , , , , , , , , , , , , , , , , , ,4, ,5, , 
150,levels/gta5/_hills/country_04/cs4_14, , , , , , , , , , , , , , , , , , , , , , , , , , ,3,3,3,3,3, ,2, , 
151,levels/gta5/_hills/country_05/cs5_rd_props, , , , , , , , , , , , , , , , , , , , , , , , ,1,1,1,1,1,1,2, , , , 
152,levels/gta5/_hills/country_05/cs5_roads, , , , , , , , , , , , , , , , , , , , , , , , ,1,1,1,1,1,1,2, , , , 
153,levels/gta5/_hills/country_06/cs6_01, , , , , , , , , , , , , , , , , , , , , , , , , , , , , , ,3, ,2, , 
154,levels/gta5/_hills/country_06/cs6_03, , , , , , , , , , , , , , , , , , , , , , , , , , , , , , ,1, ,1, , 
155,levels/gta5/_hills/country_06/cs6_04,2,1, , ,1,1,1,1,1,1,1,1,1,1,1,1,1,1,1, , , ,1, , , , , , , , , , , , 
156,levels/gta5/_hills/country_06/cs6_05, , , , , , , , , , , , , , , ,1,1,1,1, , , ,1, , , , , , , , , , , , 
157,levels/gta5/_hills/country_06/cs6_06, , , , , , , , , , , , , , , , , , , , , , , , , , , , , , ,2, ,1, , 
158,levels/gta5/_hills/country_06/cs6_08, , , , , , , , , , , , , , , , , , ,1, , , ,1, , , , , , ,2,3, ,1, , 
159,levels/gta5/_hills/country_06/cs6_09,2,2, , ,2, , , , , , , , , , , , , ,1, , , ,1, , , , , , ,1, , , , , 
160,levels/gta5/_hills/country_06/cs6_10, , , , , , , , , , , , , , , , , , , , , , , , , , , ,2, ,2,3, ,3, , 
161,levels/gta5/_hills/country_06/cs6_rd_props, , , , , , , , , , , , , , , , ,1,1,1, , , ,1,1,1,1,1,1,1,1,1, , , , 
162,levels/gta5/_hills/country_06/cs6_roads, , , , , , , , , , , , , , , , ,1,1,1, , , ,1,1,1,1,1,1,1,1,1, , , , 
163,levels/gta5/_prologue/plg_06,1,1, , ,1,1,1,1,1,1,1,1,1,1,1,1,1,1,1, , , ,1, , , , , , , , , , , , 
164,levels/gta5/props/industrial/v_industrial, , , , , , , , , , , , , , , , , , , , , , , , , , , , , , , , ,7, , 
165,levels/gta5/props/lev_des/p_v_lev_des_skin,9,9, , ,9,9,9,9,9,9,9,9,9,9,9,9,9,9,9, , , ,9,6,6,6,6,6,6,6,6, ,6, , 
166,levels/gta5/props/roadside/v_bins,6,6, , ,6,6,6,6,6,6,6,6,6,6,6,1, , , , , , , , , , , , , , , , , , , 
167,levels/gta5/props/roadside/v_fences,25,23, , ,23,23,23,23,23,23,23,23,23,25,25,22,69,69,69, , , ,69, , , , , , , , , , , , 
168,levels/gta5/props/roadside/v_fences_2,20,23, , ,23,23,23,23,23,23,23,23,23,23,23,23,23,26,26, , , ,26, , , , , , , ,2, , , , 
169,levels/gta5/props/roadside/v_utility, , , , , , , , , , , , , , , ,14,14,14,14, , , ,14,14,14,14,14,14,14,14,14, , , , 
170,levels/gta5/props/rt_bink/vfx_reference, ,3, , ,3,3,3,3,3,3,3,3,3,3,3,3,3,3,3, , , ,3,3,1,1,1,1,1,1,1, ,1, , 
171,levels/gta5/props/rural/v_farm, , , , , , , , , , , , , , , , , , , , , , , , , ,3,3,3,3,3,3, , , , 
172,levels/gta5/props/vegetation/v_bush,2,3, , ,9,9,9,9,7,7,7,9,9,9,9,9,9,12,9, , , ,9, , , , , , , ,9, , , , 
173,levels/gta5/props/vegetation/v_ext_veg,5,3, , ,3,3,3,3,3,3,3,3,3,3,3,1,1,1,1, , , ,1, , , , , , , , , ,1, , 
174,levels/gta5/props/vegetation/v_fanpalm,1,1, , ,1,1,1,1,1,1,1,1,1,1,1,1,1,1,1, , , ,1, , , , , , ,6,2, ,4, , 
175,levels/gta5/props/vegetation/v_palm, , , , , , , , , , , , , , , , , , , , , , , , , ,4,4,4,4,5,5, ,4, , 
176,levels/gta5/props/vegetation/v_snow,1,1, , ,1,1,1,1,1,1,1,1,1,1,1,1,1,1,1, , , ,1, , , , , , , , , , , , 
177,levels/gta5/props/vegetation/v_trees, ,1, , ,1,1,1,1,1,1,1,1,1,1,1,1,1,1,1, , , ,1,2,2,2,2,7,7,19,19, ,6, , 
178,levels/gta5/vehicles,178,175, , ,175,175,175,175,175,175,175,175,175,175, ,174,174,174,174, , , ,174,162,164,166,164,125,108,82,40, ,8, , 
