0, ,Sat Mar 31,Fri Apr 06,Thu Apr 12,Thu Apr 12,Fri Apr 13,Sat Apr 14,Sat Apr 14,Tue Apr 17,Wed Apr 18,Thu Apr 19,Fri Apr 20,Sat Apr 21,Sat Apr 21,Wed Apr 25,Fri Apr 27,Sat May 12,Tue May 15,Wed May 16,Fri May 18,Mon May 21,Mon May 21,Mon May 21,Tue May 22,Fri May 25,Thu Jun 07,Thu Jun 14,Wed Jun 20,Tue Jun 26,Fri Jun 29,Thu Jul 12,Fri Aug 03,Mon Aug 20,Fri Aug 31,Wed Oct 24,Fri Oct 26
1,levels/gta5/_citye/citye_xr,3,11, , ,11,11,11,11,11,11,11,11,11,11,11,11,11,11,11, , , ,11,11,10,10,10,10,10,10,10, ,10, , 
2,levels/gta5/_citye/downtown_01/downtown,3,3, , ,3,3,3,3,3,3,3,3,3,3,3,1,1,1, , , , , , , , , , , , , , ,15, , 
3,levels/gta5/_citye/downtown_01/dt1_02, , , , , , , , , , , , , , , , , , , , , , , , , , , , , , ,11, ,12, , 
4,levels/gta5/_citye/downtown_01/dt1_03, , , , , , , , , , , , , , , , , , , , , , , , , , , , , , , , ,20, , 
5,levels/gta5/_citye/downtown_01/dt1_05,7,7, , ,7,7,7,7,7,7,7,7,7,7,7,7,7,7,7, , , ,7,7,7,7,22,24,24,36,27, ,41, , 
6,levels/gta5/_citye/downtown_01/dt1_08, , , , , , , , , , , , , , , , , , ,8, , , ,8,8,8,8,8,8,8,8,8, ,8, , 
7,levels/gta5/_citye/downtown_01/dt1_11, , , , , , , , , , , , , , , , , , , , , , , , , , , , ,28,28,33, ,25, , 
8,levels/gta5/_citye/downtown_01/dt1_21,55,55, , ,56,56,56,56,56,56,56,45,51,47,47,46,46,46,46, , , ,46,46,46,46,46,46,46,46,46, ,46, , 
9,levels/gta5/_citye/downtown_01/dt1_emissive, , , , , , , , , , , , , , , , , , , , , , , ,8,8,8,8,8, , , , ,4, , 
10,levels/gta5/_citye/downtown_01/dt1_rd1,104,104, , ,104,104,104,104,104,104,104,104,104,104,104,104,104,104,104, , , ,104,104,106,106,107,102,102,107,107, ,107, , 
11,levels/gta5/_citye/downtown_01/fwy_01,81,82, , ,82,82,84,86,87,87,87,87,87,87,87,83,83,83,84, , , ,84,86,92,92,94,94,94,74,94, ,101, , 
12,levels/gta5/_citye/downtown_01/fwy_02,15,15, , ,15,15,15,15,15,15,16,16,16,16,16,17,17,17,17, , , ,17,17,22,20,18,17,17,17,17, ,17, , 
13,levels/gta5/_citye/downtown_01/fwy_03,10,10, , ,10,10,10,10,10,10,10,10,10,10,10,10,10,10,10, , , ,10,10,10,10,10,10,10,10,10, ,10, , 
14,levels/gta5/_citye/downtown_01/fwy_04,27,27, , ,39,33,33,39,39,39,33,33,33,33,33,40,40,40,40, , , ,40,42,42,43,43,43,43,43,43, ,41, , 
15,levels/gta5/_citye/hollywood_01/hollywood, , , , , , , , , , , , , , , ,1,1,1,1, , , ,1,1,1,1,1,1,1,1,1, ,1, , 
16,levels/gta5/_citye/hollywood_01/hw1_01, , , , , , , , , , , , , , , ,3,3,3,3, , , ,3,3,3,3,3,3,3,3,3, ,3, , 
17,levels/gta5/_citye/hollywood_01/hw1_02,2,2, , ,3,3,3,3,3,3,3,3,3,3,3,5,5,3,3, , , ,3,3,3,3,3,3,3,3,3, ,3, , 
18,levels/gta5/_citye/hollywood_01/hw1_03, , , , ,11,11,11,11,11,11,11,11,11,11,11,11,11,2,2, , , ,2,2,2,2,2,2,2,2,2, ,15, , 
19,levels/gta5/_citye/hollywood_01/hw1_04, , , , , ,1,1,1,1,1,1,1,1,1,1,3,3,3,3, , , ,3,3,3,3,3,3,3,3,3, ,4, , 
20,levels/gta5/_citye/hollywood_01/hw1_06,22,22, , ,22,22,22,22,22,22,22,22,22,22,22,25,25,25,25, , , ,25,9,22,24,24,24,24,24,24, ,40, , 
21,levels/gta5/_citye/hollywood_01/hw1_07,18,16, , ,16,16,16,16,16,16,16,16,16,16,16, , , , , , , , , , , , , , , , , ,2, , 
22,levels/gta5/_citye/hollywood_01/hw1_08,1,1, , ,1,1,1,1,1,1,1,1,1,1,1,1,1,1,1, , , ,1,1,1,1,1,1,1,1,1, ,1, , 
23,levels/gta5/_citye/hollywood_01/hw1_10,3,3, , ,3,3,3,3,3,3,3,3,3,3,3,3,3,3,3, , , ,3,3,3,3,3,3,3,3,13, ,13, , 
24,levels/gta5/_citye/hollywood_01/hw1_13, ,4, , ,4,4,4,4,4,4,4,4,4,4,4,14,14,14,14, , , ,14,14,14,14,14,14,16,16,16, ,16, , 
25,levels/gta5/_citye/hollywood_01/hw1_14, , , , , , , , , , , , , , , , , , , , , , , , , , , , , ,32,32, ,40, , 
26,levels/gta5/_citye/hollywood_01/hw1_15,28,34, , ,34,34,34,34,34,34,34,34,34,34,34, , , , , , , , , , , , , , , , , ,16, , 
27,levels/gta5/_citye/hollywood_01/hw1_emissive, , , , , , , , , , , , , , , , , , ,5, , , ,5,5,5,5,5,5,3,3,5, ,5, , 
28,levels/gta5/_citye/hollywood_01/hw1_rd,18,18, , ,18,18,18,79,79,79,79,18,18,67,67,67,67,67,67, , , ,67,67,67,67,67,76,76,29,29, ,26, , 
29,levels/gta5/_citye/indust_01/id1_04,52,52, , ,52,52,52,52,50,50,50,50,50,50,50,50,50,50,50, , , ,50,50,50,50,50,50,50,50,50, ,50, , 
30,levels/gta5/_citye/indust_01/id1_07,31,31, , ,20,20,20,20,20,20,20,20,20,20,20,16,16,16,16, , , ,16,16,16,16,16,16,16,16,16, ,19, , 
31,levels/gta5/_citye/indust_01/id1_09, , , , , , , , , , , , , , , , , , , , , , , , , , , , , , ,25, ,9, , 
32,levels/gta5/_citye/indust_01/id1_10, , , , , , , , , , , , , , , ,14,14,14,14, , , ,14,27,28,28,28,28,28,28,28, ,12, , 
33,levels/gta5/_citye/indust_01/id1_13,59,59, , ,55,55,55,55,55,55,55,55,55,55,55,43,43,43,43, , , ,43,43,43,42,42,42,42,42,42, ,41, , 
34,levels/gta5/_citye/indust_01/id1_19, , , , , , , , , , , , , , , , , , , , , , , , , , , , , , , , ,7, , 
35,levels/gta5/_citye/indust_01/id1_27,4,4, , ,4,4,4,4,4,4,4,4,4,4,4,4, , , , , , , , , , , , , , , , , , , 
36,levels/gta5/_citye/indust_01/id1_31,11,11, , ,11,11,11,11,11,11,11,11,11,11,11, , , , , , , , , , , , , , , , , , , , 
37,levels/gta5/_citye/indust_01/id1_34,4,4, , ,4,4,4, , , , , , , , , , , , , , , , , , , , , , , , , , , , 
38,levels/gta5/_citye/indust_01/id1_emissive, , , , , , , , , , , , , , , , , , , , , , , ,5,5,5,5,5, , , , , , , 
39,levels/gta5/_citye/indust_01/id1_lod, , , , , , , , , , , , , , , , , , , , , , , , , , , , , , ,1, ,1, , 
40,levels/gta5/_citye/indust_01/id1_rd,53,53, , ,53,53,53,53,53,53,53,53,53,121,53,53,53,53,53, , , ,53,53,53,53,53,53,53,53,53, ,40, , 
41,levels/gta5/_citye/indust_01/indust_01, , , , , , , , , , , , , , , , , , , , , , , , , , , , , , , , ,4, , 
42,levels/gta5/_citye/indust_02/id2_00,21,21, , ,21,21,21,21,21,21,21,21,21,21,22,22,4,4,4, , , ,4,4,4,4,4,4,4,4,4, ,7, , 
43,levels/gta5/_citye/indust_02/id2_21_a,7,5, , ,5,5,5,5,5,5,1,1,1,1,5,5,5,5,5, , , ,5,5,5,5,5,5,5,5,5, ,5, , 
44,levels/gta5/_citye/indust_02/id2_21_c,2,2, , ,2,2,2,2,2,2,2,2,2,2,2,1,1,1,1, , , ,1,1,1,1,1,1,1,1,1, ,6, , 
45,levels/gta5/_citye/indust_02/id2_21_d,4, , , , , , , , , , , , , , , , , , , , , , , , , , , , , , , , , , 
46,levels/gta5/_citye/indust_02/id2_emissive, , , , , , , , , , , , , , , , , , , , , , , ,2,2,2,2,2,1,1,1, ,1, , 
47,levels/gta5/_citye/indust_02/id2_lod,1,1, , ,1,1,1,1,1,1,1,1,1,1,1,1,1,1,1, , , ,1,1,1,1,1,1,1,1,1, , , , 
48,levels/gta5/_citye/indust_02/id2_rd,20,20, , ,20,20,20,20,20,20,20,20,20,20,20,20,20,20,20, , , ,20,20,19,19,19,19,19,19,19, ,20, , 
49,levels/gta5/_citye/indust_02/indust_02, , , , , , , , , , , , , , , , , , , , , , , , , , , , , , , , ,6, , 
50,levels/gta5/_citye/port_01/po1_01,77,77, , ,83,84,84,84,84,84,84,84,84,84,84,89,89,89,89, , , ,89,89,90,90,90,96,95,95,96, ,95, , 
51,levels/gta5/_citye/port_01/po1_02,141,144, , ,169,169,169,169,169,169,171,170,171,171,171,171,171,171,171, , , ,171,171,148,148,148,147,147,149,157, ,158, , 
52,levels/gta5/_citye/port_01/po1_03,172,178, , ,178,180,180,180,180,180,180,180,180,180,180,188,188,188,188, , , ,188,188,158,188,188,188,188,188,188, ,189, , 
53,levels/gta5/_citye/port_01/po1_04,181,169, , ,172,172,169,171,167,167,167,167,171,171,172,179,179,179,187, , , ,187,188,188,189,194,195,195,201,201, ,207, , 
54,levels/gta5/_citye/port_01/po1_05,232,232, , ,235,235,235,234,234,226,226,180,178,174,175,175,175,188,187, , , ,190,197,197,197,197,197,197,206,206, ,204, , 
55,levels/gta5/_citye/port_01/po1_06,126,123, , ,136,136,136,136,136,136,136,136,136,128,128,128,128,128,128, , , ,128,128,128,142,142,147,150,152,155, ,156, , 
56,levels/gta5/_citye/port_01/po1_07,63,63, , ,64,69,69,69,69,69,69,69,69,69,69,26,26,26,26, , , ,32,41,43,48,44,34,34,38,40, ,37, , 
57,levels/gta5/_citye/port_01/po1_08,214,222, , ,222,222,222,222,222,222,222,222,222,253,253,259,256,256,256, , , ,256,256,258,257,257,258,259,258,267, ,268, , 
58,levels/gta5/_citye/port_01/po1_09,13,13, , ,13,13,13,13,13,13,13,13,13,13,13,13,13,13,13, , , ,13,13,13,13,13,13,52,52,49, ,54, , 
59,levels/gta5/_citye/port_01/po1_10,78,119, , ,119,119,119,119,119,119,94,94,97,123,168,166,166,166,166, , , ,7,49,46,52,50,49,49,52,49, ,74, , 
60,levels/gta5/_citye/port_01/po1_emissive, , , , , , , , , , , , , , , , , , , , , , , , , , , , ,1,1,2, ,2, , 
61,levels/gta5/_citye/port_01/po1_rd,30,30, , ,30,30,30,30,30,30,30,30,30,30,30,32,32,32,32, , , ,32,32,32,32,29,29,29,29,29, ,29, , 
62,levels/gta5/_citye/port_01/po1_sh1,17, , , , , , , , , , , , , , , , , , , , , , , , , , , , , , , , , , 
63,levels/gta5/_citye/port_01/po1_sh2,58,75, , ,86,86,86,86,86,86,86,86,86,84,84,84,84,84,84, , , ,84,84,84,84,84,84,84,84,83, ,80, , 
64,levels/gta5/_citye/port_01/port, , , , , , , , , , , , , , , , , , , , , , , , , , , ,2,1, ,2, , , , 
65,levels/gta5/_citye/port_xr,39,39, , ,39,39,39,39,39,39,39,39,39,39,39,39,39,39,39, , , ,39,39,39,39,39,39,39,39,39, ,39, , 
66,levels/gta5/_citye/scentral_01/sc1_00c,1,1, , ,1,1,1,1,1,1,1,1,1,1,1, , , , , , , , , , , , , , , , , , , , 
67,levels/gta5/_citye/scentral_01/sc1_00d,8,8, , ,8,8,8,8,8,8,8,8,8,8,8,11,11,11,11, , , ,12,12,12,12,12,12,12,12,12, ,12, , 
68,levels/gta5/_citye/scentral_01/sc1_06, , , , , , , , , , , , , , , , , , , , , , , , ,9,9,9, , , , , , , , 
69,levels/gta5/_citye/scentral_01/sc1_32,8,8, , ,8,8,8,8,8,8,8,8,8,8,8,8,8,8,9, , , ,9,9,9,9,9,9,9,9,9, ,9, , 
70,levels/gta5/_citye/scentral_01/sc1_emissive, , , , , , , , , , , , , , , , , , , , , , , , , , , , ,1,1,1, ,1, , 
71,levels/gta5/_citye/scentral_01/sc1_lod,1,1, , ,1,1,1,1,1,1,1,1,1,1,1,1,1,1,1, , , ,1,1,1,1,1,1,1,1, , , , , 
72,levels/gta5/_citye/scentral_01/sc1_rd,35,34, , ,34,145,145,34,34,34,34,34,34,34,34,34,34,34,34, , , ,34,34,34,34,34,34,34,34,34, ,35, , 
73,levels/gta5/_citye/sunset/bt1_04, , , , , , , , , , , , , , , , , , , , , , , , , , , , , , , , ,38, , 
74,levels/gta5/_citye/sunset/bt1_05, , , , , , , , , , , , , , , , , , , , , , , , , , , , , , , , ,10, , 
75,levels/gta5/_citye/sunset/ss1_01, , , , , , , , , , , , , , , , , , , , , , , , , , , , , , , , ,8, , 
76,levels/gta5/_citye/sunset/ss1_05,33,33, , , , , , , , , , , , , , , , , , , , , , , , , , , , , , ,16, , 
77,levels/gta5/_citye/sunset/ss1_06b, , , , , , , , , , , , , , , , , , , , , , , , , , , , , , , , ,8, , 
78,levels/gta5/_citye/sunset/ss1_07,59,59, , ,59,59,59,59,59,59,59,59,59,59,40,40,40, , , , , , , , , , , , , , , , , , 
79,levels/gta5/_citye/sunset/ss1_11,48,48, , ,49,49,49,49,49,49,49,49,49,49,49,1,1,1,1, , , ,1,1,1,1,1, , , , , , , , 
80,levels/gta5/_citye/sunset/ss1_13, , , , , , , , , , , , , , , , , , , , , , , , , , , , , , , , ,18, , 
81,levels/gta5/_citye/sunset/ss1_emissive, , , , , , , , , , , , , , , , , , ,4, , , ,4,4,4,4,4,4,1,1,1, ,1, , 
82,levels/gta5/_citye/sunset/ss1_rd1,11,15, , ,15,15,15,15,15,15,15,15,15,15,12,12,19,19,19, , , ,19,19,19,19,11,11,11,10,10, ,11, , 
83,levels/gta5/_citye/sunset/sunset, , , , , , , , , , , , , , , , , , , , , , , , , , , , , , , , ,3, , 
84,levels/gta5/_cityw/airport_01/airport, , , , , , , , , , , , , , , , , , , , , , , , , , , ,1,1,1, , , , , 
85,levels/gta5/_cityw/airport_01/ap1_01_a,135,135, , ,135,135,135,147,147,147,147,147,147,135,135,190,190,190,190, , , ,187,186,186,186,186,196,200,156,157, ,156, , 
86,levels/gta5/_cityw/airport_01/ap1_01_b,196,196, , ,196,196,196,238,238,238,238,238,238,202,202,202,202,202,200, , , ,200,201,201,202,202,202,202,208,228, ,223, , 
87,levels/gta5/_cityw/airport_01/ap1_01_c,171,171, , ,171,171,171,182,182,182,182,182,182,179,179,179,179,179,179, , , ,179,179,184,184,184,185,185,188,188, ,192, , 
88,levels/gta5/_cityw/airport_01/ap1_01_d,155,155, , ,155,155,155,155,155,155,155,151,161,169,169,169,169,169,169, , , ,169,169,172,172,172,179,178,181,181, ,180, , 
89,levels/gta5/_cityw/airport_01/ap1_02,83,83, , ,83,83,83,83,83,83,83,83,83,83,83,83,83,83,83, , , ,83,83,83,83,83,83,83,102,87, ,90, , 
90,levels/gta5/_cityw/airport_01/ap1_03,218,218, , ,218,218,218,218,218,218,218,218,218,218,218,222,222,222,222, , , ,222,228,228,231,231,231,231,222,226, ,230, , 
91,levels/gta5/_cityw/airport_01/ap1_04,247,247, , ,247,247,247,247,247,247,247,247,247,245,245,268,276,276,276, , , ,276,276,239,297,297,297,298,298,232, ,238, , 
92,levels/gta5/_cityw/beverly_01/beverly, , , , , , , , , , , , , , , , , , , , , , , , , , , , , , , , ,3, , 
93,levels/gta5/_cityw/beverly_01/bh1_16, ,13, , ,13,13,13,13,13,13,13,13,13,13,13,13,13,13,13, , , ,13,13,14,14,14,14,14,13,13, ,16, , 
94,levels/gta5/_cityw/beverly_01/bh1_18, , , , , , , , , , , , , , , , , , , , , , , , , , , , , , , , ,11, , 
95,levels/gta5/_cityw/beverly_01/bh1_21, , , , , , , , , , , , , , , , , , , , , , , , , , , , , , , , ,10, , 
96,levels/gta5/_cityw/beverly_01/bh1_30, , , , , , , , , , , , , , , , , , , , , , , , , , , , , , ,8, ,11, , 
97,levels/gta5/_cityw/beverly_01/bh1_35,2,2, , ,2,2,2,2,2,2,2,2,2, , , , , , , , , , , , , , , , , , , ,1, , 
98,levels/gta5/_cityw/beverly_01/bh1_36,22,22, , ,20,20,20,20,20,20,20,8,18,18,14,14,14,14,14, , , ,14,14,14,14,14,14,14,14,13, ,13, , 
99,levels/gta5/_cityw/beverly_01/bh1_42b, , , , , , , , , , , , , , , , , , , , , , , , , , , , , , , , ,26, , 
100,levels/gta5/_cityw/beverly_01/bh1_43,21,21, , ,26,26,26,24,27,27,27,27,27,27,27,27,27,27,26, , , ,26,26,27,27,27,27,27,46,50, ,68, , 
101,levels/gta5/_cityw/beverly_01/bh1_44, , , , , , , , , , , , , , , ,8,8,8,8, , , ,8,8,8,8,8,8,8,8,14, ,14, , 
102,levels/gta5/_cityw/beverly_01/bh1_45,19,19, , ,19,19,19,19,19,19,19,19,19,16,16,16,16,16,16, , , ,16,16,16,19,19,19,19,19,21, ,37, , 
103,levels/gta5/_cityw/beverly_01/bh1_46b, , , , , , , , , , , , , , , , , , , , , , , , , , , , , , , , ,13, , 
104,levels/gta5/_cityw/beverly_01/bh1_48,23,11, , ,20,20,20,20, , , , , , , , , , , , , , , , , , , , , , ,3, ,33, , 
105,levels/gta5/_cityw/beverly_01/bh1_emissive, , , , , , , , , , , , , , , , , , , , , , , , ,6,6,6,6, , , , , , , 
106,levels/gta5/_cityw/beverly_01/bh1_rd,7,7, , ,7,48,48,50,9,9,9,9,9,9,50,50,50,50,50, , , ,50,50,52,52,52,52,52,58,63, ,66, , 
107,levels/gta5/_cityw/beverly_01/bh1_rd2,57,22, , ,55,55,55,55,22,22,22,22,22,35,35,37,37,37,37, , , ,37,37,38,37,37,37,37,37,36, ,45, , 
108,levels/gta5/_cityw/koreatown_01/koreatown, , , , , , , , , , , , , , , , , , , , , , , , , , , , , , , , ,4, , 
109,levels/gta5/_cityw/koreatown_01/kt1_11,1, , , , , , , , , , , , , , , , , , , , , , , , , , , , , , , , , , 
110,levels/gta5/_cityw/koreatown_01/kt1_15, , , , , , , , , , , , , , , ,20,20,20,20, , , ,20,20,20,20,20,20, ,24,24, ,21, , 
111,levels/gta5/_cityw/koreatown_01/kt1_16, , , , , , , , , , , , , , , , , , , , , , , , ,11,11,11,11, , , , , , , 
112,levels/gta5/_cityw/koreatown_01/kt1_emissive, , , , , , , , , , , , , , , , , , , , , , , , ,2,2,2,2, , , , , , , 
113,levels/gta5/_cityw/koreatown_01/kt1_rd,13,13, , ,59,59,59,59,59,59,59,59,59,59,59,12,12,12,12, , , ,12,12,12,12,12,12,12,12,20, ,17, , 
114,levels/gta5/_cityw/sanpedro_01/sanpedro, , , , , , , , , , , , , , , , , , , , , , , , , , , , , , , , ,6, , 
115,levels/gta5/_cityw/sanpedro_01/sp1_03,26,26, , ,26,26,26,26,26,26,26,26,26,26,26,26,31,31,25, , , ,25,25,24,24,24,24,25,38,38, ,38, , 
116,levels/gta5/_cityw/sanpedro_01/sp1_05,1,1, , ,1,1,1,1,1,1,1,1,1,1,1,1,1,1,1, , , ,1,1, , , , , , , , , , , 
117,levels/gta5/_cityw/sanpedro_01/sp1_12,29,14, , ,14,14,14,14,14,14,14,14,14,14,44,44,28,28,28, , , ,28,28,27,27,27,27,27,31,32, ,45, , 
118,levels/gta5/_cityw/sanpedro_01/sp1_rd,96,96, , ,67,96,96,96,96,96,67,67,67,67,67,113,113,113,113, , , ,113,113,116,116,116,116,116,116,116, ,116, , 
119,levels/gta5/_cityw/santamon_01/santamon, , , , , , , , , , , , , , , , ,2,2,2, , , ,2,2,2,2,2,2,2, , , ,1, , 
120,levels/gta5/_cityw/santamon_01/sm_19,9,9, , ,9,11,11,11,11,11,11,11,11,11,11,11,11,11,11, , , ,11,9,9,9,9,10,10,10,10, ,10, , 
121,levels/gta5/_cityw/santamon_01/sm_20,10,10, , ,10,10,10,10,10,10,10,10,10,10,10,10,10,10,10, , , ,10,10,10,10,10,10,10,10,10, ,10, , 
122,levels/gta5/_cityw/santamon_01/sm_22,128,128, , ,130,130,130,130,130,130,130,130,130,130,130,130,130,130,130, , , ,130,130,95,121,121,122,122,122,120, ,122, , 
123,levels/gta5/_cityw/santamon_01/sm_26,6,34, , ,34,34,34,34,34,34,34,34,34,34,34,34,34,34,34, , , ,34,34,34,34,34,34,34,41,41, ,41, , 
124,levels/gta5/_cityw/santamon_01/sm_27, , , , , , , , , , , , , , , , , , , , , , , , , , , , , , , , ,18, , 
125,levels/gta5/_cityw/santamon_01/sm_boat,136,136, , ,136,136,136,136,136,136,136,136,136,136,134,134,134,134,134, , , ,134,134,134,134,134,134,134,134,134, ,134, , 
126,levels/gta5/_cityw/santamon_01/sm_emissive, , , , , , , , , , , , , , , , , , , , , , , , ,2,2,2,2, , , , , , , 
127,levels/gta5/_cityw/santamon_01/sm_rd,3,3, , ,54,54,54,54,54,54,54,54,54,54,54,9,9,9,9, , , ,9,10,10,11,11,11,11,11,11, ,11, , 
128,levels/gta5/_cityw/venice_01/vb_05,115,115, , ,115,115,115,115,115,115,115,115,115,115,103,103,103,103,103, , , ,103,103,45,103,103,103,103,103,102, ,149, , 
129,levels/gta5/_cityw/venice_01/vb_20,57,57, , ,57,57,57,57,57,57,57,57,57,1,1,1,1,1,1, , , ,1,1,1,1,1,1,1,1,1, ,1, , 
130,levels/gta5/_cityw/venice_01/vb_25, , , , , , , , , , , , , , , , , , , , , , , , , , , , , , , , ,17, , 
131,levels/gta5/_cityw/venice_01/vb_28, , , , , , , , , , , , , , , , , , , , , , , , , , , , , , , , ,2, , 
132,levels/gta5/_cityw/venice_01/vb_29,22,22, , ,22,22,22,22,22,22,22,21,20,20,20,20,20,20,20, , , ,20,20, ,16,16,16,16,14,14, ,14, , 
133,levels/gta5/_cityw/venice_01/vb_30, , , , , , , , , , , , , , ,3, , , , , , , , , , , , , , , , , , , , 
134,levels/gta5/_cityw/venice_01/vb_34,26,25, , ,25,25,25,25,25,25,25,25,25,25,25,23,23,23,23, , , ,23,23,23,22,39,39,38,28,28, ,31, , 
135,levels/gta5/_cityw/venice_01/vb_35,22,22, , ,22,22,22,22,22,18,18,18,18,16,40,40,40,40,40, , , ,40,41,45,45,45,45,48,42,42, ,42, , 
136,levels/gta5/_cityw/venice_01/vb_35b, , , , , , , , , , , , , , , , , , , , , , , , , , , , , , , , ,4, , 
137,levels/gta5/_cityw/venice_01/vb_38,17,15, , ,15,15,15,15,15,15,9,9,9,9,9,7,7,4,4, , , ,7,7,7,7,7,7,7,7,7, ,22, , 
138,levels/gta5/_cityw/venice_01/vb_39, , , , , , , , , , , , , , , , , , , , , , , , , , , , , , , , ,4, , 
139,levels/gta5/_cityw/venice_01/vb_ca,26,26, , ,17,17,17,17,17,17,17,17,17,15,15,16,16,16,16, , , ,16,6,16,9,9,9,9,9,8, ,8, , 
140,levels/gta5/_cityw/venice_01/vb_emissive, , , , , , , , , , , , , , , , , , , , , , , , , , ,2,2, , , , , , , 
141,levels/gta5/_cityw/venice_01/vb_lod,1,1, , ,1,1,1,1,1,1,1,1,1,1,1,1,1,1,1, , , ,1,1,1,1,1,1,1,1,2, ,2, , 
142,levels/gta5/_cityw/venice_01/vb_rd,18,28, , ,28,28,28,28,39,39,39,39,39,39,39,37,37,37,37, , , ,37,37,37,37,37,37,37,112,36, ,36, , 
143,levels/gta5/_cityw/venice_01/vb_rv,41,41, , ,41,41,41,41,41,41,41,41,41,41,41,41,41,41,41, , , ,41,41,41,41,41,41,41,49,49, ,35, , 
144,levels/gta5/_cityw/venice_01/venice, , , , , , , , , , , , , , , , , , , , , , , , , , , , , , , , ,5, , 
145,levels/gta5/_hills/cityhills_01/ch1_01,167,167, , ,167,167,167,167,167,167,167,167,167,167,167,167,167,167,167, , , ,167,168,168,168,167,168,170,181,241, ,241, , 
146,levels/gta5/_hills/cityhills_01/ch1_02,224,224, , ,224,224,224,224,224,224,224,224,224,224,224,220,220,220,220, , , ,220,220, ,220,220,220,220,224,230, ,219, , 
147,levels/gta5/_hills/cityhills_01/ch1_03,38,38, , ,38,38,38,38,38,38,38,38,38,38,38,38,38,38,38, , , ,38,38,38,38,38,38,38,38,30, ,65, , 
148,levels/gta5/_hills/cityhills_01/ch1_04,79,79, , ,79,79,79,79,79,80,80,80,80,80,80,80,80,80,80, , , ,80,80,80,80,80,80,80,80,79, ,74, , 
149,levels/gta5/_hills/cityhills_01/ch1_04b,68,68, , ,68,68,68,68,68,68,68,68,68,68,68,107,107,107,107, , , ,107,130,140,140,140,140,140,140,76, ,125, , 
150,levels/gta5/_hills/cityhills_01/ch1_05,97,97, , ,97,97,97,97,97,97,97,97,97,97,97,97,97,127,127, , , ,127,125,141,141,141,141,141,143,146, ,63, , 
151,levels/gta5/_hills/cityhills_01/ch1_05b,51,54, , ,54,54,54,54,54,54,54,54,54,54,54,54,54,54,54, , , ,54,54,74,74,74,74,74,75,93, ,93, , 
152,levels/gta5/_hills/cityhills_01/ch1_06,81,81, , ,81,81,81,81,81,81,81,81,81,81,81,81,81,81,81, , , ,81,81,81,81,46,46,46,46,46, ,46, , 
153,levels/gta5/_hills/cityhills_01/ch1_06b,73,73, , ,73,73,73,73,73,73,73,73,73,73,73,73,73,73,73, , , ,73,73,73,73,73,73,73,29,29, ,29, , 
154,levels/gta5/_hills/cityhills_01/ch1_06c,11,13, , ,13,13,13,13,13,13,13,13,13,13,13,13,13,13,13, , , ,13,13,13,13,13,13,13,13,3, ,3, , 
155,levels/gta5/_hills/cityhills_01/ch1_06d,76,77, , ,77,77,77,77,77,77,77,77,77,77,77,77,77,77,77, , , ,77,77,82,104,104,104,104,104,104, ,12, , 
156,levels/gta5/_hills/cityhills_01/ch1_06e,152,152, , ,152,152,152,152,152,152,152,152,152,152,152,152,152,152,152, , , ,152,152,152,152,152,152,152,152,152, ,153, , 
157,levels/gta5/_hills/cityhills_01/ch1_06f,114,115, , ,114,114,114,114,114,114,114,114,115,115,115,115,115,115,115, , , ,115,115,115,115,115,115,115,115,96, ,88, , 
158,levels/gta5/_hills/cityhills_01/ch1_07,49,49, , ,49,49,49,49,49,49,49,49,49,49,49,49,49,49,49, , , ,49,49,49,47,47,47,47,47,47, ,47, , 
159,levels/gta5/_hills/cityhills_01/ch1_08,33,33, , ,33,33,33,33,33,33,33,33,33,33,33,33,33,33,33, , , ,33,33,33,33,33,33,33,33,33, ,33, , 
160,levels/gta5/_hills/cityhills_01/ch1_09,27,27, , ,27,27,27,27,27,27,27,27,27,27,27,27,27,27,27, , , ,27,44,45,45,45,45,45,45,45, ,45, , 
161,levels/gta5/_hills/cityhills_01/ch1_09b,92,92, , ,92,92,92,92,92,92,92,92,92,92,92,92,85,85,85, , , ,85,85,57,75,75,75,75,75,72, ,51, , 
162,levels/gta5/_hills/cityhills_01/ch1_10,114,114, , ,114,114,114,114,114,114,114,114,114,114,133,133,133,133,133, , , ,133,133,133,133,133,133,133,133,133, ,162, , 
163,levels/gta5/_hills/cityhills_01/ch1_11,342,342, , ,342,342,342,342,342,343,343,343,343,342,342,335,335,335,335, , , ,335,335,345,345,345,346,346,346,337, ,338, , 
164,levels/gta5/_hills/cityhills_01/ch1_12,257,257, , ,257,257,257,257,257,257,257,257,257,257,257,257,257,257,257, , , ,257,257,260,260,260,285,285,291,318, ,321, , 
165,levels/gta5/_hills/cityhills_01/ch1_roads,26,33, , ,33,33,33,33,33,33,33,33,33,33,33,33,33,33,33, , , ,33,33,33,41,41,41,41,41,41, ,41, , 
166,levels/gta5/_hills/cityhills_01/ch1_roadsb,28,28, , ,50,50,50,50,50,50,50,50,50,50,50,50,50,40,40, , , ,40,36,36,36,37,37,34,36,28, ,18, , 
167,levels/gta5/_hills/cityhills_01/ch1_roadsc,58,58, , ,58,58,58,58,58,58,58,51,51,51,51,51,51,51,51, , , ,51,51,55,55,55,55,58,74,74, ,74, , 
168,levels/gta5/_hills/cityhills_01/ch1_roadsd,104,105, , ,105,105,105,105,105,105,105,105,105,105,92,92,92,92,92, , , ,92,92,82,82,82,90,87,89,110, ,110, , 
169,levels/gta5/_hills/cityhills_01/cityhills_01,19,19, , ,19,19,19,19,19,40,40,40,40,40,40,40,40,40,40, , , ,40,40,40,40,40,40,68,68,23, ,17, , 
170,levels/gta5/_hills/cityhills_02/ch2_01,33,33, , ,33,33,33,33,33,33,33,33,33,33,33,33,33,33,33, , , ,33,33,43,43,43,43,35,32,33, ,33, , 
171,levels/gta5/_hills/cityhills_02/ch2_01b,6,6, , ,6,6,6,6,6,6,6,6,6,6,6,6,6,6,6, , , ,6,6,16,20,15,4,4,5,5, ,5, , 
172,levels/gta5/_hills/cityhills_02/ch2_02,126,126, , ,126,126,126,126,126,126,126,126,126,147,147,68,68,68,68, , , ,68,68,68,68,72,72,72,74,88, ,65, , 
173,levels/gta5/_hills/cityhills_02/ch2_03,101,103, , ,103,103,103,103,101,101,101,101,101,106,106,81,81,81,81, , , ,81,81,48,48,45,45,45,45,36, ,70, , 
174,levels/gta5/_hills/cityhills_02/ch2_03b, , , , , , , , , , , , , , , , ,46,46,46, , , ,46,46,46,46,46,46,46,46,46, ,104, , 
175,levels/gta5/_hills/cityhills_02/ch2_03c, , , , , , , , , , , , , , , ,137,137,137,137, , , ,137,137,137,137,137,137,137,137,137, ,137, , 
176,levels/gta5/_hills/cityhills_02/ch2_04,176,176, , ,176,176,176,176,176,176,176,176,176,176,176,176,176,176,176, , , ,176,176,122,122,120,120,120,32,35, ,54, , 
177,levels/gta5/_hills/cityhills_02/ch2_05c,2,2, , ,2,2,2,2,2,2,2,2,2,2,2, , ,1,1, , , ,1,1,1,1,2,2,2,28,8, ,8, , 
178,levels/gta5/_hills/cityhills_02/ch2_05d,29,29, , ,29,29,29,29,29,29,29,29,29,29,29,29,1,1,1, , , ,1,1,1,1,1,1,1,1,1, ,1, , 
179,levels/gta5/_hills/cityhills_02/ch2_05e,72,72, , ,72,72,72,72,72,72,72,72,72,72,72,72,72,72,72, , , ,72,72,72,72,72,72,72,72,31, ,41, , 
180,levels/gta5/_hills/cityhills_02/ch2_05f,12,16, , ,16,16,16,16,16,16,16,16,16,16,16,16,16,16,16, , , ,16,16,16,16,16,16,16,16,20, ,28, , 
181,levels/gta5/_hills/cityhills_02/ch2_06,51,51, , ,51,39,39,39,39,39,39,39,40,40,40,40,40,40,40, , , ,40,40,40,40,40,40,40,40,40, ,92, , 
182,levels/gta5/_hills/cityhills_02/ch2_07,6,6, , ,6,6,6,6,6,6,6,6,6,6,6,6,6,6,6, , , ,6,6,9,9,9,9,9,9,9, ,9, , 
183,levels/gta5/_hills/cityhills_02/ch2_07b,8,8, , ,4,4,4,4,4,4,4,4,4,4,4,4,4,4,4, , , ,4,4,4,4,4,4,4,8,8, ,8, , 
184,levels/gta5/_hills/cityhills_02/ch2_07c,68,68, , ,68,68,68,68, , , , , , , , , , , , , , , , , , , , , , , , , , , 
185,levels/gta5/_hills/cityhills_02/ch2_07d,143,143, , ,143,143,143,143,143,8,81,80,83,83,83,38,38,38,38, , , ,38,38,38,38,38,40,40,8,8, ,8, , 
186,levels/gta5/_hills/cityhills_02/ch2_08,28,28, , ,28,28,28,28,28,28,28,28,28,28,28,27,23,55,55, , , ,55,55,20,20,20,20,20,20,20, ,34, , 
187,levels/gta5/_hills/cityhills_02/ch2_08b,3,3, , ,3,3,3,3,3,3,3,3,3,3,3,3,3,3,3, , , ,3,3,3,3,3,3,3,3,4, ,4, , 
188,levels/gta5/_hills/cityhills_02/ch2_09,15,15, , ,15,15,15,15,15,15,15,15,15,15,15,15,15,15,15, , , ,15,15,15,15,14,14,14,14,12, ,12, , 
189,levels/gta5/_hills/cityhills_02/ch2_09b,18,7, , ,7,7,7,7,7,7,7,7,7,7,7,15,15,15,15, , , ,15,15,15,15,15,15,15,14,14, ,7, , 
190,levels/gta5/_hills/cityhills_02/ch2_09c,35,35, , ,35,35,35,35,35,35,35,35,35,35,35,35,35,35,35, , , ,35,33,35,35,35,35,35,35,35, ,27, , 
191,levels/gta5/_hills/cityhills_02/ch2_10,29,39, , ,39,39,39,39,39,39,39,39,39,39,39,44,44,44,44, , , ,44,44,44,81,81,81,81,81,81, ,88, , 
192,levels/gta5/_hills/cityhills_02/ch2_11,142,142, , ,142,142,142,142,142,142,142,142,142,142,12,12,12,12,12, , , ,12,12,12,12,12,12,12,12,12, ,12, , 
193,levels/gta5/_hills/cityhills_02/ch2_11b,7,7, , ,7,7,7,7,7,7,7,7,7,7,7,7,7,7,7, , , ,7,7,10,10,10,10,10,10,7, ,5, , 
194,levels/gta5/_hills/cityhills_02/ch2_12,63,63, , ,63,63,63,63,63,63,55,55,55,55,55,55,55,55,55, , , ,55,55,54,54,54,60,60,56,56, ,61, , 
195,levels/gta5/_hills/cityhills_02/ch2_12b,18,18, , ,18,18,18,18,18,18,32,32,32,32,32,32,32,32,32, , , ,32,32,32,27,27,27,27,27,27, ,25, , 
196,levels/gta5/_hills/cityhills_02/ch2_emissive, , , , , , , , , , , , , , , , , , , , , , , , , , ,3,3,3,3,3, ,3, , 
197,levels/gta5/_hills/cityhills_02/ch2_roads,68,68, , ,68,68,68,68,68,68,68,68,68,68,68,68,68,68,68, , , ,68,68,79,74,74,70,74,75,82, ,78, , 
198,levels/gta5/_hills/cityhills_02/ch2_roadsa,52,52, , ,60,60,60,60,60,60,59,59,59,59,59,60,60,60,60, , , ,60,60,60,60,60,36,36,23,28, ,28, , 
199,levels/gta5/_hills/cityhills_02/ch2_roadsb,41,47, , ,47,52,52,52,52,52,46,46,46,46,46,46,46,46,46, , , ,46,46,46,46,46,46,57,27,27, ,36, , 
200,levels/gta5/_hills/cityhills_02/cityhills_02,22,22, , ,22,22,22,22,22,22,22,22,22,25,24,19,19,19,19, , , ,19,19,17,17,17,17,17,10,15, ,17, , 
201,levels/gta5/_hills/cityhills_03/ch3_01,156,187, , ,190,190,190,191,191,191,191,191,191,209,209,197,197,197,197, , , ,197,197,211,211,213,204,204,204,202, ,240, , 
202,levels/gta5/_hills/cityhills_03/ch3_02,29,29, , ,29,29,29,29,29,29,29,29,29,29,29,30,30,30,30, , , ,30,30,30,30,30, ,30,30,53, ,56, , 
203,levels/gta5/_hills/cityhills_03/ch3_03,207,207, , ,207,207,207,207,207,207,207,207,207,207,207,207,207,207,207, , , ,207,207,207,208,208, ,209,209,193, ,202, , 
204,levels/gta5/_hills/cityhills_03/ch3_04,212,196, , ,196,196,196,196,196,196,196,196,197,197,197,197,197,197,197, , , ,197,200,200,225,225, ,225,216,181, ,181, , 
205,levels/gta5/_hills/cityhills_03/ch3_06,57,64, , ,64,64,64,64,64,64,64,64,65,85,85,85,85,85,85, , , ,85,85,85,86,86, ,86,86,85, ,63, , 
206,levels/gta5/_hills/cityhills_03/ch3_07,49,49, , ,49,49,49,49,49,49,49,49,49,49,49,49,49,49,49, , , ,49,53,55,55,55, ,55,56,56, ,60, , 
207,levels/gta5/_hills/cityhills_03/ch3_08,173,185, , ,185,185,185,185,185,185,185,185,185,185,185,199,206,206,211, , , ,211,211,219,216,216, ,216,216,197, ,209, , 
208,levels/gta5/_hills/cityhills_03/ch3_09,42,42, , ,42,42,42,42,42,42,42,42,42,42,42,42,42,42,42, , , ,42,44,49,49,49, ,49,49,52, ,54, , 
209,levels/gta5/_hills/cityhills_03/ch3_10,151,151, , ,151,151,151,151,151,151,151,151,151,151,151,138,143,143,143, , , ,143,143,143,143,143, ,143,143,144, ,148, , 
210,levels/gta5/_hills/cityhills_03/ch3_11,136,136, , ,136,136,136,136,136,136,136,136,136,136,136,138,138,138,138, , , ,138,138,138,144,144, ,154,154,157, ,162, , 
211,levels/gta5/_hills/cityhills_03/ch3_12,67,67, , ,67,67,67,67,67,67,67,67,67,67,67,67,67,67,67, , , ,67,67,61,61,61, ,61,61,62, ,62, , 
212,levels/gta5/_hills/cityhills_03/ch3_13,124,124, , ,124,124,124,124,124,124,124,124,124,124,124,128,128,128,128, , , ,128,128,139,141,141, ,131,124,120, ,128, , 
213,levels/gta5/_hills/cityhills_03/ch3_14,77,77, , ,77,77,77,77,77,77,77,77,77,77,77,75,75,75,75, , , ,75,80,80,80,80, ,96,96,96, ,93, , 
214,levels/gta5/_hills/cityhills_03/ch3_14b,71,71, , ,71,71,71,71,71,71,71,71,71,71,71,60,60,60,60, , , ,60,60,60,63,63, ,65,65,65, ,60, , 
215,levels/gta5/_hills/cityhills_03/ch3_lod,4,4, , ,4,4,4,4,4,4,4,4,4,4,4,4,4,4,4, , , ,4,4,4,4,4, ,4,6,13, ,9, , 
216,levels/gta5/_hills/cityhills_03/ch3_railway,1,1, , ,1,1,1,1,1,1,1,1,1,1,1,1,1,1,1, , , ,1,1,1,1,1, ,1,1,1, ,1, , 
217,levels/gta5/_hills/cityhills_03/ch3_rd1,56,56, , ,56,56,56,56,56,56,56,56,56,56,56,66,66,66,66, , , ,66,66,66,66,66, ,72,72,72, ,72, , 
218,levels/gta5/_hills/cityhills_03/ch3_rd1a,58,58, , ,58,58,58,58,58,58,58,58,58,58,58,58,58,58,58, , , ,58,58,58,58,58, ,58,58,55, ,58, , 
219,levels/gta5/_hills/cityhills_03/ch3_rd1b,1,1, , ,1,1,1,1,1,1,1,1,1,1,1,5,6,6,6, , , ,6,6,6,6,6, ,1,1,1, ,1, , 
220,levels/gta5/_hills/cityhills_03/ch3_rd2,33,33, , ,33,33,33,33,33,33,33,33,33,33,33,33,33,33,33, , , ,33,33,33,33,33, ,33,33,33, ,33, , 
221,levels/gta5/_hills/cityhills_03/ch3_rd2b,38,38, , ,38,38,38,38,38,38,38,38,38,38,38,38,38,38,38, , , ,38,38,38,38,38, ,38,38,39, ,42, , 
222,levels/gta5/_hills/cityhills_03/cityhills_03,26,40, , ,40,40,40,40,40,40,40,40,40,40,40,46,46,46,46, , , ,46,46,79,99,99,29,127,72,55, ,14, , 
223,levels/gta5/_hills/country_01/country_01,78,78, , ,87,88,88,88,88,88,88,85,77,88,96,96,96,96,96, , , ,96,96,96,96,96,96,95,51,56, ,67, , 
224,levels/gta5/_hills/country_01/cs1_01,26,26, , ,26,26,26,26,26,26,26,26,26,26,48,64,96,96,89, , , ,89,91,103,76,76,76,47,49,26, ,22, , 
225,levels/gta5/_hills/country_01/cs1_02,15,26, , ,26,26,26,26,26,26,26,26,26,26,26,26,26,26,26, , , ,26,26,26,26,26,26,26,42,33, ,33, , 
226,levels/gta5/_hills/country_01/cs1_03,17,17, , ,17,17,17,17,17,17,17,17,17,17,17,17,17,19,19, , , ,19,19,19,19,16,19,1,1,1, ,1, , 
227,levels/gta5/_hills/country_01/cs1_04, , , , , , , , , , , , , , , , , , , , , , , , , , , ,48,57,57,46, ,45, , 
228,levels/gta5/_hills/country_01/cs1_05,1,1, , ,1,1,1,1,1,1,1,1,1,1,1,1,1,1,1, , , ,1,1,1,1,34,34,34,34,26, ,26, , 
229,levels/gta5/_hills/country_01/cs1_06,74,74, , ,74,74,74,74,74,74,74,74,74,74,74,76,84,74,84, , , ,84,84,84,84,54,54,54,54,23, ,23, , 
230,levels/gta5/_hills/country_01/cs1_07,42,42, , ,42,42,42,42,42,42,42,42,42,42,83,83,83,83,83, , , ,80,80,82,82,78,78,168,156,150, ,149, , 
231,levels/gta5/_hills/country_01/cs1_08,92,68, , ,75,67,67,67,67,67,67,67,67,67,67,64,64,64,64, , , ,64,64,66,66,67,68,67,71,57, ,60, , 
232,levels/gta5/_hills/country_01/cs1_09,71,68, , ,68,68,68,68,68,68,68,68,68,63,63,74,76,76,76, , , ,76,76,76,76,76,79,79,78,53, ,59, , 
233,levels/gta5/_hills/country_01/cs1_10,82,82, , ,84,84,84,84,84,84,84,79,76,74,74,74,74,74,74, , , ,74,63,63,63,66,66,68,66,66, ,79, , 
234,levels/gta5/_hills/country_01/cs1_11,136,135, , ,135,135,135,135,135,135,135,135,135,111,112,120,120,120,120, , , ,120,128,128,128,122,123,111,102,85, ,87, , 
235,levels/gta5/_hills/country_01/cs1_11b,113,160, , ,160,160,160,160,160,160,160,160,160,155,155,156,156,156,156, , , ,156,130,130,130,100,121,121,87,85, ,63, , 
236,levels/gta5/_hills/country_01/cs1_12,189,172, , ,172,172,172,172,172,172,172,172,185,213,213,212,212,212,212, , , ,212,212,217,217,217,211,211,211,199, ,215, , 
237,levels/gta5/_hills/country_01/cs1_13,199,199, , ,193,193,193,193,193,193,193,193,193,176,182,186,186,186,183, , , ,183,183,182,180,180,180,180,180,171, ,183, , 
238,levels/gta5/_hills/country_01/cs1_14,164,146, , ,146,146,146,146,146,146,146,146,146,146,146,144,144,144,144, , , ,144,144,144,144,144,144,144,144,144, ,149, , 
239,levels/gta5/_hills/country_01/cs1_14b,117,117, , ,117,117,117,117,117,117,126,126,126,126,126,126,126,126,126, , , ,126,126,126,126,126,126,126,120,120, ,127, , 
240,levels/gta5/_hills/country_01/cs1_15,11,11, , ,11,11,11,11,11,11,11,11,12,12,12,12,12,12,12, , , ,12,12,12,38,37,37,37,25,26, ,25, , 
241,levels/gta5/_hills/country_01/cs1_15b,102,102, , ,102,102,102,102,102,102,102,102,102,97,97,97,97,97,97, , , ,97,97,97,113,113,113,20,18,18, ,18, , 
242,levels/gta5/_hills/country_01/cs1_15c,188,188, , ,188,188,188,188,188,188,188,185,202,202,202,202,202,202,202, , , ,202,202,202,196,156,161,165,172,126, ,171, , 
243,levels/gta5/_hills/country_01/cs1_16,20,20, , ,20,20,20,20,20,20,20,20,20,20,20,20,20,20,20, , , ,20,20,20,20,20,20,20,20,10, ,25, , 
244,levels/gta5/_hills/country_01/cs1_railway,23,23, , ,23,23,23,23,23,23,23,23,23,23,23,23,23,23,23, , , ,23,23,23,23,23,23,23,23,23, ,23, , 
245,levels/gta5/_hills/country_01/cs1_railwyb,4,4, , ,4,4,4,4,4,4,4,4,4,4,4,4,4,4,4, , , ,4,4,1, , , , , , , , , , 
246,levels/gta5/_hills/country_01/cs1_railwyc,18,18, , ,18,18,18,18,18,18,18,18,18,18,18,18,18,18,18, , , ,18,18, , , , , , , , , , , 
247,levels/gta5/_hills/country_01/cs1_roads,54,54, , ,54,54,54,54,54,54,54,54,54,54,54,54,54,54,54, , , ,54,54,54,54,54,54,54,54,73, ,73, , 
248,levels/gta5/_hills/country_01/cs1_roads_pb,41,41, , ,41,41,41,41,41,41,41,41,41,41,41,38,38,38,38, , , ,38, , , , , , ,3,6, ,6, , 
249,levels/gta5/_hills/country_01/cs1_roadsa,50,50, , ,50,50,50,50,50,50,50,50,50,50,50,50,50,50,50, , , ,50,53,53,53,53,53,5,73,62, ,76, , 
250,levels/gta5/_hills/country_02/country_02, , , , , , , , , , , , , , , ,17,17,17,17, , , ,17,50,49,49,49,49,49,17, , , , , 
251,levels/gta5/_hills/country_02/cs2_01,242,242, , ,242,242,242,242,242,242,242,242,242,261,242,123,123,123,123, , , ,123,144,144,144,144,51,51,56,60, ,60, , 
252,levels/gta5/_hills/country_02/cs2_02,169,169, , ,169,169,169,169,169,169,169,169,169,169,169,169,169,169,169, , , ,164,209,221,221,233,235,240,240,240, ,274, , 
253,levels/gta5/_hills/country_02/cs2_03,118,120, , ,120,166,166,166,166,166,166,166,166,166,166,166,166,166,166, , , ,170,189,180,192,212,213,197,96,160, ,166, , 
254,levels/gta5/_hills/country_02/cs2_04,34,34, , ,34,34,34,34,34,34,34,34,34,34,34,34,34,34,34, , , ,34,34,34,34,34,36,36,38,39, ,39, , 
255,levels/gta5/_hills/country_02/cs2_05,23,23, , ,23,23,23,23,23,23,23,23,23,23,23,23,23,23,23, , , ,23,23,22,22,22,23,23,23,34, ,33, , 
256,levels/gta5/_hills/country_02/cs2_06,5,5, , ,5,5,5,5,5,5,5,5,5,5,5,5,5,5,5, , , ,5,5,5,5,5,5,5,5,12, ,12, , 
257,levels/gta5/_hills/country_02/cs2_08,48,48, , ,48,48,48,48,48,48,48,48,48,48,48,99,99,99,99, , , ,99,99,98,98,124,126,126,123,124, ,138, , 
258,levels/gta5/_hills/country_02/cs2_09,129,129, , ,129,129,129,129,129,129,129,129,129,129,129,129,129,129,129, , , ,109,161,161,161,161,161,161,149,149, ,94, , 
259,levels/gta5/_hills/country_02/cs2_09b,20,20, , ,20,18,18,18,18,18,18,18,18,18,18,18,18,18,18, , , ,18,3,61,61,61,61,61,61,61, ,61, , 
260,levels/gta5/_hills/country_02/cs2_10,102,102, , ,102,102,102,102,102,102,102,102,102,102,102,112,112,112,112, , , ,112,112,112,112,112,112,112,112,100, ,105, , 
261,levels/gta5/_hills/country_02/cs2_11,129,129, , ,129,129,129,129,129,129,129,129,129,127,127,134,134,134,134, , , ,134,134,134,134,134,134,134,129,129, ,130, , 
262,levels/gta5/_hills/country_02/cs2_29,41,41, , ,41,41,41,41,41,41,41,41,41,41,42,42,42,42,42, , , ,42,42,42,42,42,42,42,42,39, ,96, , 
263,levels/gta5/_hills/country_02/cs2_30,64,64, , ,64,64,64,64,64,64,64,64,64,64,64,57,57,57,57, , , ,57,59,65,66,66,66,66,68,72, ,73, , 
264,levels/gta5/_hills/country_02/cs2_lod,8,8, , ,8,8,8,8,8,8,8,8,8,8,8,8,8,8,8, , , ,8,8,8,8,8,8,8,8,8, ,8, , 
265,levels/gta5/_hills/country_02/cs2_railway,8,8, , ,8,8,8,8,8,8,8,8,8,8,8,8,8,8,8, , , ,8,8,1,18,9,9,9,9,9, ,9, , 
266,levels/gta5/_hills/country_02/cs2_railwyb,41,41, , ,41,41,41,41,41,41,41,41,41,41,41,41,41,41,41, , , ,41,41, ,2,2,2,2,2,2, ,2, , 
267,levels/gta5/_hills/country_02/cs2_railwyc, , , , , , , , , , , , , , , , , , , , , , , , , , ,12,12,12,12,12, ,12, , 
268,levels/gta5/_hills/country_02/cs2_roads,121,121, , ,121,121,121,121,121,121,120,120,125,125,125,125,125,125,125, , , ,125,98,98,98,98,100,101,101,117, ,112, , 
269,levels/gta5/_hills/country_02/cs2_roadsa,56,56, , ,56,56,56,56,56,56,56,56,56,56,56,56,56,56,56, , , ,56,56,55,55,55,55,55,51,78, ,78, , 
270,levels/gta5/_hills/country_02/cs2_roadsb,83,83, , ,83,83,83,83,83,83,83,83,83,83,83,31,31,31,30, , , ,30,30,30,30,30,30,30,30,65, ,65, , 
271,levels/gta5/_hills/country_03/country_03,77,77, , ,77,77,77,77,77,77,77,77,77,74,74,74,128,144,163, , , ,163,155,95,95,96,96,97,96,78, ,68, , 
272,levels/gta5/_hills/country_03/cs3_01,24,24, , ,24,24,24,24,24,24,24,24,24,24,24,24,24,24,24, , , ,24,24,38,38,38,38,38,38,44, ,44, , 
273,levels/gta5/_hills/country_03/cs3_02,35,35, , ,35,35,35,35,35,35,35,35,35,35,35,35,35,35,35, , , ,35,35,39,39,39,39,39,39,39, ,45, , 
274,levels/gta5/_hills/country_03/cs3_03,44,44, , ,44,44,44,44,44,44,44,44,79,81,81,81,81,81,81, , , ,81,105,120,124,124,124,124,124,124, ,82, , 
275,levels/gta5/_hills/country_03/cs3_04,93,93, , ,89,89,89,89,89,89,89,89,89,89,89,89,79,79,79, , , ,79,79,118,118,118,185,198,193,175, ,247, , 
276,levels/gta5/_hills/country_03/cs3_05,102,105, , ,101,107,107,107,113,113,118,118,118,119,123,100,100,100,100, , , ,100,100,98,98,98,106,106,106,106, ,93, , 
277,levels/gta5/_hills/country_03/cs3_06,118,118, , ,118,118,118,118,118,118,118,115,115,115,115,115,115,115,123, , , ,123,125,125,125,120,120,120,106,110, ,68, , 
278,levels/gta5/_hills/country_03/cs3_07,369,371, , ,376,376,376,376,373,373,371,371,373,374,380,380,380,380,382, , , ,382,404,394,398,395,394,385,389,384, ,376, , 
279,levels/gta5/_hills/country_03/cs3_08,232,232, , ,232,169,169,169,169,169,169,169,169,167,167,167,167,167,167, , , ,167,167,205,205,205,219,209,209,209, ,209, , 
280,levels/gta5/_hills/country_03/cs3_08b,76,76, , ,76,76,76,76,76,76,76,76,76,69,70,70,70,70,70, , , ,70,70,75,75,75,75,75,75,64, ,12, , 
281,levels/gta5/_hills/country_03/cs3_08c,59,59, , ,59,57,57,57,57,55,55,55,55,55,22,22,22,22,22, , , ,22,22,20,20,20,20,20,20,20, ,16, , 
282,levels/gta5/_hills/country_03/cs3_08d,44,44, , ,44,44,44,44,98,98,98,98,98,72,72,72,72,72,72, , , ,72,72,57,57,57,62,62,62,62, ,72, , 
283,levels/gta5/_hills/country_03/cs3_08e, , , , , , , , , , , , , , , , , , , , , , , , ,65,65,65,65,65,65,65, ,48, , 
284,levels/gta5/_hills/country_03/cs3_08f, , , , , , , , , , , , , , , , , , , , , , , , ,25,25,25,39,39,39,34, ,45, , 
285,levels/gta5/_hills/country_03/cs3_08g, , , , , , , , , , , , , , , , , , , , , , , , ,28,28,28,26,26,29,19, ,29, , 
286,levels/gta5/_hills/country_03/cs3_lod, , , , , , , , , , , , , , , , , , , , , , , , , , , , , , , , ,2, , 
287,levels/gta5/_hills/country_04/country_04,50,50, , ,49,36,36,40,40,40,40,40,40,40,40,42,42,42,42, , , ,42,42,43,42,42,43,46,14,11, ,17, , 
288,levels/gta5/_hills/country_04/cs4_01,62,62, , ,62,62,62,62,62,62,62,62,62,62,62,62,62,62,62, , , ,62,62,62,62,62,62,62,55,56, ,59, , 
289,levels/gta5/_hills/country_04/cs4_02,190,190, , ,186,177,177,158,158,158,158,149,153,153,153,198,198,198,185, , , ,185,194,222,236,237,211,201,185,279, ,283, , 
290,levels/gta5/_hills/country_04/cs4_03,140,140, , ,140,140,140,140,140,140,140,140,140,140,140,156,156,156,156, , , ,156,151,163,163,163,163,163,166,167, ,149, , 
291,levels/gta5/_hills/country_04/cs4_04,62,62, , ,70,70,70,70,70,70,62,62,62,62,62,62,62,62,62, , , ,62,62,62,84,84,85,88,91,95, ,77, , 
292,levels/gta5/_hills/country_04/cs4_05,18,18, , ,18,18,18,18,18,18,18,18,20,20,20,20,20,20,20, , , ,20,20,22,22,22,26,26,26,24, ,24, , 
293,levels/gta5/_hills/country_04/cs4_06,266,266, , ,266,284,284,284,284,284,284,284,284,239,239,254,254,254,254, , , ,254,254,254,251,251,251,251,248,135, ,153, , 
294,levels/gta5/_hills/country_04/cs4_07,57,57, , ,47,47,47,47,47,47,47,47,47,47,48,43,43,43,43, , , ,43,36,36,36,36,48,48,48,48, ,51, , 
295,levels/gta5/_hills/country_04/cs4_08,12,9, , ,10,10,10,10,10,10,10,10,10,10,10,10,10,10,10, , , ,10,10,15,15,15,15,15,15,11, ,11, , 
296,levels/gta5/_hills/country_04/cs4_09,86,94, , ,94,77,77,101,101,101,101,101,101,102,102,81,81,81,81, , , ,81,81,81,83,83,83,83,83,93, ,93, , 
297,levels/gta5/_hills/country_04/cs4_10,118,78, , ,84,84,84,80,80,80,80,80,80,80,80,74,74,74,74, , , ,74,74,74,77,77,78,78,91,19, ,54, , 
298,levels/gta5/_hills/country_04/cs4_11,170,170, , ,113,113,113,113,113,113,113,113,113,113,113,149,149,149,149, , , ,149,149,153,153,153,153,153,154,149, ,163, , 
299,levels/gta5/_hills/country_04/cs4_12,37,37, , ,37,37,37,37,37,37,28,28,28,28,28,28,28,28,28, , , ,28,28,28,28,28,28,28,28,37, ,57, , 
300,levels/gta5/_hills/country_04/cs4_13,225,224, , ,106,106,106,106,106,106,106,106,106,105,105,105,105,105,105, , , ,105,105,105,105,105,109,106,109,134, ,163, , 
301,levels/gta5/_hills/country_04/cs4_14,69,69, , ,69,69,69,69,69,69,84,84,84,84,84,84,84,84,84, , , ,84,84,84,84,95,95,95,95,119, ,122, , 
302,levels/gta5/_hills/country_04/cs4_railway, , , , , , , , , , , , , , , , , , , , , , , , , ,6, , , , , , , , , 
303,levels/gta5/_hills/country_04/cs4_railwayb, , , , , , , , , , , , , , , , , , , , , , , , , , ,7,7,7,7,7, ,7, , 
304,levels/gta5/_hills/country_04/cs4_roads,13,13, , ,19,21,21,21,21,20,20,20,20,20,20,20,20,20,20, , , ,20,20,20,20,20,20,20,39,7, ,7, , 
305,levels/gta5/_hills/country_04/cs4_roadsb,31,31, , ,31,31,31,31,31,31,31,31,31,35,35,32,32,32,32, , , ,32,32,33,33,33,31,31,31,29, ,28, , 
306,levels/gta5/_hills/country_05/country_05, , , , , , , , , , , , , , , ,7,7,7,7, , , ,7,24,24,24,24,24,24,17,17, ,17, , 
307,levels/gta5/_hills/country_05/cs5_1,108,108, , ,103,105,105,105,115,115,115,115,115,115,120,130,130,130,130, , , ,130,136,136,151,151,151,151,156,158, ,158, , 
308,levels/gta5/_hills/country_05/cs5_2,58,63, , ,64,64,64,64,64,64,64,64,64,64,64,54,54,54,54, , , ,54,54,54,54,54,54,54,50,52, ,55, , 
309,levels/gta5/_hills/country_05/cs5_3,189,187, , ,200,200,200,200,200,200,200,200,200,200,200,173,173,173,173, , , ,175,165,165,181,179,179,179,178,179, ,180, , 
310,levels/gta5/_hills/country_05/cs5_4,149,144, , ,162,160,159,156,156,153,153,153,153,154,154,170,146,184,186, , , ,182,185,186,184,191,193,196,190,209, ,206, , 
311,levels/gta5/_hills/country_05/cs5_roads,68,68, , ,68,68,68,68,68,68,68,68,68,68,68,68,68,68,68, , , ,68,43,51,57,57,51,51,53,59, ,60, , 
312,levels/gta5/_hills/country_06/country_06,33,45, , ,45,45,45,45,45,45,45,45,45,45,42,42,42,42,42, , , ,52,62,62,55,55,55,55,55,55, ,52, , 
313,levels/gta5/_hills/country_06/cs6_01,134,134, , ,148,148,148,148,148,148,148,148,148,134,134,134,134,134,134, , , ,134,134,135,135,135,135,135,134,139, ,134, , 
314,levels/gta5/_hills/country_06/cs6_02,128,129, , ,129,129,129,129,129,129,129,129,129,129,129,129,129,129,129, , , ,129,129,129,129,129,129,129,161,161, ,161, , 
315,levels/gta5/_hills/country_06/cs6_03,137,137, , ,137,137,137,137,137,137,137,137,137,137,137, , , , , , , , , , ,149,149,149,149,147,146, ,163, , 
316,levels/gta5/_hills/country_06/cs6_04,103,103, , ,102,102,102,112,112,106,106,106,105,105,105,111,111,111,111, , , ,111,111,111,113,112,114,113,119,112, ,107, , 
317,levels/gta5/_hills/country_06/cs6_05,266,266, , ,266,266,266,266,266,266,268,268,268,270,270,275,275,275,275, , , ,275,275,275,103,103,103,103,122,124, ,119, , 
318,levels/gta5/_hills/country_06/cs6_06,57,57, , ,57,57,57,78,78,78,78,78,78,78,78,78,78,78,78, , , ,78,78,78,78,82,82,82,82,100, ,87, , 
319,levels/gta5/_hills/country_06/cs6_08,79,79, , ,79,79,79,79,79,79,79,79,79,79,79,79,79,79,79, , , ,91,114,115,115,92,97,97,99,99, ,99, , 
320,levels/gta5/_hills/country_06/cs6_08a,47,47, , ,47,47,47,47,47,47,47,47,47,47,22,22,22,22,22, , , ,22,22,23,23,26,30,49,51,51, ,51, , 
321,levels/gta5/_hills/country_06/cs6_09,19,19, , ,19,19,19,19,19,19,19,19,19,19,19,22,22,22,22, , , ,22,22,25,24,16,17,18,35,35, ,35, , 
322,levels/gta5/_hills/country_06/cs6_10,55,55, , ,55,55,55,55,55,55,55,55,55,55,55,55,55,55,55, , , ,55,55,55,55,55,73,56,73,66, ,66, , 
323,levels/gta5/_hills/country_06/cs6_lod,4,4, , ,4,4,4,4,4,4,4,4,4,4,4,4,4,4,4, , , ,4,4,4,3,3,3,3,3,3, ,3, , 
324,levels/gta5/_hills/country_06/cs6_roads,18,18, , ,18,18,18,18,18,18,18,18,18,18,18,18,18,18,18, , , ,18,18,18,18,18,15,15,15,15, ,18, , 
325,levels/gta5/_hills/country_06/cs6_roadsb,64,64, , ,64,64,64,76,76,76,76,76,76,72,72,72,72,72,72, , , ,72,72,72,72,72,72,86,86,89, ,89, , 
326,levels/gta5/_hills/country_06/cs6_roadsc,13,13, , ,13,13,13,13,13,13,13,13,13,13,13,13,13,13,13, , , ,13,13,13,13,13,14,14,14,14, ,14, , 
327,levels/gta5/_hills/cs_xref,3,3, , ,3,3,3,3,3,3,3,3,3,3,3,11,11,11,11, , , ,11,11,11,11,11,11,11,11,11, ,8, , 
328,levels/gta5/_prologue/plg_01,39,42, , ,37,37,37,37,42,42,42,42,42,45,45,45,45,45,45, , , ,45,45,45,81,81,81,81,81,85, ,41, , 
329,levels/gta5/_prologue/plg_02, , , , , , , , , , , , , , , , , , , , , , , , , , , , , , , , ,6, , 
330,levels/gta5/_prologue/plg_03,82,82, , ,82,82,82,82,82,82,82,82,82,82,82,80,80,80,80, , , ,80,80,80,80,80,80,80,80,80, ,80, , 
331,levels/gta5/_prologue/plg_04,129,129, , ,129,129,129,129,129,129,129,129,129,129,129,129,129,129,129, , , ,18,62,62,62,93,93,85,85,85, ,85, , 
332,levels/gta5/_prologue/plg_05,52,52, , ,52,52,52,52,52,52,52,52,52,52,59,85,85,85,82, , , ,82,82,75,75,75,75,75,75,75, ,75, , 
333,levels/gta5/_prologue/plg_06,39,39, , ,39,39,39,39,39,39,39,39,39,48,48,48,48,48,48, , , ,48,50,50,50,50,50,50,50,50, ,47, , 
334,levels/gta5/_prologue/plg_rd,21,21, , ,21,21,21,21,21,21,21,21,21,21,21,21,21,21,21, , , ,21,21,21,21,21,21,21,21,21, ,21, , 
335,levels/gta5/_prologue/prologueint,46,45, , ,45,45,45,45,45,45,47,47,49,49,49,49,49,49,49, , , ,49,42,37, , , , , ,37, ,37, , 
336,levels/gta5/generic/gtxd,381,343, , ,322,222,222,251,302,302,318,318,377,223,261,294,240,241,239, , , ,240,304,298,220,216,279,290,285,273, ,266, , 
337,levels/gta5/generic/procobj,32,32, , ,32,32,32,32,32,32,32,32,32,32,32,32,32,32,32, , , ,32,32,32,32,32,32,32,32,32, ,32, , 
338,levels/gta5/interiors/int_props/int_club,5,5, , ,5,5,5,5,5,5,5,5,5,5,5,5,5, , , , , , , , , , , , , , , , , , 
339,levels/gta5/interiors/int_props/int_corporate,9,9, , ,9,9,9,9,9,9,9,9,9,9,9, , , , , , , , , , , , , , , , , , , , 
340,levels/gta5/interiors/int_props/int_industrial,55,55, , ,55,55,55,55,59,59,59,59,59,59,59,62,34, , , , , , , , , , , , , , , , , , 
341,levels/gta5/interiors/int_props/int_lev_des,31,31, , ,31,31,31,31,31,31,36,36,36,36,36,17,17, , , , , , , , , , , , , , , , , , 
342,levels/gta5/interiors/int_props/int_medical,55,55, , ,55,55,55,55,55,55,55,55,55,55,55,54,54, , , , , , , , , , , , , , , , , , 
343,levels/gta5/interiors/int_props/int_residential,104,104, , ,104,104,104,104,104,104,104,104,104,104,104,105,105, , , , , , , , , , , , , , , , , , 
344,levels/gta5/interiors/int_props/int_retail,67,67, , ,67,67,67,67,67,67,67,67,67,67,67,67,67, , , , , , , , , , , , , , , , , , 
345,levels/gta5/interiors/int_props/int_services,37,37, , ,37,37,37,37,37,37,37,37,37,37,37,37,31, , , , , , , , , ,4,4,4,4,4, ,7, , 
346,levels/gta5/interiors/v_int_1,12,12, , ,12,12,12,12,12,12,12,12,12,12,12,12,12,12,12, , , ,12,12,12, , , , , ,12, ,12, , 
347,levels/gta5/interiors/v_int_10,38,38, , ,38,38,38,38,38,38,38,38,38,38,36,35,35,35,35, , , ,35,35,35, , , , , ,39, ,43, , 
348,levels/gta5/interiors/v_int_11,97,97, , ,97,100,100,100,100,100,100,100,100,100,102,113,113,113,113, , , ,113,113,113, , , , , ,115, ,116, , 
349,levels/gta5/interiors/v_int_13,25,25, , ,25,25,25,25,25,25,25,25,25,25,25,14,14,14,14, , , ,14,17,22, , , , , ,21, ,21, , 
350,levels/gta5/interiors/v_int_14,139,135, , ,136,136,136,144,144,144,144,144,144,146,142,142,142,142,151, , , ,151,151,151, , , , , ,145, ,147, , 
351,levels/gta5/interiors/v_int_15,43,43, , ,43,43,43,43,43,43,43,43,43,43,43,43,43,43,43, , , ,43,43,43, , , , , ,40, ,39, , 
352,levels/gta5/interiors/v_int_19,49,49, , ,50,50,50,50,51,51,51,51,51,57,60,61,61,66,66, , , ,66,71,72, , , , , ,75, ,70, , 
353,levels/gta5/interiors/v_int_2,113,114, , ,112,112,112,112,112,112,112,112,112,112,112,112,112,112,112, , , ,112,112,116, , , , , ,114, ,114, , 
354,levels/gta5/interiors/v_int_20,77,77, , ,78,78,78,78,78,78,78,78,78,78,78,78,78,78,78, , , ,78,78,78, , , , , ,79, ,79, , 
355,levels/gta5/interiors/v_int_22,12,12, , ,12,12,12,12,12,12,12,12,12,12,12,12,12,12,12, , , ,12,12,12, , , , , ,12, ,12, , 
356,levels/gta5/interiors/v_int_23,6,6, , ,6,6,6,6,6,6,6,6,6,6,6,6,6,6,6, , , ,6,6,6, , , , , ,8, ,8, , 
357,levels/gta5/interiors/v_int_24,52,52, , ,52,52,52,52,52,52,52,31,50,50,50,45,45,45,45, , , ,45,45,43, , , , , ,41, ,41, , 
358,levels/gta5/interiors/v_int_25,41,41, , ,41,41,41,41,41,41,41,41,41,41,41,50,50,50,50, , , ,50,50,50, , , , , ,55, ,55, , 
359,levels/gta5/interiors/v_int_26,54,54, , ,54,54,54,54,54,54,54,54,54,54,54,53,53,53,53, , , ,53,53,53, , , , , ,69, ,77, , 
360,levels/gta5/interiors/v_int_28,40,40, , ,40,40,40,40,40,61,61,61,61,61,61,53,53,55,55, , , ,55,54,54, , , , , ,52, ,52, , 
361,levels/gta5/interiors/v_int_29,73,73, , ,73,73,73,73,73,73,73,73,73,73,73,73,73,73,73, , , ,73,73,73, , , , , ,73, ,75, , 
362,levels/gta5/interiors/v_int_3,11,11, , ,11,11,11,11,11,11,11,11,11,11,11,11,11,11,11, , , ,11,11,11, , , , , ,11, ,21, , 
363,levels/gta5/interiors/v_int_30,88,88, , ,88,88,88,88,88,88,88,88,88,88,88,88,88,88,88, , , ,88,15,15, , , , , ,15, ,22, , 
364,levels/gta5/interiors/v_int_31,106,106, , ,106,106,106,108,108,108,108,108,108,126,126,126,118,118,118, , , ,118,118,126, , , , , ,153, ,153, , 
365,levels/gta5/interiors/v_int_32,21,21, , ,21,21,21,21,21,21,21,21,21,21,21,21,21,21,21, , , ,21,21,21, , , , , ,30, ,29, , 
366,levels/gta5/interiors/v_int_33,5,5, , ,5,5,5,5,5,5,5,5,5,5,5,5,5,5,5, , , ,5,5,5, , , , , ,5, ,8, , 
367,levels/gta5/interiors/v_int_34,110,110, , ,110,110,110,110,110,110,110,110,110,110,110,110,111,111,111, , , ,111,111,101, , , , , ,131, ,131, , 
368,levels/gta5/interiors/v_int_35,74,74, , ,74,74,74,74,74,74,74,74,74,74,74,74,74,74,74, , , ,74,74,74, , , , , ,82, ,82, , 
369,levels/gta5/interiors/v_int_36,5,5, , ,5,5,5,5,5,5,5,5,5,5,5,7,7,7,7, , , ,7,7,7, , , , , ,9, ,14, , 
370,levels/gta5/interiors/v_int_38,26,26, , ,26,26,26,26,26,26,26,26,26,26,26,26,26,26,26, , , ,26,26,26, , , , , ,23, ,23, , 
371,levels/gta5/interiors/v_int_39,64,64, , ,64,64,64,64,64,64,64,64,64,76,76,80,80,80,80, , , ,80,80,53, , , , , ,71, ,71, , 
372,levels/gta5/interiors/v_int_4,52,52, , ,52,52,52,52,52,52,52,52,52,52,52,52,52,52,52, , , ,52,52,52, , , , , ,49, ,49, , 
373,levels/gta5/interiors/v_int_40,46,47, , ,47,47,47,47,47,47,47,47,47,47,47,47,47,47,47, , , ,47,47,47, , , , , ,47, ,47, , 
374,levels/gta5/interiors/v_int_41,26,26, , ,26,26,26,26,26,26,26,26,26,26,26,26,26,26,26, , , ,26,26,26, , , , , ,32, ,32, , 
375,levels/gta5/interiors/v_int_42,9,9, , ,9,9,9,9,9,9,9,9,9,11,11,11,11,11,11, , , ,11,11,11, , , , , ,11, ,11, , 
376,levels/gta5/interiors/v_int_43,64,64, , ,64,64,64,64,64,64,64,64,65,65,66,66,66,66,66, , , ,66,85,85, , , , , ,91, ,93, , 
377,levels/gta5/interiors/v_int_44,53,53, , ,53,53,53,53,53,53,53,53,53,53,53,50,50,50,53, , , ,53,49,48, , , , , ,53, ,64, , 
378,levels/gta5/interiors/v_int_45,29,29, , ,29,29,29,29,29,29,29,29,29,29,29,29,29,29,29, , , ,29,29,29, , , , , ,29, ,29, , 
379,levels/gta5/interiors/v_int_46,78,78, , ,78,78,78,78,78,78,78,78,78,78,78,78,78,78,78, , , ,78,78,61, , , , , ,80, ,79, , 
380,levels/gta5/interiors/v_int_47,7,7, , ,7,7,7,7,7,7,7,7,7,7,7,7,7,7,7, , , ,7,7,7, , , , , ,7, ,29, , 
381,levels/gta5/interiors/v_int_48,18,18, , ,18,18,18,18,18,31,31,31,31,31,31,31,31,31,31, , , ,31,31,31, , , , , ,38, ,38, , 
382,levels/gta5/interiors/v_int_5,62,62, , ,62,62,62,62,62,62,62,62,62,62,62,60,60,60,60, , , ,60,60,61, , , , , ,61, ,68, , 
383,levels/gta5/interiors/v_int_50,3,3, , ,3,3,3,3,3,3,3,3,3,3,3,3,3,3,3, , , ,3,3,3, , , , , ,3, ,3, , 
384,levels/gta5/interiors/v_int_51,22,22, , ,22,22,22,22,22,22,22,22,22,22,22,22,22,22,22, , , ,22,22,22, , , , , ,22, ,28, , 
385,levels/gta5/interiors/v_int_52,22,22, , ,22,22,22,22,22,22,22,22,22,22,22,22,22,22,22, , , ,22,22,22, , , , , ,20, ,20, , 
386,levels/gta5/interiors/v_int_53,23,23, , ,23,23,23,23,23,23,23,23,23,23,23,23,23,23,23, , , ,23,23,23, , , , , ,24, ,25, , 
387,levels/gta5/interiors/v_int_54,36,36, , ,36,36,36,36,36,36,36,36,36,36,36,36,36,36,36, , , ,36,36,35, , , , , ,34, ,66, , 
388,levels/gta5/interiors/v_int_55,16,16, , ,16,16,16,16,16,16,16,16,16,16,16,16,16,16,16, , , ,16,16,16, , , , , ,16, ,16, , 
389,levels/gta5/interiors/v_int_56,14,14, , ,14,14,14,14,14,14,14,14,14,14,14,14,14,14,14, , , ,14,14,14, , , , , ,14, ,21, , 
390,levels/gta5/interiors/v_int_57,57,57, , ,58,58,58,58,58,59,59,59,59,59,59,59,59,58,58, , , ,58,58,76, , , , , ,91, ,91, , 
391,levels/gta5/interiors/v_int_58,21,21, , ,21,21,21,21,21,21,21,21,21,21,21,21,21,21,21, , , ,21,21,21, , , , , ,21, ,21, , 
392,levels/gta5/interiors/v_int_59, , , , , , , , , , , , , , , ,25,25,25,25, , , ,25,25,25, , , , , ,28, ,28, , 
393,levels/gta5/interiors/v_int_6,98,98, , ,98,98,98,98,98,98,98,98,98,98,98,98,98,98,98, , , ,98,98,77, , , , , ,96, ,96, , 
394,levels/gta5/interiors/v_int_60,30,30, , ,30,30,30,30,30,30,30,30,30,30,30,33,33,33,33, , , ,33,30,33, , , , , ,33, ,33, , 
395,levels/gta5/interiors/v_int_61,18,18, , ,21,21,21,21,21,21,21,21,21,21,21,21,21,21,21, , , ,21,21,21, , , , , ,26, ,26, , 
396,levels/gta5/interiors/v_int_62,54,54, , ,54,54,54,54,54,54,54,54,54,54,54,46,46,46,46, , , ,46,46,46, , , , , ,46, ,46, , 
397,levels/gta5/interiors/v_int_63,63,63, , ,63,63,63,63,63,63,63,63,63,63,63,58,58,58,58, , , ,58,58,35, , , , , ,35, ,35, , 
398,levels/gta5/interiors/v_int_64,51,46, , ,46,46,46,46,46,46,46,46,46,46,46,42,42,42,42, , , ,42,42,42, , , , , ,42, ,42, , 
399,levels/gta5/interiors/v_int_66,16,16, , ,16,16,16,16,16,16,16,16,16,16,16,16,16,16,16, , , ,16,16,16, , , , , ,16, ,16, , 
400,levels/gta5/interiors/v_int_68,21,21, , ,21,21,21,21,21,21,21,21,21,21,21,21,21,21,21, , , ,21,21,21, , , , , ,22, ,27, , 
401,levels/gta5/interiors/v_int_69,6,6, , ,6,6,6,6,10,10,10,10,10,10,10,20,20,20,20, , , ,20,20,20, , , , , ,20, ,20, , 
402,levels/gta5/interiors/v_int_7,50,50, , ,50,50,50,50,50,50,50,50,50,50,50,50,50,50,50, , , ,50,50,50, , , , , ,50, ,51, , 
403,levels/gta5/interiors/v_int_70,63,63, , ,63,63,63,63,63,63,63,63,63,63,63,65,65,65,65, , , ,65,65,65, , , , , ,65, ,65, , 
404,levels/gta5/interiors/v_int_71,67,67, , ,67,67,67,67,67,67,67,67,67,67,67,67,67,67,67, , , ,67,67,66, , , , , ,67, ,73, , 
405,levels/gta5/interiors/v_int_8,113,113, , ,113,113,113,113,113,113,113,113,113,113,113,113,113,113,113, , , ,113,113,110, , , , , ,111, ,111, , 
406,levels/gta5/interiors/v_int_9,57,57, , ,57,57,57,57,57,57,57,57,57,57,57,44,57,57,57, , , ,57,57,51, , , , , ,57, ,62, , 
407,levels/gta5/interiors/v_int_metro_join3, , , , , , , , , , , , , , , , , , , , , , , , , , , , , , ,10, ,10, , 
408,levels/gta5/interiors/v_int_metro_subway1, , , , , , , , , , , , , , , , , , , , , , , , , , , , , , ,10, ,92, , 
409,levels/gta5/interiors/v_int_metro_subway2, , , , , , , , , , , , , , , , , , , , , , , , , , , , , , ,19, ,25, , 
410,levels/gta5/interiors/v_int_metro_subway3, , , , , , , , , , , , , , , , , , , , , , , , , , , , , , , , ,79, , 
411,levels/gta5/interiors/v_int_metro_subway4, , , , , , , , , , , , , , , , , , , , , , , , , , , , , , , , ,20, , 
412,levels/gta5/interiors/v_int_metro_subway5, , , , , , , , , , , , , , , , , , , , , , , , , , , , , , ,1, ,6, , 
413,levels/gta5/interiors/v_metro_sections,176,176, , ,176,176,176,176,176,176,176,176,176,176,176,176,176,176,185, , , ,185,185,185, , , , , ,127, ,76, , 
414,levels/gta5/outsource/building_xrefs,108,108, , ,108,108,108,108,108,108,108,108,108,108,108,108,108,108,108, , , ,108,108,108,108,108,116,116,117,117, ,120, , 
415,levels/gta5/props/building/v_rooftop,20,20, , ,20,20,20,20,20,20,20,20,20,22,22,22,22, , , , , , , , , , , , , , , ,1, , 
416,levels/gta5/props/commercial/v_bar,32,32, , ,32,32,32,32,32,32,32,32,32,32,32,45,45, , , , , , , , , , , , , , , , , , 
417,levels/gta5/props/commercial/v_fastfood,41,32, , ,32,32,32,32,31,31,31,31,31,31,31,13,13, , , , , , , , , , , , , , , , , , 
418,levels/gta5/props/commercial/v_garage,7,10, , ,10,10,10,10,10,10,10,10,11,11,11,11,11,11,11, , , ,11,11,11,11,11,11,11,11,11, ,11, , 
419,levels/gta5/props/commercial/v_office,2,2, , ,2,2,2,2,2,2,2,2,2,2,2,2,2, , , , , , , , , , , , , , , , , , 
420,levels/gta5/props/industrial/v_airport,13,13, , ,14,14,14,14,14,14,14,14,14,14,14,30,30, , , , , , , , , , , , , , , , , , 
421,levels/gta5/props/industrial/v_industrial, , , , ,4,4,4,4,4,4,4,4,4,4,4,4, , , , , , , , , , , , , , , , ,1, , 
422,levels/gta5/props/lev_des/lev_des,46,55, , ,55,55,55,55,55,55,55,55,55,55,55,56,56,56,56, , , ,56,54,56,56,56,56,56,56,56, ,54, , 
423,levels/gta5/props/lev_des/v_lev_doors, , , , , , , , , , , , , , , , , , ,6, , , ,6,6,6,6,6,6,6,6,6, ,6, , 
424,levels/gta5/props/lev_des/v_minigame,54,54, , ,54,54,54,54,54,45,45,45,45,45,45,41,41,2,2, , , ,2,2,2,2,2,2,2,2,2, ,2, , 
425,levels/gta5/props/recreational/v_sports,43,43, , ,43,43,43,43,41,41,41,41,41,41,41,22,22,22,22, , , ,22,22,22,22,22,22,22,23,21, ,11, , 
426,levels/gta5/props/residential/v_bathroom,4,4, , ,4,4,4,4,4,4,4,4,4,4,4,4,4, , , , , , , , , , , , , , , , , , 
427,levels/gta5/props/residential/v_electrical,14,14, , ,15,15,15,15,15,15,15,15,15,15,15,15,13,13,13, , , ,13,13,16,16,17,17,17,17,11, ,11, , 
428,levels/gta5/props/residential/v_garden,43,43, , ,43,43,43,43,43,43,43,43,43,43,43,43,43,15,15, , , ,15,15,15,15,15,15,15,15,11, ,11, , 
429,levels/gta5/props/residential/v_kitchen,7,7, , ,7,7,7,7,7,7,7,7,7,7,7,7,7,7,7, , , ,7,7,7,7,7,4,4,4,2, ,2, , 
430,levels/gta5/props/residential/v_seating, , , , , , , , , , , , , , , , , , , , , , , , , , , , , ,15,15, ,15, , 
431,levels/gta5/props/roadside/v_bins,3,3, , ,3,3,3,3,3,3,10,10,10,34,34, , , , , , , , , , , , , , , , , , , , 
432,levels/gta5/props/roadside/v_construction,17,17, , ,17,17,17,17,17,17,17,17,17,17,17,17, , , , , , , , , , , , , , , , ,5, , 
433,levels/gta5/props/roadside/v_fences,8,8, , ,8,8,8,8,8,8,8,8,8,12,12,5,5,1,1, , , ,1,1,1,1,1,1,1,1, , ,1, , 
434,levels/gta5/props/roadside/v_fences_2, ,46, , ,46,46,46,46,46,46,46,46,46,46,46,46,46,2,2, , , ,2,2, ,2,4,4,4,4,4, , , , 
435,levels/gta5/props/roadside/v_rubbish,35, , , , , , , , , , , , , , , , , , , , , , , , , , , , , , , , , , 
436,levels/gta5/props/roadside/v_seating_tables,1,1, , ,1,1,1,1,1,1,1,1,1,1,1,1,1,1,1, , , ,1, , , , , , , , , , , , 
437,levels/gta5/props/roadside/v_signs,149,149, , ,149,149,149,149,149,149,149,149,149,149,149, , , , , , , , , , , , , , , , , , , , 
438,levels/gta5/props/roadside/v_storage,65, , , , , , , , , , , , , , , , , , , , , , , , , , , , , , , , , , 
439,levels/gta5/props/roadside/v_traffic_lights,51,51, , ,51,51,51,51,51,51,51,51,51,51,51,28,28,1,1, , , ,1,1,1,1,1,1,1,1, , , , , 
440,levels/gta5/props/roadside/v_utility,44,40, , ,40,40,40,40,40,40,40,40,40,40,40,40,40, , , , , , , , , , , , , , , , , , 
441,levels/gta5/props/rt_bink/vfx_reference,6,2, , ,2,2,2,2,2,2,2,2,2,2,3,3,3,3,3, , , ,3,3,3,3,3,3,3,3,3, ,3, , 
442,levels/gta5/props/rural/v_farm,18,14, , ,14,14,14,14,14,14,14,14,14,14,14,14,14, , , , , , , , , , , , , , , , , , 
443,levels/gta5/props/vegetation/v_bush,16,17, , ,3,3,3,4,3,3,3,3,3,4,4,4,4, , , , , , , , , , , , , , , , , , 
444,levels/gta5/props/vegetation/v_cacti,3,3, , ,3,3,3,3,3,3,3,3,3,3,3,3,3, , , , , , , , , , , , , , , , , , 
445,levels/gta5/props/vegetation/v_crops,9,9, , ,9,9,9,9,9,9,9,9,9,9,9,9,9, , , , , , , , , , , , , , , , , , 
446,levels/gta5/props/vegetation/v_ext_veg,25,27, , ,27,27,27,27,27,5,5,5,5,5,5,5,5,5, , , , , , , , , , , , , , , , , 
447,levels/gta5/props/vegetation/v_fanpalm,6,6, , ,6,6,6,6,6,6,6,6,6,6,6,6,6, , , , , , , , , , , , , , , , , , 
448,levels/gta5/props/vegetation/v_palm, , , , , , , , , , , , , , , , , , , , , , , , , ,3,3,3,3,3,3, ,3, , 
449,levels/gta5/props/vegetation/v_potted,24,24, , ,24,24,24,24,24,24,24,24,24,24,24,24,24,30,30, , , ,30,30,30,30,30,30,30,30, , ,2, , 
450,levels/gta5/props/vegetation/v_snow,15,15, , ,15,15,15,15,15,15,15,15,15,15,15,15,15,15,15, , , ,15,15,13,14,14,14,14,14,14, ,14, , 
451,levels/gta5/props/vegetation/v_trees,11,11, , ,11,11,11,11,11,11,11,11,11,11,11,11,11,11,11, , , ,11,4,1,1,1,1,1,1,2, ,5, , 
452,levels/gta5/vehicles,6,5, , ,6,6,6,6,6,6,6,6,6,6, ,4,4,4,4, , , ,4,4,4,4,6,4,4,4,4, ,4, , 
453,textures,5,5, , ,5,5,5,5,5,5,5,5,5,5,5,5,5,5,5, , , ,5,5,5,5,5,5,5,5,5, ,7, , 
