0, ,Sat Mar 31,Fri Apr 06,Thu Apr 12,Thu Apr 12,Fri Apr 13,Sat Apr 14,Sat Apr 14,Tue Apr 17,Wed Apr 18,Thu Apr 19,Fri Apr 20,Sat Apr 21,Sat Apr 21,Wed Apr 25,Fri Apr 27,Sat May 12,Tue May 15,Wed May 16,Fri May 18,Mon May 21,Mon May 21,Mon May 21,Tue May 22,Fri May 25,Thu Jun 07,Thu Jun 14,Wed Jun 20,Tue Jun 26,Fri Jun 29,Thu Jul 12,Fri Aug 03,Mon Aug 20,Fri Aug 31,Wed Oct 24,Fri Oct 26
1,data/cdimages/scaleform_minimap, , , , , , , , , , , , , , , , , , , , , , , , , , , , , , ,273, ,219, , 
2,data/effects/ptfx,182,192, , ,183,183,183,181,181,183,181,183,183,183,184,178,187,185,185, , , ,185,188,193,201,201,223,227,226,239, ,55, , 
3,levels/gta5/_citye/downtown_01/downtown,1,1, , ,1,1,1,1,1,1,1,1,1,1,1,1,1,1,1, , , ,1,1,1,1,1,1,1,1,1, ,1, , 
4,levels/gta5/_citye/downtown_01/dt1_22,3,4, , ,4,4,4,4,4,4,4,4,4,4,4,4,4,4,4, , , ,4,4,4,4,4,4,4,4,4, ,5, , 
5,levels/gta5/_citye/downtown_01/dt1_25, , , , , , , , , , , , , , , , , , , , , , , , , , , , , ,2,2, , , , 
6,levels/gta5/_citye/hollywood_01/hw1_06, , , , , , , , , , , , , , , , , , ,2, , , ,2,7,7,7,7,7,7,8,7, ,7, , 
7,levels/gta5/_citye/hollywood_01/hw1_15, , , , , , , , , , , ,1,1, , , , , ,1, , , ,1,1, , , , , , , , , , , 
8,levels/gta5/_citye/hollywood_01/hw1_16, , , , , , , , , , , , , , , , , , , , , , , , , , , , , , , , ,5, , 
9,levels/gta5/_citye/hollywood_01/hw1_17, , , , , , , , , , , , , , , , , , ,1, , , ,1,1,1,1,1,1, , , , , , , 
10,levels/gta5/_citye/hollywood_01/hw1_22, , , , , , , , , , , , , , , , , , , , , , , ,2,2,2,2,2,2,2, , , , , 
11,levels/gta5/_citye/indust_01/id1_06,2,2, , ,2,2,2,2,2,2,2,2,2,2,2,2,2,2,2, , , ,2,2,2,2,2,2,2,2,1, , , , 
12,levels/gta5/_citye/indust_01/id1_14, , , , , , , , , , , , , , , , , , , , , , , ,1,1,1,1,1,1,1, , , , , 
13,levels/gta5/_citye/indust_01/id1_16, , , , , , , , , , , , , , , , , , , , , , , ,1,1,1,1,1,1,1, , , , , 
14,levels/gta5/_citye/indust_01/id1_29,5,2, , ,2,2,2,2,2,2,2,2,2,2,2,4,4,3,4, , , ,4,3,3,3,3,3,3,3, , , , , 
15,levels/gta5/_citye/indust_01/id1_33,1, , , , , , , , , , , , , , , , , , , , , , , , , , , , , , , , , , 
16,levels/gta5/_citye/indust_01/id1_emissive, , , , , , , , , , , , , , , , , , , , , , , ,18,18,18,18,18,18,18,18, ,18, , 
17,levels/gta5/_citye/port_01/po1_04, , , , , , , , , , , , , , , , , , , , , , , , , , , , , , , , ,3, , 
18,levels/gta5/_citye/port_01/po1_05, , , , , , , , , , , , , , , , , , , , , , , , , , , , , , , , ,3, , 
19,levels/gta5/_citye/port_01/po1_08, , , , , , , , , , , , , , , , , , , , , , , , , , , , , , ,3, ,3, , 
20,levels/gta5/_citye/port_01/po1_rd,2,2, , ,2,2,2,2,2,2,2,2,2,2,2,2,2,2,2, , , ,2,2,2,2,2,2,2,2,2, ,2, , 
21,levels/gta5/_citye/port_xr,10,10, , ,10,10,10,10,10,10,10,10,10,10,10,10,10,10,10, , , ,10,10,10,10,10,10,10,10,10, ,10, , 
22,levels/gta5/_citye/scentral_01/sc1_01, , , , , , , ,2,2,2,2,2,2,2,2,2,2,2,2, , , ,2, , , , , , , , , , , , 
23,levels/gta5/_citye/scentral_01/sc1_02,1,1, , ,1,1,1,1,1, , , , , , , , , , , , , , ,1,1,1,1,1,1, , , ,1, , 
24,levels/gta5/_citye/scentral_01/sc1_15, , , , , , , , , , , , , , , , , , , , , , , , , , , , , ,1, , , , , 
25,levels/gta5/_citye/scentral_01/sc1_25, , , , , , , , , , , , , , , , , , , , , , , , ,2,2,2,2,2, , , , , , 
26,levels/gta5/_citye/sunset/bt1_01, , , , , , , , , , , , , , , , , , , , , , , , , , , , , , , , ,1, , 
27,levels/gta5/_citye/sunset/bt1_02, , , , , , , , , , , , , , , , , , , , , , , , , , , , , , , , ,3, , 
28,levels/gta5/_citye/sunset/bt1_05,1,1, , ,1,1,1,1,1,1,1,1,1,1,1,1,1,1,1, , , ,1,1,1,1,1,1,1,1,1, , , , 
29,levels/gta5/_citye/sunset/ss1_06b,2,2, , ,2,2,2,2,2,2,2,2,2,2,2,2,2,2,2, , , ,2,2,2,2,2,2,2,2,3, ,1, , 
30,levels/gta5/_citye/sunset/ss1_14,1,1, , ,1,1,1,1,1,1,1,1,1,1,1,1,1,1,1, , , ,1,1,1,1,1,1,1,1,1, ,1, , 
31,levels/gta5/_cityw/airport_01/ap1_01_b, , , , , , , , , , , , , , , , , , , , , , , , , , , , , , , , ,4, , 
32,levels/gta5/_cityw/airport_01/ap1_01_c,1,1, , ,1,1,1,1,1,1,1,1,1,1,1,1,1,1,1, , , ,1,1,1,1,1,1,1,1,1, ,1, , 
33,levels/gta5/_cityw/airport_01/ap1_03, , , , , , , , , , , , , , , ,2,2,2,2, , , ,2, , , , , , , ,1, ,3, , 
34,levels/gta5/_cityw/airport_01/ap1_04,1,1, , ,1,1,1,1,1,1,1,1,1,1,1,1,1,1,1, , , ,1,1,1,1,1,1,1,1,1, ,1, , 
35,levels/gta5/_cityw/beverly_01/bh1_01,1,1, , ,1,1,1,1,1,1,1,1,1,1,1,1,1,1,1, , , ,1,1,1,1,1,1,1,1,1, , , , 
36,levels/gta5/_cityw/beverly_01/bh1_18,2,2, , ,2,2,2,2,2,2,2,2,2,2,2,2,2,2,2, , , ,2,2,2,2,2,2,2,2,2, ,2, , 
37,levels/gta5/_cityw/beverly_01/bh1_39, , , , , , , , , , , , , , , , , , , , , , , , , , , , , , , , ,1, , 
38,levels/gta5/_cityw/beverly_01/bh1_42b, , , , , , , , , , , , , , , , , , , , , , , , , ,2, , , , , , , , , 
39,levels/gta5/_cityw/beverly_01/bh1_43,1,1, , ,1,1,1,1,1,1,1,1,1,1,1,1,1,1,1, , , ,1,1,1,1,1,1,1,2,1, ,1, , 
40,levels/gta5/_cityw/koreatown_01/kt1_07, , , , , , , , , , , , , , , , , , , , , , , , ,2,2,2,1,1,1,1, , , , 
41,levels/gta5/_cityw/koreatown_01/kt1_10,1, , , , , , , , , , , , , , , , , , , , , , , , , , , , , , , , , , 
42,levels/gta5/_cityw/sanpedro_01/sp1_03, , , , , , , , , , , , , , , , , , ,1, , , ,1,1,1,1,1,1,1,2,2, ,2, , 
43,levels/gta5/_cityw/sanpedro_01/sp1_rd, , , , , , , , , , , , , , , , , ,2,2, , , ,2,2, , , , ,2,2, , , , , 
44,levels/gta5/_cityw/santamon_01/santamon, , , , , , , , , , , , , , , , , , , , , , , , , , , , , ,1, , ,1, , 
45,levels/gta5/_cityw/santamon_01/sm_17, , , , , ,3,3,3,3,3,3,3,3,3,3,3,3,3,3, , , ,3, , , , , , , , , , , , 
46,levels/gta5/_cityw/santamon_01/sm_boat, , , , , , , , , , , , , , ,1, , , , , , , , , , , , , , , , , , , , 
47,levels/gta5/_cityw/venice_01/vb_02,1,1, , ,1,1,1,1,2,2,2,2,2,2,2,2,2,2,2, , , ,2,2,1, , , , , , , , , , 
48,levels/gta5/_cityw/venice_01/vb_03,1,1, , ,1, , , , , , , , , , , , , , , , , , , , , , , , , , , , , , 
49,levels/gta5/_cityw/venice_01/vb_07,1,1, , ,1,1,1,1,1,1,1,1,1,1,1,1,1,1,1, , , ,1,1,1,1,1,1,1,1,1, ,1, , 
50,levels/gta5/_cityw/venice_01/vb_17,1,1, , ,1,1,1,1,1,1,1,1,1,1,1,1,1,1,1, , , ,1,1,1,1,1,1,1,1,1, ,1, , 
51,levels/gta5/_cityw/venice_01/vb_22,1,1, , ,1,1,1,1,1,1,1,1,1,1,1,1,1,1,1, , , ,1,1,1,1,1,1,1,1,1, ,1, , 
52,levels/gta5/_cityw/venice_01/vb_25, , , , , , , , , , , , , , , , , , , , , , , , , ,1, , , , ,1, , , , 
53,levels/gta5/_cityw/venice_01/vb_32, , , , , , , , , , , , , , , , , , , , , , , , , , , , , , , , ,2, , 
54,levels/gta5/_cityw/venice_01/vb_34,5,5, , ,5,5,5,5,5,5,5,5,5,5,5,5,5,5,5, , , ,5,5,5,17,17,17,8,3,3, ,1, , 
55,levels/gta5/_cityw/venice_01/vb_36, , , , , , , , , , , , , , , , , , , , , , , , , , , , ,5,5, , , , , 
56,levels/gta5/_cityw/venice_01/venice, , , , , , , , , , , , , , , , , , , , , , , , , , , , ,4,4, , , , , 
57,levels/gta5/_hills/cityhills_01/ch1_02,1,1, , ,1,1,1,1,1,1,1,1,1,1,1,1,1,1,1, , , ,1, , , , , , , , , , , , 
58,levels/gta5/_hills/cityhills_01/ch1_05, , , , , , , , , , , , , , , , , ,2,2, , , ,2,2,2,2,2,2,2, ,3, , , , 
59,levels/gta5/_hills/cityhills_01/ch1_06f, , , , , , , , , , , , , ,1,1,2,2,2,2, , , ,2,2,2,2,2,2,2,2,2, ,4, , 
60,levels/gta5/_hills/cityhills_01/ch1_11, , , , , , , , , , , , , , , , , , , , , , , ,2, , , , , , , , , , , 
61,levels/gta5/_hills/cityhills_01/ch1_12,1,1, , ,1,1,1,1,1,1,1,1,1,1,1,1,1,1,1, , , ,1,1,1,1,1, , , , , ,1, , 
62,levels/gta5/_hills/cityhills_01/cityhills_01, , , , , , , , , , , , , , , , , , , , , , , ,1,1,1,1,1,1, , , , , , 
63,levels/gta5/_hills/cityhills_02/ch2_04, , , , , , , , , , , ,2,2, , , , , , , , , , , , , , , , , , , , , , 
64,levels/gta5/_hills/cityhills_02/ch2_05, , , , , , , , , , , , , , , , , , , , , , , , , , , , , , , , ,2, , 
65,levels/gta5/_hills/cityhills_02/ch2_05c, , , , , , , , , , , , , , , , , , , , , , , , , , , , , , , , ,1, , 
66,levels/gta5/_hills/cityhills_02/ch2_05d, , , , , , , , , , , , , , , , , , , , , , , , , , , , , , , , ,2, , 
67,levels/gta5/_hills/cityhills_02/ch2_05e, , , , , , , , , , , , , , , , , , , , , , , , , , , , , , , , ,2, , 
68,levels/gta5/_hills/cityhills_02/ch2_08b,1, , , , , , , , , , , , , , , , , , , , , , , , , , , , , , , , , , 
69,levels/gta5/_hills/cityhills_02/ch2_09b,2,2, , ,2,2,2,2,2,2,2,2,2,2,2,2,2,2,2, , , ,2,2, , , , , , , , , , , 
70,levels/gta5/_hills/cityhills_02/ch2_10,1,1, , ,1,1,1,1,1,1,1,1,1,1,1,1,1,1,1, , , ,1,1,1,1,1,1,1,1,1, , , , 
71,levels/gta5/_hills/cityhills_03/ch3_10,2,2, , ,2,2,2,2,2,2,2,2,2,2,2,1,1,1,1, , , ,1,1,1,2,2,1,1,1,2, , , , 
72,levels/gta5/_hills/cityhills_03/ch3_11, , , , , , , , , , , , , , , , , , , , , , , , , , , , , , ,2, ,2, , 
73,levels/gta5/_hills/country_01/cs1_03, , , , , , , , , , , , , , , , , , , , , , , , , , , , ,1, , , , , , 
74,levels/gta5/_hills/country_01/cs1_06, , , , , , , , , , , , , , , ,2,1,2,1, , , ,1,1,2,2, , , , , , , , , 
75,levels/gta5/_hills/country_01/cs1_11b, ,1, , ,1,1,1,1,1,1,1,1,1,1,1, , , , , , , , ,1,1,1,1,1,1, , , ,2, , 
76,levels/gta5/_hills/country_01/cs1_12,1,1, , ,1,1,1,1,1,1,1,1,1,1,1,1,1,1,1, , , ,1,1,1,1,1,1,1,1,1, ,3, , 
77,levels/gta5/_hills/country_01/cs1_13, , , , ,1,1,1,1,1,1,1,1,1,1,1,1,1,1,1, , , ,1,1, , , , , , ,1, ,2, , 
78,levels/gta5/_hills/country_02/cs2_01,1,1, , ,1,1,1,1,1,2,2,2,2,2,2,2,2,2,2, , , ,2,1,1,1,1,1,1,1,1, ,1, , 
79,levels/gta5/_hills/country_02/cs2_02,3,1, , ,1,1,1,1,1,1,1,1,1,1,1, , , , , , , , ,1,1,1,1,1,1,1,1, ,1, , 
80,levels/gta5/_hills/country_02/cs2_03, ,1, , ,1,3,3,3,3,3,3,3,3,3,1,1,1,1,1, , , ,1,1,1,1,1,1,1, ,1, ,1, , 
81,levels/gta5/_hills/country_02/cs2_04, , , , , , , , , , , , , , , , , , , , , , , , , , , , , , ,1, ,1, , 
82,levels/gta5/_hills/country_02/cs2_05, , , , , , , ,3,3,3,3,3,3,3,3,3,3,3,3, , , ,3, , , , , , , , , , , , 
83,levels/gta5/_hills/country_02/cs2_08,1,1, , ,1,1,1,1,1,1,1,1,1,1,1,1,1,1,1, , , ,1,1,1,1,1,1,1,1,1, ,1, , 
84,levels/gta5/_hills/country_02/cs2_09,1,1, , ,1,1,1,3,3,3,3,3,3,3,3,3,3,3,3, , , ,3,1,1,1,1,1,1,1,1, ,1, , 
85,levels/gta5/_hills/country_02/cs2_11,2,2, , ,2,2,2,2,2,2,2,2,2,2,2,2,2,2,2, , , ,2,2,2,2,2,2,2,2,2, ,2, , 
86,levels/gta5/_hills/country_03/cs3_04, , , , , , , , , , , , , ,1,1,1,1,1,1, , , ,1,1, , , , , , ,3, ,2, , 
87,levels/gta5/_hills/country_03/cs3_08,2,2, , ,2,1,1,1,1,1,1,1,1,1,1,1,1,1,1, , , ,1,1,1,1,1,1,1,1,1, , , , 
88,levels/gta5/_hills/country_04/country_04, , , , , , , , , , , , , , , , , , , , , , , , , , , ,1,1, , , , , , 
89,levels/gta5/_hills/country_04/cs4_01, , , , , , , , , , , , , , , , , , , , , , , , ,3,3,3,3,3,3, , , , , 
90,levels/gta5/_hills/country_04/cs4_02,4,4, , ,2,2,2,4,4,4,4,4,4,4,4,4,4,4,4, , , ,4,4,4,4,4,5,5,4,1, , , , 
91,levels/gta5/_hills/country_04/cs4_03, , , , , , , , , , ,1,1,1,1,1, , , , , , , , , , , , , , , , , , , , 
92,levels/gta5/_hills/country_04/cs4_04, , , , , , , , , , , , , , , , , , , , , , , , , , , , ,1,1,1, , , , 
93,levels/gta5/_hills/country_04/cs4_09, , , , , , , ,3,3,3,3,3,3, , , , , , , , , , , , , , , , , , , , , , 
94,levels/gta5/_hills/country_04/cs4_11, , , , , , , , , , , , , , , , , , , , , , , , , , , , , , , , ,1, , 
95,levels/gta5/_hills/country_04/cs4_13,1,2, , ,1,1,1,1,1,1,1,1,1,2,2,1,1,1,1, , , ,1,2,2,2,2,1,1,1, , ,2, , 
96,levels/gta5/_hills/country_04/cs4_rd_props, , , , , , , , , ,1,1,1,1,1,1,1,1,1,1, , , ,1, , , , , , , , , , , , 
97,levels/gta5/_hills/country_04/cs4_roads, , , , , , , , , ,1,1,1,1,1,1,1,1,1,1, , , ,1, , , , , , , , , , , , 
98,levels/gta5/_hills/country_05/cs5_4, , , , , , , , , , , , , , , , , , , , , , , , , , , , , , , , ,2, , 
99,levels/gta5/_hills/country_06/cs6_04, , , , , , , ,1,1, , , , , , ,1,1,1,1, , , ,1,1,1,1,1,1,1, , , , , , 
100,levels/gta5/_hills/country_06/cs6_06, , , , , , , ,1,1,1,1,1,1,1,1,1,1,1,1, , , ,1,1, , , , , , , , ,4, , 
101,levels/gta5/_hills/country_06/cs6_08, , , , , , , ,1,1,1,1,1,1,1, , , , , , , , , , , , , , , , , , , , , 
102,levels/gta5/_hills/country_06/cs6_10, , , , , , , , , , , , , , , ,2,2,2,2, , , ,2,2,2,2,2, , , , , ,2, , 
103,levels/gta5/_hills/cs_xref,2,2, , ,2,2,2,2,2,2,2,2,2,2,2,2,2,2,2, , , ,2,2,2,2,2,2,2,2,2, , , , 
104,levels/gta5/_prologue/plg_03,5,5, , ,5,5,5,5,5,5,5,5,5,5,5,5,5,5,5, , , ,5,5,5,5,5,5,5,5,5, ,5, , 
105,levels/gta5/_prologue/plg_04, , , , , ,1,1,1,1,1,1,1,1,1,1,1,1,1,1, , , ,1,1,1,1,1,1,1,1,1, ,1, , 
106,levels/gta5/_prologue/prologueint,1,1, , ,1,1,1,1,1,1,1,1,1,1,1,1,1,1,1, , , ,1,1,1,1,1,1,1,1,1, ,1, , 
107,levels/gta5/destruction/exterior/des_heli_billboard,3,3, , ,3,3,3,3,3,3,3,3,3,3,3,3,3,3,3, , , ,3,3,3,3,3,3,3,3,3, ,3, , 
108,levels/gta5/destruction/exterior/des_protree, , , , , ,1,1,1,1,1,1,1,1,1,1,1,1,1,1, , , ,1,1,1,1,1,1,1,1,1, ,1, , 
109,levels/gta5/destruction/exterior/des_shipsink, , , , , , , , , , , , , , , , , , , , , , , , , , , , , ,4,4, ,2, , 
110,levels/gta5/destruction/exterior/des_stilthouse,1,1, , ,1,1,1,1,1,1,1,1,1,1,1,1,1,1,1, , , ,1,1,1,1,3,3,3,1,1, ,1, , 
111,levels/gta5/destruction/exterior/des_trailerparkd,1,1, , ,1,1,1,1,1,1,1,1,1,1,1,1,1,1,1, , , ,1,1,1,1,1,1,1,1,1, ,1, , 
112,levels/gta5/destruction/interior/des_fib_glass,2,2, , ,2,2,2,2,2,2,2,2,2,2,2,2,2,2,2, , , ,2,2,2,2,2,2,2, , , , , , 
113,levels/gta5/generic/cutsobjects, , , , , , , , , , , , , , , , , , , , , , , , , , ,1,1,1, , , , , , 
114,levels/gta5/generic/cutspeds,26,28, , ,28,28,28,28,28,28,28,28,28,28,28, , , , , , , , , , , , , , , , , , , , 
115,levels/gta5/generic/cutspeds/cs_brad.ped, , , , , , , , , , , , , , , , , , , , , , , , ,1,1,1,1,1,1,1, , , , 
116,levels/gta5/generic/cutspeds/cs_bradcadaver.ped, , , , , , , , , , , , , , , , , , , , , , , , , ,1,1,1,1,1,1, ,1, , 
117,levels/gta5/generic/cutspeds/cs_cris.ped, , , , , , , , , , , , , , , ,3,3,3,3, , , ,3,3,3,3,3,3,3,3,3, ,3, , 
118,levels/gta5/generic/cutspeds/cs_davenorton.ped, , , , , , , , , , , , , , , ,2,2,2,2, , , ,2,2, , , , , , ,9, , , , 
119,levels/gta5/generic/cutspeds/cs_fabien.ped, , , , , , , , , , , , , , , ,5,5,5,5, , , ,5,5, , , , , , , , , , , 
120,levels/gta5/generic/cutspeds/cs_floyd.ped, , , , , , , , , , , , , , , ,4,4,4,4, , , ,4,4, , , , , , , , , , , 
121,levels/gta5/generic/cutspeds/cs_hunter.ped, , , , , , , , , , , , , , , ,1,1,1,1, , , ,1, , ,1,1,1,1,1, , , , , 
122,levels/gta5/generic/cutspeds/cs_janet.ped, , , , , , , , , , , , , , , ,2,2,2,2, , , ,2,1,1,1,1, , , , , , , , 
123,levels/gta5/generic/cutspeds/cs_jewelass.ped, , , , , , , , , , , , , , , , , , , , , , , , , , , ,1,1,1,1, , , , 
124,levels/gta5/generic/cutspeds/cs_jimmydisanto.ped, , , , , , , , , , , , , , , , , , , , , , , , , , , , , ,1,1, ,1, , 
125,levels/gta5/generic/cutspeds/cs_johnnyklebitz.ped, , , , , , , , , , , , , , , ,1,1,1,1, , , ,1,1,1,1,1,1,1,1,1, ,1, , 
126,levels/gta5/generic/cutspeds/cs_lamardavis.ped, , , , , , , , , , , , , , , ,1,1,1, , , , , , , , , , , , , , , , , 
127,levels/gta5/generic/cutspeds/cs_lazlow.ped, , , , , , , , , , , , , , , ,1,1,1,1, , , ,1,1,1,1,1,1,1,1,1, , , , 
128,levels/gta5/generic/cutspeds/cs_lemonfem_01.ped, , , , , , , , , , , , , , , , , , , , , , , , , ,2,2,2,2,2,2, ,2, , 
129,levels/gta5/generic/cutspeds/cs_lemonmale_01.ped, , , , , , , , , , , , , , , , , , , , , , , , ,2,2,2,2,2,2,2, ,2, , 
130,levels/gta5/generic/cutspeds/cs_marnie.ped, , , , , , , , , , , , , , , ,1,1,1,1, , , ,1,1,1,1,1,1,1,1,1, ,1, , 
131,levels/gta5/generic/cutspeds/cs_mrk.ped, , , , , , , , , , , , , , , , , ,3,3, , , ,3,3,3,3,3,3,3,2,2, , , , 
132,levels/gta5/generic/cutspeds/cs_nervousron.ped, , , , , , , , , , , , , , , , , , , , , , , , , , ,2,2,2,2,1, ,1, , 
133,levels/gta5/generic/cutspeds/cs_old_man1a.ped, , , , , , , , , , , , , , , ,1,1,1,1, , , ,1,1,1,1,1, , , , , , , , 
134,levels/gta5/generic/cutspeds/cs_rotspringtest.ped, , , , , , , , , , , , , , , ,3,3,3,3, , , ,3,3,3,3,3,3,3,3,3, ,3, , 
135,levels/gta5/generic/cutspeds/cs_sasq.ped, , , , , , , , , , , , , , , ,1,1,1,1, , , ,1,1,1,1,1,1,1,1,1, ,1, , 
136,levels/gta5/generic/cutspeds/cs_solomon.ped, , , , , , , , , , , , , , , ,1,1,1,1, , , ,1,1,1,1,1,1,1,1,1, , , , 
137,levels/gta5/generic/cutspeds/cs_stretch.ped, , , , , , , , , , , , , , , , , , , , , , , , , ,1,1,1,1,1,1, ,1, , 
138,levels/gta5/generic/cutspeds/cs_taostranslator.ped, , , , , , , , , , , , , , , , , , , , , , , , , , , , , , ,1, , , , 
139,levels/gta5/generic/cutspeds/cs_tracydisanto.ped, , , , , , , , , , , , , , , , , , , , , , , , , , , ,2,2,2,2, , , , 
140,levels/gta5/generic/cutspeds/cs_wade.ped, , , , , , , , , , , , , , , ,1,1,1,1, , , ,1,1,1,1,1,1,1,1,4, ,4, , 
141,levels/gta5/generic/procobj,5,5, , ,5,5,5,5,5,5,5,5,5,5,5,5,5,5,5, , , ,5,5,5,5,5,5,5,5,5, ,5, , 
142,levels/gta5/interiors/int_props/int_club, , , , , , , , , , , , , , , , , , , , , , , , , , , , , , , , ,3, , 
143,levels/gta5/interiors/v_int_11, , , , , , , , , , , , , , , ,1,1,1,1, , , ,1,1,1,1,1,1,1,1,1, ,1, , 
144,levels/gta5/interiors/v_int_20, , , , , , , , , , , , , , , , , , , , , , , , , , , , , , , , ,4, , 
145,levels/gta5/interiors/v_int_4,1,1, , ,1,1,1,1,1,1,1,1,1,1,1,1,1,1,1, , , ,1,1,1,1,1,1,1, , , , , , 
146,levels/gta5/props/building/v_rooftop,2,2, , ,2,2,2,2,2,2,2,2,2,2,2,2,2,2,2, , , ,2,3,3,3,3,3,3,3,3, , , , 
147,levels/gta5/props/commercial/v_garage,1,1, , ,1,1,1,1,1,1,1,1,1,1,1,1,1,1,1, , , ,1,1,1,1,1,1,1,1,1, , , , 
148,levels/gta5/props/industrial/v_airport,2,2, , ,2,2,2,2,2,2,2,2,2,2,2, , , , , , , , , , , , , , , , , , , , 
149,levels/gta5/props/industrial/v_industrial,4,4, , ,4,4,4,4,4,4,4,4,4,4,4,4,4,4,4, , , ,4,4,4,4,4,4,4,4,4, , , , 
150,levels/gta5/props/lev_des/lev_des,10,10, , ,10,10,10,10,10,10,10,10,10,10,10,10,10,10,10, , , ,10,10,10,10,10,10,10,10,10, ,12, , 
151,levels/gta5/props/lev_des/p_v_lev_des_skin, , , , , , , , , , , , , , , , , , , , , , , , , , ,2,2,2, , , , , , 
152,levels/gta5/props/lev_des/v_lev_doors, , , , , , , , , , , , , , , , , , , , , , , , , , , , , , , , ,6, , 
153,levels/gta5/props/lev_des/v_set_pieces, , , , , , , , , , , , , , , , , , ,3, , , ,3, , , , , , , , , , , , 
154,levels/gta5/props/recreational/v_sports,2,2, , ,2,2,2,2,2,2,2,2,2,2,2,2,2,2,2, , , ,2,2,2,2,2,2,2,2,2, ,2, , 
155,levels/gta5/props/residential/v_garden,19,19, , ,19,19,19,19,19,19,19,19,19,19,19,19,19,20,20, , , ,20,20,20,20,20,20,20,20,19, ,19, , 
156,levels/gta5/props/roadside/v_bins,2,2, , ,2,2,2,2,2,2,2,2,2,2,2,2,2,2,2, , , ,2,2,2,2,2,2,2,2,2, ,2, , 
157,levels/gta5/props/roadside/v_fences_2, , , , , , , , , , , , , , , , , , , , , , , , , , , , , , ,2, , , , 
158,levels/gta5/props/roadside/v_rubbish,136,139, , ,139,139,139,139,139,139,139,139,139,139,139,139,139,139,139, , , ,139,139,139,139,138,138,138,138,138, ,143, , 
159,levels/gta5/props/roadside/v_storage,50,136, , ,137,137,137,137,137,154,154,154,154,154,154,154,154,154,154, , , ,154,154,154,131,131,131,131,131,131, ,96, , 
160,levels/gta5/props/roadside/v_traffic_lights,1,1, , ,1,1,1,1,1,1,1,1,1,1,1, ,1,1,1, , , ,1,1,1,1,1,1,1,1,1, ,9, , 
161,levels/gta5/props/roadside/v_utility,1,1, , ,1,1,1,1,1,1,1,1,1,1,1,1,1,1,1, , , ,1,1, , , , , , , , , , , 
162,levels/gta5/props/rural/v_farm,2,2, , ,2,2,2,2,2,2,2,2,2,2,2,2,2,2,2, , , ,2,3,3,8,8,8,8,8,8, ,8, , 
163,levels/gta5/props/vegetation/v_bush,2,2, , , , , , , , , , , , , , , , , , , , , , , , , , , , , , , , , 
164,levels/gta5/props/vegetation/v_crops,2,2, , ,2,2,2,2,2,2,2,2,2,2,2,2,2,6,6, , , ,6,6,6,6,6,6,6,6,6, ,6, , 
165,levels/gta5/props/vegetation/v_ext_veg,9,9, , ,9,9,9,9,9,14,14,14,14,14,14,14,14,14,14, , , ,14,14,13,14,14,14,14,14,14, ,14, , 
166,levels/gta5/props/vegetation/v_fanpalm,2,2, , ,2,2,2,2,2,2,2,2,2,2,2,2,2,3,2, , , ,2,3,3,3,3,2,3,3,3, ,3, , 
167,levels/gta5/props/vegetation/v_potted,4,4, , ,4,4,4,4,4,4,4,4,4,4,4,4,4,4,4, , , ,4,4,4,4,4,4,4,4,5, ,5, , 
168,levels/gta5/props/vegetation/v_snow,5,5, , ,5,5,5,5,5,5,5,5,5,5,5,5,5,5,5, , , ,5,5,5,5,5,5,5,5,5, ,5, , 
169,levels/gta5/props/vegetation/v_trees,20,20, , ,20,20,20,20,20,20,20,20,20,20,20,20,20,20,20, , , ,20,23,23,23,23,23,23,23,23, ,25, , 
170,levels/gta5/vehicles,1,1, , ,1,1,1,1,1,1,1,1,1,1, , , , , , , , , , , , , , , , , , , , , 
171,models/cdimages/componentpeds/a_c_cow.ped,1,1, , ,1,1,1,1,1,1,1,1,1,1,1,1,1,1,1, , , ,1,1,1,1,1,1,1,1,1, , , , 
172,models/cdimages/componentpeds/a_c_deer.ped,2,2, , ,2,2,2,2,2,2,2,2,2,2,2,2,2,2,2, , , ,2,2,2,2, , , , , , , , , 
173,models/cdimages/componentpeds/a_c_horse.ped,3,3, , ,3,3,3,3,3,3,3,3,3,3,3,3,3,3,3, , , ,3,3,1,1,1,1,1,1,1, , , , 
174,models/cdimages/componentpeds/a_f_m_beach_01.ped, , , , , , , , , , , , , , , , , , , , , , , , ,1,1, , , , , , , , , 
175,models/cdimages/componentpeds/a_f_m_business_02.ped, , , , ,2,2,2,2,2,2,2,2,2,2,2,2,2,2,2, , , ,2,2,2,2,2, , , , , , , , 
176,models/cdimages/componentpeds/a_f_m_eastsa_01.ped,1,1, , ,1,1,1,1,1,1,1,1,1,1,1,1,1,1,1, , , ,1,1,1,1,1,1,1, , , , , , 
177,models/cdimages/componentpeds/a_f_m_fatbla_01.ped, , , , , , , , , , ,1,1,1,1,1,1,1,1,1, , , ,1,1,1,1,1,1,1,1,1, , , , 
178,models/cdimages/componentpeds/a_f_m_prolhost_01.ped, , , , , , , , ,1,1,1,1,1,1,1,1,1,1,1, , , ,1,1,1,1,1,1,1,1,1, , , , 
179,models/cdimages/componentpeds/a_f_m_salton_01.ped,1,1, , ,1,1,1,1,1,1,1,1,1, , , , , , , , , , ,1,1,1,1,1,1,1, , , , , 
180,models/cdimages/componentpeds/a_f_m_soucent_01.ped, , , , ,1,1,1,1,1,1,1,1,1,1,1,1,1,1,1, , , ,1, , , , , , , , , , , , 
181,models/cdimages/componentpeds/a_f_y_beach_01.ped,1,1, , ,1,1,1,1,1,1,1,1,1,1,1,1,1,1,1, , , ,1,1,1,1,1,1,1,1,1, , , , 
182,models/cdimages/componentpeds/a_f_y_bevhills_02.ped,2,2, , ,2,2,2,2,2,2,2,2,2,2,2,2,2,2,2, , , ,2,2,2,2,2,2,2,2,2, , , , 
183,models/cdimages/componentpeds/a_f_y_fitness_02.ped,4,4, , ,4,4,4,4,4,4,4,4,4,4,4,4,4,4,4, , , ,4,4,4,4,4,4,4,4, , , , , 
184,models/cdimages/componentpeds/a_f_y_hippie_01.ped,1,1, , ,1,1,1,1,1,1,1,1,1,1,1,1,1,1,1, , , ,1,1,1,1,1,1,1,1,1, ,1, , 
185,models/cdimages/componentpeds/a_f_y_runner_01.ped, , , , , , , , , , , , , , , , , , , , , , , , , , , ,1,2,2,2, , , , 
186,models/cdimages/componentpeds/a_f_y_scdressy_01.ped,1,1, , ,1,1,1,1,1,1,1,1,1,1,1,1,1,1,1, , , ,1,1,1,1,1,1,1,1,1, , , , 
187,models/cdimages/componentpeds/a_f_y_tourist_02.ped,1,1, , ,1,1,1,1,1,1,1,1,1,1,1,1,1,1,1, , , ,1,1,1,1,1,1,1,1,1, , , , 
188,models/cdimages/componentpeds/a_f_y_vinewood_01.ped,1,1, , ,1,1,1,1,1,1,1,1,1,1,1,1,1,1,1, , , ,1,1,1,1,1,1,1,1, , , , , 
189,models/cdimages/componentpeds/a_f_y_vinewood_02.ped,1,1, , ,1,1,1,1,1,1,1,1,1,1,1,1,1,1,1, , , ,1,1,1,1,1,1,1,1,1, , , , 
190,models/cdimages/componentpeds/a_m_m_afriamer_01.ped,1,1, , ,1,1,1,1,1,1,1,1,1,1,1,1,1,1,1, , , ,1,1,1,1,1,1,1,1,1, , , , 
191,models/cdimages/componentpeds/a_m_m_genfat_02.ped, , , , , , , , , , , , , , , , ,1,1,1, , , ,1,1,1,1,1,1,1,1,1, , , , 
192,models/cdimages/componentpeds/a_m_m_hillbilly_01.ped,1,1, , ,2,2,2,2,2,2,2,2,2,2,2,2,2,2,2, , , ,2,2,2,2,2,2, , , , , , , 
193,models/cdimages/componentpeds/a_m_m_sasq_01.ped,3,3, , ,3,3,3,3,3,3,3,3,3,3,3,3,3,3,3, , , ,3,3,3,3,3,3,3,3, , , , , 
194,models/cdimages/componentpeds/a_m_m_tranvest_01.ped,1,1, , ,1,1,1,1,1,1,1,1,1,1,1,1,1,1,1, , , ,1,1,1,1,1,1,1,1,1, , , , 
195,models/cdimages/componentpeds/a_m_o_acult_01.ped, , , , , , , , , , , , , , , , , , , , , , , , ,1,2,2,2,2,2,2, , , , 
196,models/cdimages/componentpeds/a_m_o_acult_02.ped, , , , , , , , , , , , , , , ,1,1,1,1, , , ,1,1,1,1,1,1,1,1,1, , , , 
197,models/cdimages/componentpeds/a_m_o_ktown_01.ped, ,6, , , , , , , , , , , , , , , , , , , , , , , , , , , , , , , , , 
198,models/cdimages/componentpeds/a_m_o_shunt_01.ped,1,1, , ,1,1,1,1,1,1,1,1,1,1,1,1,1,1,1, , , ,1,1,1,1,1,1,1,1, , , , , 
199,models/cdimages/componentpeds/a_m_o_tramp_01.ped, , , , ,1,1,1,1,1,1,1,1,1,1,1,1,1,1,1, , , ,1,1,1, , , , , , , , , , 
200,models/cdimages/componentpeds/a_m_y_beach_01.ped,1,1, , ,1,1,1,1,1,1,1,1,1, , , , , , , , , , , , , , , , , , , , , , 
201,models/cdimages/componentpeds/a_m_y_breakdance_01.ped, , , , , , , , , , , ,1,1, , , , , , , , , , , , , , , , , , , , , , 
202,models/cdimages/componentpeds/a_m_y_busicas_01.ped,1,1, , ,2,2,2,2,2,2,2,2,2,2,2,2,2,2,2, , , ,2,2,2,2,2, , , , , , , , 
203,models/cdimages/componentpeds/a_m_y_golfer_01.ped,1,1, , ,1,1,1,1,1,1,1,1,1,1,1,1,1,1,1, , , ,1,1,1,1,1,1,1,1,1, , , , 
204,models/cdimages/componentpeds/a_m_y_hipster_01.ped,1,1, , ,1,1,1,1,1,1,1,1,1,1,1,1,1,1,1, , , ,1,1,1,1,1,1,1,1,1, , , , 
205,models/cdimages/componentpeds/a_m_y_indian_01.ped, , , , , , , , , , , , , , , , , , , , , , , , , , , ,1, , , , , , , 
206,models/cdimages/componentpeds/a_m_y_musclbeac_01.ped,1,1, , ,1,1,1,1,1,1,1,1,1,1,1,1,1,1,1, , , ,1,1,1,1,1,1,1,1,1, , , , 
207,models/cdimages/componentpeds/a_m_y_salton_01.ped,1,1, , ,1,1,1,1,1,1,1,1,1,1,1,1,1,1,1, , , ,1,1,1,1,1,1,1,1,1, , , , 
208,models/cdimages/componentpeds/a_m_y_stbla_02.ped,1,1, , ,1,1,1,1,1,1,1,1,1,1,1,1,1,1,1, , , ,1,1,1,1,1,1,1,1,1, , , , 
209,models/cdimages/componentpeds/g_m_m_chemwork_01.ped,1,1, , ,1,1,1,1,1,1,1,1,1,1,1,1,1,1,1, , , ,1,1,1,1,1,1,1,1,1, , , , 
210,models/cdimages/componentpeds/g_m_m_chigoon_02.ped,2,2, , ,2,2,2,2,2,2,2,2,2,2,2,2,2,2,2, , , ,2,2,2,2,2,2,2,2, , , , , 
211,models/cdimages/componentpeds/g_m_m_korboss_01.ped,1,1, , ,1,1,1,1,1,1,1,1,1,1,1,1,1,1,1, , , ,1,1,1,1,1,1,1,1,1, , , , 
212,models/cdimages/componentpeds/g_m_m_mexboss_02.ped, , , , , ,2,2,2,2,2,2,2,2,2,2,2,2,2,2, , , ,2,2,2,2,2,2,2,2,2, , , , 
213,models/cdimages/componentpeds/g_m_y_korean_01.ped, , , , , , , , , , , ,2,2,2,2,2,2,2,2, , , ,2,2,2,2,2,2,2,2,2, , , , 
214,models/cdimages/componentpeds/g_m_y_mexgoon_01.ped,1,1, , ,1,1,1,1,1,1,1,1,1,1,1,1,1,1,1, , , ,1,1, , , , , , , , , , , 
215,models/cdimages/componentpeds/g_m_y_salvagoon_01.ped, , , , , , , , , , , , , ,3,3,3,3,3,3, , , ,3,3,3,3,3,3,3,3,3, , , , 
216,models/cdimages/componentpeds/g_m_y_salvagoon_03.ped, , , , , , , , , , , , , , ,3,3,3,3,3, , , ,3,3,3,3,3,3,3,3,3, , , , 
217,models/cdimages/componentpeds/g_m_y_strpunk_01.ped, , , , , , , , ,3,3,3,3,3,3,3,3,3,3,3, , , ,3,3,3,3,3,1,1,1,1, , , , 
218,models/cdimages/componentpeds/g_m_y_strpunk_02.ped, , , , , , , , , , , , , , , , , , , , , , , , , , , ,1,1,1,5, , , , 
219,models/cdimages/componentpeds/ig_brucie.ped, , , , , , , , , , , , , , , , , , , , , , , , , , , , ,1,1,1, ,1, , 
220,models/cdimages/componentpeds/ig_davenorton.ped,1,1, , ,1,1,1,1,1,1,1,1,1,1,1,1,1,1,1, , , ,1,1,1,1,1,1,2,2,2, , , , 
221,models/cdimages/componentpeds/ig_hunter.ped, , , , , , , , , , , , , , , ,1,1,1,1, , , ,1, , , , , , , , , , , , 
222,models/cdimages/componentpeds/ig_jimmyboston.ped,6,6, , ,6,6,6,6,6, , , , , , , , , , , , , , , , , , , , , , , , , , 
223,models/cdimages/componentpeds/ig_josh.ped,1,1, , ,1,1,1,1,1,1,1,1,1,1,1,1,1,1,1, , , ,1,1,1,1,1,1,1,1,1, ,1, , 
224,models/cdimages/componentpeds/ig_lazlow.ped,7,7, , ,7,7,7,7,7,7,7,7,7,7,7,7,7,7,7, , , ,7,7,7,7,7,7,7,7,7, , , , 
225,models/cdimages/componentpeds/ig_mrk.ped,2,2, , ,2,2,2,2,2,2,2,2,2,2,2,4,4,4,5, , , ,5,5,1,1,1,1,1,1,1, , , , 
226,models/cdimages/componentpeds/ig_natalia.ped,1,1, , ,1,1,1,1,1,1,1,1,1,1,1,1,1,1,1, , , ,1,1,1,1,1,1,1,1,1, ,1, , 
227,models/cdimages/componentpeds/ig_nervousron.ped,5,5, , ,5,5,5,5,5,5,5,5,5,5,5,5,5,5,5, , , ,5,5, , , , , , , , , , , 
228,models/cdimages/componentpeds/ig_sasq.ped,2,2, , ,2,2,2,2,2,2,2,2,2,2,2,2,2,2,2, , , ,2,2,2,2,2,2,2,2,2, ,2, , 
229,models/cdimages/componentpeds/ig_siemonyetarian.ped, , , , , , , , , , , , , , , , , , , , , , , , , , , , ,1,1,1, , , , 
230,models/cdimages/componentpeds/ig_stevehains.ped, , , , , , , , , , , , , , , , , , , , , , , , , , , ,1,1, , , , , , 
231,models/cdimages/componentpeds/ig_taostranslator.ped,1,1, , ,1,1,1,1,1,1,1,1,1,1,1,1,1,1,1, , , ,1,1, , , , , , , , , , , 
232,models/cdimages/componentpeds/ig_terry.ped,2,2, , ,2,2,2,2,2,2,2,2,2,2,2,2,2,2,2, , , ,2,2,2,2,2,2,2,2,2, ,2, , 
233,models/cdimages/componentpeds/ig_tracydisanto.ped, ,8, , ,8,8,8,8,8,8,8,8,8,8,8,8,8,8,8, , , ,8,8,8,8,8,8,8,8,1, , , , 
234,models/cdimages/componentpeds/ig_wade.ped,4,4, , ,4,4,4,4,4,4,4,4,4,4,4,4,4,4,4, , , ,4,4,4,4,4,4,4,4,2, , , , 
235,models/cdimages/componentpeds/s_f_m_snowcop_02.ped,1,1, , ,1,1,1,1,1,1,1,1,1,1,1,1,1,1,1, , , ,1,1,1,1,1,1,1,1,1, , , , 
236,models/cdimages/componentpeds/s_f_y_doctor_01.ped,2,2, , ,2,2,2,2,2,2,2, , , , , , , , , , , , , , , , , , , , , , , , 
237,models/cdimages/componentpeds/s_f_y_hooker_01.ped,1,1, , ,1,1,1,1,1,1,1,1,1,1,1,1,1,1,1, , , ,1,1,1,1,1,1,1,1,1, , , , 
238,models/cdimages/componentpeds/s_f_y_ranger_01.ped,1,1, , ,1,1,1,1,1,1,1,1,1,1,1,1,1,1,1, , , ,1,1,1,1,1,1,1,1,1, , , , 
239,models/cdimages/componentpeds/s_f_y_sheriff_01.ped,1,1, , ,1,1,1,1,1,1,1,1,1,1,1,1,1,1,1, , , ,1,1,1,1,1,1,1,1,1, , , , 
240,models/cdimages/componentpeds/s_m_m_marine_02.ped,2,2, , ,2,2,2,2,2,2,2,2,2,2,2,2,2,2,2, , , ,2,2,2,2,2,2,2,2,2, , , , 
241,models/cdimages/componentpeds/s_m_m_paramedic_01.ped,1,1, , ,1,1,1,1,1,1,1,1,1,1,1,1,1,1,1, , , ,1,1,1,1,1,1,1,1,1, , , , 
242,models/cdimages/componentpeds/s_m_m_snowcop_01.ped,1,1, , ,1,1,1,1,1,1,1,1,1,1,1,1,1,1,1, , , ,1,1,1,1,1,1,1,1,1, , , , 
243,models/cdimages/componentpeds/s_m_m_ups_01.ped,1,1, , ,1,1,1,1,1,1,1,1,1,1,1,1,1,1,1, , , ,1,1,1,1,1,1,1,1,1, , , , 
244,models/cdimages/componentpeds/s_m_m_ups_02.ped,1,1, , ,1,1,1,1,1,1,1,1,1,1,1,1,1,1,1, , , ,1,1,1,1,1,1,1,1,1, , , , 
245,models/cdimages/componentpeds/s_m_y_chef_01.ped,1,1, , ,1,1,1,1,1,1,1,1,1,1,1,1,1,1,1, , , ,1,1,1,1,1,1,1,1,1, , , , 
246,models/cdimages/componentpeds/s_m_y_construct_01.ped,1,1, , ,1,1,1,1,1,1,1,1,1,1,1,1,1,1,1, , , ,1,1,1,1,1,1,1,1,1, , , , 
247,models/cdimages/componentpeds/s_m_y_cop_01.ped,1,1, , ,1,1,1,1,1,1,1,1,1,1,1,1,1,1,1, , , ,1,1, , , , , , , , , , , 
248,models/cdimages/componentpeds/s_m_y_garbage.ped,2,2, , ,2,2,2,2,2,2,2,2,2,2,2,2,2,2,2, , , ,2,2,2,2,2,2,2,2,2, , , , 
249,models/cdimages/componentpeds/s_m_y_marine_01.ped, , , , , , , , , , , , , , , , , , , , , , , , , , , , ,2,2, , , , , 
250,models/cdimages/componentpeds/s_m_y_prisoner_01.ped,1,1, , ,1,1,1,1,1,1,1,1,1,1,1,1,1,1,1, , , ,1,1,1,1,1,1,1,1,1, , , , 
251,models/cdimages/componentpeds/s_m_y_xmech_02.ped,1,1, , ,1,1,1,1,1,1,1,1,1,1,1,1,1,1,1, , , ,1,1,1,1,1,1,1,1,1, , , , 
252,models/cdimages/componentpeds/u_f_m_corpse_01.ped, , , , , , , , , , , , , , , , , , , , , , , , , , , ,5,5,5,3, , , , 
253,models/cdimages/componentpeds/u_f_y_mistress.ped,4,4, , ,4,4,4,4,4,4,4,4,4,4,4, , , , , , , , , , , , , , , , , , , , 
254,models/cdimages/componentpeds/u_m_m_spyactor.ped,1,1, , ,1,1,1,1,1,1,1,1,1,1,1,1,1,1,1, , , ,1,1,1,1,1,1,1,1,1, , , , 
255,models/cdimages/componentpeds/z_c_doctor_01.ped,2,2, , ,2,2,2,2,2,2,2,2,2,2,2,2,2,2,2, , , ,2,2,2,2,2,2,2,2,2, ,2, , 
256,models/cdimages/componentpeds/z_previewped.ped,3,3, , ,3,3,3,3,3,3,3,3,3,3,3,3,3,3,3, , , ,3,3,3,3,3,25,25,25,25, ,25, , 
257,models/cdimages/componentpeds/z_z_gtavheadtestv15.ped,51,51, , ,51,51,51,51,51,51,51,51,51,51,51,51,51,51,51, , , ,51,51,51,51,51,51,51,51,51, ,51, , 
258,models/cdimages/componentpeds/z_z_headlookattest.ped,1,1, , ,1,1,1,1, , , , , , , , , , , , , , , , , , , , , , , , , , , 
259,models/cdimages/componentpeds/z_z_lookattest_1.ped,5,5, , ,5,5,5,5,5,5,5,5,5,5,5,5,5,5,5, , , ,5,5,5,5,5,5,5,5,5, ,5, , 
260,models/cdimages/componentpeds/z_z_lookattest_2.ped,5,5, , ,5,5,5,5,5,5,5,5,5,5,5,5,5,5,5, , , ,5,5,5,5,5,5,5,5,5, ,5, , 
261,models/cdimages/componentpeds/z_z_lookattest_3.ped,5,5, , ,5,5,5,5,5,5,5,5,5,5,5,5,5,5,5, , , ,5,5,5,5,5,5,5,5,5, ,5, , 
262,models/cdimages/componentpeds/z_z_multiheadexport_a.ped,13,13, , ,13,13,13,13,13,13,13,13,13,13,13,13,13,13,13, , , ,13,13,13,13,13,13,13,13,13, ,13, , 
263,models/cdimages/componentpeds/z_z_runtimescale.ped,1,1, , ,1,1,1,1,1,1,1,1,1,1,1,1,1,1,1, , , ,1,1,1,1,1,1,1,1,1, ,1, , 
264,models/cdimages/componentpeds_snowcop/s_m_m_snowcop_01.ped, , , , ,1,1,1,1,1,1,1,1,1,1,1, , , , , , , , , , , , , , , , , , , , 
265,models/cdimages/ped_mpheadov_txds,3,3, , ,3, , , , , , , , , , , , , , , , , , , , , , , , , , , , , , 
266,models/cdimages/ped_tattoo_txds,16,16, , ,16,16,16,16,16,16,16,16,16,16,16,16,16,16,16, , , ,16,16,16,16,16,16,16,16,16, ,16, , 
267,models/cdimages/pedprops,29,29, , ,29,29,29,29,31,31,31,31,31,31,31,28,32,32,32, , , ,32,33,35,34,34,35,36,36,36, ,24, , 
268,models/cdimages/streamedpedprops,9,11, , ,11,11,11,11,11,11,11,11,11,11,11,11,11,11,11, , , ,11,14,10,10,10,9,9,9,9, ,3, , 
269,models/cdimages/streamedpeds/hc_gunman.ped,3,3, , ,3,3,3,3,3,3,3,3,3,3,3, , , , , , , , , , , , , , , , , , , , 
270,models/cdimages/streamedpeds/ig_brad.ped, , , , , , , , , , , , , , , , , , , , , , , , ,1,1,1,1,1,1,1, , , , 
271,models/cdimages/streamedpeds/ig_jimmydisanto.ped,1,1, , ,1,1,1,1,1,1,1,1,1,1,1,1,1,1,1, , , ,1,1,1,1,1,1,1,1,1, ,1, , 
272,models/cdimages/streamedpeds/ig_lamardavis.ped,2,2, , ,2,2,2,2,2,2,2,2,2,2, ,1,1,1,1, , , ,1,1,1,1,1,1,1,1,1, ,1, , 
273,models/cdimages/streamedpeds/mp_f_deadhooker.ped, , , , , , , , , , , , , , , , , , , , , , , ,1,1,1,1,1,1,1,1, ,1, , 
274,models/cdimages/streamedpeds/mp_g_f_vagos_01.ped,2,2, , ,2,2,2,2, , , , , , , , , , , , , , , , , , , , , , , , , , , 
275,models/cdimages/streamedpeds/mp_g_m_biker_01.ped,1,2, , ,2,2,2,2,2,2,2,2,2,2,2,2,2,2,2, , , ,2,2,2,2,2,2,2,2,2, ,2, , 
276,models/cdimages/streamedpeds/mp_g_m_vagos_01.ped, , , , , , , , ,2,2,2,2,2,2,2,2,2,2,2, , , ,2,2,2,2,2,2,2,2,2, ,2, , 
277,models/cdimages/streamedpeds/mp_headtargets.ped,96,96, , ,96,96,96,96,96,96,96,96,96,97,97,97,97,97,97, , , ,97,97,97,97,97,97,97,97,97, ,97, , 
278,models/cdimages/streamedpeds/mp_m_cop_01.ped,3,3, , ,3,3,3,3,3,3,3,3,3,3,3,3,3,3,3, , , ,3,2,2,1,1,1,1,1,1, ,1, , 
279,models/cdimages/streamedpeds/player_one.ped,5,3, , ,3,3,3,3,3,3,3,3,3,3,3,3,3,4,4, , , ,4,4,5,5,5,5,5,5,5, , , , 
280,models/cdimages/streamedpeds/player_two.ped,3,3, , ,3,3,3,3,3,3,3,3,3,3,3,3,3,3,3, , , ,3,3,3,3,2,2,2,2,3, , , , 
281,models/cdimages/streamedpeds/player_zero.ped,2,2, , ,2,5,5,5, ,2,2,2,2,2,2,2,2,2,2, , , ,2,2,2,2,2,2,2,2,2, , , , 
282,textures,124,124, , ,124,124,124,124,123,123,123,124,124,124,124,124,124,124,124, , , ,124,124,125,126,126,129,129,131,131, ,138, , 
