0, ,Sat Mar 31,Fri Apr 06,Thu Apr 12,Thu Apr 12,Fri Apr 13,Sat Apr 14,Sat Apr 14,Tue Apr 17,Wed Apr 18,Thu Apr 19,Fri Apr 20,Sat Apr 21,Sat Apr 21,Wed Apr 25,Fri Apr 27,Sat May 12,Tue May 15,Wed May 16,Fri May 18,Mon May 21,Mon May 21,Mon May 21,Tue May 22,Fri May 25,Thu Jun 07,Thu Jun 14,Wed Jun 20,Tue Jun 26,Fri Jun 29,Thu Jul 12,Fri Aug 03,Mon Aug 20,Fri Aug 31,Wed Oct 24,Fri Oct 26
1,levels/gta5/_citye/downtown_01/dt1_02,21,21, , ,21,21,21,21,21,21,21,21,21,21,21,21,21,21,21, , , ,21,21,21,21,21,21,21,21,5, ,28, , 
2,levels/gta5/_citye/downtown_01/dt1_15,1,1, , ,1,1,1,1,1,1,1,1,1,1,1,1,1,1,1, , , ,1,1,19,19,19,19,19,19,19, ,19, , 
3,levels/gta5/_citye/downtown_01/fwy_01,4,4, , ,4,4,4,4,4,4,4,4,4,4,4,4,4,4,4, , , ,4, , , , , , , , , , , , 
4,levels/gta5/_citye/hollywood_01/hw1_10,5,5, , ,5,5,5,5,5,5,5,5,5,5,5,5,5,5,5, , , ,5,5,5,5,5,5,5,5,5, ,5, , 
5,levels/gta5/_citye/indust_01/id1_04,16,16, , ,16,16,16,16,16,16,16,16,16,16,16,16,16,16,16, , , ,16,16,16,16,16,16,16,16,16, ,16, , 
6,levels/gta5/_citye/indust_01/id1_33,2,2, , ,2,2,2,2,2,2,2,2,2,2,2,2,2,2,2, , , ,2,2,2,2,2,2,2,2,2, ,2, , 
7,levels/gta5/_citye/indust_01/id1_34,4,4, , ,4,4,4,4,4,4,4,4,4,4,4,4,4,4,4, , , ,4,4,4,4,4,4,4,4,4, ,4, , 
8,levels/gta5/_citye/indust_01/id1_35,8,8, , ,8,8,8,8,8,8,8,8,8,8,8,8,8,8,8, , , ,8,8,8,8,8,8,8,8,8, ,8, , 
9,levels/gta5/_citye/indust_01/indust_01,4,4, , ,4,4,4,4,4,4,4,4,4,4,4,4,4,4,4, , , ,4,4,4, , , , , , , , , , 
10,levels/gta5/_citye/scentral_01/sc1_06, , , , , , , , , , , , , , , , , , , , , , , , , , , , , , , , ,17, , 
11,levels/gta5/_cityw/airport_01/ap1_02, , , , , , , , , , , , , , , , , , , , , , , , , , , , , ,115,50, ,33, , 
12,levels/gta5/_cityw/beverly_01/bh1_06, , , , , , , , , , , , , , , , , , ,14, , , ,14,14,14,14,14,14,14,14,2, ,2, , 
13,levels/gta5/_cityw/beverly_01/bh1_18,2,2, , ,2,2,2,2,2,2,2,2,2,2,2,2,2,2,2, , , ,2,2,2,2,2,2,2,2, , , , , 
14,levels/gta5/_cityw/beverly_01/bh1_22,1,1, , ,1,1,1,1,1,1,1,1,1,1,1,1,1,1,1, , , ,1,1,1,1,1,1,1,1,1, ,1, , 
15,levels/gta5/_cityw/beverly_01/bh1_48, , , , , , , , , , , , , , , , , , , , , , , , , , , , , , , , ,7, , 
16,levels/gta5/_cityw/beverly_01/bh1_rd, , , , , , , , , , , , , , , , , , , , , , , , , , , , , , , , ,93, , 
17,levels/gta5/_cityw/beverly_01/bh1_rd2, , , , ,57,57,57,57,57,57,57,57,57,57,57,57,57,57,57, , , ,57,57,57,57,57,57,57,80,80, , , , 
18,levels/gta5/_cityw/koreatown_01/kt1_02,22,14, , ,14,14,14,14,14,14,14,14,14,14,14,14,14,14,14, , , ,14,14, , , , , , , , , , , 
19,levels/gta5/_cityw/koreatown_01/kt1_13, , , , , , , , , , , , , , , , , , , , , , , , , , , , , , , , ,15, , 
20,levels/gta5/_cityw/koreatown_01/kt1_16,5,5, , ,5,5,5,5,5,5,5,5,5,5,5,5,5,5,5, , , ,5,5,5,5,5,5, , , , , , , 
21,levels/gta5/_cityw/koreatown_01/kt1_rd,43,43, , ,43,43,43,43,43,43,43,43,43,43,43,43,43,43,43, , , ,43,43,43,43,43,43,43,43,43, , , , 
22,levels/gta5/_cityw/santamon_01/sm_boat,1,1, , ,1,1,1,1,1,1,1,1,1,1,1,1,1,1,1, , , ,1,1,1,1,1,1,1,1,1, ,1, , 
23,levels/gta5/_cityw/venice_01/vb_05,34,34, , ,34,34,34,34,34,34,34,34,34,34,34,34,34,34,34, , , ,34,34,34,34,34,34,34,34,34, ,11, , 
24,levels/gta5/_cityw/venice_01/vb_17,15,15, , , , , , , , , , , , , , , , , , , , , , , , , , , , , , , , , 
25,levels/gta5/_cityw/venice_01/vb_22,3,3, , ,3,3,3,3,3, , , , , , , , , , , , , , , , , , , , , , , , , , 
26,levels/gta5/_cityw/venice_01/vb_25, , , , , , , , , , , , , , ,1,1,1,1,1, , , ,1,1,1, , , , , , , , , , 
27,levels/gta5/_cityw/venice_01/vb_33,20,20, , ,20,20,20,20,20,20,20,20,20,20,20,20,20,20,20, , , ,20,20,20,20,20, , , , , , , , 
28,levels/gta5/_cityw/venice_01/vb_34,13,13, , ,13,13,13,13,13,13,13,13,13,13,13,13,13,13,13, , , ,13,13,13,13,13,13,13,12,12, ,12, , 
29,levels/gta5/_cityw/venice_01/vb_35,4,4, , ,4,4,4,4,4,4,4,4,4,26,30,30,30,30,30, , , ,30,30,7,7,7,7,6,6,6, ,6, , 
30,levels/gta5/_cityw/venice_01/vb_36,6,6, , ,6,6,6,6,6,6,6,6,6,6,6,6,6,6,6, , , ,6,6,6,6,6,6,6,6,6, ,6, , 
31,levels/gta5/_hills/cityhills_01/ch1_02, , , , , , , , , , , , , , , , , , , , , , , , , , , , , , ,2, ,2, , 
32,levels/gta5/_hills/cityhills_01/ch1_09,23,23, , ,23,23,23,23,23,23,23,23,23,23,23,23,23,23,23, , , ,23, , , , , , , , , , , , 
33,levels/gta5/_hills/cityhills_01/ch1_11,3,3, , ,3,3,3,3,3,3,3,3,3,3,3,15,15,15,15, , , ,15,15,15,15,15,15,15,15,15, ,15, , 
34,levels/gta5/_hills/cityhills_01/ch1_12,1,1, , ,1,1,1,1,1,1,1,1,1,1,1,1,1,1,1, , , ,1,1,1,1,1,1,1,1,1, ,1, , 
35,levels/gta5/_hills/cityhills_01/cityhills_01, , , , , , , , , ,2,2,2,2,2,2,2,2,2,2, , , ,2,2,2,2,2, , , , , , , , 
36,levels/gta5/_hills/cityhills_02/ch2_03,1,1, , ,1,1,1,1,1,1,1,1,1,1,1,1,1,1,1, , , ,1,1,1,1,1,1,1,1,1, ,1, , 
37,levels/gta5/_hills/cityhills_02/ch2_09b, , , , , , , , , , , , , , , , , , , , , , , , ,31,31,31,28,28,28,28, ,28, , 
38,levels/gta5/_hills/cityhills_03/ch3_10, , , , , , , , , , , , , , , , , , , , , , , , , , , , , , , , ,27, , 
39,levels/gta5/_hills/cityhills_03/ch3_12,8,8, , ,8,8,8,8,8,8,8,8,8,8,8,8,8,8,8, , , ,8,8, , , , , , , , , , , 
40,levels/gta5/_hills/country_01/cs1_05,4,4, , ,4,4,4,4,4,4,4,4,4,4,4,4,4,4,4, , , ,4,4,4,4,4,4,4,4,4, ,4, , 
41,levels/gta5/_hills/country_01/cs1_06, , , , , , , , , , , , , , , , , , , , , , , , , , , , , , ,19, ,19, , 
42,levels/gta5/_hills/country_01/cs1_railwyc,11,11, , ,11,11,11,11,11,11,11,11,11,11,11,11,11,11,11, , , ,11,11, , , , , , , , , , , 
43,levels/gta5/_hills/country_02/cs2_03,13,13, , ,13,13,13,13,13,13,13,13,13,13,13,13,13,13,13, , , ,13,13,13,13,13,13,13,13,13, ,13, , 
44,levels/gta5/_hills/country_02/cs2_04,12,12, , ,12,12,12,12,12,12,12,12,12,12,12,12,12,12,12, , , ,12,12,12,12,12,12,12,12,12, ,12, , 
45,levels/gta5/_hills/country_02/cs2_29,24,24, , ,19,19,19,19,19,19,19,19,19,19,19,19,19,19,19, , , ,19,19,19,19,19,19,19,19,19, , , , 
46,levels/gta5/_hills/country_02/cs2_railway, , , , , , , , , , , , , , , , , , , , , , , , , ,11, , , , , , , , , 
47,levels/gta5/_hills/country_02/cs2_railwyc, , , , , , , , , , , , , , , , , , , , , , , , , , ,11,11,11,11,11, ,11, , 
48,levels/gta5/_hills/country_03/cs3_04, , , , , , , , , , , , , , , , ,28,28,28, , , ,28,28,28,28,28,28,28,28,28, ,28, , 
49,levels/gta5/_hills/country_04/cs4_02,6,6, , ,6,6,6,6,6,6,6,6,6,6,6,6,6,6,6, , , ,6,6,6,6,6,6,6,6,6, ,6, , 
50,levels/gta5/_hills/country_04/cs4_09,8,8, , ,8,8,8,8,8,8,8,8,8,8,8, , , , , , , , , , , , , , , , , , , , 
51,levels/gta5/_hills/country_04/cs4_10,14,11, , ,11,11,11,11,11,11,11,11,11,11,11,11,11,11,11, , , ,11,11,11,11,11,11,11,11,11, ,11, , 
52,levels/gta5/_hills/country_04/cs4_13, , , , , , , , , , , , , , , , , , , , , , , , , , , ,17,17,17,17, ,17, , 
53,levels/gta5/_hills/country_05/cs5_3,2,2, , ,2,2,2,2,2,2,2,2,2,2,2,2,2,2,2, , , ,2,2,2,2,2,2,2,2,2, ,2, , 
54,levels/gta5/_hills/country_06/cs6_01,2,2, , ,2,2,2,2,2,2,2,2,2,2,2,2,2,2,2, , , ,2,2,2,2,2,2,2,2,2, ,2, , 
55,levels/gta5/_hills/country_06/cs6_03, , , , , , , , , , , , , , , , , , , , , , , , , ,6,6,6,6,6,6, ,6, , 
56,levels/gta5/_hills/country_06/cs6_04,10,10, , ,14,14,14,14,14,14,14,14,14,14,14,14,14,14,14, , , ,22,22,22,22,22,22,22,22,22, ,22, , 
57,levels/gta5/_hills/country_06/cs6_05,16,16, , ,16,16,16,16,16,16,16,16,16,16,16,16,16,16,16, , , ,16,16,16,10,10,10,10,10,10, ,10, , 
58,levels/gta5/_hills/country_06/cs6_08a,20,20, , ,20,20,20,20,20,20,20,20,20,20,20,20,20,20,20, , , ,20,20,20,20,20,20,20,20,20, ,20, , 
59,levels/gta5/_prologue/plg_01, ,4, , , , , , , , , , , , , , , , , , , , , , , , , , , , , , , , , 
60,levels/gta5/_prologue/plg_03,10,10, , ,10,10,10,10,10,10,10,10,10,10,10,10,10,10,10, , , ,10,10,10,10,10,10,10,10,10, ,10, , 
61,levels/gta5/_prologue/plg_04,1,1, , ,1,1,1,1,1,1,1,1,1,1,1,1,1,1,1, , , ,1,1,1,1,1,1,1,1,1, ,1, , 
62,levels/gta5/_prologue/plg_05,2,2, , ,2,2,2,2,2,2,2,2,2,2,2,2,2,2,2, , , ,2,2,2,2,2,2,2,2,2, ,2, , 
63,levels/gta5/destruction/exterior/des_methtrailer,42,42, , ,42,42,42,42,42,42,42,42,42,42,42,42,23,23,23, , , ,23,23,23,23,23,23,23,23,23, ,23, , 
64,levels/gta5/destruction/exterior/des_stilthouse,5,5, , ,5,5,5,5,5,5,5,5,5,5,5,5,5,5,5, , , ,5,5,5,5, , , ,9,9, ,9, , 
65,levels/gta5/destruction/exterior/des_trailerparkb,10,10, , ,10,10,10,10,10,10,10,10,10,10,10,10, , , , , , , , , , , , , , , , , , , 
66,levels/gta5/generic/cutsobjects, , , , , , , , , , , , , , , , , , ,2, , , ,2,2,2,2,2,2,2,2,2, ,2, , 
67,levels/gta5/interiors/int_props/int_corporate,6,6, , ,6,6,6,6,6,6,6,6,6,6,6, ,6,6,6, , , ,6,6,6,6,6,6,6,6,6, ,6, , 
68,levels/gta5/interiors/int_props/int_industrial, , , , , , , , , , , , , , , ,2,2,2,2, , , ,2,2,2,2,2,2,2,2,2, ,2, , 
69,levels/gta5/interiors/int_props/int_lev_des,40,40, , ,38,38,38,38,38,38,40,40,40,40,40,44,44,20,44, , , ,44,44,45,47,47,47,46,48,52, ,54, , 
70,levels/gta5/interiors/int_props/int_medical,6,6, , ,6,6,6,6,6,6,6,6,6,6,6,11,11,11,11, , , ,11,11,11,11,11,11,11,11,11, ,11, , 
71,levels/gta5/interiors/int_props/int_residential,7,7, , ,7,7,7,7,7,7,7,7,7,7,7,7,7,7,7, , , ,7,7,7,7,8,8,8,8,8, ,4, , 
72,levels/gta5/interiors/int_props/int_retail,4,4, , ,4,4,4,4,4,4,4,4,4,10,10,10,10,10,10, , , ,10,10,10,10,10,7,7,7,7, ,7, , 
73,levels/gta5/interiors/int_props/int_services,2,2, , ,2,2,2,2,2,2,2,2,2,2,2,2,2,2,2, , , ,2,2,2,2,2,2,2,2,2, ,2, , 
74,levels/gta5/interiors/v_int_1,16,16, , ,16,16,16,16,16,16,16,16,16,16,16,16,16,16,16, , , ,16,16,16,4,4,4,4,3,16, ,16, , 
75,levels/gta5/interiors/v_int_10,3,3, , ,3,3,3,3,3,3,3,3,3,3,1, , , , , , , , , ,1,1,1,1,1,1,1, , , , 
76,levels/gta5/interiors/v_int_14,72,73, , ,57,57,57,63,63,63,63,63,63,63,63,61,61,61,61, , , ,61,61,61, , , , , ,61, ,61, , 
77,levels/gta5/interiors/v_int_2,29,29, , ,29,29,29,29,29,29,29,29,29,29,29,29,29,29,29, , , ,29,29,29, , , , , ,29, ,28, , 
78,levels/gta5/interiors/v_int_20,2,2, , ,2,2,2,2,2,2,2,2,2,2,2,2,2,2,2, , , ,2,2,2, , , , , ,2, , , , 
79,levels/gta5/interiors/v_int_21,8,8, , ,8,8,8,8,8,8,8,8,8,8,8,8,8,8,8, , , ,8,8,8,6,6,6,6,6,8, ,8, , 
80,levels/gta5/interiors/v_int_23, , , , , , , , , , , , , , , , , , , , , , , , , , , , , , ,1, ,1, , 
81,levels/gta5/interiors/v_int_24, , , , , , , , , , , , ,7,7,7,6,6,6,6, , , ,6,6,5, , , , , ,5, ,5, , 
82,levels/gta5/interiors/v_int_26, , , , , , , , , , , , , , , , , , , , , , , , , , ,1,1,2,2,2, , , , 
83,levels/gta5/interiors/v_int_28,3,3, , ,3,3,3,3,3,3,3,3,3,3,3,3,3,3,3, , , ,3,3,3, , , , , ,3, ,3, , 
84,levels/gta5/interiors/v_int_31, , , , , , , , , , , , , ,5,5,5,5,5,5, , , ,5,5,6, , , , , ,6, ,6, , 
85,levels/gta5/interiors/v_int_38,4,4, , ,4,4,4,4,4,4,4,4,4,4,4,4,4,4,4, , , ,4,4,4, , , , , ,3, ,3, , 
86,levels/gta5/interiors/v_int_41, , , , , , , , , , , , , , , , , , , , , , , , , , , , , , ,6, ,6, , 
87,levels/gta5/interiors/v_int_43, , , , , , , , , , , , , , , , , , , , , , , ,2,2,2,2,2,2,2,2, ,2, , 
88,levels/gta5/interiors/v_int_47, , , , , , , , , , , , , , , , , , , , , , , , , , , , , , , , ,5, , 
89,levels/gta5/interiors/v_int_48, , , , , , , , , , , , , , ,4,4,4,4,4, , , ,4,4,4, , , , , ,10, ,10, , 
90,levels/gta5/interiors/v_int_53,2,2, , ,2,2,2,2,2,2,2,2,2,2,2,2,2,2,2, , , ,2,2,2, , , , , ,2, ,2, , 
91,levels/gta5/interiors/v_int_54,2,2, , ,2,2,2,2,2,2,2,2,2,2,2, , , , , , , , , , , , , , , ,1, ,5, , 
92,levels/gta5/interiors/v_int_55,5,5, , ,5,5,5,5,5,5,5,5,5,5,5,5,5,5,5, , , ,5,5,5,2,2,2,2,2,5, ,5, , 
93,levels/gta5/interiors/v_int_56,10,10, , ,10,10,10,10,10,10,10,10,10,10,10,10,10,10,10, , , ,10,10,10,4,4,4,4,4,10, ,10, , 
94,levels/gta5/interiors/v_int_60,9,9, , ,9,9,9,9,9,9,9,9,9,9,9,9,9,9,9, , , ,9,9,9, , , , , ,9, ,9, , 
95,levels/gta5/interiors/v_int_61,12,12, , ,8,8,8,8,8,8,8,8,8,8,8,8,8,8,8, , , ,8,8,8,3,3,3,3, , , , , , 
96,levels/gta5/interiors/v_int_62,7,7, , ,7,7,7,7,7,7,7,7,7,7,7,7,7,7,7, , , ,7,7,7, , , , , ,7, ,7, , 
97,levels/gta5/interiors/v_int_63,2,2, , ,2,2,2,2,2,2,2,2,2,2,2, , , , , , , , , , , , , , , , , , , , 
98,levels/gta5/interiors/v_int_69,10,10, , ,10,10,10,10,10,10,10,10,10,10,10,17,17,17,17, , , ,17,17,17,8,8,8,8,8,17, ,17, , 
99,levels/gta5/interiors/v_int_9,9,9, , ,9,9,9,9,9,9,9,9,9,9,9,9,10,10,10, , , ,10,10,10, , , , , ,10, ,6, , 
100,levels/gta5/props/lev_des/lev_des,22,22, , ,22,22,22,22,22,22,22,22,22,22,22,22,22,22,22, , , ,22,22,25,25,25,25,26,26,26, ,26, , 
101,levels/gta5/props/lev_des/p_v_lev_des_skin,1,1, , ,1,1,1,1,1,1,1,1,1,1,1,1,1,1,1, , , ,1,1,1,1,1,1,1,1,1, ,1, , 
102,levels/gta5/props/lev_des/v_lev_doors,3,3, , ,3,3,3,3,3,3,3,3,3,3,3,3,3,3,3, , , ,3,3,11,11,11,11,11,11,11, ,10, , 
103,levels/gta5/props/recreational/v_coin_op,1,1, , ,1,1,1,1,1,1,1,1,1,1,1,1,1,1,1, , , ,1,1,1,1,1,1, , , , , , , 
104,levels/gta5/props/residential/v_electrical,2,2, , ,2,2,2,2,2,2,2,2,2,2,2,2,2,2,2, , , ,2,2,2,2,2,2,2,2,2, ,2, , 
105,levels/gta5/props/roadside/v_traffic_lights,32,32, , ,32,32,32,32,32,32,32,32,32,32,32,31,32,32,32, , , ,32,32,32,32,32,20,18,18,20, ,11, , 
106,levels/gta5/props/roadside/v_utility, , , , , , , , , , , , , , , , , , , , , , , , ,2,2,2,2,2,2,2, ,2, , 
107,levels/gta5/props/rural/v_farm, , , , , , , , , , , , , , , , , , , , , , , , , ,1, , , , , , , , , 
108,models/cdimages/weapons, , , , , , , , , ,1,1,1,1,1,1,1,1,1,1, , , ,1,1,1,1,1,1,1,22,22, ,22, , 
