0, ,Sat Mar 31,Fri Apr 06,Thu Apr 12,Thu Apr 12,Fri Apr 13,Sat Apr 14,Sat Apr 14,Tue Apr 17,Wed Apr 18,Thu Apr 19,Fri Apr 20,Sat Apr 21,Sat Apr 21,Wed Apr 25,Fri Apr 27,Sat May 12,Tue May 15,Wed May 16,Fri May 18,Mon May 21,Mon May 21,Mon May 21,Tue May 22,Fri May 25,Thu Jun 07,Thu Jun 14,Wed Jun 20,Tue Jun 26,Fri Jun 29,Thu Jul 12,Fri Aug 03,Mon Aug 20,Fri Aug 31,Wed Oct 24,Fri Oct 26
1,levels/gta5/_citye/downtown_01/dt1_07, , , , , , , , , , , , , , , , , , , , , , , , , , , , , ,1,1, , , , 
2,levels/gta5/_citye/downtown_01/dt1_08, , , , , , , , , , , , , , , , , , , , , , , , , , , , , ,1,1, , , , 
3,levels/gta5/_citye/downtown_01/dt1_20, , , , , , , , , , , , , , ,1,1,1,1,1, , , ,1,1, , , , , , , , , , , 
4,levels/gta5/_citye/downtown_01/dt1_21, , , , , , , , , , , , , , , ,1,1,1,1, , , ,1,1, , , , , , , , , , , 
5,levels/gta5/_citye/downtown_01/dt1_23, , , , , , , , , , , , , , , , , , , , , , , , , , , , , ,1,1, , , , 
6,levels/gta5/_citye/downtown_01/dt1_26, , , , , , , , , , , , , , , , , , , , , , , , , , , , , ,1, , , , , 
7,levels/gta5/_citye/hollywood_01/hw1_01,2,2, , ,2,2,2,2,2,2,2,2,2,2,2,2,2,2,2, , , ,2,2, , , , , , , , , , , 
8,levels/gta5/_citye/hollywood_01/hw1_02,1,1, , ,1,1,1,1,1,1,1,1,1,1,1,1,1,1,1, , , ,1,1, , , , , , , , , , , 
9,levels/gta5/_citye/hollywood_01/hw1_03,1,1, , ,1,1,1,1,1,1,1,1,1,1,1,1,1,1,1, , , ,1,1, , , , , , , , , , , 
10,levels/gta5/_citye/hollywood_01/hw1_07, , , , , , , , , , , , , , , , , , , , , , , , , , , , , ,1,1, , , , 
11,levels/gta5/_citye/hollywood_01/hw1_09, , , , , , , , , , , , , , , , ,1,1,1, , , ,1,1,1,1, , , , , , , , , 
12,levels/gta5/_citye/hollywood_01/hw1_12, , , , , , , , , , , , , , , , , , , , , , , , , , , , , ,1,1, , , , 
13,levels/gta5/_citye/hollywood_01/hw1_14, , , , , , , , , , , , , , , , , , , , , , , , , , , , , ,1,1, , , , 
14,levels/gta5/_citye/hollywood_01/hw1_15, , , , , , , , , , , , , , , , , , , , , , , , , , , , , ,1,1, , , , 
15,levels/gta5/_citye/hollywood_01/hw1_16, , , , , , , , , , , , , , , , , , , , , , , , , , , , , ,1,1, , , , 
16,levels/gta5/_citye/hollywood_01/hw1_18, , , , , , , , , , , , , , , , , , , , , , , ,1, , , , , , , , , , , 
17,levels/gta5/_citye/hollywood_01/hw1_19, , , , , , , , ,1, , , , , , , , , , , , , , , , , , , , , , , , , , 
18,levels/gta5/_citye/hollywood_01/hw1_22, , , , , , , , , , , , , , , , , , , , , , , , , , , , , ,2,2, , , , 
19,levels/gta5/_citye/hollywood_01/hw1_23, , , , , , , , , , , , , , , , , , , , , , , , , , , , , ,1,1, , , , 
20,levels/gta5/_citye/hollywood_01/hw1_24, , , , , , , , , , , , , , , , , , , , , , , , , , , , , ,1,1, , , , 
21,levels/gta5/_citye/indust_01/id1_04,1,1, , ,1,1,1,1,1,1,1,1,1,1,1,1,1,1,1, , , ,1,1,1,1,1,1,1,1,1, , , , 
22,levels/gta5/_citye/indust_01/id1_07,2,2, , ,2,2,2,2,2,2,2,2,2,2,2,2,2,2,2, , , ,2,2,2,2,2,2,2,3,3, , , , 
23,levels/gta5/_citye/indust_01/id1_09, , , , , , , , , , , , , , , , , , , , , , , , , , , , , ,1,1, , , , 
24,levels/gta5/_citye/indust_01/id1_13, , , , , , , , , , , , , , , , , , , , , , , , , , , , , ,1,1, , , , 
25,levels/gta5/_citye/indust_01/id1_23, , , , , , , , , , , , , , , , , , , , , , , , , , , , , ,1,1, , , , 
26,levels/gta5/_citye/indust_01/id1_24,1,1, , ,1,1,1,1,1,1,1,1,1,1,1,1,1,1,1, , , ,1,1,1,1,1,1,1,2,2, , , , 
27,levels/gta5/_citye/indust_01/id1_25,1,1, , ,1,1,1,1,1,1,1,1,1,1,1,1,1,1,1, , , ,1,1,1,1,1,1,1,1,1, , , , 
28,levels/gta5/_citye/indust_01/id1_26,1,1, , ,1,1,1,1,1,1,1,1,1,1,1,1,1,1,1, , , ,1,1,1,1,1,1,1,1,1, , , , 
29,levels/gta5/_citye/indust_01/id1_28, , , , , , , , , , , , , , , ,1,1,1,1, , , ,1,1, , , , , , , , , , , 
30,levels/gta5/_citye/indust_01/id1_29, , , , , , , , , , , , , , , , , ,1,1, , , ,1,1, , , , , , , , , , , 
31,levels/gta5/_citye/indust_01/id1_30, , , , , , , , , , , , , , , , , , , , , , , , , , , , , ,1,1, , , , 
32,levels/gta5/_citye/indust_01/id1_32, , , , , , , , , , , , , , , , , , , , , , , , , , , , , ,1,1, , , , 
33,levels/gta5/_citye/indust_02/id2_00,1,1, , ,1,1,1,1,1,1,1,1,1,1,1,1,1,1,1, , , ,1,1,1,1,1,1,1,1,1, ,1, , 
34,levels/gta5/_citye/indust_02/id2_04, , , , , , , , , , , , , , , , , , , , , , , , , , , , , ,1,1, , , , 
35,levels/gta5/_citye/indust_02/id2_12, , , , , , , , , , , , , , , , , , , , , , , , , , , , , ,1,1, , , , 
36,levels/gta5/_citye/indust_02/id2_13, , , , , , , , , , , , , , , , , , , , , , , , , , , , , ,1,1, , , , 
37,levels/gta5/_citye/indust_02/id2_21_a, , , , , , , , , , , , , , , , , , , , , , , , , , , , , ,1,1, , , , 
38,levels/gta5/_citye/indust_02/id2_21_b,1,1, , ,1,1,1,1,1,1,1,1,1,1,1,1,1,1,1, , , ,1,1,1,1,1,1,1,1,1, , , , 
39,levels/gta5/_citye/indust_02/id2_21_e,1,1, , ,1,1,1,1,1,1,1,1,1,1,1,1,1,1,1, , , ,1,1, , , , , , , , , , , 
40,levels/gta5/_citye/port_01/po1_02, , , , , , , , , , , , , , , , , , , , , , , , , , , , , ,1,1, , , , 
41,levels/gta5/_citye/port_01/po1_03, , , , , , , , , , , , , , , , , , , , , , , , , , , , , ,1,1, , , , 
42,levels/gta5/_citye/port_01/po1_04, , , , , , , , , , , , , , , , , , , , , , , , , , , , , ,1,1, , , , 
43,levels/gta5/_citye/port_01/po1_06, , , , , , , , , , , , , , , , , , , , , , , , , , , , , ,1,1, , , , 
44,levels/gta5/_citye/port_01/po1_07, , , , , , , , , , , , , , , , , , , , , , , , , , , , , ,1,1, , , , 
45,levels/gta5/_citye/port_01/po1_08,2,2, , ,2,2,2,2,2,2,2,2,2,2,2,2,2,2,2, , , ,2,2,2,2,2,2,2,4,4, , , , 
46,levels/gta5/_citye/port_01/po1_09,1,1, , ,1,1,1,1,1,1,1,1,1,1,1,1,1,1,1, , , ,1,1,1,1,1,1,1,1,1, , , , 
47,levels/gta5/_citye/port_01/po1_rd, , , , , , , , , , , , , , , , , , , , , , , , , , , , , ,1,1, , , , 
48,levels/gta5/_citye/scentral_01/sc1_00b, , , , , , , , , , , , , , , , , , , , , , , , , , , , , ,1,1, , , , 
49,levels/gta5/_citye/scentral_01/sc1_00c, , , , , , , , , , , , , , , , , , , , , , , , , , , , , ,1,1, , , , 
50,levels/gta5/_citye/scentral_01/sc1_00d,1,1, , ,1,1,1,1,1,1,1,1,1,1,1,1,1,1,1, , , ,1,1,1,1,1,1,1,2,2, , , , 
51,levels/gta5/_citye/scentral_01/sc1_00f, , , , , , , , , , , , , , , , , ,1,1, , , ,1,1,1,1,1, , , , , , , , 
52,levels/gta5/_citye/scentral_01/sc1_00g, , , , , , , , , , , , , , , , , , , , , , , , , , , , , ,1,1, , , , 
53,levels/gta5/_citye/scentral_01/sc1_06, , , , , , , , , , , , , , , , , , , , , , , , , , , , , ,1,1, , , , 
54,levels/gta5/_citye/scentral_01/sc1_09,1,1, , ,1,1,1,1,1,1,1,1,1,1,1,1,1,1,1, , , ,1,1,1,1,1,1,1,1,1, , , , 
55,levels/gta5/_citye/scentral_01/sc1_11,2,2, , ,2,2,2,2,2,2,2,2,2,2,1,1,1,1,1, , , ,1,1,1,1,1,1,1,1,1, ,1, , 
56,levels/gta5/_citye/scentral_01/sc1_19,2,2, , ,2,2,2,2,2,2,2,2,2, , , , , , , , , , , , , , , , , , , , , , 
57,levels/gta5/_citye/scentral_01/sc1_20, , , , , , , , , , , , , , , , , , , , , , , , , , , , , ,1,1, , , , 
58,levels/gta5/_citye/scentral_01/sc1_21,1,1, , ,1,1,1,1,1,1,1,1,1,1,1,1,1,1,1, , , ,1,1,1,1,1,1,1,1,1, , , , 
59,levels/gta5/_citye/scentral_01/sc1_23,1,1, , ,1,1,1, , , , , , , , , , , , , , , , , , , , , , , , , , , , 
60,levels/gta5/_citye/scentral_01/sc1_24, , , , , , , , , , , , , , , , , , , , , , , , , , , ,1,1,2,2, , , , 
61,levels/gta5/_citye/scentral_01/sc1_27,1,1, , ,1,1,1,1,1,1,1,1,1,1,1,1,1,1,1, , , ,1,1,1,1,1,1,1,1,1, , , , 
62,levels/gta5/_citye/scentral_01/sc1_29, , , , , , , , , , , , , ,1,1,1,1,1,1, , , ,1,1,1,1,1,1,1,1,1, , , , 
63,levels/gta5/_citye/scentral_01/sc1_31,1,1, , ,1,1,1,1,1,1,1,1,1,1,1,1,1,1,1, , , ,1,1,1,1,1,1,1,1,1, , , , 
64,levels/gta5/_citye/sunset/bt1_01, , , , , , , , , , , , , , , , , , , , , , , , , , , , , ,1,1, , , , 
65,levels/gta5/_citye/sunset/bt1_02, , , , , , , , ,1,1,1,1,1,1,1,1,1,1,1, , , ,1,1, , , , , , , , , , , 
66,levels/gta5/_citye/sunset/ss1_04, , , , , , , , , , , , , ,1,1,1,1,1,1, , , ,1,1, , , , , , , , , , , 
67,levels/gta5/_citye/sunset/ss1_05, , , , , , , , , , , , , , , , , , , , , , , , , , , , , ,1,1, , , , 
68,levels/gta5/_citye/sunset/ss1_07,1,1, , ,1,1,1,1,1,1,1,1,1,1,1,1,1,1,1, , , ,1,1, , , , , , , , , , , 
69,levels/gta5/_cityw/airport_01/ap1_01_b, , , , , , , , , , , , , , , , , , , , , , , , , , , , , ,1,1, , , , 
70,levels/gta5/_cityw/airport_01/ap1_02, , , , , , , , , , , , , , , , , , , , , , , , , , , , , ,1,1, , , , 
71,levels/gta5/_cityw/airport_01/ap1_03, , , , , , , , , , , , , , , , , , , , , , , , , , , , , ,1,1, , , , 
72,levels/gta5/_cityw/airport_01/ap1_04, , , , , , , , , , , , , , , , , , , , , , , , , , , , , ,2,2, , , , 
73,levels/gta5/_cityw/beverly_01/bh1_01, , , , , , , , ,1,1,1,1,1,1, , , , , , , , , , , , , , , ,1,1, , , , 
74,levels/gta5/_cityw/beverly_01/bh1_02, , , , , , , , , , , , , , , , , , , , , , , , , , , , , ,2,2, , , , 
75,levels/gta5/_cityw/beverly_01/bh1_03, , , , , , , , ,1,1,1,1,1,1,1, , , , , , , , , , , , , , , , , , , , 
76,levels/gta5/_cityw/beverly_01/bh1_08, , , , , , , ,1,1,1,1,1,1,1,1, , , , , , , , , , , , , , , , , , , , 
77,levels/gta5/_cityw/beverly_01/bh1_15, , , , , , , , , , , , , , , , , , , , , , , , , , , , , ,1,1, , , , 
78,levels/gta5/_cityw/beverly_01/bh1_20, , , , , , , , ,1,1,1,1,1,1,1,1,1,1,1, , , ,1,1, , , , , , , , , , , 
79,levels/gta5/_cityw/beverly_01/bh1_22, , , , , , , , ,1,1,1,1,1,1,1,1,1,1,1, , , ,1,1, , , , , , , , , , , 
80,levels/gta5/_cityw/beverly_01/bh1_29,1,1, , ,1,1,1,1,1,1,1,1,1,1,1,1,1,1,1, , , ,1,1,1,1,1,1,1,2,2, ,1, , 
81,levels/gta5/_cityw/beverly_01/bh1_34,1,1, , ,1,1,1,1,1,2,2,2,2,2,2,2,2,2,2, , , ,2,2,1,1,1,1,1,2,2, , , , 
82,levels/gta5/_cityw/beverly_01/bh1_35, , , , , , , , , , , , , , , , , , , , , , , , , , , , , ,1,1, , , , 
83,levels/gta5/_cityw/beverly_01/bh1_40, , , , , , , ,1, , , , , , , , , , , , , , , , , , , , , , , , , , , 
84,levels/gta5/_cityw/beverly_01/bh1_42,1,1, , ,1,1,1, , , , , , , , , , , , , , , , , , , , , , , , , , , , 
85,levels/gta5/_cityw/beverly_01/bh1_42b,1,1, , ,1,1,1, , , , , , , , , , , , , , , , , , , , , , , , , , , , 
86,levels/gta5/_cityw/beverly_01/bh1_43,2,2, , ,3,3,3, ,1,1,1,1,1,1,1, , , , , , , , , , , , , , ,1,1, , , , 
87,levels/gta5/_cityw/beverly_01/bh1_45,1,1, , ,1,1,1,1,1,1,1,1,1,1,1,1,1,1,1, , , ,1,1, , , , , ,1,1, , , , 
88,levels/gta5/_cityw/beverly_01/bh1_rd,1,1, , ,1,1,1, ,1, , , , , , , , , , , , , , , , , , , , , , , , , , 
89,levels/gta5/_cityw/koreatown_01/kt1_14, , , , , , , , , , , , , , , , ,1,1,1, , , ,1,1, , , , , , , , , , , 
90,levels/gta5/_cityw/koreatown_01/kt1_15, , , , , , , , , , , , , , , ,1,1,1,1, , , ,1, , , , , , ,1,1, , , , 
91,levels/gta5/_cityw/sanpedro_01/sp1_03, , , , , , , , , , , , , , , , , , , , , , , , , , , , , ,1,1, , , , 
92,levels/gta5/_cityw/sanpedro_01/sp1_10, , , , , , , , , , , ,1,1,1,1,1,1,1,1, , , ,1,1, , , , , , , , , , , 
93,levels/gta5/_cityw/santamon_01/sm_06, , , , , , , , , , , , , , , ,1,1,1,1, , , ,1,1, , , , , , , , , , , 
94,levels/gta5/_cityw/santamon_01/sm_07, , , , , , , , , , , , , , , , , , , , , , , , , , , , , ,1,1, , , , 
95,levels/gta5/_cityw/santamon_01/sm_11,1,1, , ,1,1,1,1,1,1,1,1,1,1,1,1,1,1,1, , , ,1,1, , , , , , , , , , , 
96,levels/gta5/_cityw/santamon_01/sm_13,1,1, , ,1,1,1,1,1,1,1,1,1,1,1,1,1,1,1, , , ,1,1, , , , , , , , , , , 
97,levels/gta5/_cityw/santamon_01/sm_16, , , , , , , , , , , , , , , , , , , , , , , , , , , , , ,1,1, , , , 
98,levels/gta5/_cityw/santamon_01/sm_17, , , , , , , , , , , , , , , , , , , , , , , , , , , , , ,1,1, , , , 
99,levels/gta5/_cityw/santamon_01/sm_18, , , , , , , , , , , , , , , , , , , , , , , , , , , , , ,2,2, , , , 
100,levels/gta5/_cityw/santamon_01/sm_19, , , , , , , , , , , , , , , , , , , , , , , , , , , , , ,2,2, , , , 
101,levels/gta5/_cityw/santamon_01/sm_22,1,1, , ,1,1,1,1,1,1,1,1,1,1,1,1,1,1,1, , , ,1,1,1,1,1,1,1,1, , , , , 
102,levels/gta5/_cityw/santamon_01/sm_26, , , , , , , , , , , , , , , , , , , , , , , , , , , , , ,1,1, , , , 
103,levels/gta5/_cityw/santamon_01/sm_27, , , , , , , , , , , , , , , , , , , , , , , , , , , , , ,1,1, , , , 
104,levels/gta5/_cityw/venice_01/vb_01, , , , , , , , ,1,1,1,1,1,1,1,1,1,1,1, , , ,1,1, , , , , , , , , , , 
105,levels/gta5/_cityw/venice_01/vb_02, , , , , , , , , , , , , , , , , , , , , , , , , , , , , ,1,1, , , , 
106,levels/gta5/_cityw/venice_01/vb_04, , , , , , , ,1,1,1,1,1,1,1,1,1,1,1,1, , , ,1,1, , , , , , , , , , , 
107,levels/gta5/_cityw/venice_01/vb_17, , , , , , , , , , , , , , , , , , , , , , , , , , , , , ,1,1, , , , 
108,levels/gta5/_cityw/venice_01/vb_18, , , , , , , , , ,1,1,1,1,1,1,1,1,1,1, , , ,1,1, , , , , , , , , , , 
109,levels/gta5/_cityw/venice_01/vb_19, , , , , , , , , , , , , , , , , , , , , , , , , , , , , ,1,1, , , , 
110,levels/gta5/_cityw/venice_01/vb_20, , , , , , , , , , , , , , , , , , , , , , , , , , , , , ,1,1, , , , 
111,levels/gta5/_cityw/venice_01/vb_24, , , , , , , , , , , , , , , , , , , , , , , , , , , , , ,1,1, , , , 
112,levels/gta5/_cityw/venice_01/vb_25, , , , , , , , , , , , , , , , , , , , , , , , , , , , , ,1,1, , , , 
113,levels/gta5/_cityw/venice_01/vb_34, , , , , , , , , , , , , , , , , , , , , , , , , , , , , ,2,2, , , , 
114,levels/gta5/_cityw/venice_01/vb_38, , , , , , , , ,1,1,1,1,1,1,1,1,1,1,1, , , ,1,1, , , , , , , , , , , 
115,levels/gta5/_cityw/venice_01/vb_43, , , , , , , , , , , , , , , , , , , , , , , , , , , , , ,1,1, , , , 
116,levels/gta5/_cityw/venice_01/vb_ca,1,1, , ,1,1,1,1,1,1,1,1,1,1,1,1,1,1,1, , , ,1,1, , , , , , , , , , , 
117,levels/gta5/_cityw/venice_01/vb_rd,1,1, , ,1,1,1,1,1,1,1,1,1,1,1,1,1,1,1, , , ,1,1, , , , , , , , , , , 
118,levels/gta5/_hills/cityhills_01/ch1_02, , , , , , , , , , , , , , , , , , , , , , , , , , , , , ,1,1, , , , 
119,levels/gta5/_hills/cityhills_01/ch1_06e, , , , , , , , , , , , , , , , , , , , , , , , , , , , , ,1,1, , , , 
120,levels/gta5/_hills/cityhills_01/ch1_09, , , , , , , , , , , ,1,1,1,1,1,1,1,1, , , ,1,1, , , , , , , , , , , 
121,levels/gta5/_hills/cityhills_01/ch1_12, , , , , , , , , , , , , , , , , , , , , , , , , , , , , ,1,1, , , , 
122,levels/gta5/_hills/cityhills_02/ch2_02, , , , , , , , , , , , , , , , , , , , , , , , , , , , , ,1,1, , , , 
123,levels/gta5/_hills/cityhills_02/ch2_03,1,1, , ,1,1,1,1,1,1,1,1,1, , ,2,2,2,2, , , ,2,2, , , , , , , , , , , 
124,levels/gta5/_hills/cityhills_02/ch2_03b, , , , , , , , , , , , , , , , ,2,2,2, , , ,2,2, , , , , , , , , , , 
125,levels/gta5/_hills/cityhills_02/ch2_04,2,2, , ,2,2,2,2,2,2,2,2,2,2,2,4,4,5,5, , , ,5,5,1,1,1,1,1, , , , , , 
126,levels/gta5/_hills/cityhills_02/ch2_05b,2,2, , ,2,2,2,2,2,2,2,2,2,2,2,4,4,5,5, , , ,5,5,1,1,1,1,1, , , , , , 
127,levels/gta5/_hills/cityhills_02/ch2_05f,2,2, , ,2,2,2,2,2,2,2,2,2,2,2,2,2,2,2, , , ,2,2,1,1,1,1,1,1, , , , , 
128,levels/gta5/_hills/cityhills_02/ch2_06,1,1, , ,1,1,1,1,1,1,1,2,2,2,2,2,2,2,2, , , ,2,2,1,1,1,1,1,4,4, , , , 
129,levels/gta5/_hills/cityhills_02/ch2_09b, , , , , , , , , , , ,1,1,1,1,1,1,1,1, , , ,1,1, , , , , , , , , , , 
130,levels/gta5/_hills/cityhills_02/ch2_10, , , , , , , , , ,1,1,1,1,1,1,1,1,1,1, , , ,1,1, , , , , , , , , , , 
131,levels/gta5/_hills/cityhills_03/ch3_01,1,1, , ,1,1,1,1,1,1,1,1,1,1,1,1,1,1,1, , , ,1,1,1,1,1, , , ,1, , , , 
132,levels/gta5/_hills/cityhills_03/ch3_02,1,1, , ,1,1,1,1,1,1,1,1,1,1,1,1,1,1,1, , , ,1,1,1,1,1,1, , , , , , , 
133,levels/gta5/_hills/cityhills_03/ch3_03,1,1, , ,1,1,1,1,1,1,1,1,1,1,1,1,1,1,1, , , ,1,1,1,1,1,1,1,1,1, , , , 
134,levels/gta5/_hills/cityhills_03/ch3_04,1,1, , ,1,1,1,1,1,1,1,1,1,1,1,1,1,1,1, , , ,1,1,1,1,1,1,1,2,2, , , , 
135,levels/gta5/_hills/cityhills_03/ch3_06,1,1, , ,1,1,1,1,1,1,1,1,1,1,1,1,1,1,1, , , ,1,1,1,1,1,1,1,1,1, , , , 
136,levels/gta5/_hills/cityhills_03/ch3_08, , , , , , , , , , , , , , , , , , , , , , , , , , , , , ,1,1, , , , 
137,levels/gta5/_hills/cityhills_03/ch3_11, , , , , , , , , , , , , , , , , , , , , , , , , , , , , ,2,2, , , , 
138,levels/gta5/_hills/country_01/cs1_01,1,1, , ,1,1,1,1,1,1,1,1,1,1,1,1,1,1,1, , , ,1,1,1,1,1,1,1,1,1, , , , 
139,levels/gta5/_hills/country_01/cs1_04, , , , , , , , , , , , , , , , , , , , , , , , , , , , , ,1,1, , , , 
140,levels/gta5/_hills/country_01/cs1_06,1,1, , ,1,1,1,1,1,1,1,1,1,1,1,1,1,1,2, , , ,2,2,2,2,2,2,2,2,1, ,1, , 
141,levels/gta5/_hills/country_01/cs1_07,1,1, , ,1,1,1,1,1,1,1,1,1,1,1,1,1,1,1, , , ,1,1, , , , , ,1,1, , , , 
142,levels/gta5/_hills/country_01/cs1_11b,2,2, , ,2,2,2,2,2,2,2,2,2,2,2,2,2,2,2, , , ,2,2,2,2,2,2,2,3,3, ,2, , 
143,levels/gta5/_hills/country_01/cs1_14b,1,1, , ,1,1,1,1,1,1,1,1,1,1,1,1,1,1,1, , , ,1,1, , , , , ,1,1, , , , 
144,levels/gta5/_hills/country_01/cs1_15,2,2, , ,2,2,2,2,2,2,2,2,2,2,2,2,2,2,2, , , ,2,2,2,2, , , , , , , , , 
145,levels/gta5/_hills/country_01/cs1_16,1,1, , ,1,1,1,1,1,1,1,1,1,1,1,1,1,1,1, , , ,1,1,1,1, , , , , , , , , 
146,levels/gta5/_hills/country_01/cs1_rdprops_pb, , , , , , , , , , , , , , , , , , , , , , , , , , , , , ,2,2, , , , 
147,levels/gta5/_hills/country_01/cs1_roads_pb, , , , , , , , , , , , , , , , , , , , , , , , , , , , , ,2,2, , , , 
148,levels/gta5/_hills/country_02/cs2_04,1,1, , ,1,1,1,1,1,1,1,1,1,1,1,1,1,1,1, , , ,1,1,1,1,1,1,1,1, , , , , 
149,levels/gta5/_hills/country_02/cs2_rdprops, , , , , , , , , , , , , , , , , , , , , , , , , , , , , , ,1, , , , 
150,levels/gta5/_hills/country_02/cs2_roads, , , , , , , , , , , , , , , , , , , , , , , , , , , , , , ,1, , , , 
151,levels/gta5/_hills/country_03/cs3_03, , , , , , , , , , , , , , , , , , , , , , , , , , , , , ,2,2, , , , 
152,levels/gta5/_hills/country_03/cs3_04,1,1, , ,1,1,1,1,1,1,1,1,1,1,1,1,1,1,1, , , ,1,1,1,1,1,1,1,1,1, , , , 
153,levels/gta5/_hills/country_03/cs3_07,1,1, , , , , , , , , , , , , , , , , , , , , , , , , , , ,1,1, , , , 
154,levels/gta5/_hills/country_03/cs3_08, , , , , , , , , , , , , , , , , , , , , , , , , , , , , ,1,1, , , , 
155,levels/gta5/_hills/country_04/cs4_02, , , , , , , , , , , , , , , , , , , , , , , , , , , , , ,1,1, , , , 
156,levels/gta5/_hills/country_04/cs4_03,1,1, , ,1,1,1,1,1,1,1,1,1,1,1,2,2,2,2, , , ,2,2,1,1,1,1,1,1,1, , , , 
157,levels/gta5/_hills/country_04/cs4_04, , , , , ,1,1,1,1,1,1,1,1,1,1,1,1,1,1, , , ,1,1, , , , , , , , , , , 
158,levels/gta5/_hills/country_04/cs4_05, , , , , , , , , , , ,1,1,1,1,1,1,1,1, , , ,1,1, , , , , , , , , , , 
159,levels/gta5/_hills/country_04/cs4_06,1,1, , ,1,2,2,2,2,2,2,2,2,2,2,2,2,2,2, , , ,2,2,1,1,1,1,1,1,1, , , , 
160,levels/gta5/_hills/country_04/cs4_07,1,1, , ,1,2,2,2,2,2,1,1,1,1,1,1,1,1,1, , , ,1,1, , , , , , , , , , , 
161,levels/gta5/_hills/country_04/cs4_08, , , , , ,1,1,1,1,1,1,1,1,1,1,1,1,1,1, , , ,1,1, , , , , , , , , , , 
162,levels/gta5/_hills/country_04/cs4_09, , , , , , , ,1,1,1,1,1,1,1,1,1,1,1,1, , , ,1,1, , , , , , , , , , , 
163,levels/gta5/_hills/country_04/cs4_10, , , , , ,1,1,1,1,1,1,1,1,1,1,1,1,1,1, , , ,1,1, , , , , , , , , , , 
164,levels/gta5/_hills/country_04/cs4_12, , , , , , , , , , , , , , , ,1,1,1,1, , , ,1,1, , , , , , , , , , , 
165,levels/gta5/_hills/country_04/cs4_railwayb, , , , , , , , , , , , , , , , , , , , , , , , , , , , , ,1,1, , , , 
166,levels/gta5/_hills/country_04/cs4_rd_props, , , , , , , ,1,1,1,1,1,1,1,1,1,1,1,1, , , ,1,1, , , , , , , , , , , 
167,levels/gta5/_hills/country_04/cs4_roads, , , , , , , ,1,1,1,1,1,1,1,1,1,1,1,1, , , ,1,1, , , , , , , , , , , 
168,levels/gta5/_hills/country_04/cs4_roadsb,1, , , , , , , , , , , , , , , , , , , , , , , , , , , , , , , , , , 
169,levels/gta5/_hills/country_05/cs5_rd_props, , , , , , , , , , , , , , , , , , , , , , , , , , , , , , ,2, , , , 
170,levels/gta5/_hills/country_05/cs5_roads,1,1, , ,1,1,1,1,1,1,1,1,1,1,1,1,1,1,1, , , ,1, , , , , , , ,2, , , , 
171,levels/gta5/_hills/country_06/cs6_01,1,1, , ,1,1,1,1,1,1,1,1,1,1,1,1,1,1,1, , , ,1,1,1,1,1,1,1,1,1, , , , 
172,levels/gta5/_hills/country_06/cs6_04, , , , , , , , , , , , , , , , , , , , , , , , , , , , , ,1,2, , , , 
173,levels/gta5/_hills/cs_xref,1,1, , ,1,1,1,1,1,1,1,1,1,1,1,1,1,1,1, , , ,1,1,1,1,1,1,1,1,1, ,1, , 
174,levels/gta5/_prologue/plg_01, ,1, , ,1,1,1,1,1,1,1,1,1,1,1,1,1,1,1, , , ,1,1, , , , , , , , , , , 
175,levels/gta5/_prologue/plg_03,1,1, , ,1,1,1,1,1,1,1,1,1,1,1,1,1,1,1, , , ,1,1, , , , , , , , , , , 
176,levels/gta5/_prologue/plg_04,1,1, , ,1,1,1,1,1,1,1,1,1,1,1,1,1,1,1, , , ,1,1, , , , , , , , , , , 
177,levels/gta5/_prologue/plg_05,1,1, , ,1,1,1,1,1,1,1,1,1,1,1,1,1,1,1, , , ,1,1, , , , , , , , , , , 
178,levels/gta5/_prologue/plg_06, , , , , , , , , , , , , ,1,1,1,1,1,1, , , ,1,1, , , , , , , , , , , 
179,levels/gta5/destruction/exterior/des_aquaduct,1,1, , ,1,1,1,1,1,1,1,1,1,1,1,1,1,1,1, , , ,1,1,1,1,1,1,1,1,1, ,1, , 
180,levels/gta5/destruction/exterior/des_setpiece,1,1, , ,1,1,1, , , , , , , , , , , , , , , , , , , , , , , , , , , , 
181,levels/gta5/destruction/interior/des_frenchdoors, , , , , , , , , , , , , , , , , , , , , , , ,2,2,2,2,2,2,2,2, ,2, , 
182,levels/gta5/generic/gtxd, , , , , , , ,1,1,1,1,1,1,1,1,1,1,1,1, , , ,1,1, , , , , ,1,1, , , , 
183,levels/gta5/interiors/int_props/int_residential, , , , , , , , , , , , , , , , , , , , , , , , , , , , , , , , ,1, , 
184,levels/gta5/interiors/v_int_30, , , , , , , , , , , , , , , , , , , , , , , , , , , , , ,1,1, , , , 
185,levels/gta5/props/industrial/v_industrial, , , , , , , , , , , , , , , , , , , , , , , , , , , , , , ,5, , , , 
186,levels/gta5/props/lev_des/p_v_lev_des_skin, , , , , , , , , , , , , , , , , , , , , , , , , , , , , ,4,5, , , , 
187,levels/gta5/props/lev_des/v_lev_doors, , , , , , , , , , , , , , , , , , , , , , , , , , , ,3,3,5,5, ,3, , 
188,levels/gta5/props/recreational/v_sports, , , , , , , , , , , , , , , , , , , , , , , , , , , , , ,1,1, , , , 
189,levels/gta5/props/roadside/v_fences,9,9, , ,9,9,9,9,9,9,9,9,9,7,7,7,22,22,22, , , ,22,28,28,28,28,28,28,156,156, , , , 
190,levels/gta5/props/roadside/v_fences_2,13,14, , ,14,14,14,14,14,14,14,14,14,14,14,15,15,15,15, , , ,15,15,16,16,16,16,16,45,45, ,10, , 
191,levels/gta5/props/roadside/v_utility, , , , , , , , , , , , , , , , , , , , , , , , , , , , , ,1,1, , , , 
192,levels/gta5/props/rural/v_farm, , , , , , , , , , , , , , , , , , , , , , , , , ,1,1,1,1,5,5, , , , 
193,levels/gta5/props/vegetation/v_bush,4,5, , , , , , , , , , , , , ,5,5,8,5, , , ,5,8,5,4, , , , , , , , , 
194,levels/gta5/props/vegetation/v_ext_veg,2,5, , ,2,2,2,2,2,2,2,2,2,2,2,5,5,8,8, , , ,8,7, , , , , , , , ,1, , 
195,levels/gta5/props/vegetation/v_fanpalm, , , , , , , , , , , , , , , , , , , , , , , , , , , , , , , , ,4, , 
196,levels/gta5/props/vegetation/v_palm,1,1, , ,1,1,1,1,1,1,1,1,1,1,1,1,1,1,1, , , ,1,1, , , , , , , , , , , 
197,levels/gta5/props/vegetation/v_trees,8,7, , ,4,4,4,4,4,4,4,4,4,4,4,9,9,9,9, , , ,9,3,2, , , , , , , , , , 
