0, ,Wed Oct 24,Fri Oct 26
1,levels/gta5/_citye/citye_xr,11,11
2,levels/gta5/_citye/downtown_01/dt1_00,38,38
3,levels/gta5/_citye/downtown_01/dt1_01,6,6
4,levels/gta5/_citye/downtown_01/dt1_02,25,25
5,levels/gta5/_citye/downtown_01/dt1_03,21,21
6,levels/gta5/_citye/downtown_01/dt1_04,5,5
7,levels/gta5/_citye/downtown_01/dt1_05,52,52
8,levels/gta5/_citye/downtown_01/dt1_06,23,23
9,levels/gta5/_citye/downtown_01/dt1_07,5,5
10,levels/gta5/_citye/downtown_01/dt1_08,19,19
11,levels/gta5/_citye/downtown_01/dt1_09,23,23
12,levels/gta5/_citye/downtown_01/dt1_10,14,14
13,levels/gta5/_citye/downtown_01/dt1_11,25,25
14,levels/gta5/_citye/downtown_01/dt1_12,14,14
15,levels/gta5/_citye/downtown_01/dt1_13,5,5
16,levels/gta5/_citye/downtown_01/dt1_14,6,6
17,levels/gta5/_citye/downtown_01/dt1_15,10,10
18,levels/gta5/_citye/downtown_01/dt1_16,9,9
19,levels/gta5/_citye/downtown_01/dt1_17,3,3
20,levels/gta5/_citye/downtown_01/dt1_18,10,10
21,levels/gta5/_citye/downtown_01/dt1_19,8,8
22,levels/gta5/_citye/downtown_01/dt1_20,19,19
23,levels/gta5/_citye/downtown_01/dt1_21,46,46
24,levels/gta5/_citye/downtown_01/dt1_22,23,23
25,levels/gta5/_citye/downtown_01/dt1_23,7,7
26,levels/gta5/_citye/downtown_01/dt1_24,3,3
27,levels/gta5/_citye/downtown_01/dt1_25,5,5
28,levels/gta5/_citye/downtown_01/dt1_26,7,7
29,levels/gta5/_citye/downtown_01/dt1_emissive,47,47
30,levels/gta5/_citye/downtown_01/dt1_lod,5,5
31,levels/gta5/_citye/downtown_01/dt1_rd1,152,152
32,levels/gta5/_citye/downtown_01/dt1_tc,2,2
33,levels/gta5/_citye/downtown_01/fwy_01,175,175
34,levels/gta5/_citye/downtown_01/fwy_02,111,111
35,levels/gta5/_citye/downtown_01/fwy_03,28,28
36,levels/gta5/_citye/downtown_01/fwy_04,93,93
37,levels/gta5/_citye/hollywood_01/hw1_01,18,18
38,levels/gta5/_citye/hollywood_01/hw1_02,24,24
39,levels/gta5/_citye/hollywood_01/hw1_03,23,23
40,levels/gta5/_citye/hollywood_01/hw1_04,13,13
41,levels/gta5/_citye/hollywood_01/hw1_06,34,34
42,levels/gta5/_citye/hollywood_01/hw1_07,30,30
43,levels/gta5/_citye/hollywood_01/hw1_08,32,32
44,levels/gta5/_citye/hollywood_01/hw1_09,19,19
45,levels/gta5/_citye/hollywood_01/hw1_10,116,116
46,levels/gta5/_citye/hollywood_01/hw1_11,11,11
47,levels/gta5/_citye/hollywood_01/hw1_12,10,10
48,levels/gta5/_citye/hollywood_01/hw1_13,33,33
49,levels/gta5/_citye/hollywood_01/hw1_14,44,44
50,levels/gta5/_citye/hollywood_01/hw1_15,29,29
51,levels/gta5/_citye/hollywood_01/hw1_16,20,20
52,levels/gta5/_citye/hollywood_01/hw1_17,13,13
53,levels/gta5/_citye/hollywood_01/hw1_18,13,13
54,levels/gta5/_citye/hollywood_01/hw1_19,17,17
55,levels/gta5/_citye/hollywood_01/hw1_22,23,23
56,levels/gta5/_citye/hollywood_01/hw1_23,17,17
57,levels/gta5/_citye/hollywood_01/hw1_24,11,11
58,levels/gta5/_citye/hollywood_01/hw1_25,8,8
59,levels/gta5/_citye/hollywood_01/hw1_26,11,11
60,levels/gta5/_citye/hollywood_01/hw1_27,5,5
61,levels/gta5/_citye/hollywood_01/hw1_28,9,9
62,levels/gta5/_citye/hollywood_01/hw1_29,6,6
63,levels/gta5/_citye/hollywood_01/hw1_blimp,2,2
64,levels/gta5/_citye/hollywood_01/hw1_emissive,42,42
65,levels/gta5/_citye/hollywood_01/hw1_lod,1,1
66,levels/gta5/_citye/hollywood_01/hw1_rd,184,184
67,levels/gta5/_citye/indust_01/id1_00,8,8
68,levels/gta5/_citye/indust_01/id1_04,20,20
69,levels/gta5/_citye/indust_01/id1_05,14,14
70,levels/gta5/_citye/indust_01/id1_06,10,10
71,levels/gta5/_citye/indust_01/id1_07,49,49
72,levels/gta5/_citye/indust_01/id1_09,17,17
73,levels/gta5/_citye/indust_01/id1_10,28,28
74,levels/gta5/_citye/indust_01/id1_11,19,19
75,levels/gta5/_citye/indust_01/id1_13,15,15
76,levels/gta5/_citye/indust_01/id1_14,2,2
77,levels/gta5/_citye/indust_01/id1_15,4,4
78,levels/gta5/_citye/indust_01/id1_16,3,3
79,levels/gta5/_citye/indust_01/id1_17,24,24
80,levels/gta5/_citye/indust_01/id1_18,19,19
81,levels/gta5/_citye/indust_01/id1_19,30,30
82,levels/gta5/_citye/indust_01/id1_20,10,10
83,levels/gta5/_citye/indust_01/id1_21,8,8
84,levels/gta5/_citye/indust_01/id1_23,29,29
85,levels/gta5/_citye/indust_01/id1_24,11,11
86,levels/gta5/_citye/indust_01/id1_25,23,23
87,levels/gta5/_citye/indust_01/id1_26,17,17
88,levels/gta5/_citye/indust_01/id1_27,20,20
89,levels/gta5/_citye/indust_01/id1_28,14,14
90,levels/gta5/_citye/indust_01/id1_29,32,32
91,levels/gta5/_citye/indust_01/id1_30,9,9
92,levels/gta5/_citye/indust_01/id1_31,15,15
93,levels/gta5/_citye/indust_01/id1_32,13,13
94,levels/gta5/_citye/indust_01/id1_33,12,12
95,levels/gta5/_citye/indust_01/id1_34,13,13
96,levels/gta5/_citye/indust_01/id1_35,3,3
97,levels/gta5/_citye/indust_01/id1_emissive,38,38
98,levels/gta5/_citye/indust_01/id1_lod,1,1
99,levels/gta5/_citye/indust_01/id1_rd,136,136
100,levels/gta5/_citye/indust_02/id2_00,58,58
101,levels/gta5/_citye/indust_02/id2_00_a,33,33
102,levels/gta5/_citye/indust_02/id2_01,5,5
103,levels/gta5/_citye/indust_02/id2_02,1,1
104,levels/gta5/_citye/indust_02/id2_03,9,9
105,levels/gta5/_citye/indust_02/id2_04,14,14
106,levels/gta5/_citye/indust_02/id2_06,11,11
107,levels/gta5/_citye/indust_02/id2_07,20,20
108,levels/gta5/_citye/indust_02/id2_08,1,1
109,levels/gta5/_citye/indust_02/id2_09,4,4
110,levels/gta5/_citye/indust_02/id2_10,12,12
111,levels/gta5/_citye/indust_02/id2_11,10,10
112,levels/gta5/_citye/indust_02/id2_12,12,12
113,levels/gta5/_citye/indust_02/id2_13,9,9
114,levels/gta5/_citye/indust_02/id2_14,12,12
115,levels/gta5/_citye/indust_02/id2_15,2,2
116,levels/gta5/_citye/indust_02/id2_16,15,15
117,levels/gta5/_citye/indust_02/id2_18,16,16
118,levels/gta5/_citye/indust_02/id2_19,4,4
119,levels/gta5/_citye/indust_02/id2_20,7,7
120,levels/gta5/_citye/indust_02/id2_21,39,39
121,levels/gta5/_citye/indust_02/id2_21_a,53,53
122,levels/gta5/_citye/indust_02/id2_21_b,10,10
123,levels/gta5/_citye/indust_02/id2_21_c,37,37
124,levels/gta5/_citye/indust_02/id2_21_d,19,19
125,levels/gta5/_citye/indust_02/id2_21_e,15,15
126,levels/gta5/_citye/indust_02/id2_21_f,13,13
127,levels/gta5/_citye/indust_02/id2_21_g,14,14
128,levels/gta5/_citye/indust_02/id2_emissive,27,27
129,levels/gta5/_citye/indust_02/id2_lod,1,1
130,levels/gta5/_citye/indust_02/id2_rail,27,27
131,levels/gta5/_citye/indust_02/id2_rd,93,93
132,levels/gta5/_citye/port_01/po1_01,81,81
133,levels/gta5/_citye/port_01/po1_02,111,111
134,levels/gta5/_citye/port_01/po1_03,113,113
135,levels/gta5/_citye/port_01/po1_04,85,85
136,levels/gta5/_citye/port_01/po1_05,177,177
137,levels/gta5/_citye/port_01/po1_06,173,173
138,levels/gta5/_citye/port_01/po1_07,55,55
139,levels/gta5/_citye/port_01/po1_08,92,92
140,levels/gta5/_citye/port_01/po1_09,65,65
141,levels/gta5/_citye/port_01/po1_10,60,60
142,levels/gta5/_citye/port_01/po1_emissive,33,33
143,levels/gta5/_citye/port_01/po1_lod,1,1
144,levels/gta5/_citye/port_01/po1_rd,15,15
145,levels/gta5/_citye/port_01/po1_sh1,3,3
146,levels/gta5/_citye/port_01/po1_sh2,69,69
147,levels/gta5/_citye/port_xr,41,41
148,levels/gta5/_citye/scentral_01/sc1_00b,11,11
149,levels/gta5/_citye/scentral_01/sc1_00c,22,22
150,levels/gta5/_citye/scentral_01/sc1_00d,22,22
151,levels/gta5/_citye/scentral_01/sc1_00e,10,10
152,levels/gta5/_citye/scentral_01/sc1_00f,13,13
153,levels/gta5/_citye/scentral_01/sc1_00g,8,8
154,levels/gta5/_citye/scentral_01/sc1_01,11,11
155,levels/gta5/_citye/scentral_01/sc1_02,14,14
156,levels/gta5/_citye/scentral_01/sc1_03,29,29
157,levels/gta5/_citye/scentral_01/sc1_04,10,10
158,levels/gta5/_citye/scentral_01/sc1_05,10,10
159,levels/gta5/_citye/scentral_01/sc1_06,10,10
160,levels/gta5/_citye/scentral_01/sc1_07,12,12
161,levels/gta5/_citye/scentral_01/sc1_08,13,13
162,levels/gta5/_citye/scentral_01/sc1_09,10,10
163,levels/gta5/_citye/scentral_01/sc1_10,27,27
164,levels/gta5/_citye/scentral_01/sc1_11,16,16
165,levels/gta5/_citye/scentral_01/sc1_12,14,14
166,levels/gta5/_citye/scentral_01/sc1_13,17,17
167,levels/gta5/_citye/scentral_01/sc1_14,7,7
168,levels/gta5/_citye/scentral_01/sc1_15,9,9
169,levels/gta5/_citye/scentral_01/sc1_17,36,36
170,levels/gta5/_citye/scentral_01/sc1_18,5,5
171,levels/gta5/_citye/scentral_01/sc1_19,14,14
172,levels/gta5/_citye/scentral_01/sc1_20,6,6
173,levels/gta5/_citye/scentral_01/sc1_21,17,17
174,levels/gta5/_citye/scentral_01/sc1_22,9,9
175,levels/gta5/_citye/scentral_01/sc1_23,12,12
176,levels/gta5/_citye/scentral_01/sc1_24,8,8
177,levels/gta5/_citye/scentral_01/sc1_25,5,5
178,levels/gta5/_citye/scentral_01/sc1_27,13,13
179,levels/gta5/_citye/scentral_01/sc1_28,9,9
180,levels/gta5/_citye/scentral_01/sc1_29,12,12
181,levels/gta5/_citye/scentral_01/sc1_30,11,11
182,levels/gta5/_citye/scentral_01/sc1_31,15,15
183,levels/gta5/_citye/scentral_01/sc1_32,17,17
184,levels/gta5/_citye/scentral_01/sc1_33,21,21
185,levels/gta5/_citye/scentral_01/sc1_34,5,5
186,levels/gta5/_citye/scentral_01/sc1_emissive,62,62
187,levels/gta5/_citye/scentral_01/sc1_lod,1,1
188,levels/gta5/_citye/scentral_01/sc1_rd,214,214
189,levels/gta5/_citye/sunset/bt1_01,16,16
190,levels/gta5/_citye/sunset/bt1_02,19,19
191,levels/gta5/_citye/sunset/bt1_03,10,10
192,levels/gta5/_citye/sunset/bt1_04,37,37
193,levels/gta5/_citye/sunset/bt1_05,25,25
194,levels/gta5/_citye/sunset/ss1_01,31,31
195,levels/gta5/_citye/sunset/ss1_02,10,10
196,levels/gta5/_citye/sunset/ss1_03,10,10
197,levels/gta5/_citye/sunset/ss1_04,20,20
198,levels/gta5/_citye/sunset/ss1_05,25,25
199,levels/gta5/_citye/sunset/ss1_06,39,39
200,levels/gta5/_citye/sunset/ss1_06b,28,28
201,levels/gta5/_citye/sunset/ss1_07,29,29
202,levels/gta5/_citye/sunset/ss1_08,7,7
203,levels/gta5/_citye/sunset/ss1_09,13,13
204,levels/gta5/_citye/sunset/ss1_10,4,4
205,levels/gta5/_citye/sunset/ss1_11,18,18
206,levels/gta5/_citye/sunset/ss1_12,16,16
207,levels/gta5/_citye/sunset/ss1_13,32,32
208,levels/gta5/_citye/sunset/ss1_14,18,18
209,levels/gta5/_citye/sunset/ss1_emissive,37,37
210,levels/gta5/_citye/sunset/ss1_lod,1,1
211,levels/gta5/_citye/sunset/ss1_rd1,122,122
212,levels/gta5/_cityw/airport_01/ap1_01_a,225,225
213,levels/gta5/_cityw/airport_01/ap1_01_b,219,219
214,levels/gta5/_cityw/airport_01/ap1_01_c,95,95
215,levels/gta5/_cityw/airport_01/ap1_01_d,90,90
216,levels/gta5/_cityw/airport_01/ap1_02,84,84
217,levels/gta5/_cityw/airport_01/ap1_03,154,154
218,levels/gta5/_cityw/airport_01/ap1_04,146,146
219,levels/gta5/_cityw/airport_01/ap1_emissive,13,13
220,levels/gta5/_cityw/airport_01/ap1_lod,1,1
221,levels/gta5/_cityw/beverly_01/bh1_01,13,13
222,levels/gta5/_cityw/beverly_01/bh1_02,21,21
223,levels/gta5/_cityw/beverly_01/bh1_03,17,17
224,levels/gta5/_cityw/beverly_01/bh1_04,13,13
225,levels/gta5/_cityw/beverly_01/bh1_05,11,11
226,levels/gta5/_cityw/beverly_01/bh1_06,6,6
227,levels/gta5/_cityw/beverly_01/bh1_07,11,11
228,levels/gta5/_cityw/beverly_01/bh1_08,11,11
229,levels/gta5/_cityw/beverly_01/bh1_09,24,24
230,levels/gta5/_cityw/beverly_01/bh1_11,9,9
231,levels/gta5/_cityw/beverly_01/bh1_13,22,22
232,levels/gta5/_cityw/beverly_01/bh1_14,11,11
233,levels/gta5/_cityw/beverly_01/bh1_15,14,14
234,levels/gta5/_cityw/beverly_01/bh1_16,23,23
235,levels/gta5/_cityw/beverly_01/bh1_17,3,3
236,levels/gta5/_cityw/beverly_01/bh1_18,15,15
237,levels/gta5/_cityw/beverly_01/bh1_20,11,11
238,levels/gta5/_cityw/beverly_01/bh1_21,23,23
239,levels/gta5/_cityw/beverly_01/bh1_22,14,14
240,levels/gta5/_cityw/beverly_01/bh1_29,8,8
241,levels/gta5/_cityw/beverly_01/bh1_30,35,35
242,levels/gta5/_cityw/beverly_01/bh1_31,28,28
243,levels/gta5/_cityw/beverly_01/bh1_32,5,5
244,levels/gta5/_cityw/beverly_01/bh1_33,8,8
245,levels/gta5/_cityw/beverly_01/bh1_34,10,10
246,levels/gta5/_cityw/beverly_01/bh1_35,24,24
247,levels/gta5/_cityw/beverly_01/bh1_36,27,27
248,levels/gta5/_cityw/beverly_01/bh1_37,3,3
249,levels/gta5/_cityw/beverly_01/bh1_38,10,10
250,levels/gta5/_cityw/beverly_01/bh1_39,13,13
251,levels/gta5/_cityw/beverly_01/bh1_40,23,23
252,levels/gta5/_cityw/beverly_01/bh1_42,29,29
253,levels/gta5/_cityw/beverly_01/bh1_42b,33,33
254,levels/gta5/_cityw/beverly_01/bh1_43,126,126
255,levels/gta5/_cityw/beverly_01/bh1_44,39,39
256,levels/gta5/_cityw/beverly_01/bh1_45,46,46
257,levels/gta5/_cityw/beverly_01/bh1_46,35,35
258,levels/gta5/_cityw/beverly_01/bh1_46b,20,20
259,levels/gta5/_cityw/beverly_01/bh1_47,29,29
260,levels/gta5/_cityw/beverly_01/bh1_48,56,56
261,levels/gta5/_cityw/beverly_01/bh1_49,13,13
262,levels/gta5/_cityw/beverly_01/bh1_49b,6,6
263,levels/gta5/_cityw/beverly_01/bh1_emissive,78,78
264,levels/gta5/_cityw/beverly_01/bh1_lod,1,1
265,levels/gta5/_cityw/beverly_01/bh1_rd,206,206
266,levels/gta5/_cityw/beverly_01/bh1_rd2,85,85
267,levels/gta5/_cityw/koreatown_01/kt1_00,11,11
268,levels/gta5/_cityw/koreatown_01/kt1_01,15,15
269,levels/gta5/_cityw/koreatown_01/kt1_02,6,6
270,levels/gta5/_cityw/koreatown_01/kt1_03,6,6
271,levels/gta5/_cityw/koreatown_01/kt1_04,13,13
272,levels/gta5/_cityw/koreatown_01/kt1_05,6,6
273,levels/gta5/_cityw/koreatown_01/kt1_06,9,9
274,levels/gta5/_cityw/koreatown_01/kt1_07,6,6
275,levels/gta5/_cityw/koreatown_01/kt1_08,19,19
276,levels/gta5/_cityw/koreatown_01/kt1_09,12,12
277,levels/gta5/_cityw/koreatown_01/kt1_10,8,8
278,levels/gta5/_cityw/koreatown_01/kt1_11,24,24
279,levels/gta5/_cityw/koreatown_01/kt1_12,11,11
280,levels/gta5/_cityw/koreatown_01/kt1_13,10,10
281,levels/gta5/_cityw/koreatown_01/kt1_14,16,16
282,levels/gta5/_cityw/koreatown_01/kt1_15,27,27
283,levels/gta5/_cityw/koreatown_01/kt1_16,29,29
284,levels/gta5/_cityw/koreatown_01/kt1_17,4,4
285,levels/gta5/_cityw/koreatown_01/kt1_emissive,31,31
286,levels/gta5/_cityw/koreatown_01/kt1_lod,1,1
287,levels/gta5/_cityw/koreatown_01/kt1_rd,98,98
288,levels/gta5/_cityw/marina_xr,6,6
289,levels/gta5/_cityw/sanpedro_01/sp1_01,17,17
290,levels/gta5/_cityw/sanpedro_01/sp1_03,39,39
291,levels/gta5/_cityw/sanpedro_01/sp1_04,8,8
292,levels/gta5/_cityw/sanpedro_01/sp1_05,9,9
293,levels/gta5/_cityw/sanpedro_01/sp1_06,5,5
294,levels/gta5/_cityw/sanpedro_01/sp1_07,13,13
295,levels/gta5/_cityw/sanpedro_01/sp1_10,24,24
296,levels/gta5/_cityw/sanpedro_01/sp1_11,14,14
297,levels/gta5/_cityw/sanpedro_01/sp1_12,77,77
298,levels/gta5/_cityw/sanpedro_01/sp1_emissive,5,5
299,levels/gta5/_cityw/sanpedro_01/sp1_lod,1,1
300,levels/gta5/_cityw/sanpedro_01/sp1_rd,71,71
301,levels/gta5/_cityw/santamon_01/sm_01,7,7
302,levels/gta5/_cityw/santamon_01/sm_06,10,10
303,levels/gta5/_cityw/santamon_01/sm_07,14,14
304,levels/gta5/_cityw/santamon_01/sm_09,8,8
305,levels/gta5/_cityw/santamon_01/sm_10,16,16
306,levels/gta5/_cityw/santamon_01/sm_11,10,10
307,levels/gta5/_cityw/santamon_01/sm_12,4,4
308,levels/gta5/_cityw/santamon_01/sm_13,7,7
309,levels/gta5/_cityw/santamon_01/sm_14,9,9
310,levels/gta5/_cityw/santamon_01/sm_15,8,8
311,levels/gta5/_cityw/santamon_01/sm_16,17,17
312,levels/gta5/_cityw/santamon_01/sm_17,18,18
313,levels/gta5/_cityw/santamon_01/sm_18,34,34
314,levels/gta5/_cityw/santamon_01/sm_19,38,38
315,levels/gta5/_cityw/santamon_01/sm_20,44,44
316,levels/gta5/_cityw/santamon_01/sm_21,10,10
317,levels/gta5/_cityw/santamon_01/sm_22,75,75
318,levels/gta5/_cityw/santamon_01/sm_23,4,4
319,levels/gta5/_cityw/santamon_01/sm_24,15,15
320,levels/gta5/_cityw/santamon_01/sm_25,11,11
321,levels/gta5/_cityw/santamon_01/sm_26,51,51
322,levels/gta5/_cityw/santamon_01/sm_27,27,27
323,levels/gta5/_cityw/santamon_01/sm_boat,67,67
324,levels/gta5/_cityw/santamon_01/sm_emissive,29,29
325,levels/gta5/_cityw/santamon_01/sm_lod,1,1
326,levels/gta5/_cityw/santamon_01/sm_rd,95,95
327,levels/gta5/_cityw/venice_01/vb_01,3,3
328,levels/gta5/_cityw/venice_01/vb_02,8,8
329,levels/gta5/_cityw/venice_01/vb_03,4,4
330,levels/gta5/_cityw/venice_01/vb_04,8,8
331,levels/gta5/_cityw/venice_01/vb_05,89,89
332,levels/gta5/_cityw/venice_01/vb_06,1,1
333,levels/gta5/_cityw/venice_01/vb_07,10,10
334,levels/gta5/_cityw/venice_01/vb_08,9,9
335,levels/gta5/_cityw/venice_01/vb_09,7,7
336,levels/gta5/_cityw/venice_01/vb_10,7,7
337,levels/gta5/_cityw/venice_01/vb_17,7,7
338,levels/gta5/_cityw/venice_01/vb_18,5,5
339,levels/gta5/_cityw/venice_01/vb_19,5,5
340,levels/gta5/_cityw/venice_01/vb_20,12,12
341,levels/gta5/_cityw/venice_01/vb_21,7,7
342,levels/gta5/_cityw/venice_01/vb_22,7,7
343,levels/gta5/_cityw/venice_01/vb_23,5,5
344,levels/gta5/_cityw/venice_01/vb_24,7,7
345,levels/gta5/_cityw/venice_01/vb_25,16,16
346,levels/gta5/_cityw/venice_01/vb_26,6,6
347,levels/gta5/_cityw/venice_01/vb_27,7,7
348,levels/gta5/_cityw/venice_01/vb_28,9,9
349,levels/gta5/_cityw/venice_01/vb_29,22,22
350,levels/gta5/_cityw/venice_01/vb_30,22,22
351,levels/gta5/_cityw/venice_01/vb_31,8,8
352,levels/gta5/_cityw/venice_01/vb_32,12,12
353,levels/gta5/_cityw/venice_01/vb_33,14,14
354,levels/gta5/_cityw/venice_01/vb_34,96,96
355,levels/gta5/_cityw/venice_01/vb_35,45,45
356,levels/gta5/_cityw/venice_01/vb_35b,41,41
357,levels/gta5/_cityw/venice_01/vb_36,43,43
358,levels/gta5/_cityw/venice_01/vb_38,43,43
359,levels/gta5/_cityw/venice_01/vb_39,16,16
360,levels/gta5/_cityw/venice_01/vb_43,15,15
361,levels/gta5/_cityw/venice_01/vb_44,22,22
362,levels/gta5/_cityw/venice_01/vb_ca,84,84
363,levels/gta5/_cityw/venice_01/vb_emissive,46,46
364,levels/gta5/_cityw/venice_01/vb_lod,1,1
365,levels/gta5/_cityw/venice_01/vb_rd,218,218
366,levels/gta5/_cityw/venice_01/vb_rv,223,223
367,levels/gta5/_hills/cityhills_01/ch1_01,263,263
368,levels/gta5/_hills/cityhills_01/ch1_02,120,120
369,levels/gta5/_hills/cityhills_01/ch1_03,44,44
370,levels/gta5/_hills/cityhills_01/ch1_04,68,68
371,levels/gta5/_hills/cityhills_01/ch1_04b,385,385
372,levels/gta5/_hills/cityhills_01/ch1_05,294,294
373,levels/gta5/_hills/cityhills_01/ch1_05b,88,88
374,levels/gta5/_hills/cityhills_01/ch1_06,25,25
375,levels/gta5/_hills/cityhills_01/ch1_06b,31,31
376,levels/gta5/_hills/cityhills_01/ch1_06c,9,9
377,levels/gta5/_hills/cityhills_01/ch1_06d,43,43
378,levels/gta5/_hills/cityhills_01/ch1_06e,24,24
379,levels/gta5/_hills/cityhills_01/ch1_06f,31,31
380,levels/gta5/_hills/cityhills_01/ch1_07,40,40
381,levels/gta5/_hills/cityhills_01/ch1_08,37,37
382,levels/gta5/_hills/cityhills_01/ch1_09,152,152
383,levels/gta5/_hills/cityhills_01/ch1_09b,547,547
384,levels/gta5/_hills/cityhills_01/ch1_10,117,117
385,levels/gta5/_hills/cityhills_01/ch1_11,176,176
386,levels/gta5/_hills/cityhills_01/ch1_12,117,117
387,levels/gta5/_hills/cityhills_01/ch1_emissive,1,1
388,levels/gta5/_hills/cityhills_01/ch1_lod,13,13
389,levels/gta5/_hills/cityhills_01/ch1_roads,25,25
390,levels/gta5/_hills/cityhills_01/ch1_roadsb,235,235
391,levels/gta5/_hills/cityhills_01/ch1_roadsc,61,61
392,levels/gta5/_hills/cityhills_01/ch1_roadsd,110,110
393,levels/gta5/_hills/cityhills_02/ch2_01,65,65
394,levels/gta5/_hills/cityhills_02/ch2_01b,37,37
395,levels/gta5/_hills/cityhills_02/ch2_01c,23,23
396,levels/gta5/_hills/cityhills_02/ch2_02,299,299
397,levels/gta5/_hills/cityhills_02/ch2_03,165,165
398,levels/gta5/_hills/cityhills_02/ch2_03b,99,99
399,levels/gta5/_hills/cityhills_02/ch2_03c,55,55
400,levels/gta5/_hills/cityhills_02/ch2_03d,20,20
401,levels/gta5/_hills/cityhills_02/ch2_04,158,158
402,levels/gta5/_hills/cityhills_02/ch2_05,8,8
403,levels/gta5/_hills/cityhills_02/ch2_05b,5,5
404,levels/gta5/_hills/cityhills_02/ch2_05c,29,29
405,levels/gta5/_hills/cityhills_02/ch2_05d,23,23
406,levels/gta5/_hills/cityhills_02/ch2_05e,36,36
407,levels/gta5/_hills/cityhills_02/ch2_05f,59,59
408,levels/gta5/_hills/cityhills_02/ch2_06,73,73
409,levels/gta5/_hills/cityhills_02/ch2_07,30,30
410,levels/gta5/_hills/cityhills_02/ch2_07b,30,30
411,levels/gta5/_hills/cityhills_02/ch2_07c,14,14
412,levels/gta5/_hills/cityhills_02/ch2_07d,32,32
413,levels/gta5/_hills/cityhills_02/ch2_08,66,66
414,levels/gta5/_hills/cityhills_02/ch2_08b,19,19
415,levels/gta5/_hills/cityhills_02/ch2_09,44,44
416,levels/gta5/_hills/cityhills_02/ch2_09b,46,46
417,levels/gta5/_hills/cityhills_02/ch2_09c,54,54
418,levels/gta5/_hills/cityhills_02/ch2_10,94,94
419,levels/gta5/_hills/cityhills_02/ch2_11,54,54
420,levels/gta5/_hills/cityhills_02/ch2_11b,31,31
421,levels/gta5/_hills/cityhills_02/ch2_12,76,76
422,levels/gta5/_hills/cityhills_02/ch2_12b,27,27
423,levels/gta5/_hills/cityhills_02/ch2_emissive,56,56
424,levels/gta5/_hills/cityhills_02/ch2_lod,2,2
425,levels/gta5/_hills/cityhills_02/ch2_lod2,2,2
426,levels/gta5/_hills/cityhills_02/ch2_lod3,2,2
427,levels/gta5/_hills/cityhills_02/ch2_roads,296,296
428,levels/gta5/_hills/cityhills_02/ch2_roadsa,61,61
429,levels/gta5/_hills/cityhills_02/ch2_roadsb,46,46
430,levels/gta5/_hills/cityhills_03/ch3_01,354,354
431,levels/gta5/_hills/cityhills_03/ch3_02,80,80
432,levels/gta5/_hills/cityhills_03/ch3_03,195,195
433,levels/gta5/_hills/cityhills_03/ch3_04,166,166
434,levels/gta5/_hills/cityhills_03/ch3_06,115,115
435,levels/gta5/_hills/cityhills_03/ch3_07,123,123
436,levels/gta5/_hills/cityhills_03/ch3_08,188,188
437,levels/gta5/_hills/cityhills_03/ch3_09,83,83
438,levels/gta5/_hills/cityhills_03/ch3_10,145,145
439,levels/gta5/_hills/cityhills_03/ch3_11,181,181
440,levels/gta5/_hills/cityhills_03/ch3_12,48,48
441,levels/gta5/_hills/cityhills_03/ch3_13,172,172
442,levels/gta5/_hills/cityhills_03/ch3_14,68,68
443,levels/gta5/_hills/cityhills_03/ch3_14b,116,116
444,levels/gta5/_hills/cityhills_03/ch3_lod,13,13
445,levels/gta5/_hills/cityhills_03/ch3_railway,17,17
446,levels/gta5/_hills/cityhills_03/ch3_railwyb,14,14
447,levels/gta5/_hills/cityhills_03/ch3_railwyc,15,15
448,levels/gta5/_hills/cityhills_03/ch3_rd1,169,169
449,levels/gta5/_hills/cityhills_03/ch3_rd1a,140,140
450,levels/gta5/_hills/cityhills_03/ch3_rd1b,23,23
451,levels/gta5/_hills/cityhills_03/ch3_rd2,88,88
452,levels/gta5/_hills/cityhills_03/ch3_rd2b,77,77
453,levels/gta5/_hills/country_01/cs1_01,165,165
454,levels/gta5/_hills/country_01/cs1_02,116,116
455,levels/gta5/_hills/country_01/cs1_03,63,63
456,levels/gta5/_hills/country_01/cs1_04,81,81
457,levels/gta5/_hills/country_01/cs1_05,62,62
458,levels/gta5/_hills/country_01/cs1_06,70,70
459,levels/gta5/_hills/country_01/cs1_07,197,197
460,levels/gta5/_hills/country_01/cs1_08,172,172
461,levels/gta5/_hills/country_01/cs1_09,146,146
462,levels/gta5/_hills/country_01/cs1_10,97,97
463,levels/gta5/_hills/country_01/cs1_11,106,106
464,levels/gta5/_hills/country_01/cs1_11b,99,99
465,levels/gta5/_hills/country_01/cs1_12,151,151
466,levels/gta5/_hills/country_01/cs1_13,327,327
467,levels/gta5/_hills/country_01/cs1_14,392,392
468,levels/gta5/_hills/country_01/cs1_14b,162,162
469,levels/gta5/_hills/country_01/cs1_15,67,67
470,levels/gta5/_hills/country_01/cs1_15b,26,26
471,levels/gta5/_hills/country_01/cs1_15c,389,389
472,levels/gta5/_hills/country_01/cs1_16,79,79
473,levels/gta5/_hills/country_01/cs1_lod,10,10
474,levels/gta5/_hills/country_01/cs1_lod2,2,2
475,levels/gta5/_hills/country_01/cs1_lod3,2,2
476,levels/gta5/_hills/country_01/cs1_railway,20,20
477,levels/gta5/_hills/country_01/cs1_railwyb,40,40
478,levels/gta5/_hills/country_01/cs1_roads,165,165
479,levels/gta5/_hills/country_01/cs1_roads_pb,131,131
480,levels/gta5/_hills/country_01/cs1_roadsa,47,47
481,levels/gta5/_hills/country_02/cs2_01,122,122
482,levels/gta5/_hills/country_02/cs2_02,198,198
483,levels/gta5/_hills/country_02/cs2_03,223,223
484,levels/gta5/_hills/country_02/cs2_04,169,169
485,levels/gta5/_hills/country_02/cs2_05,97,97
486,levels/gta5/_hills/country_02/cs2_06,124,124
487,levels/gta5/_hills/country_02/cs2_06b,12,12
488,levels/gta5/_hills/country_02/cs2_06c,11,11
489,levels/gta5/_hills/country_02/cs2_08,138,138
490,levels/gta5/_hills/country_02/cs2_09,116,116
491,levels/gta5/_hills/country_02/cs2_09b,55,55
492,levels/gta5/_hills/country_02/cs2_10,158,158
493,levels/gta5/_hills/country_02/cs2_11,122,122
494,levels/gta5/_hills/country_02/cs2_29,42,42
495,levels/gta5/_hills/country_02/cs2_30,165,165
496,levels/gta5/_hills/country_02/cs2_lod,6,6
497,levels/gta5/_hills/country_02/cs2_lod2,6,6
498,levels/gta5/_hills/country_02/cs2_railway,17,17
499,levels/gta5/_hills/country_02/cs2_railwyb,30,30
500,levels/gta5/_hills/country_02/cs2_railwyc,28,28
501,levels/gta5/_hills/country_02/cs2_roads,249,249
502,levels/gta5/_hills/country_02/cs2_roadsa,47,47
503,levels/gta5/_hills/country_02/cs2_roadsb,190,190
504,levels/gta5/_hills/country_03/cs3_01,99,99
505,levels/gta5/_hills/country_03/cs3_02,188,188
506,levels/gta5/_hills/country_03/cs3_03,283,283
507,levels/gta5/_hills/country_03/cs3_04,201,201
508,levels/gta5/_hills/country_03/cs3_05,228,228
509,levels/gta5/_hills/country_03/cs3_06,132,132
510,levels/gta5/_hills/country_03/cs3_07,191,191
511,levels/gta5/_hills/country_03/cs3_08,378,378
512,levels/gta5/_hills/country_03/cs3_08b,105,105
513,levels/gta5/_hills/country_03/cs3_08c,208,208
514,levels/gta5/_hills/country_03/cs3_08d,82,82
515,levels/gta5/_hills/country_03/cs3_08e,263,263
516,levels/gta5/_hills/country_03/cs3_08f,49,49
517,levels/gta5/_hills/country_03/cs3_08g,39,39
518,levels/gta5/_hills/country_03/cs3_lod,5,5
519,levels/gta5/_hills/country_03/cs3_railway,37,37
520,levels/gta5/_hills/country_04/cs4_01,100,100
521,levels/gta5/_hills/country_04/cs4_02,314,314
522,levels/gta5/_hills/country_04/cs4_03,98,98
523,levels/gta5/_hills/country_04/cs4_04,123,123
524,levels/gta5/_hills/country_04/cs4_05,22,22
525,levels/gta5/_hills/country_04/cs4_06,150,150
526,levels/gta5/_hills/country_04/cs4_07,64,64
527,levels/gta5/_hills/country_04/cs4_08,34,34
528,levels/gta5/_hills/country_04/cs4_09,73,73
529,levels/gta5/_hills/country_04/cs4_10,88,88
530,levels/gta5/_hills/country_04/cs4_11,116,116
531,levels/gta5/_hills/country_04/cs4_12,74,74
532,levels/gta5/_hills/country_04/cs4_13,205,205
533,levels/gta5/_hills/country_04/cs4_14,104,104
534,levels/gta5/_hills/country_04/cs4_lod,5,5
535,levels/gta5/_hills/country_04/cs4_railway,7,7
536,levels/gta5/_hills/country_04/cs4_railwayb,20,20
537,levels/gta5/_hills/country_04/cs4_roads,219,219
538,levels/gta5/_hills/country_04/cs4_roadsb,44,44
539,levels/gta5/_hills/country_05/cs5_1,181,181
540,levels/gta5/_hills/country_05/cs5_2,118,118
541,levels/gta5/_hills/country_05/cs5_3,194,194
542,levels/gta5/_hills/country_05/cs5_4,191,191
543,levels/gta5/_hills/country_05/cs5_lod,3,3
544,levels/gta5/_hills/country_05/cs5_roads,318,318
545,levels/gta5/_hills/country_06/cs6_01,89,89
546,levels/gta5/_hills/country_06/cs6_02,92,92
547,levels/gta5/_hills/country_06/cs6_03,102,102
548,levels/gta5/_hills/country_06/cs6_04,181,181
549,levels/gta5/_hills/country_06/cs6_05,95,95
550,levels/gta5/_hills/country_06/cs6_06,144,144
551,levels/gta5/_hills/country_06/cs6_08,164,164
552,levels/gta5/_hills/country_06/cs6_08a,60,60
553,levels/gta5/_hills/country_06/cs6_09,50,50
554,levels/gta5/_hills/country_06/cs6_10,61,61
555,levels/gta5/_hills/country_06/cs6_lod,4,4
556,levels/gta5/_hills/country_06/cs6_roads,276,276
557,levels/gta5/_hills/country_06/cs6_roadsb,65,65
558,levels/gta5/_hills/country_06/cs6_roadsc,19,19
559,levels/gta5/_hills/cs_xref,100,100
560,levels/gta5/_hills/saltonsea_xr,5,5
561,levels/gta5/_prologue/plg_01,189,189
562,levels/gta5/_prologue/plg_02,45,45
563,levels/gta5/_prologue/plg_03,77,77
564,levels/gta5/_prologue/plg_04,63,63
565,levels/gta5/_prologue/plg_05,80,80
566,levels/gta5/_prologue/plg_06,112,112
567,levels/gta5/_prologue/plg_rd,47,47
568,levels/gta5/_prologue/prologueint,37,37
569,levels/gta5/destruction/exterior/des_canister,3,3
570,levels/gta5/destruction/exterior/des_cropduster,7,7
571,levels/gta5/destruction/exterior/des_farmhouse,8,8
572,levels/gta5/destruction/exterior/des_gasstation,2,2
573,levels/gta5/destruction/exterior/des_heli_billboard,3,3
574,levels/gta5/destruction/exterior/des_heli_biotech,3,3
575,levels/gta5/destruction/exterior/des_heli_highway,6,6
576,levels/gta5/destruction/exterior/des_heli_mansion,3,3
577,levels/gta5/destruction/exterior/des_heli_scrapyard,3,3
578,levels/gta5/destruction/exterior/des_jetsteal,5,5
579,levels/gta5/destruction/exterior/des_methtrailer,3,3
580,levels/gta5/destruction/exterior/des_setpiece2,4,4
581,levels/gta5/destruction/exterior/des_shipsink,8,8
582,levels/gta5/destruction/exterior/des_stilthouse,8,8
583,levels/gta5/destruction/exterior/des_traincrash,6,6
584,levels/gta5/destruction/interior/des_coroner_window,6,6
585,levels/gta5/destruction/interior/des_fbowl,3,3
586,levels/gta5/destruction/interior/des_fib_ceiling,18,18
587,levels/gta5/destruction/interior/des_fib_door,7,7
588,levels/gta5/destruction/interior/des_fib_floor,3,3
589,levels/gta5/destruction/interior/des_fib_glass,6,6
590,levels/gta5/destruction/interior/des_fibstairs,4,4
591,levels/gta5/destruction/interior/des_finale_tunnel,6,6
592,levels/gta5/destruction/interior/des_finale_vault,5,5
593,levels/gta5/destruction/interior/des_frenchdoors,4,4
594,levels/gta5/destruction/interior/des_hospitaldoors,5,5
595,levels/gta5/destruction/interior/des_jewel_cab,4,4
596,levels/gta5/destruction/interior/des_jewel_cab2,4,4
597,levels/gta5/destruction/interior/des_jewel_cab3,4,4
598,levels/gta5/destruction/interior/des_jewel_cab4,4,4
599,levels/gta5/destruction/interior/des_prologue_door,6,6
600,levels/gta5/destruction/interior/des_ranchsafe,6,6
601,levels/gta5/destruction/interior/des_server,3,3
602,levels/gta5/destruction/interior/des_showroom,7,7
603,levels/gta5/destruction/interior/des_tvsmash,3,3
604,levels/gta5/destruction/interior/des_vaultdoor,9,9
605,levels/gta5/generic/cutsobjects,17,17
606,levels/gta5/generic/icons,24,24
607,levels/gta5/generic/procobj,117,117
608,levels/gta5/interiors/int_props/int_lev_des,10,10
609,levels/gta5/interiors/int_props/int_medical,2,2
610,levels/gta5/interiors/int_props/int_retail,17,17
611,levels/gta5/interiors/int_props/int_services,55,55
612,levels/gta5/interiors/v_int_1,22,22
613,levels/gta5/interiors/v_int_10,43,43
614,levels/gta5/interiors/v_int_11,128,128
615,levels/gta5/interiors/v_int_13,42,42
616,levels/gta5/interiors/v_int_14,201,201
617,levels/gta5/interiors/v_int_15,25,25
618,levels/gta5/interiors/v_int_19,98,98
619,levels/gta5/interiors/v_int_2,76,76
620,levels/gta5/interiors/v_int_20,118,118
621,levels/gta5/interiors/v_int_21,7,7
622,levels/gta5/interiors/v_int_22,42,42
623,levels/gta5/interiors/v_int_23,15,15
624,levels/gta5/interiors/v_int_24,81,81
625,levels/gta5/interiors/v_int_25,35,35
626,levels/gta5/interiors/v_int_26,44,44
627,levels/gta5/interiors/v_int_27,13,13
628,levels/gta5/interiors/v_int_28,73,73
629,levels/gta5/interiors/v_int_29,81,81
630,levels/gta5/interiors/v_int_3,15,15
631,levels/gta5/interiors/v_int_30,61,61
632,levels/gta5/interiors/v_int_31,192,192
633,levels/gta5/interiors/v_int_32,36,36
634,levels/gta5/interiors/v_int_33,14,14
635,levels/gta5/interiors/v_int_34,102,102
636,levels/gta5/interiors/v_int_35,61,61
637,levels/gta5/interiors/v_int_36,16,16
638,levels/gta5/interiors/v_int_37,6,6
639,levels/gta5/interiors/v_int_38,18,18
640,levels/gta5/interiors/v_int_39,50,50
641,levels/gta5/interiors/v_int_40,84,84
642,levels/gta5/interiors/v_int_41,27,27
643,levels/gta5/interiors/v_int_42,12,12
644,levels/gta5/interiors/v_int_43,38,38
645,levels/gta5/interiors/v_int_44,50,50
646,levels/gta5/interiors/v_int_45,22,22
647,levels/gta5/interiors/v_int_46,34,34
648,levels/gta5/interiors/v_int_47,30,30
649,levels/gta5/interiors/v_int_48,22,22
650,levels/gta5/interiors/v_int_49,19,19
651,levels/gta5/interiors/v_int_5,78,78
652,levels/gta5/interiors/v_int_50,37,37
653,levels/gta5/interiors/v_int_51,17,17
654,levels/gta5/interiors/v_int_52,19,19
655,levels/gta5/interiors/v_int_53,25,25
656,levels/gta5/interiors/v_int_54,38,38
657,levels/gta5/interiors/v_int_55,10,10
658,levels/gta5/interiors/v_int_56,18,18
659,levels/gta5/interiors/v_int_57,53,53
660,levels/gta5/interiors/v_int_58,19,19
661,levels/gta5/interiors/v_int_59,12,12
662,levels/gta5/interiors/v_int_6,69,69
663,levels/gta5/interiors/v_int_60,43,43
664,levels/gta5/interiors/v_int_61,37,37
665,levels/gta5/interiors/v_int_62,49,49
666,levels/gta5/interiors/v_int_63,42,42
667,levels/gta5/interiors/v_int_64,38,38
668,levels/gta5/interiors/v_int_65,7,7
669,levels/gta5/interiors/v_int_66,17,17
670,levels/gta5/interiors/v_int_68,20,20
671,levels/gta5/interiors/v_int_69,35,35
672,levels/gta5/interiors/v_int_7,64,64
673,levels/gta5/interiors/v_int_70,27,27
674,levels/gta5/interiors/v_int_71,27,27
675,levels/gta5/interiors/v_int_8,90,90
676,levels/gta5/interiors/v_int_9,56,56
677,levels/gta5/interiors/v_int_metro_join1,6,6
678,levels/gta5/interiors/v_int_metro_join2,9,9
679,levels/gta5/interiors/v_int_metro_join3,12,12
680,levels/gta5/interiors/v_int_metro_subway1,65,65
681,levels/gta5/interiors/v_int_metro_subway2,19,19
682,levels/gta5/interiors/v_int_metro_subway3,39,39
683,levels/gta5/interiors/v_int_metro_subway4,16,16
684,levels/gta5/interiors/v_int_metro_subway5,15,15
685,levels/gta5/interiors/v_int_metro_subway6,12,12
686,levels/gta5/interiors/v_metro_sections,339,339
687,levels/gta5/outsource/building_xrefs,79,79
688,levels/gta5/props/building/v_rooftop,91,91
689,levels/gta5/props/commercial/v_bar,30,30
690,levels/gta5/props/commercial/v_fastfood,21,21
691,levels/gta5/props/commercial/v_garage,42,42
692,levels/gta5/props/commercial/v_office,11,11
693,levels/gta5/props/industrial/v_airport,96,96
694,levels/gta5/props/industrial/v_industrial,88,88
695,levels/gta5/props/industrial/v_industrial_2,78,78
696,levels/gta5/props/lev_des/lev_des,418,418
697,levels/gta5/props/lev_des/p_v_lev_des_skin,34,34
698,levels/gta5/props/lev_des/v_lev_doors,41,41
699,levels/gta5/props/lev_des/v_minigame,169,169
700,levels/gta5/props/lev_des/v_set_pieces,24,24
701,levels/gta5/props/recreational/v_coin_op,13,13
702,levels/gta5/props/recreational/v_sports,353,353
703,levels/gta5/props/residential/v_electrical,93,93
704,levels/gta5/props/residential/v_garden,59,59
705,levels/gta5/props/residential/v_kitchen,82,82
706,levels/gta5/props/residential/v_seating,17,17
707,levels/gta5/props/roadside/v_bins,39,39
708,levels/gta5/props/roadside/v_construction,126,126
709,levels/gta5/props/roadside/v_fences,152,152
710,levels/gta5/props/roadside/v_fences_2,81,81
711,levels/gta5/props/roadside/v_rubbish,69,69
712,levels/gta5/props/roadside/v_seating_tables,56,56
713,levels/gta5/props/roadside/v_signs,39,39
714,levels/gta5/props/roadside/v_storage,95,95
715,levels/gta5/props/roadside/v_traffic_lights,66,66
716,levels/gta5/props/roadside/v_utility,96,96
717,levels/gta5/props/rt_bink/vfx_reference,152,152
718,levels/gta5/props/rural/v_farm,68,68
719,levels/gta5/props/vegetation/v_bush,3,3
720,levels/gta5/props/vegetation/v_cacti,7,7
721,levels/gta5/props/vegetation/v_ext_veg,39,39
722,levels/gta5/props/vegetation/v_fanpalm,26,26
723,levels/gta5/props/vegetation/v_palm,16,16
724,levels/gta5/props/vegetation/v_potted,37,37
725,levels/gta5/props/vegetation/v_rocks,15,15
726,levels/gta5/props/vegetation/v_snow,29,29
727,levels/gta5/props/vegetation/v_trees,127,127
