0, ,Sat Mar 31,Fri Apr 06,Thu Apr 12,Thu Apr 12,Fri Apr 13,Sat Apr 14,Sat Apr 14,Tue Apr 17,Wed Apr 18,Thu Apr 19,Fri Apr 20,Sat Apr 21,Sat Apr 21,Wed Apr 25,Fri Apr 27,Sat May 12,Tue May 15,Wed May 16,Fri May 18,Mon May 21,Mon May 21,Mon May 21,Tue May 22,Fri May 25,Thu Jun 07,Thu Jun 14,Wed Jun 20,Tue Jun 26,Fri Jun 29,Thu Jul 12,Fri Aug 03,Mon Aug 20,Fri Aug 31,Wed Oct 24,Fri Oct 26
1,levels/gta5/_citye/downtown_01/dt1_15, , , , , , , , , , , , , , , ,2,2,2,2, , , ,2,2, , , , , , , , , , , 
2,levels/gta5/_citye/hollywood_01/hw1_02, , , , ,1,1,1,1,1,1,1,1,1,1,1,1,1, , , , , , , , , , , , , , , , , , 
3,levels/gta5/_citye/hollywood_01/hw1_emissive, , , , , , , , , , , , , , , , , , ,1, , , ,1,1,1, , , , , , , , , , 
4,levels/gta5/_citye/indust_01/id1_13,3,3, , ,3,3,3,3,3,3,3,3,3,3,3,3,3,3,3, , , ,3,3,3,3,3,3,3,3,3, ,3, , 
5,levels/gta5/_citye/indust_02/id2_00,3,3, , ,1,1,1,1,1,1,1,1,1,1,1,1, , , , , , , , , , , , , , , , , , , 
6,levels/gta5/_citye/indust_02/id2_00_a,4,6, , ,2,2,2,2,2,2,2,2,2,2,2,2, , , , , , , , , , , , , , , , , , , 
7,levels/gta5/_citye/indust_02/id2_21_e, ,2, , , , , , , , , , , , , , , , , , , , , , , , , , , , , , , , , 
8,levels/gta5/_citye/scentral_01/sc1_00c, , , , , , , , , , , , , , , , , , , , , , , , , , , , , , ,1, ,1, , 
9,levels/gta5/_citye/scentral_01/sc1_00g, , , , , , , , , , , , , , , , , , , , , , , , , , , , , , ,1, ,1, , 
10,levels/gta5/_citye/scentral_01/sc1_04, , , , , , , , , , , , , , , , , , , , , , , , , , , , , , ,1, ,1, , 
11,levels/gta5/_citye/sunset/ss1_12,1,1, , ,1,1,1,1,1,1,1,1,1,1,1,1,1,1,1, , , ,1,1,1,1,1,1,1,1, , , , , 
12,levels/gta5/_cityw/airport_01/ap1_01_b, , , , , , , , , , , , , , , , , , , , , , , , , , , , , , ,4, ,4, , 
13,levels/gta5/_cityw/beverly_01/bh1_01,2,2, , ,2,2,2,2,2,2,2,2,2,2,2,2,2,2,2, , , ,2,2,2,2,2,2,2,2,2, , , , 
14,levels/gta5/_cityw/beverly_01/bh1_08, , , , , , , , , , , , , , , , ,1, , , , , , , , , , , , , , , , , , 
15,levels/gta5/_cityw/beverly_01/bh1_34, , , , , , , , , , , , , , , , , , , , , , , , , , ,1,1,1,1,1, ,1, , 
16,levels/gta5/_cityw/beverly_01/bh1_39, , , , , , , , , , , , , , , , , , , , , , , , , , , , ,4,4,4, , , , 
17,levels/gta5/_cityw/koreatown_01/kt1_09, , , , , , , , , , , , , , , , , , , , , , , , , , , , , , , , ,1, , 
18,levels/gta5/_cityw/koreatown_01/kt1_16,3,3, , ,3,3,3,3,3,3,3,3,3,3,3,3,3,3,3, , , ,3,3,3,3,3,3, , , , , , , 
19,levels/gta5/_cityw/santamon_01/sm_22,8,8, , ,8,8,8,8,8,8,8,8,8,8,8,8,8,8,8, , , ,8,8,6,8,6,6,6,6,6, , , , 
20,levels/gta5/_cityw/venice_01/vb_25, , , , , , , , , , , , , , , ,2,2,2,2, , , ,2,2,2,2,2,2,2,2,2, , , , 
21,levels/gta5/_cityw/venice_01/vb_36,9,9, , ,9,9,9,9,9,9,9,9,9,9,9, , , , , , , , , , , , , , , , , , , , 
22,levels/gta5/_cityw/venice_01/vb_ca,2,2, , , , , , , , , , , , , ,8, , , , , , , , , , , , , , , , , , , 
23,levels/gta5/_hills/cityhills_01/ch1_02,5,5, , ,5,5,5,5,5,5,5,5,5,5,5,4,4,4,4, , , ,4,4,3,3,3,3,3,3,3, ,3, , 
24,levels/gta5/_hills/cityhills_01/ch1_06e,2, , , , , , , , , , , , , , , , , , , , , , , , , , , , , , , , , , 
25,levels/gta5/_hills/country_01/cs1_08, , , , , , , , , , , , , , , , , , , , , , , , , , , , , , ,1, ,1, , 
26,levels/gta5/_hills/country_01/cs1_14,8,8, , ,2,2,2,2,2,2,2,2,2,2,2,6,2,2,1, , , ,1,1,1,1,1,1,1,1,1, ,4, , 
27,levels/gta5/_hills/country_01/cs1_14b,9,9, , ,1,1,1,1,1,1,1,1,1,1,1,10,2,2, , , , , , ,2,2,2,2,2,2,2, ,2, , 
28,levels/gta5/_hills/country_02/cs2_01, , , , , , , , , , , , , , , , , , , , , , , , , , , , , , , , ,2, , 
29,levels/gta5/_hills/country_02/cs2_06, , , , ,1,1,1,1,1,1,1,1,1,1,1,1,1,1, , , , , , ,1,1,1,1,1,1, , , , , 
30,levels/gta5/_hills/country_02/cs2_30, , , , , , , , , , , , , , , ,2,2,2,2, , , ,2,2,2,2,2,2,2,2,2, ,2, , 
31,levels/gta5/_hills/country_03/cs3_05, , , , , , , , , , , , , , , ,1,1,1, , , , , , ,1,1,1,1,1,1,1, ,1, , 
32,levels/gta5/_hills/country_03/cs3_06, , , , , , , , , , , , , , , ,2,2,2, , , , , , ,2,2,2,2,2,2,2, ,2, , 
33,levels/gta5/_hills/country_04/cs4_06,8,8, , ,8,8,8,8,8,8,8,8,8,8,8,8,8,8,8, , , ,8,8,8,8,8,8,8,8, , , , , 
34,levels/gta5/_prologue/plg_03,3,3, , ,3,3,3,3,3,3,3,3,3,3,3,3,3,3,3, , , ,3,3,3,3,3,3,3,3,3, ,3, , 
35,levels/gta5/_prologue/plg_04,2,2, , ,2,2,2,2,2,2,2,2,2,2,2,2,2,2,2, , , , ,2,2,2,2,2,2,2,2, ,2, , 
36,levels/gta5/cloudhats/v_clouds,124,124, , ,124,124,124,124,124,124,124,124,124,124,124,124,124,124,124, , , ,124,124,124,124,124,124,124,124,124, ,120, , 
37,levels/gta5/destruction/interior/des_fib_ceiling,3,3, , ,3,3,3,3,3,3,3,3,3,3,3,3,3,3,3, , , ,3,3,3,3,3,3,3,3,3, ,3, , 
38,levels/gta5/interiors/int_props/int_lev_des, , , , , , , , , , , , , , , , , , , , , , , ,3,3,3,3,3,3,3,3, ,3, , 
39,levels/gta5/interiors/v_int_11, , , , , , , , , , , , , , , ,12,12,12,12, , , ,12,12,12, , , , , ,12, ,12, , 
40,levels/gta5/interiors/v_int_19,4,4, , ,4,4,4,4,4,4,4,4,4,4,4,4,4,4,4, , , ,4,4,4, , , , , ,4, ,4, , 
41,levels/gta5/interiors/v_int_20,2,2, , ,2,2,2,2,2,2,2,2,2,2,2,2,2,2,2, , , ,2,2,2, , , , , ,2, ,1, , 
42,levels/gta5/interiors/v_int_23, , , , , , , , , , , , , , , , , , , , , , , , , , , , , , ,6, ,6, , 
43,levels/gta5/interiors/v_int_24, , , , , , , , , , , , , , , , , , , , , , , , ,1, , , , , , , , , , 
44,levels/gta5/interiors/v_int_26,6,6, , ,6,6,6,6,6,6,6,6,6,6,6,6,6,6,6, , , ,6,6,6,6,6,6,6,6,6, ,6, , 
45,levels/gta5/interiors/v_int_28,1,1, , ,1,1,1,1,1,1,1,1,1,1,1,1,1,1,1, , , ,1,1,1, , , , , ,1, ,1, , 
46,levels/gta5/interiors/v_int_29, , , , , , , , , , , , , , , , , , , , , , , , , , , , , , , , ,4, , 
47,levels/gta5/interiors/v_int_33, , , , , , , , , , , , , , , , , , , , , , , , , , , , , , , , ,3, , 
48,levels/gta5/interiors/v_int_35,9,9, , ,9,9,9,9,9,9,9,9,9,9,9,9,9,9,9, , , ,9,9,9, , , , , ,9, ,9, , 
49,levels/gta5/interiors/v_int_39, , , , , , , , , , , , , ,1,1,1,1,1,1, , , ,1,1,1, , , , , ,1, ,1, , 
50,levels/gta5/interiors/v_int_4,11,11, , ,11,11,11,11,11,11,11,11,11,11,11,11,11,11,11, , , ,11,11,10, , , , , ,7, ,7, , 
51,levels/gta5/interiors/v_int_40,3,3, , ,3,3,3,3,3,3,3,3,3,3,3,3,3,3,3, , , ,3,3,3,1,1,1,1,1,3, ,3, , 
52,levels/gta5/interiors/v_int_43, , , , , , , , , , , , ,1,1, , , , , , , , , ,3,3,3,3,3,3,3, , , , , 
53,levels/gta5/interiors/v_int_44, , , , , , , , , , , , , , , , , , , , , , , , , , , , , , , , ,2, , 
54,levels/gta5/interiors/v_int_48, , , , , , , , , , , , , , , , , , , , , , , , , , , , , , ,5, ,5, , 
55,levels/gta5/interiors/v_int_5,1,1, , ,1,1,1,1,1,1,1,1,1,1,1,13,13,13,13, , , ,13,13,13, , , , , ,13, ,13, , 
56,levels/gta5/interiors/v_int_53,2,2, , ,2,2,2,2,2,2,2,2,2,2,2,2,2,2,2, , , ,2,2,2,1,1,1,1,1,2, ,1, , 
57,levels/gta5/interiors/v_int_57, , , , , , , , , , , , , , , , , , , , , , , , , , , , , , ,1, ,1, , 
58,levels/gta5/interiors/v_int_59, , , , , , , , , , , , , , , ,2,2,2,2, , , ,2,2,2, , , , , ,2, ,2, , 
59,levels/gta5/interiors/v_int_6, , , , , , , , , , , , , , , , , , , , , , , , , , , , , , ,6, ,6, , 
60,levels/gta5/interiors/v_int_62,18,18, , ,18,18,18,18,18,18,18,18,18,18,18,18,18,18,18, , , ,18,18,18, , , , , ,20, ,20, , 
61,levels/gta5/interiors/v_int_63,3,3, , ,3,3,3,3,3,3,3,3,3,3,3,3,3,3,3, , , ,3,3, , , , , , , , , , , 
62,levels/gta5/interiors/v_int_70,3,3, , ,3,3,3,3,3,3,3,3,3,3,3,3,3,3,3, , , ,3,3,3,3,3,3,3,3,3, ,3, , 
63,levels/gta5/interiors/v_int_8,9,9, , ,9,9,9,9,9,9,9,9,9,9,9,9,9,9,9, , , ,9,9,9, , , , , ,9, ,9, , 
64,levels/gta5/interiors/v_int_9, , , , , , , , , , , , , , , , ,1,1,1, , , ,1,1,1, , , , , , , , , , 
65,levels/gta5/props/industrial/v_airport, , , , , , , , , , , , , , , , , , , , , , , , , , , , , ,9, , , , , 
66,levels/gta5/props/lev_des/lev_des, , , , , , , , , , , , , , , ,1,1,1,1, , , ,1,1,1,1,1,1,1,1,1, ,1, , 
67,levels/gta5/props/lev_des/p_v_lev_des_skin,16,16, , ,16,16,16,16,16,16,16,16,16,16,16,16,16,16,16, , , ,16,16,16,16,16,16,16,16,16, ,16, , 
68,levels/gta5/props/recreational/v_sports, , , , , , , , , , , , , , , , , , ,1, , , ,1,1,1,1,1,1,1,1,1, ,1, , 
69,levels/gta5/props/residential/v_electrical, , , , , , , , , , , , , , , , , , , , , , , , , , , , , ,9,9, ,9, , 
70,levels/gta5/props/roadside/v_traffic_lights,9,9, , ,9,9,9,9,9,9,9,9,9,9,9,9,9,9,9, , , ,9,9,9,9,9,9,18,18, , , , , 
71,levels/gta5/props/vegetation/v_bush, , , , ,14,14,14,14,20,20,20,19, , , , , , , , , , , , , , , , , , , , , , , 
72,levels/gta5/vehicles,131,137, , ,131,131,131,131,130,130,128,128,128,129, ,117,121,121,122, , , ,122,126,136,144,130,120,115,122,129, ,99, , 
73,models/cdimages/weapons, , , , , , , , , ,5,5,5,5,9,9, , , , , , , , , , , , , , , , , , , , 
