0, ,Sat Mar 31,Fri Apr 06,Thu Apr 12,Thu Apr 12,Fri Apr 13,Sat Apr 14,Sat Apr 14,Tue Apr 17,Wed Apr 18,Thu Apr 19,Fri Apr 20,Sat Apr 21,Sat Apr 21,Wed Apr 25,Fri Apr 27,Sat May 12,Tue May 15,Wed May 16,Fri May 18,Mon May 21,Mon May 21,Mon May 21,Tue May 22,Fri May 25,Thu Jun 07,Thu Jun 14,Wed Jun 20,Tue Jun 26,Fri Jun 29,Thu Jul 12,Fri Aug 03,Mon Aug 20,Fri Aug 31,Wed Oct 24,Fri Oct 26
1,data/cdimages/scaleform_generic, , , , ,1, , , , , , , , , , , , , , , , , , ,17, , , , , , , , ,6, , 
2,data/effects/ptfx,182,192, , ,183,183,183,181,181,183,181,183,183,183,184,178,187,185,185, , , ,185,188,193,201,201,223,227,226,239, ,55, , 
3,levels/gta5/_citye/citye_xr,3, , , , , , , , , , , , , , , , , , , , , , , , , , , , , , , , , , 
4,levels/gta5/_citye/downtown_01/downtown, , , , , , , ,1, , , , , , , ,1,1,1,1, , , ,5,1,1,1,1,1,1,1,1, , , , 
5,levels/gta5/_citye/downtown_01/dt1_00,2, , , , , , , , , , , , , , , , , , , , , , , , , , , , , , , , , , 
6,levels/gta5/_citye/downtown_01/dt1_01, , , , , , , , , , , , , , , , , , , , , , , , , , , , ,4, , , , , , 
7,levels/gta5/_citye/downtown_01/dt1_02, , , , , , , , , , , , , , , , , , , , , , , , , , , , , , , , ,2, , 
8,levels/gta5/_citye/downtown_01/dt1_05, , , , , , , , , , , , , , , , , , , , , , , , , , ,4, ,6, , , , , , 
9,levels/gta5/_citye/downtown_01/dt1_06, , , , , , , , , , , ,39, , , , , , , , , , , , , , , , , , , , , , , 
10,levels/gta5/_citye/downtown_01/dt1_08, , , , , , , , , , , , , , , , , , ,1, , , ,1, , , , , , , , , , , , 
11,levels/gta5/_citye/downtown_01/dt1_09, , , , , , , , , , , ,4, , , , , , , , , , ,3,1, , , , , , , , , , , 
12,levels/gta5/_citye/downtown_01/dt1_17, , , , , , , , , , , , , , , , , , , , , , ,7,1, , , , , , , , , , , 
13,levels/gta5/_citye/downtown_01/dt1_18, , , , , , , , , , , , , , , , , , , , , , ,12, , , , , , , , , , , , 
14,levels/gta5/_citye/downtown_01/dt1_19, , , , , , , , , , , , , , , , , , , , , , ,4, , , , , , , , , , , , 
15,levels/gta5/_citye/downtown_01/dt1_20, , , , , , ,1, , , , , , , , , , , , , , , ,9, , , , , , , , , , , , 
16,levels/gta5/_citye/downtown_01/dt1_21, , , , , , , , , , , ,20, ,1,1,8,3,3,3, , , ,6,3,3,3,3,3,3,3,3, ,3, , 
17,levels/gta5/_citye/downtown_01/dt1_22, , , , , , , , , , , , , , , , , , , , , , ,16, , , , , , , , , , , , 
18,levels/gta5/_citye/downtown_01/dt1_23, , , , , , , , , , , , , , , , , , , , , , ,14, , , , , , , , , , , , 
19,levels/gta5/_citye/downtown_01/dt1_25, , , , , , , , , , , , , , , , , , , , , , , , , , , , , ,2,2, , , , 
20,levels/gta5/_citye/downtown_01/dt1_lod, , , , , , , , , , , , , , , , , , , , , , ,2, , , , , , , , , , , , 
21,levels/gta5/_citye/downtown_01/dt1_rd1, , , , , , , , , , , , , , , , , , , , , , , ,2, , , , , , , , , , , 
22,levels/gta5/_citye/downtown_01/fwy_01, , , , , ,58, , , , , , , , , , , , , , , , , ,4, , , , , , , , , , , 
23,levels/gta5/_citye/downtown_01/fwy_04, , , , , , , , , , , , , , , , , ,3, , , , , , , , , , , , , , , , , 
24,levels/gta5/_citye/hollywood_01/hollywood, , , , , , , , , , , , , , , , , ,1, , , , , , , , , , , , , , ,1, , 
25,levels/gta5/_citye/hollywood_01/hw1_01, , , , , , , , , , , , , , , , , ,13,13, , , ,13, , , , , , , , , , , , 
26,levels/gta5/_citye/hollywood_01/hw1_02, , , , , , , ,1, , , , , ,1, , , , , , , , , , , , , , , , , , , , , 
27,levels/gta5/_citye/hollywood_01/hw1_06,2,2, , ,2,2,2,2,2,2,2,2,2,2,2,2,2,2,2, , , ,2,63,2,2,2,2,2,2,2, ,2, , 
28,levels/gta5/_citye/hollywood_01/hw1_07, , , , , , , , , , , ,2, , , , , , , , , , , , , , , , , , , , , , , 
29,levels/gta5/_citye/hollywood_01/hw1_08, , , , , , , , , , , , , , , , , ,7, , , , , , , , , , , , , , , , , 
30,levels/gta5/_citye/hollywood_01/hw1_09, , , , , , , , , , , , , , , , , ,8, , , , , , , , , , , , , , , , , 
31,levels/gta5/_citye/hollywood_01/hw1_10, , , , , , , , , , , , , , , ,14, , , , , , ,7, , , , , , , , , , , , 
32,levels/gta5/_citye/hollywood_01/hw1_13, , , , , , , , , , , , , ,1, , , ,2, , , , , , , , ,4, , , , , , , , 
33,levels/gta5/_citye/hollywood_01/hw1_14, , , , , , , , , , , , , ,1, , , , , , , , , , , , , , , , , , , , , 
34,levels/gta5/_citye/hollywood_01/hw1_15,12, , , , , , , , , , , , , , ,34, , , , , , , , , , , , , , , , , , , 
35,levels/gta5/_citye/hollywood_01/hw1_18, , , , , , , , , , , , , , , , , , , , , , ,9, , , , , , , , , , , , 
36,levels/gta5/_citye/hollywood_01/hw1_19, , , , , , , , , , , , , , , , , , , , , , , , , , ,34, , , , , , , , 
37,levels/gta5/_citye/hollywood_01/hw1_23, , , , , , , , , , , , , , , ,9, , , , , , , , , , , , , , , , , , , 
38,levels/gta5/_citye/hollywood_01/hw1_28, , , , , , , , , , , , , , , , , , , , , , , ,1, , , , , , , , , , , 
39,levels/gta5/_citye/hollywood_01/hw1_rd,153, , , , , , , , , , , , , , ,7, , , , , , , , , , , , , , , , , , , 
40,levels/gta5/_citye/indust_01/id1_04, , , , , , , , , , , , , , , , , ,6, , , , , , , , , , , , , , , , , 
41,levels/gta5/_citye/indust_01/id1_05, , , , , , , , , , , , , , , , , , , , , , , , , , ,2, , , , , , , , 
42,levels/gta5/_citye/indust_01/id1_13, , , , , , , , , , , , , , , , , , , , , , , , , ,17, , , , , , , , , 
43,levels/gta5/_citye/indust_01/id1_19, , , , , , , , , , , , , , , , , , , , , , ,18, , , , , , , , , ,4, , 
44,levels/gta5/_citye/indust_01/id1_26, , , , , , , , , , , , , , , , , , , , , , ,3, , , , , , , , , , , , 
45,levels/gta5/_citye/indust_01/id1_29,5,1, , ,1,1,1,1,1,1,1,1,1,1,1,3,3,2,5, , , ,5,2,2,2,2,2,2,2,1, , , , 
46,levels/gta5/_citye/indust_01/id1_31,2, , , , , , , , , , , , , , , , , , , , , , , , , , , , , , , , , , 
47,levels/gta5/_citye/indust_01/id1_32, , , , , , , , , , , , , , , , , , , , , , , , , , , , , , , , ,8, , 
48,levels/gta5/_citye/indust_01/id1_33, ,13, , , , , , , , , , , , , , , , , , , , , , , , , , , , , , , , , 
49,levels/gta5/_citye/indust_01/id1_rd, , , , , , , , , , , , , , , ,15, , , , , , , , , , , , , , , , , , , 
50,levels/gta5/_citye/indust_01/indust_01, , , , , , , , , , , , , , , , ,4,4,4, , , ,4,4,4,4, , , , , , , , , 
51,levels/gta5/_citye/indust_02/id2_00_a,2, , , , , , , , , , ,2, , , , , , , , , , , , , , , , , , , , , , , 
52,levels/gta5/_citye/indust_02/id2_01, , , , , , , , , , , , , , , , , , , , , , ,2,1, , , , , , , , , , , 
53,levels/gta5/_citye/indust_02/id2_02, , , , , , , , , , , ,2, , , , , , , , , , , , , , , , , , , , , , , 
54,levels/gta5/_citye/indust_02/id2_04, , , , , , , , , , , , , , , , , , , , , , ,10,1,1,1,1,1,1,1,1, ,1, , 
55,levels/gta5/_citye/indust_02/id2_06, , , , , , , , , , , , , , , , , , , , , , , ,1, , , , , , , , , , , 
56,levels/gta5/_citye/indust_02/id2_07, , , , , , , , , , , , , , , , , , ,20, , , ,20, , , , , , , , , , , , 
57,levels/gta5/_citye/indust_02/id2_12, , , , , , , , , , , ,2, , , , , , , , , , ,4, , , , , , , , , , , , 
58,levels/gta5/_citye/indust_02/id2_13, , , , , , , , , , , , , , , , , , , , , , ,9, , , , , , , , , , , , 
59,levels/gta5/_citye/indust_02/id2_14, , , , , , , , , , , , , , , , , , , , , , ,2, , , , , , , , , , , , 
60,levels/gta5/_citye/indust_02/id2_15, , , , , , , , , , , , , , , , , , , , , , ,5, , , , , , , , , , , , 
61,levels/gta5/_citye/indust_02/id2_18, , , , , , , , , , , , , , , , , , , , , , ,7, , , , , , , , , , , , 
62,levels/gta5/_citye/indust_02/id2_21, , , , , , , , , , , , , , , , , , , , , , ,9, , , , , , , , , , , , 
63,levels/gta5/_citye/indust_02/id2_21_a,4, , , , , , , , , ,3, , , , , , , , , , , ,8, , , , , , , , , , , , 
64,levels/gta5/_citye/indust_02/id2_21_b,3, , , , , , , , , , , , , , , , , , , , , , , , , , , , , , , , , , 
65,levels/gta5/_citye/indust_02/id2_21_e,32, , , , , , , , , , , , , , , , , , , , , , ,18, , , , , , , , , , , 
66,levels/gta5/_citye/indust_02/id2_21_g, , , , , , , , , , , , , , , , , , , , , , , , , ,3, , , , , , , , , 
67,levels/gta5/_citye/indust_02/id2_rd, , , , , , , , , , , ,1, , , , , , , , , , , , , , , , , , , , , , , 
68,levels/gta5/_citye/port_01/po1_02, , , , , , , , , , , ,5, , , , , , , , , , , , , , , , , , , , , , , 
69,levels/gta5/_citye/port_01/po1_03, , , , , , , , , , , , , , , , , , , , , , , , ,60, , , , , , , , , , 
70,levels/gta5/_citye/port_01/po1_04, , , , , , ,13, , , , ,6, ,1, , , , , , , , , , , ,14,11, , , , , , , , 
71,levels/gta5/_citye/port_01/po1_05, , , , , , , , , , , ,122, , , , , , , , , , ,17, , , , , , , , , , , , 
72,levels/gta5/_citye/port_01/po1_06,32, , , , , , , , , , , , , , , , , , , , , , , , , , , ,5, , , , , , 
73,levels/gta5/_citye/port_01/po1_07, , , , , , , , , , , , , , , , , , , , , , ,55, , , ,16, ,56, , , , , , 
74,levels/gta5/_citye/port_01/po1_08, , , , , , , , , , , , ,4, , ,3,6,4,1, , , ,1,1,23,1,1,8,1,1,13, ,1, , 
75,levels/gta5/_citye/port_01/po1_09, , , , , , , , , , , ,1, , , , , , , , , , , , , , , , , , , , , , , 
76,levels/gta5/_citye/port_01/po1_10, , , , , , , , , , , ,3, ,62, , , , , , , , ,695, ,11, ,8,2,6, , , , , , 
77,levels/gta5/_citye/port_01/po1_lod, , , , , , , , , , , ,2, , , , , , , , , , , , , , , , , , , , , , , 
78,levels/gta5/_citye/port_01/po1_rd, , , , , , , , , , , , , , , , , , , , , , , , , , ,9, , , , , , , , 
79,levels/gta5/_citye/port_01/port, , , , , , , , , , , ,9, , , , , , , , , , , , , , , , , , , , , , , 
80,levels/gta5/_citye/scentral_01/sc1_00c, , , , , , , , , , , , , , , , , ,1,1, , , ,1,1, , , , , , , , , , , 
81,levels/gta5/_citye/scentral_01/sc1_00f, , , , , , , , , , , , , , , , , , , , , , , , , , ,5, , , , , , , , 
82,levels/gta5/_citye/scentral_01/sc1_01, , , , , , , , , , , , , , , , , , ,4, , , ,4, , , , , , , , , ,48, , 
83,levels/gta5/_citye/scentral_01/sc1_02,1,1, , ,1,1,1,1,1,1,1,1,1,1,1,1,1,1,1, , , ,1,1,1,1,1,1,1,1,1, ,1, , 
84,levels/gta5/_citye/scentral_01/sc1_03, , , , , , , , , , , , , , , , , , , , , , , ,16, , ,10, , , , , , , , 
85,levels/gta5/_citye/scentral_01/sc1_09, , , , , , , , , , , , , , , , , , ,2, , , ,2, , , , , , , , , , , , 
86,levels/gta5/_citye/scentral_01/sc1_10,68, , , , , , , , , , , , , , , , , , , , , , , , , , , , , , , , , , 
87,levels/gta5/_citye/scentral_01/sc1_13, , , , , , , , , , , , , , , , , , , , , , , ,1, , , , , , , , , , , 
88,levels/gta5/_citye/scentral_01/sc1_15, , , , , , , , , , , , , , , , , , , , , , , , ,23, , , , , , , , , , 
89,levels/gta5/_citye/scentral_01/sc1_19, , , , , , , , , , , , , , , , , ,11,11, , , ,11,1, , , , , , , , , , , 
90,levels/gta5/_citye/scentral_01/sc1_24, , , , , , , , , , , , , , , , , , , , , , , , , , , , ,1, , , , , , 
91,levels/gta5/_citye/scentral_01/sc1_25,2,2, , ,2,2,2,2,2,2,2,2,2,2,2,1,1,1,1, , , ,1,1,2,2,2,2,2, , , , , , 
92,levels/gta5/_citye/scentral_01/sc1_29,1,1, , ,1,1,1,1,1,1,1,1,1, , , , , , , , , , , , , , , , , , , , , , 
93,levels/gta5/_citye/scentral_01/sc1_32, , , , , , , , , , , , , , , , , ,13, , , , , , , , , , , , , , , , , 
94,levels/gta5/_citye/scentral_01/sc1_emissive, , , , , , , , , , , , , , , , , , , , , , , , ,60,60,60,60, , , , , , , 
95,levels/gta5/_citye/scentral_01/scentral, , , , , , , , , , , , , , , , , , , , , , , , , , , , , , ,1, , , , 
96,levels/gta5/_citye/sunset/bt1_04, , , , , , , , , , , , , ,5, , , , ,73, , , ,73, , , , , , , , , , , , 
97,levels/gta5/_citye/sunset/ss1_02, , , , , , , , , , , , , , , , , , , , , , , , , ,2, , , , , , , , , 
98,levels/gta5/_citye/sunset/ss1_08, , , , , , , , , , , , , , , , , ,9, , , , , , , , ,5, ,4, , , , , , 
99,levels/gta5/_citye/sunset/ss1_09, , , , , , , , , , , , , , , , , , , , , , , , , , ,2, , , , , , , , 
100,levels/gta5/_citye/sunset/ss1_11, , , , , , , , , , , , , , , ,3,3,3,3, , , ,3,3,3,3,3, , , , , , , , 
101,levels/gta5/_citye/sunset/ss1_13, , , , , , , , , , , , , ,1, , , , , , , , , , , , , , , , , , , , , 
102,levels/gta5/_citye/sunset/ss1_emissive, , , , , , , , , , , , , , , , , ,37, , , , , , , , , , , , , , , , , 
103,levels/gta5/_cityw/airport_01/ap1_01_a, , , , , , , , , , , , , , , , , , , , , , ,14, , , , , , , , , , , , 
104,levels/gta5/_cityw/airport_01/ap1_01_b, , , , , , , , , , , , , , , , , , ,2, , , ,2, , , , ,6, , , , , , , 
105,levels/gta5/_cityw/airport_01/ap1_01_d, , , , , , , , , , , ,39, , , , , , , , , , , , , , , , , , , , , , , 
106,levels/gta5/_cityw/airport_01/ap1_01_props, , , , , , , , , , , , , , , ,109,109,109,109, , , ,109,95,95,95,95,95,95,95,93, ,77, , 
107,levels/gta5/_cityw/airport_01/ap1_02, , , , , , , , , , , , , , , , , , , , , , , , , , , ,4, , , , , , , 
108,levels/gta5/_cityw/airport_01/ap1_04, , , , , , , , , , , , , , , , ,1,1,1, , , ,1,1,108,1,1,10,2,1, , , , , 
109,levels/gta5/_cityw/airport_01/ap1_emissive, , , , , , , , , , , , , , , , , , , , , , , , , , , ,16, , , , , , , 
110,levels/gta5/_cityw/beverly_01/bh1_02,5, , , , , , , , , , , , , , , , , , , , , , , , , , , , , , , , , , 
111,levels/gta5/_cityw/beverly_01/bh1_03,13, , , , , , , , , , , , , , , , , , , , , , , , , , , , , , , , , , 
112,levels/gta5/_cityw/beverly_01/bh1_04, , , , , , , , , , , ,15, , , , , , , , , , , , , , , , , , , , , , , 
113,levels/gta5/_cityw/beverly_01/bh1_07, , , , , , , , ,2, , , , , , , , , , , , , , , , , , , , , , , , , , 
114,levels/gta5/_cityw/beverly_01/bh1_08, , , , , , ,3, ,2, , , , , , ,15, , , , , , , , , , , , , , , , , , , 
115,levels/gta5/_cityw/beverly_01/bh1_09, , , , , , , , ,4, , , , , , , , , , , , , , , , , , , , , , , , , , 
116,levels/gta5/_cityw/beverly_01/bh1_13, , , , , , , , , , , , , , , , , , , , , , , ,1, , , , , , , , , , , 
117,levels/gta5/_cityw/beverly_01/bh1_15, , , , , , , , ,2, , , , , , , , , , , , , , , , , , , , , , , , , , 
118,levels/gta5/_cityw/beverly_01/bh1_17, , , , , , , , , , , , , , , , , , , , , , , , , , , , , , ,5, , , , 
119,levels/gta5/_cityw/beverly_01/bh1_21, , , , , , , , ,3, , , , , , , , , , , , , , , , , , , , , , , , , , 
120,levels/gta5/_cityw/beverly_01/bh1_22, , , , , , , ,3,1, , , , , , , , , , , , , , , , , , , , , , , , , , 
121,levels/gta5/_cityw/beverly_01/bh1_30,2, , , , , , , ,1, , , , , , , , , , , , , ,25, , , , , , , , , , , , 
122,levels/gta5/_cityw/beverly_01/bh1_31, , , , , , , , , , , , , , , , , , , , , , , , , , , , ,6, , , , , , 
123,levels/gta5/_cityw/beverly_01/bh1_32, , , , , , , , ,2, , , , , , ,2, , , , , , , , , , , , , , , , , , , 
124,levels/gta5/_cityw/beverly_01/bh1_33, , , , , , , , , , , , , , , , , ,1, , , , , , , , ,4, , , , , , , , 
125,levels/gta5/_cityw/beverly_01/bh1_34, , , , , , , , ,7, , , , , , , , , ,3, , , ,3, , , , , , , , , , , , 
126,levels/gta5/_cityw/beverly_01/bh1_35, , , , , , , , ,3, , , , , , , , , , , , , , , , , ,12, , , , , , , , 
127,levels/gta5/_cityw/beverly_01/bh1_36, , , , , , , , ,2, , ,33, , , , , , , , , , , , , , , , , , , , , , , 
128,levels/gta5/_cityw/beverly_01/bh1_37, , , , , , , , , , , , , , , , , , , , , , , , , , ,2, , , , , , , , 
129,levels/gta5/_cityw/beverly_01/bh1_43, ,45, , , , , , , , , , , , , , , , , , , , , , , , , , , ,1,1, , , , 
130,levels/gta5/_cityw/beverly_01/bh1_45, ,18, , , , , , , , , , , , , , , , , , , , , , , , , , , , , , , , , 
131,levels/gta5/_cityw/beverly_01/bh1_46b, ,49, , , , , , , , , , , , , , , , , , , , , , , , , , , , , , , , , 
132,levels/gta5/_cityw/beverly_01/bh1_48, ,95, , , , , , , , , ,41, , , , , , , , , , , , , , , , , , , , , , , 
133,levels/gta5/_cityw/beverly_01/bh1_49, , , , , , , , , , , , , , , , , , , , , , , ,15, , , , , , , , , , , 
134,levels/gta5/_cityw/beverly_01/bh1_emissive_test, , , , , , , , , , , , , , , , , , , , , , , , ,2,2,2,2,2,2,2, ,2, , 
135,levels/gta5/_cityw/beverly_01/bh1_rd, , , , , , , , ,7, , , , , , , , , , , , , , , , , , , , , , , , , , 
136,levels/gta5/_cityw/beverly_01/bh1_rd2, , , , , , , , , ,1, , , , , , , , , , , , , , , , , , , , , , , , , 
137,levels/gta5/_cityw/koreatown_01/kt1_03, , , , , , , , , , , , , , , , , , , , , , , ,1, , , , , , , , , , , 
138,levels/gta5/_cityw/koreatown_01/kt1_04, , , , , , , , , , , , , , , , , , , , , , , ,1, , , , , , , , , , , 
139,levels/gta5/_cityw/koreatown_01/kt1_07, , , , , , , , , , , , , , , , , , , , , , , , ,2,2,38,1,1,1,1, ,1, , 
140,levels/gta5/_cityw/koreatown_01/kt1_08, , , , , , , , , , , , , , , , , , , , , , , ,44, , , , , , , , , , , 
141,levels/gta5/_cityw/koreatown_01/kt1_09, , , , , , , , , , , , , , , , , , , , , , , , , , ,18, , , , , , , , 
142,levels/gta5/_cityw/koreatown_01/kt1_11,54, , , , , , , , , , , , , , , , , , , , , , , , , , , , , , , , , , 
143,levels/gta5/_cityw/koreatown_01/kt1_13, , , , , , , , , , , , , , , , , , , , , , ,7,2, , , , , , , , , , , 
144,levels/gta5/_cityw/marina_xr,7,7, , , , , , , , , , , , , , , , , , , , , , , , , , , , , , , , , 
145,levels/gta5/_cityw/sanpedro_01/sanpedro, , , , , , , , , , , , , , , , , , , , , , ,17, , , , ,1, , , , , , , 
146,levels/gta5/_cityw/sanpedro_01/sp1_01, , , , , , , , , , , , ,1, , , , , , , , , , , , , , , , , , , , , , 
147,levels/gta5/_cityw/sanpedro_01/sp1_03, , , , , , , , , , , , , , , , ,1,4,1, , , ,1,1,1,1,1,1,1,1,1, ,1, , 
148,levels/gta5/_cityw/sanpedro_01/sp1_05, , , , , , , , , , , , , , , , , , , , , , , , ,1,1,1,1,1,1,1, ,1, , 
149,levels/gta5/_cityw/sanpedro_01/sp1_06, , , , , , , , , , , , , , , , , , , , , , ,28, , , , , , , , , , , , 
150,levels/gta5/_cityw/sanpedro_01/sp1_10, , , , , , , , , , ,63, , , , , , , , , , , , , , , , , , , , , , , , 
151,levels/gta5/_cityw/sanpedro_01/sp1_11, , , , , , , , , , ,5, , , , , , , ,1, , , ,1, , , , ,3, , , , , , , 
152,levels/gta5/_cityw/sanpedro_01/sp1_12,46, , , , , , , , , , ,13, , , , ,6, , , , , , , , , , , , , , , , , , 
153,levels/gta5/_cityw/sanpedro_01/sp1_emissive, , , , , , , , , , , , , , , , , , , , , , , , ,7,7, , , , , , , , , 
154,levels/gta5/_cityw/sanpedro_01/sp1_rd, , , , ,110, , , , , ,110, , , , , , , , , , , , , , , ,1, , , , , , , , 
155,levels/gta5/_cityw/santamon_01/santamon, , , , , , , , , , , , , , , ,1,1,1,1, , , ,1,2,1, , , , , , , , , , 
156,levels/gta5/_cityw/santamon_01/sm_06, , , , , , , , , , , , , , , , , , , , , , , ,1, , , , , , , , , , , 
157,levels/gta5/_cityw/santamon_01/sm_07,1,1, , ,1,1,1,1,1,1,1,1,1,1,3,1,1,1,1, , , ,1,1,1,1,1,1, , , , , , , 
158,levels/gta5/_cityw/santamon_01/sm_10,35, , , , , , , , , , , , , , , , , , , , , , , , , , , , , , , , , , 
159,levels/gta5/_cityw/santamon_01/sm_11,1, , , , , , , , , , , , , , , , , , , , , , , , , ,12, , , , , , , , 
160,levels/gta5/_cityw/santamon_01/sm_13,9, , , , , , , , , , , , , , , , , , , , , , , , , , , , , , , , , , 
161,levels/gta5/_cityw/santamon_01/sm_18, , , , , , , , , , , , , , , , , , , , , , , , ,5, , , , , , , , , , 
162,levels/gta5/_cityw/santamon_01/sm_19, , , , , , , , , , , , , , , , , , , , , , , , , , ,3,2, , , , , , , 
163,levels/gta5/_cityw/santamon_01/sm_21, , , , , , , , , , , , , , , , , , , , , , , , ,73, , , , , , , , , , 
164,levels/gta5/_cityw/santamon_01/sm_22, , , , , , , , , , , , , , , , , , , , , , , , ,52,1,1,1,1,1,1, ,1, , 
165,levels/gta5/_cityw/santamon_01/sm_23, , , , , , , , , , , , , , , , , , , , , , , , ,30, , , , , , , , , , 
166,levels/gta5/_cityw/santamon_01/sm_24,37, , , , , , , , , , , , , , , , , , , , , , ,3, , , , , , , , , , , 
167,levels/gta5/_cityw/santamon_01/sm_26, , , , , , , , , , , , , , , , , , , , , , ,1, , , , , , , , , , , , 
168,levels/gta5/_cityw/santamon_01/sm_emissive, , , , , , , , , , , , , , , , , , , , , , , ,30, , , , , , , , , , , 
169,levels/gta5/_cityw/santamon_01/sm_rd, , , , , , , , , , , , , , , ,28, , , , , , , , , , , , , , , , , , , 
170,levels/gta5/_cityw/venice_01/vb_05, , , , , , , , , , , , , , , , ,6,3,3, , , ,3,6,9,3,3,3,3,3,3, ,3, , 
171,levels/gta5/_cityw/venice_01/vb_17, , , , , , , , , , , , , , , , , , , , , , , , , , ,3, , , , , , , , 
172,levels/gta5/_cityw/venice_01/vb_24, , , , , , , , , , , , , , , ,1, , , , , , , , , , , , , , , , , , , 
173,levels/gta5/_cityw/venice_01/vb_25, , , , , , , , , , , ,13, , , , , , , , , , , , , , , , , , , , , , , 
174,levels/gta5/_cityw/venice_01/vb_27, , , , , , , , , , , , , , , , , , , , , , , , ,34,1,1,1,1,1,1, ,1, , 
175,levels/gta5/_cityw/venice_01/vb_28, , , , , , , , , , , , , , , , , , , , , , , , ,18, , , , , , , , , , 
176,levels/gta5/_cityw/venice_01/vb_29, , , , , , , , , , , ,8, , , , , , , , , , , , ,26,4,4,4,4,4,4, ,2, , 
177,levels/gta5/_cityw/venice_01/vb_30, , , , , , , , , , , , , , , ,3,3,3,3, , , ,3,3,24,3,3,3,3,3,3, ,3, , 
178,levels/gta5/_cityw/venice_01/vb_33, , , , , , , , , , , , , , , , , , , , , , ,1, , , , , , , , , , , , 
179,levels/gta5/_cityw/venice_01/vb_34, , , , , , , , , , , , , , , ,2,2,2,2, , , ,2,2,2,2,2,2,2,3,3, ,3, , 
180,levels/gta5/_cityw/venice_01/vb_35, , , , , , , , , , , , , ,82, , , , , , , , , , , , , , , , , , , , , 
181,levels/gta5/_cityw/venice_01/vb_35b, , , , , , , , , , , , , , , , , , , , , , , , ,10, , , , , , , , , , 
182,levels/gta5/_cityw/venice_01/vb_36, , , , , , , , , , , , , , , , , , , , , , ,16, , , , , , , , , , , , 
183,levels/gta5/_cityw/venice_01/vb_38, , , , , , , , , , , , , , , , , , , , , , ,3, , , , , , , , , , , , 
184,levels/gta5/_cityw/venice_01/vb_39, , , , , , , , , , , , , , , , ,1, , , , , , , , , , , , , , , , , , 
185,levels/gta5/_cityw/venice_01/venice, , , , , , , , , , , , , , , ,1,1, , , , , , , , , , , , , , , , , , 
186,levels/gta5/_hills/cityhills_01/ch1_02,1,1, , ,1,1,1,1,1,1,1,1,1,1,1,1,1,1,1, , , ,1, ,34, , , , , , , , , , 
187,levels/gta5/_hills/cityhills_01/ch1_04b, , , , , , , , , , , , , , , , , , , , , , , , , , , , , , , , ,1, , 
188,levels/gta5/_hills/cityhills_01/ch1_05, , , , , , , , , , , , , , , , , ,1,1, , , ,1,1,4,4,4,4,4,4,5, ,2, , 
189,levels/gta5/_hills/cityhills_01/ch1_05b,14, , , , , , , , , , , , , , , , , , , , , , , , , , , , , , , , , , 
190,levels/gta5/_hills/cityhills_01/ch1_06c,4, , , , , , , , , , , , , , , , , , , , , , , , , , , , , , , , , , 
191,levels/gta5/_hills/cityhills_01/ch1_06d,1, , , , , , , , , , , , , , , , , , , , , , , , , , , , , , , , , , 
192,levels/gta5/_hills/cityhills_01/ch1_06f,2, , , , , , , , , , ,2, , , , , , , , , , , , , , , , , , , , , , , 
193,levels/gta5/_hills/cityhills_01/ch1_09, , , , , , , , , , , ,14, , , , , , , , , , , ,1, , , , , , , , , , , 
194,levels/gta5/_hills/cityhills_01/ch1_09b, , , , , , , , , , , , , , , , , , , , , , , , ,36, , , , , , , , , , 
195,levels/gta5/_hills/cityhills_01/ch1_12,1,1, , ,1,1,1,1,1,1,1,1,1,1,1,1,1,1,1, , , ,1,1,1,1,1,1,1,1,1, ,1, , 
196,levels/gta5/_hills/cityhills_01/ch1_rdprops,1,1, , ,1,1,1,1,1,1,1,1,1,1,1,1,1,1,1, , , ,1,1,1,1,1,1,1,1,1, ,1, , 
197,levels/gta5/_hills/cityhills_01/cityhills_01, , , , , , , , , , , , , , , , ,2,3,3, , , ,3, , , , , , , , , , , , 
198,levels/gta5/_hills/cityhills_02/ch2_01b, , , , , , , , , , , , , , , , , , , , , , , , , , ,9, , , , , , , , 
199,levels/gta5/_hills/cityhills_02/ch2_03,2, , , , , , , ,13, , , , , , , , , , , , , , , , , , , , , ,15, , , , 
200,levels/gta5/_hills/cityhills_02/ch2_03b, , , , , , , , , , , , , , ,11,12, , , , , , , , , , , , , , , , , , , 
201,levels/gta5/_hills/cityhills_02/ch2_04, , , , , , , , ,2, ,9, , , , , , , , , , , , , , , ,19, , , , , , , , 
202,levels/gta5/_hills/cityhills_02/ch2_05, , , , , , , , ,3, , , , , , , , , , , , , , , , , ,3, , , , , , , , 
203,levels/gta5/_hills/cityhills_02/ch2_05b, , , , , , , , ,2, , , , , , , , , , , , , , , , , , , , ,26, , , , , 
204,levels/gta5/_hills/cityhills_02/ch2_05c, , , , , , , , ,6, , , , , , , , , , , , , , , , , , , , , , , , , , 
205,levels/gta5/_hills/cityhills_02/ch2_05d,11, , , , , , , ,7, , , , , , , , , , , , , , , , , ,8, , , , , , , , 
206,levels/gta5/_hills/cityhills_02/ch2_05e, , , , , , , , ,5, , , , , , , , , , , , , , , , , , , , , , , , , , 
207,levels/gta5/_hills/cityhills_02/ch2_05f, , , , , , , , ,14, , , , , , , , , , , , , , , , , ,6, , ,5, , , , , 
208,levels/gta5/_hills/cityhills_02/ch2_06, , , , , , , , , , , ,12, , , , , , , , , , , , , , ,5, , , , , , , , 
209,levels/gta5/_hills/cityhills_02/ch2_07, , , , , , , , , , , , , , , , , , , , , , , , , , ,9, , , , , , , , 
210,levels/gta5/_hills/cityhills_02/ch2_07b, , , , , , , , , , , , , , , , , , , , , , , , , , ,9, , , , , , , , 
211,levels/gta5/_hills/cityhills_02/ch2_07c, , , , , , , , , , , , , , , , , , , , , , , , , , ,3, ,6, , , , , , 
212,levels/gta5/_hills/cityhills_02/ch2_07d, , , , , , , , , ,69, ,23, , , , , , , , , , , , , , , , , , , , , , , 
213,levels/gta5/_hills/cityhills_02/ch2_08, , , , , , , , , , , , , , , , , , , , , , , , , , ,3, , , , , , , , 
214,levels/gta5/_hills/cityhills_02/ch2_08b, , , , , , , , , , , , , , , , , , , , , , , , , , ,3, , ,4, , , , , 
215,levels/gta5/_hills/cityhills_02/ch2_09b,332, , , , , , , , , , ,6, , , , , , , , , , , , , , , , ,6, , , , , , 
216,levels/gta5/_hills/cityhills_02/ch2_09c, , , , , , , , ,13, , , , , , , , , , , , , , ,23, , , , , ,5, , , , , 
217,levels/gta5/_hills/cityhills_02/ch2_10,5,1, , ,1,1,1,1,1,1,1,1,1,1,1,1,1,1,1, , , ,1,1,1,1,1,1,1,1,1, , , , 
218,levels/gta5/_hills/cityhills_02/ch2_11, , , , , , , , ,14, , , , , , , , , , , , , , , , , ,6, , ,2, , , , , 
219,levels/gta5/_hills/cityhills_02/ch2_11b, , , , , , , , ,8, , , , , , , , , , , , , , , , , , , , , , , , , , 
220,levels/gta5/_hills/cityhills_02/ch2_12b, , , , , , , , , , , , , , , , , , , , , , , , , , ,7, , , , , , , , 
221,levels/gta5/_hills/cityhills_02/ch2_rdprops, , , , , , , , , , , , , , , , , , , , , , , , , , , , , , , , ,1, , 
222,levels/gta5/_hills/cityhills_02/ch2_roads,19, , , , , , , , , , , , , , , , , , , , , , , , , , ,3, , , , , , , 
223,levels/gta5/_hills/cityhills_02/ch2_roadsb,3, , , , , , , , , ,19, , , , , , , , , , , , , , , , , , , , , , , , 
224,levels/gta5/_hills/cityhills_02/cityhills_02,382,382, , ,382,382,382,382,382,382,382,283,283, , ,12, , , , , , , , , , , ,22, , , , , , , 
225,levels/gta5/_hills/cityhills_03/ch3_01, , , , , , , , , , , , , , , ,2,2, , , , , , , , , , , , , , , , , , 
226,levels/gta5/_hills/cityhills_03/ch3_02, , , , , , , , , , , , , , , , , , , , , , , , , , , ,84, , , , , , , 
227,levels/gta5/_hills/cityhills_03/ch3_03, , , , , , , , , , , , , , , , , , , , , , , , , , , ,424, , , , , , , 
228,levels/gta5/_hills/cityhills_03/ch3_04, , , , , , , , , , , ,2, , , , , , , , , , , , , , , ,577, , , , , , , 
229,levels/gta5/_hills/cityhills_03/ch3_06, , , , , , , , , , , ,1,9, , ,1, , , , , , , , , , , ,281, , , , , , , 
230,levels/gta5/_hills/cityhills_03/ch3_07, , , , , , , , , , , , , , , , , , , , , , , , , , , ,108, , , , , , , 
231,levels/gta5/_hills/cityhills_03/ch3_08, , , , , , , , , , , , , , , , , , , , , , , , ,1, , ,462, , , , , , , 
232,levels/gta5/_hills/cityhills_03/ch3_09, , , , , , , , , , , , , , , , , , , , , , , , , , , ,96, , , , , , , 
233,levels/gta5/_hills/cityhills_03/ch3_10, , , , , , , , , , , , , , , ,25, , , , , , , , , , , ,378, , , , , , , 
234,levels/gta5/_hills/cityhills_03/ch3_11, , , , , , , , ,23, , , , , , , , , , , , , , , , , , ,351, , ,4, ,5, , 
235,levels/gta5/_hills/cityhills_03/ch3_12, , , , , , , , , , , , , , , , , , , , , , , , , , , ,201, , , , , , , 
236,levels/gta5/_hills/cityhills_03/ch3_13, ,1, , , , , , , , , , , , , , , , , , , , , , ,3, , ,390, , , , , , , 
237,levels/gta5/_hills/cityhills_03/ch3_14, , , , , , , , , , , , , , , , , , , , , , , , , , , ,155, , , , , , , 
238,levels/gta5/_hills/cityhills_03/ch3_14b, , , , , , , , , , , , , , , , , , , , , , , , , , , ,105, , , , , , , 
239,levels/gta5/_hills/cityhills_03/ch3_lod, , , , , , , , , , , , , , , , , , , , , , , , , , , ,59, , , , , , , 
240,levels/gta5/_hills/cityhills_03/ch3_railway, , , , , , , , , , , , , , , , , , , , , , , , , , , ,93, , , , , , , 
241,levels/gta5/_hills/cityhills_03/ch3_railwyb, , , , , , , , , , , , , , , , , , , , , , , , , , , ,56, , , , , , , 
242,levels/gta5/_hills/cityhills_03/ch3_railwyc, , , , , , , , , , , , , , , , , , , , , , , , , , , ,55, , , , , , , 
243,levels/gta5/_hills/cityhills_03/ch3_rd1, , , , , , , , , , , , , , , , , , , , , , , , , , , ,148, , , , , , , 
244,levels/gta5/_hills/cityhills_03/ch3_rd1a, , , , , , , , , , , , , , , , , , , , , , , , , , , ,102, , , , , , , 
245,levels/gta5/_hills/cityhills_03/ch3_rd1b, , , , , , , , , , , , , , , ,7, , , , , , , , , , , ,57, , , , , , , 
246,levels/gta5/_hills/cityhills_03/ch3_rd2, , , , , , , , , , , , , , , , , , , , , , , , , , , ,146, , , , , , , 
247,levels/gta5/_hills/cityhills_03/ch3_rd2b, , , , , , , , , , , , , , , , , , , , , , , , , , , ,108, , , , , , , 
248,levels/gta5/_hills/country_01/country_01, ,14, , , , , , , , , ,32, , , , , , , , , , , , ,3, ,165, , , , , , , , 
249,levels/gta5/_hills/country_01/cs1_01, , , , , , , , , , , , , , , ,89, , , , , , , , , , , , , ,11, , , , , 
250,levels/gta5/_hills/country_01/cs1_03,1,1, , ,1,1,1,1,1,1,1,1,1,1,1,1,1,1,1, , , ,10,1,1,1,11,1,2,1,1, ,7, , 
251,levels/gta5/_hills/country_01/cs1_04,1, , , , , , , , , , ,30, , , ,7, , , , , , , , , , , , , , , , , , , 
252,levels/gta5/_hills/country_01/cs1_05,15, , , , , , , , , , , , , , , , , , , , , ,10, , , , , , , , , , , , 
253,levels/gta5/_hills/country_01/cs1_06,2,2, , ,2,2,2,2,2,2,2,2,2,2,2,2,2,24,2, , , ,2,2,2,2,3,2,2,2, , , , , 
254,levels/gta5/_hills/country_01/cs1_07,1,1, , ,1,1,1,1,1,1,1,1,1,1,1,1,1,1,1, , , ,27,14,4,4,7,4,4,4,9, ,1, , 
255,levels/gta5/_hills/country_01/cs1_08, ,35, , , , , , , , , , , , , , , , , , , , , , , , , , , , , , , , , 
256,levels/gta5/_hills/country_01/cs1_09, , , , , , , , , , , , , , , ,6, , , , , , , , , , , , , , , , , , , 
257,levels/gta5/_hills/country_01/cs1_10,1, , , , , , , , , , ,5, , , , , , , , , , , , , , , , , , , , , , , 
258,levels/gta5/_hills/country_01/cs1_11, , , , , , , , , , , , , , , , , , , , , , , , , , ,6, , , , , , , , 
259,levels/gta5/_hills/country_01/cs1_11b,2,1, , ,1,1,1,1,1,1,1,1,1,1,1, , , , , , , , ,1,1,1,67,1,1,2,2, ,2, , 
260,levels/gta5/_hills/country_01/cs1_12, , , , , , , , , , , ,27, , , , , , , , , , , ,35, , , , , , , , , , , 
261,levels/gta5/_hills/country_01/cs1_13,2,2, , ,1,1,1,1,1,1,1,1,1,1,1,1,1,1,1, , , ,1,1,2, , , , ,2,1, ,2, , 
262,levels/gta5/_hills/country_01/cs1_14, , , , , , , , , , , , , , , ,2, , , , , , , , , , , , , , , , , , , 
263,levels/gta5/_hills/country_01/cs1_15b, , , , , , , , , , , , , , , , , , , , , , , , , , ,8, , , , , , , , 
264,levels/gta5/_hills/country_01/cs1_15c, , , , , , , , , , , ,34, , , , , , , , , , , , , , , , , , , , , , , 
265,levels/gta5/_hills/country_01/cs1_railwyb, , , , , , , , , , , , , , , , , , , , , , , , ,2, , , , , , , , , , 
266,levels/gta5/_hills/country_01/cs1_railwyc, , , , , , , , , , , , , , , , , , , , , , , , ,86,86,86,86,86,86,86, ,86, , 
267,levels/gta5/_hills/country_01/cs1_rdprops, , , , , , , , , , , , , , , , , , , , , , , , ,2,2,2,2,2,2,2, ,2, , 
268,levels/gta5/_hills/country_01/cs1_rdprops_pb,36,36, , ,36,36,36,36,36,36,36,36,36,36,36,36,36,36,36, , , ,36,36,36,37,37,37,37,25,29, ,29, , 
269,levels/gta5/_hills/country_01/cs1_roads, , , , , , , , , , , , , , , , , , , , , , ,2, , , , , , , , , , , , 
270,levels/gta5/_hills/country_01/cs1_roadsa, , , , , , , , , , , , , , , , , , , , , , , , , , , , ,108, , , , , , 
271,levels/gta5/_hills/country_02/country_02, , , , , , , , , , , , , , , , , , , , , , ,6,52,4, , , , , , , , , , 
272,levels/gta5/_hills/country_02/cs2_01,1,1, , ,1,1,1,1,1,1,1,1,1,1,1,15,15,15,15, , , ,15,11,11,11,11,636,11,11,12, ,12, , 
273,levels/gta5/_hills/country_02/cs2_02,3,3, , ,3,3,3,3,3,3,3,3,3,3,3,3,3,3,3, , , ,41,1,1,1,1,1,1,1,1, ,1, , 
274,levels/gta5/_hills/country_02/cs2_03,3,3, , ,3,3,3,3,3,3,3,3,3,3,1,1,1,1,1, , , ,3,1,1,1,1,1,12,59,1, ,3, , 
275,levels/gta5/_hills/country_02/cs2_04,1,1, , ,1,1,1,1,1,1,1,1,1,1,1,1,1,1,1, , , ,1,1, , , , , , ,1, ,1, , 
276,levels/gta5/_hills/country_02/cs2_05, , , , , , , , , , , , , , , , , , , , , , , ,16, , , , ,16, , , , , , 
277,levels/gta5/_hills/country_02/cs2_09,3,3, , ,3,3,3,3,3,3,3,3,3,3,3,3,3,3,3, , , ,12,1,1,1,1,1,1,1,3, ,3, , 
278,levels/gta5/_hills/country_02/cs2_09b, , , , , , , , , , , , , , , , , , , , , , , ,77, , , , , , , , , , , 
279,levels/gta5/_hills/country_02/cs2_30, , , , , , , , , , , , , , , , , , , , , , , ,26, , , , , , , , , , , 
280,levels/gta5/_hills/country_02/cs2_railway, , , , , , , , , , , , , , , , , , , , , , , , ,74, , , , , , , , , , 
281,levels/gta5/_hills/country_02/cs2_railwyb, , , , , , , , , , , , , , , , , , , , , , , , ,48, , , , , , , , , , 
282,levels/gta5/_hills/country_02/cs2_railwyc, , , , , , , , , , , , , , , , , , , , , , , , ,17,17, , , , , , , , , 
283,levels/gta5/_hills/country_02/cs2_rdprops, , , , , , , , , , , , , , , , , , , , , , , , ,4,13,13,13,13,13,39, ,48, , 
284,levels/gta5/_hills/country_02/cs2_roads, , , , , , , , , , , ,8, , , , , , , , , , , , ,4, , , , , , , , , , 
285,levels/gta5/_hills/country_03/country_03, , , , , , , , , , , , , , , , , , , , , , , , ,2, , , , , , , , , , 
286,levels/gta5/_hills/country_03/cs3_03, , , , , , , , , , , ,80, , , , , , , , , , , , , , , , , , , , , , , 
287,levels/gta5/_hills/country_03/cs3_04, , , , , , , , , , , ,1, , , , , , , , , , , , , , , , ,3,3, , , , , 
288,levels/gta5/_hills/country_03/cs3_05,5, , , ,9, , , , , , , , , , , , , , , , , , , , , , , , , , , , , , 
289,levels/gta5/_hills/country_03/cs3_06, , , , , , , , , , , ,3, , , , , , , , , , , , , , , , , , , , , , , 
290,levels/gta5/_hills/country_03/cs3_07,2,2, , ,2,2,6,2,2,2,2,8,6,6,2,2,2,4,2, , , ,2,2,2,2,3,2,2,4,3, ,3, , 
291,levels/gta5/_hills/country_03/cs3_08b, , , , , , , , , , , ,28, , , , , , , , , , , , , , , , , , , , , , , 
292,levels/gta5/_hills/country_03/cs3_lod, , , , , , , , , , , , , , , , , , , , , , , , ,4, , , , , , , , , , 
293,levels/gta5/_hills/country_03/cs3_railway, , , , , , , , , , , , , , , , , , , , , , , , ,60, , , , , , , , , , 
294,levels/gta5/_hills/country_04/country_04, , , , ,8, , , , , , , , , , , , , , , , , , ,16,8,3,3,4,27,3,3, ,3, , 
295,levels/gta5/_hills/country_04/cs4_02,3,3, , ,31,3,3,3,3,3,3,21,3,3,3,3,3,3,3, , , ,3,3,3,3,3,3,3,3,3, , , , 
296,levels/gta5/_hills/country_04/cs4_03, , , , , , , , , , , , , , , , , , , , , , , ,26, , , , , , , , , , , 
297,levels/gta5/_hills/country_04/cs4_04, , , , , , , , , , , , , , , , , , , , , , , , , , ,5, , , , , , , , 
298,levels/gta5/_hills/country_04/cs4_05, , , , , , , , , , , ,11, , , , , , , , , , , , , , , , ,1, , , , , , 
299,levels/gta5/_hills/country_04/cs4_09, , , , , , , , , , , , , , , ,1,1,1,1, , , ,1,1,1,1,1,1,1,1,1, ,1, , 
300,levels/gta5/_hills/country_04/cs4_10, , , , , , , , , , , , , , , ,2,2,2,2, , , ,2,2,2,2,2,2,2,2,12, ,1, , 
301,levels/gta5/_hills/country_04/cs4_11, , , , , , , , , , , , , , , , , , , , , , , , ,1, , , , , , , , , , 
302,levels/gta5/_hills/country_04/cs4_12, , , , ,14, , , , , , , , , , , , , , , , , , , , , , , , , , , , , , 
303,levels/gta5/_hills/country_04/cs4_13,1,2, , ,1,1,1,1,1,1,1,1,1,2,2,1,1,1,1, , , ,1,2,2,2,2,1,1,2,2, ,2, , 
304,levels/gta5/_hills/country_04/cs4_lod, , , , , , , , , , , , , , , , , , , , , , , , ,12, , , , , , , , , , 
305,levels/gta5/_hills/country_04/cs4_railway, , , , , , , , , , , , , , , , , , , , , , , , ,80, , , , , , , , , , 
306,levels/gta5/_hills/country_04/cs4_rd_props, , , , ,43,43,43,47,47,48,48,48,48,48,48,48,48,48,48, , , ,48,47,45,45,45,45,45,45,11, ,14, , 
307,levels/gta5/_hills/country_04/cs4_roads, , , , ,10, , , , , , , , , , , , , , , , , ,3, , , , , , , , , , , , 
308,levels/gta5/_hills/country_05/country_05, , , , , , , , , , , , , , , , , , , , , , , ,1, , , , , , , , , , , 
309,levels/gta5/_hills/country_05/cs5_3, , , , , , , , , , , ,1, , , , , , , , , , , ,4, , , , , , , , , , , 
310,levels/gta5/_hills/country_05/cs5_4, , , , , , ,1,7, ,9, , , , , , ,19,1,3, , , ,4,6, ,11, , , ,4, , , , , 
311,levels/gta5/_hills/country_05/cs5_rd_props, , , , , , , , , , , , , , , , , , , , , , , ,8,33,32,32,35,36,41,41, ,55, , 
312,levels/gta5/_hills/country_05/cs5_roads, , , , , , , , , , , , , , , , , , , , , , , ,95,9, , , , , , , , , , 
313,levels/gta5/_hills/country_06/country_06,1, , , , , , , , , , , , , , , , , , , , , , ,9, , , , , , , , , , , 
314,levels/gta5/_hills/country_06/cs6_02,1, , , , , , , , , , , , , , , , , , , , , , , , , , , , , , , , , , 
315,levels/gta5/_hills/country_06/cs6_03, , , , , , , , , , , , , , , ,316,316,316,316, , , ,316,316,316,1,1,1,1,1,3, ,3, , 
316,levels/gta5/_hills/country_06/cs6_04, , , , , , , , , , , ,9, , , , , , , , , , , , , , ,1, , , , , , , , 
317,levels/gta5/_hills/country_06/cs6_05, , , , , , , , , , , , , , , ,1,1,1,1, , , ,1,1,1, , , , , , , , , , 
318,levels/gta5/_hills/country_06/cs6_06, , , , , , , , , , , , , , , , , , , , , , , , , , , , , , ,12, , , , 
319,levels/gta5/_hills/country_06/cs6_08, , , , ,7, , , , , , , , , , , , , , , , , ,23, , , , , , , , , , , , 
320,levels/gta5/_hills/country_06/cs6_09, , , , , , , , , , , , , , , , , , , , , , , , , ,6, , , , , , , , , 
321,levels/gta5/_hills/country_06/cs6_10, , , , , , , , , , , , , , , , , , , , , , , , , , , , ,18, , , , , , 
322,levels/gta5/_hills/country_06/cs6_rd_props, , , , , , , , , , , , , ,1,2,33,53,53,53, , , ,53,53,53,53,53,53,53,54,54, ,41, , 
323,levels/gta5/_hills/cs_xref,7,7, , , , , , , , , , , , , , , , , , , , , , , , , , , , , , , , , 
324,levels/gta5/_prologue/plg_04,10,10, , ,10,10,10,10,10,10,10,10,10,10,10,10,10,10,10, , , ,127,14,14,14,14,14,14,14, , , , , 
325,levels/gta5/_prologue/prologueint,2, , , , , , , , , , ,1, , , , , , , , , , , , , , , , , , , , , , , 
326,levels/gta5/destruction/exterior/des_gasstation, , , , , , , , , , , ,52, , , , , , , , , , , , , , , , , , , , , , , 
327,levels/gta5/destruction/interior/des_fib_glass, , , , , , , , , , , , , , , , , , , , , , , , , , , , , ,9,9, ,9, , 
328,levels/gta5/destruction/interior/des_frenchdoors, , , , , , , , , , , , , , , , , , , , , , ,9, , , , , , , , , , , , 
329,levels/gta5/generic/cutsobjects, , , , , , , , , , , , , , , , , , , , , , , , , , ,1,1,1, , , , , , 
330,levels/gta5/generic/cutspeds,860,906, , ,959,941,941,941,941,941,941,941,941,941,941, , , , , , , , , , , , , , , , , , , , 
331,levels/gta5/generic/cutspeds/cs_amandatownley.ped, , , , , , , , , , , , , , , ,26,26,26,26, , , ,26,26,26,74,74,74,74,74,74, ,74, , 
332,levels/gta5/generic/cutspeds/cs_andreas.ped, , , , , , , , , , , , , , , ,15,15,15,15, , , ,15,15,22,22,22,22,22,22,22, ,22, , 
333,levels/gta5/generic/cutspeds/cs_armysmith.ped, , , , , , , , , , , , , , , ,6,6,6,6, , , ,6,6,6,6,6,6,6,6,6, ,6, , 
334,levels/gta5/generic/cutspeds/cs_ashley.ped, , , , , , , , , , , , , , , ,19,19,19,19, , , ,19,19,16,16,16,16,16,16,16, ,16, , 
335,levels/gta5/generic/cutspeds/cs_ballasog.ped, , , , , , , , , , , , , , , ,6,6,6,6, , , ,6,6,6,6,6,6,6,6,6, ,6, , 
336,levels/gta5/generic/cutspeds/cs_barry.ped, , , , , , , , , , , , , , , ,16,16,16,16, , , ,16,16,16,16,16,16,16,16,14, ,14, , 
337,levels/gta5/generic/cutspeds/cs_beverly.ped, , , , , , , , , , , , , , , ,17,17,17,17, , , ,17,17,17,17,17,17,17,17,16, ,18, , 
338,levels/gta5/generic/cutspeds/cs_brad.ped, , , , , , , , , , , , , , , ,12,12,26,26, , , ,26,26,24,24,24,24,24,24,24, ,26, , 
339,levels/gta5/generic/cutspeds/cs_bradcadaver.ped, , , , , , , , , , , , , , , , , , , , , , , , , ,12,12,12,12,12,12, ,12, , 
340,levels/gta5/generic/cutspeds/cs_brucie.ped, , , , , , , , , , , , , , , ,10,10,10,10, , , ,10,10,10,10,10,10,15,15,15, ,15, , 
341,levels/gta5/generic/cutspeds/cs_chengsr.ped, , , , , , , , , , , , , , , ,6,6,6,6, , , ,6,6,6,6,18,18,18,18,18, ,18, , 
342,levels/gta5/generic/cutspeds/cs_chrisformage.ped, , , , , , , , , , , , , , , , , , , , , , , , ,14,14,14,14,14,14,14, ,14, , 
343,levels/gta5/generic/cutspeds/cs_clay.ped, , , , , , , , , , , , , , , ,8,8,8,8, , , ,8,8,8,8,8,8,8,8,8, ,8, , 
344,levels/gta5/generic/cutspeds/cs_cris.ped, , , , , , , , , , , , , , , ,6,6,6,6, , , ,6,6,6,6,6,6,6,6,6, ,6, , 
345,levels/gta5/generic/cutspeds/cs_dale.ped, , , , , , , , , , , , , , , ,13,13,13,13, , , ,13,13,13,13,13,13,13,13,13, ,13, , 
346,levels/gta5/generic/cutspeds/cs_davenorton.ped, , , , , , , , , , , , , , , ,17,17,17,17, , , ,17,17,22,22,22,22,22,22,26, ,42, , 
347,levels/gta5/generic/cutspeds/cs_debra.ped, , , , , , , , , , , , , , , , , , , , , , , , ,11,11,11,11,11,11,11, ,11, , 
348,levels/gta5/generic/cutspeds/cs_denise.ped, , , , , , , , , , , , , , , ,14,14,14,14, , , ,14,14,14,14,14,14,14,14,14, ,14, , 
349,levels/gta5/generic/cutspeds/cs_devin.ped, , , , , , , , , , , , , , , ,6,6,6,6, , , ,6,6,6,12,12,12,12,12,12, ,12, , 
350,levels/gta5/generic/cutspeds/cs_dom.ped, , , , , , , , , , , , , , , ,19,19,19,19, , , ,19,19,19,19,19,20,20,20,20, ,20, , 
351,levels/gta5/generic/cutspeds/cs_drfriedlander.ped, , , , , , , , , , , , , , , ,10,10,10,10, , , ,10,10,14,14,14,14,14,14,14, ,14, , 
352,levels/gta5/generic/cutspeds/cs_fabien.ped, , , , , , , , , , , , , , , ,7,7,7,7, , , ,7,7,12,12,12,12,12,12,12, ,12, , 
353,levels/gta5/generic/cutspeds/cs_fbisuit_01.ped, , , , , , , , , , , , , , , , , , , , , , , , , , , , , , , , ,14, , 
354,levels/gta5/generic/cutspeds/cs_female_clothtest.ped, , , , , , , , , , , , , , , ,12,12,12,12, , , ,12,12,12,12,12,12,12,12,12, ,12, , 
355,levels/gta5/generic/cutspeds/cs_female_proxy.ped, , , , , , , , , , , , , , , ,6,6,6,6, , , ,6,6,6,6,6,6,6,6,6, ,6, , 
356,levels/gta5/generic/cutspeds/cs_floyd.ped, , , , , , , , , , , , , , , ,12,12,12,12, , , ,12,12,20,20,20,22,22,22,22, ,22, , 
357,levels/gta5/generic/cutspeds/cs_guadalope.ped, , , , , , , , , , , , , , , ,17,17,17,17, , , ,17,17,17,17,17,17,17,17,17, ,17, , 
358,levels/gta5/generic/cutspeds/cs_gurk.ped, , , , , , , , , , , , , , , , , , , , , , , , ,16,16,16,16,16,16,16, ,16, , 
359,levels/gta5/generic/cutspeds/cs_hunter.ped, , , , , , , , , , , , , , , ,2,2,2,2, , , ,2,14,14,12,12,12,12,12,14, ,14, , 
360,levels/gta5/generic/cutspeds/cs_ira.ped, , , , , , , , , , , , , , , ,13,13,13,13, , , ,13,13,13,13,13,13,13,13,13, ,13, , 
361,levels/gta5/generic/cutspeds/cs_janet.ped, , , , , , , , , , , , , , , ,15,15,15,15, , , ,15,16,16,16,16,14,14,14,14, ,14, , 
362,levels/gta5/generic/cutspeds/cs_jay_norris.ped, , , , , , , , , , , , , , , ,6,6,6,6, , , ,6,6,6,6,6,19,19,19,19, ,19, , 
363,levels/gta5/generic/cutspeds/cs_jewelass.ped, , , , , , , , , , , , , , , ,12,12,12,12, , , ,12,12,12,12,12,12,12,12,12, ,12, , 
364,levels/gta5/generic/cutspeds/cs_jimmyboston.ped, , , , , , , , , , , , , , , ,13,13,13,13, , , ,13,13,13,13,13,13,13,13,13, ,13, , 
365,levels/gta5/generic/cutspeds/cs_jimmydisanto.ped, , , , , , , , , , , , , , , ,19,19,19,19, , , ,19,19,19,19,19,19,19,56,46, ,46, , 
366,levels/gta5/generic/cutspeds/cs_joeminuteman.ped, , , , , , , , , , , , , , , ,8,8,8,8, , , ,8,8,10,10,10,10,10,10,10, ,10, , 
367,levels/gta5/generic/cutspeds/cs_johnnyklebitz.ped, , , , , , , , , , , , , , , ,22,22,22,22, , , ,22,22,22,22,22,22,22,22,22, ,22, , 
368,levels/gta5/generic/cutspeds/cs_josef.ped, , , , , , , , , , , , , , , ,15,15,15,15, , , ,15,15,14,14,14,14,14,14,14, ,14, , 
369,levels/gta5/generic/cutspeds/cs_josh.ped, , , , , , , , , , , , , , , ,13,13,13,13, , , ,13,13,13,13,13,13,13,13,13, ,13, , 
370,levels/gta5/generic/cutspeds/cs_lamardavis.ped, , , , , , , , , , , , , , , ,10,10,10,26, , , ,26,26,36,36,36,36,36,36,36, ,36, , 
371,levels/gta5/generic/cutspeds/cs_lazlow.ped, , , , , , , , , , , , , , , ,15,15,15,15, , , ,15,15,15,15,15,15,15,15,15, ,22, , 
372,levels/gta5/generic/cutspeds/cs_lemonfem_01.ped, , , , , , , , , , , , , , , , , , , , , , , , ,12,12,12,12,12,12,12, ,12, , 
373,levels/gta5/generic/cutspeds/cs_lemonfem_02.ped, , , , , , , , , , , , , , , , , , , , , , , , ,12,12,12,12,12,12,12, ,12, , 
374,levels/gta5/generic/cutspeds/cs_lemonmale_01.ped, , , , , , , , , , , , , , , , , , , , , , , , ,24,24,24,24,24,24,24, ,24, , 
375,levels/gta5/generic/cutspeds/cs_lestercrest.ped, , , , , , , , , , , , , , , ,24,24,24,24, , , ,24,24,24,24,24,24,24,24,24, ,24, , 
376,levels/gta5/generic/cutspeds/cs_lifeinvad_01.ped, , , , , , , , , , , , , , , , ,14,14,14, , , ,14,14,14,14,14,14,14,14,14, ,14, , 
377,levels/gta5/generic/cutspeds/cs_linecook.ped, , , , , , , , , , , , , , , ,16,16,16,16, , , ,16,16,16,16,16,16,16,16,16, ,16, , 
378,levels/gta5/generic/cutspeds/cs_magenta.ped, , , , , , , , , , , , , , , ,15,15,15,15, , , ,15,15,15,15,15,15,14,14,14, ,14, , 
379,levels/gta5/generic/cutspeds/cs_male_proxy.ped, , , , , , , , , , , , , , , ,2,2,2,2, , , ,2,2,2,2,2,2,2,2,2, ,2, , 
380,levels/gta5/generic/cutspeds/cs_manuel.ped, , , , , , , , , , , , , , , ,12,12,12,12, , , ,12,12,12,12,12,12,12,12,12, ,12, , 
381,levels/gta5/generic/cutspeds/cs_marnie.ped, , , , , , , , , , , , , , , ,17,17,17,17, , , ,17,17,12,12,12,12,12,12,12, ,12, , 
382,levels/gta5/generic/cutspeds/cs_martinmadrazo.ped, , , , , , , , , , , , , , , ,12,12,12,12, , , ,12,12,12,12,12,12,12,12,12, ,12, , 
383,levels/gta5/generic/cutspeds/cs_maryann.ped, , , , , , , , , , , , , , , ,8,8,8,8, , , ,8,8,8,8,8,8,8,8,14, ,14, , 
384,levels/gta5/generic/cutspeds/cs_michelle.ped, , , , , , , , , , , , , , , ,13,13,13,13, , , ,13,13,13,13,13,13,13,13,13, ,22, , 
385,levels/gta5/generic/cutspeds/cs_milton.ped, , , , , , , , , , , , , , , , , , , , , , , , ,14,14,14,14,14,14,14, ,14, , 
386,levels/gta5/generic/cutspeds/cs_movpremf_01.ped, , , , , , , , , , , , , , , ,38,38,38,38, , , ,38,38,38,38,38,38,38,38,38, ,38, , 
387,levels/gta5/generic/cutspeds/cs_movpremmale.ped, , , , , , , , , , , , , , , ,26,26,26,26, , , ,26,26,26,26,26,26,26,26,26, ,26, , 
388,levels/gta5/generic/cutspeds/cs_mrk.ped, , , , , , , , , , , , , , , ,25,25,40,40, , , ,40,40,40,40,40,40,40,33,33, ,35, , 
389,levels/gta5/generic/cutspeds/cs_mrs_thornhill.ped, , , , , , , , , , , , , , , ,8,8,8,16, , , ,16,16,16,16,16,16,16,16,14, ,14, , 
390,levels/gta5/generic/cutspeds/cs_mrsa.ped, , , , , , , , , , , , , , , ,8,8,8,8, , , ,8,8,8,15,15,15,15,15,15, ,15, , 
391,levels/gta5/generic/cutspeds/cs_mrsb.ped, , , , , , , , , , , , , , , ,13,13,13,13, , , ,13,13,16,16,16,16,16,16,16, ,16, , 
392,levels/gta5/generic/cutspeds/cs_natalia.ped, , , , , , , , , , , , , , , ,14,14,14,14, , , ,14,14,14,14,14,14,14,14,14, ,14, , 
393,levels/gta5/generic/cutspeds/cs_nervousron.ped, , , , , , , , , , , , , , , ,10,10,10,10, , , ,10,10,10,10,10,10,10,10,20, ,20, , 
394,levels/gta5/generic/cutspeds/cs_nigel.ped, , , , , , , , , , , , , , , ,8,8,8,8, , , ,8,8,8,8,8,15,15,15,15, ,15, , 
395,levels/gta5/generic/cutspeds/cs_old_man1a.ped, , , , , , , , , , , , , , , ,26,26,26,26, , , ,26,26,26,26,26,20,20,20,20, ,20, , 
396,levels/gta5/generic/cutspeds/cs_old_man2.ped, , , , , , , , , , , , , , , ,18,18,18,18, , , ,18,18,18,18,18,18,18,18,18, ,18, , 
397,levels/gta5/generic/cutspeds/cs_omega.ped, , , , , , , , , , , , , , , , , , , , , , , , , , , , , , ,6, ,6, , 
398,levels/gta5/generic/cutspeds/cs_paper.ped, , , , , , , , , , , , , , , , , , , , , , , , , , , , , , ,6, ,6, , 
399,levels/gta5/generic/cutspeds/cs_patricia.ped, , , , , , , , , , , , , , , ,25,25,25,25, , , ,25,25,25,25,25,26,32,32,32, ,32, , 
400,levels/gta5/generic/cutspeds/cs_pornstar.ped, , , , , , , , , , , , , , , , , , , , , , , , ,6,6,6,6,6,6,6, ,6, , 
401,levels/gta5/generic/cutspeds/cs_priest.ped, , , , , , , , , , , , , , , , , , , , , , , , , , , , ,20,20,20, ,20, , 
402,levels/gta5/generic/cutspeds/cs_prolsec.ped, , , , , , , , , , , , , , , , , , , , , , , , ,16,16,16,16,16,16,16, ,16, , 
403,levels/gta5/generic/cutspeds/cs_rotspringtest.ped, , , , , , , , , , , , , , , ,16,16,16,16, , , ,16,16,16,16,16,16,16,16,16, ,16, , 
404,levels/gta5/generic/cutspeds/cs_russiandrunk.ped, , , , , , , , , , , , , , , , , , , , , , , , ,10,10,10,10,10,10,10, ,10, , 
405,levels/gta5/generic/cutspeds/cs_sasq.ped, , , , , , , , , , , , , , , ,15,15,15,15, , , ,15,15,15,15,15,15,15,15,15, ,15, , 
406,levels/gta5/generic/cutspeds/cs_sextondaniels.ped, , , , , , , , , , , , , , , ,16,16,16,16, , , ,16,16,16,16,16,16,14,14,14, ,14, , 
407,levels/gta5/generic/cutspeds/cs_siemonyetarian.ped, , , , , , , , , , , , , , , ,11,11,11,11, , , ,11,10,10,10,10,10,10,10,10, ,10, , 
408,levels/gta5/generic/cutspeds/cs_solomon.ped, , , , , , , , , , , , , , , ,16,16,16,16, , , ,16,16,16,16,16,16,16,16,16, ,24, , 
409,levels/gta5/generic/cutspeds/cs_stevehains.ped, , , , , , , , , , , , , , , ,17,17,17,17, , , ,17,17,24,24,24,24,24,24,24, ,34, , 
410,levels/gta5/generic/cutspeds/cs_stretch.ped, , , , , , , , , , , , , , , ,12,12,12,12, , , ,12,12,12,28,28,28,28,28,28, ,28, , 
411,levels/gta5/generic/cutspeds/cs_tanisha.ped, , , , , , , , , , , , , , , ,8,8,8,8, , , ,8,8,8,14,14,14,14,14,14, ,14, , 
412,levels/gta5/generic/cutspeds/cs_taocheng.ped, , , , , , , , , , , , , , , ,15,15,15,15, , , ,15,15,16,16,16,16,16,16,16, ,16, , 
413,levels/gta5/generic/cutspeds/cs_taostranslator.ped, , , , , , , , , , , , , , , ,13,13,13,13, , , ,13,13,13,13,13,13,13,13,21, ,21, , 
414,levels/gta5/generic/cutspeds/cs_tenniscoach.ped, , , , , , , , , , , , , , , ,8,8,8,8, , , ,8,8,8,8,8,8,8,8,8, ,8, , 
415,levels/gta5/generic/cutspeds/cs_terry.ped, , , , , , , , , , , , , , , ,8,8,8,8, , , ,8,8,8,8,8,8,8,8,8, ,8, , 
416,levels/gta5/generic/cutspeds/cs_tom.ped, , , , , , , , , , , , , , , ,8,8,8,8, , , ,8,8,8,8,8,8,8,8,8, ,8, , 
417,levels/gta5/generic/cutspeds/cs_tomepsilon.ped, , , , , , , , , , , , , , , , , , , , , , , , , , , , , , ,12, ,12, , 
418,levels/gta5/generic/cutspeds/cs_tracydisanto.ped, , , , , , , , , , , , , , , ,23,23,23,23, , , ,23,23,23,23,23,29,29,29,29, ,48, , 
419,levels/gta5/generic/cutspeds/cs_wade.ped, , , , , , , , , , , , , , , ,13,13,13,13, , , ,13,13,13,13,13,13,13,13,18, ,18, , 
420,levels/gta5/generic/cutspeds/cs_wadescousin.ped, , , , , , , , , , , , , , , ,8,8,8,8, , , ,8,8,8,8,8,8,8, , , , , , 
421,levels/gta5/generic/cutspeds/cs_zimbor.ped, , , , , , , , , , , , , , , ,19,19,19,19, , , ,19,12,12,12,12,12,12,12,12, ,12, , 
422,levels/gta5/generic/ped_props,1,1, , ,1,1,1,1,1,1,1,1,1,1,1,1,1,1,1, , , ,1,1,1,1,1,1,1,1,1, ,1, , 
423,levels/gta5/interiors/int_props/int_club, , , , , , , , , , , , , , , , , , ,1, , , ,1, , , , , , , , , , , , 
424,levels/gta5/interiors/int_props/int_corporate, , , , , , , , , , , , , , , ,16,16,16,57, , , ,57,16,16,16,16,16,16,16,16, ,16, , 
425,levels/gta5/interiors/int_props/int_industrial, , , , , , , , , , , , , , , , ,85,129,95, , , ,95,95,95,95,98,95,95,95,115, ,115, , 
426,levels/gta5/interiors/int_props/int_lev_des, , , , , , , , , , , , , , , ,60,60,185,73, , , ,73,73,79,88,88,88,88,92,92, ,83, , 
427,levels/gta5/interiors/int_props/int_medical, , , , , , , , , , , , , , , , , ,44,44, , , ,44,44,44,44,44,44,44,44,44, ,44, , 
428,levels/gta5/interiors/int_props/int_residential, , , , , , , , , , , , , , , , , ,3,3, , , ,3,3,3,3,8,13,13,13,13, ,13, , 
429,levels/gta5/interiors/int_props/int_retail, , , , , , , , , , , , , , , , , ,236,183, , , ,183,236,236,236,236,230,230,231,231, ,231, , 
430,levels/gta5/interiors/int_props/int_services, , , , , , , , , , , , , , , , ,5,54,17, , , ,17,17,17,17,17,17,17,19,19, ,19, , 
431,levels/gta5/interiors/v_int_1, , , , , , , , , , , , , , , , , , , , , , , , , , , , ,1, , , , , , 
432,levels/gta5/interiors/v_int_13, , , , , , , , , , , , , , , , , , , , , , ,3, , , , , , , , , , , , 
433,levels/gta5/interiors/v_int_15, , , , , , , , , , , , , , , , , , , , , , , , , , , ,6,6, , , , , , 
434,levels/gta5/interiors/v_int_19, , , , , , , , , , , , , , , ,10,6, , , , , , , , , ,1,3,3,3, , , , , 
435,levels/gta5/interiors/v_int_23, , , , , , , , , , , , , , , , , , , , , , , , , , ,13, , , , , , , , 
436,levels/gta5/interiors/v_int_24, , , , , , , , , , , ,36, , , ,2,2,2,2, , , ,2,2,1,1,1, , , , , , , , 
437,levels/gta5/interiors/v_int_30, , , , , , , , , , , , , , , , , , , , , , , , , , ,12, , , , , , , , 
438,levels/gta5/interiors/v_int_34,1,1, , ,1,1,1,1,1,1, , , , , , , , , , , , , , ,12, , , , , , , , , , 
439,levels/gta5/interiors/v_int_35,2,2, , ,2,2,2,2,2,2,2,2,2,2,2,2,2,2,2, , , ,2,2,2,2,2,2,2,2,2, ,2, , 
440,levels/gta5/interiors/v_int_38, , , , , , , , , , , , , , , , , , , , , , , , , , , ,14, , , , , , , 
441,levels/gta5/interiors/v_int_39, , , , , , , , , , , , , , , , , , , , , , , , ,27, , , , , , , , , , 
442,levels/gta5/interiors/v_int_4,1,1, , ,1,1,1,1,1,1,1,1,1,1,1,1,1,1,1, , , ,1,1,1,1,1,1,1,1,1, ,1, , 
443,levels/gta5/interiors/v_int_43, , , , , , , , , , , ,3, , , , , , , , , , , , , , , , , , , , , , , 
444,levels/gta5/interiors/v_int_46,1,1, , ,1, , , , , , , , , , , , , , , , , , , ,14, , , , , , , , , , 
445,levels/gta5/interiors/v_int_47, , , , , , , , , , , , , , , , , , , , , , , , , , ,1, , , , , , , , 
446,levels/gta5/interiors/v_int_53, , , , , , , , , , , , , , , , , , , , , , , , , , , , ,2, , , , , , 
447,levels/gta5/interiors/v_int_57, , , , , , , , , , , , , , , , , ,1,1, , , ,1,1,2,2,2, , , , , , , , 
448,levels/gta5/interiors/v_int_6, , , , , , , , , , , , , , , , , , , , , , , , , , ,15, , , , , , , , 
449,levels/gta5/interiors/v_int_60,1, , , , , , , , , , , , , , , , , , , , , , ,20, , , , , , , , , , , 
450,levels/gta5/interiors/v_int_8, , , , , , , , , , , , , , , , , , , , , , , , ,3,3,3,3,3,3,3, ,3, , 
451,levels/gta5/interiors/v_int_9, , , , , , , , , , , , , , , ,25, , , , , , , , ,9, , ,5, , , , , , , 
452,levels/gta5/props/building/v_rooftop,13,13, , ,13,13,13,13,13,13,13,13,13,13,13,13,13,67,54, , , ,54,68,68,68,68,68,68,68,56, ,55, , 
453,levels/gta5/props/commercial/v_bar,9, , , , , , , , , , , , , , , , ,222,222, , , ,222,226,226,226,226,226,226,237,254, ,254, , 
454,levels/gta5/props/commercial/v_fastfood, , , , , , , , , , , , , , , ,32,32,94,94, , , ,94,94,94,94,94,95,95,95,95, ,94, , 
455,levels/gta5/props/commercial/v_garage, , , , , , , , , , , ,1, , , , , , , , , , , , , , , , , , , , , , , 
456,levels/gta5/props/commercial/v_office, , , , , , , , , , , , , , , , , ,3,3, , , ,3,3,3,3,3,3,3,7,9, ,7, , 
457,levels/gta5/props/industrial/v_airport, , , , , , , , , , , , , , , , , ,77,74, , , ,74,76,77,82,82,82,82,90,90, ,90, , 
458,levels/gta5/props/industrial/v_industrial, , , , , , , , , , , ,3,1, , , ,18,103,18, , , ,18,18,18,18,18,18,18,18,18, ,18, , 
459,levels/gta5/props/lev_des/lev_des,71,2, , ,2,2,2,2,2,2,2,2,2,2,2,13,11,11,11, , , ,11,11,13,13,14,13,15,15,15, ,15, , 
460,levels/gta5/props/lev_des/p_v_lev_des_skin,1,1, , ,1,1,1,1,1,1,1,1,1,1,1,1,1,1,1, , , ,1,1,45,43,45,45,45,47,47, ,49, , 
461,levels/gta5/props/lev_des/v_lev_doors, , , , , , , , , , , , , , , , ,9,9, , , , , , , , , , , , , , , , , 
462,levels/gta5/props/lev_des/v_minigame,3, , , , , , , , , , , , , , ,13,14,10,77, , , ,77,10,10,19,19,19,19,27,27, ,27, , 
463,levels/gta5/props/lev_des/v_set_pieces, , , , , , , , , , , , , , , , , , ,36, , , ,36,34,34,34,34,34,34,34,34, ,73, , 
464,levels/gta5/props/recreational/v_coin_op, , , , , , , , , , , , , , , ,46,55,46,46, , , ,46,46,46,46,37,37,29,29,30, ,31, , 
465,levels/gta5/props/recreational/v_sports, , , , , , , , , , , , , , , ,40,54,46,45, , , ,52,50,42,42,49,49,49,50,50, ,48, , 
466,levels/gta5/props/residential/v_electrical, , , , , , , , , , , , , , , , ,9,9,9, , , ,9,21,9,9,11,12,12,14,13, ,13, , 
467,levels/gta5/props/residential/v_garden,1, , , , , , , , , , , , , , , , ,57,57, , , ,57,57,57,57,57,57,57,54,54, ,55, , 
468,levels/gta5/props/residential/v_kitchen, , , , , , , , , , , , , , , , , , , , , , , , , , , ,6,6,6,8, ,8, , 
469,levels/gta5/props/roadside/v_bins, , , , , , , , , , , , , , , ,58,57,57,57, , , ,57,57,57,57,57,57,57,57,41, ,41, , 
470,levels/gta5/props/roadside/v_construction, , , , , , , , , , , , , , , , ,71,71,71, , , ,71,71,71,71,71,89,89,131,131, ,128, , 
471,levels/gta5/props/roadside/v_fences,3, , , , , , , , , , , , , , ,243,243,278,278, , , ,278,471,471,471,471,471,471,471,504, ,487, , 
472,levels/gta5/props/roadside/v_fences_2,377, , , , , , , , , , , , , , , , ,335,335, , , ,335,335,483,335,335,335,335,335,337, ,381, , 
473,levels/gta5/props/roadside/v_rubbish, , , , , , , , , , , , , , , , ,94,94,94, , , ,94,94,94,94,94,94,94,94,94, ,104, , 
474,levels/gta5/props/roadside/v_seating_tables, , , , , , , , , , , , , , , , , , , , , , , ,40,44,41,41,41,41,38,38, ,32, , 
475,levels/gta5/props/roadside/v_signs, , , , , , , , , , , , , , , ,626,626,626,626, , , ,626,626,640,640,640,640,640,640,632, ,640, , 
476,levels/gta5/props/roadside/v_storage, , , , , , , , , , , , , , , ,109,107,107,107, , , ,107,107,114,107,115,115,115,115,115, ,134, , 
477,levels/gta5/props/roadside/v_traffic_lights, , , , , , , , , , , , , , , ,33,33,189,189, , , ,189,189,191,191,191,203,203,203,203, ,184, , 
478,levels/gta5/props/roadside/v_utility, , , , , , , , , , , , , , , , , ,223,149, , , ,149,223,217,239,262,262,262,261,246, ,246, , 
479,levels/gta5/props/rural/v_farm,31, , , , , , , , , , , , , , , , ,57,57, , , ,57,16,16,52,56,81,81,81,81, ,81, , 
480,levels/gta5/props/vegetation/v_bush, , , , , , , , , , , ,42, , , , , , ,30, , , ,30, , , , , , , , , ,1, , 
481,levels/gta5/props/vegetation/v_cacti, , , , , , , , , , , , , , , , , , , , , , , , ,51,51,51,51,51,51,51, ,51, , 
482,levels/gta5/props/vegetation/v_ext_veg, , , , , , , , , , , , , , , ,1,1, ,15, , , ,15,15, ,15,18,15,15,17,17, ,17, , 
483,levels/gta5/props/vegetation/v_fanpalm, , , , , , , , , , , , , , , , , ,1,11, , , ,11,1,1,1,52, ,1,1,1, ,1, , 
484,levels/gta5/props/vegetation/v_potted, , , , , , , , , , , , , , , , , , , , , , , , , , , , , , ,68, ,15, , 
485,levels/gta5/props/vegetation/v_rocks, , , , , , , , , , , , , , , ,2,2,2,2, , , ,2,2, , , , , , , , , , , 
486,levels/gta5/vehiclemods/cavalcade_mods, ,1, , ,1,1,1,1,1,1,1,1,1,1,1,1,1,1,1, , , ,1,1,1,1,1,1,1,1, , , , , 
487,levels/gta5/vehiclemods/daemon_mods,2,2, , ,2,2,2,2,2,2,2,2,2,2,2,2,2,2,2, , , ,2,2,2,2,2,2,2,2,2, ,2, , 
488,levels/gta5/vehiclemods/dominator_mods, , , , , , , , , , , , , , , ,10,10,10,10, , , ,10,10,10,10,10,10,10,10,15, ,15, , 
489,levels/gta5/vehiclemods/feroci_mods, , , , , , , , , , , , , , , , , , , , , , , , , , , , , ,1,1, ,1, , 
490,levels/gta5/vehiclemods/pcj_mods, , , , , , , , , , , , , , , , , , , , , , , , , , , , , , ,5, ,5, , 
491,levels/gta5/vehiclemods/penumbra_mods, , , , , , , , , , , , , , , ,13,13,13,13, , , ,13,13,13,13,13,13,13,13,13, ,13, , 
492,levels/gta5/vehiclemods/ratloader_mods, ,45, , ,45,45,45,45,45,45,45,45,45,45,45,45,45,45,45, , , ,45,45,45,45,45,45,45,45,45, ,45, , 
493,levels/gta5/vehiclemods/ruiner_mods, , , , , , , , , , , , , , , , , , , , , , , , , , , , , , ,3, ,3, , 
494,levels/gta5/vehiclemods/sultan_mods, , , , , , , , , , , , , , , , , , , , , , , , , , , , , , ,6, ,6, , 
495,levels/gta5/vehiclemods/tampa_mods, , , , , , , , , , , , , , ,1,1,1,1,1, , , ,1,1,1,1,1,1,1,1,1, ,1, , 
496,levels/gta5/vehicles, , , , , , , , , , , ,1, , , , , , , , , , , ,89,9, , , , , , , , , , 
497,models/cdimages/componentpeds/a_c_chop.ped, , , , , , , , , , , ,14, , , , , , , , , , , , , , , , , , , , , , , 
498,models/cdimages/componentpeds/a_c_pig.ped,10,10, , ,10,10,10,10,10,10,10,10,10,10,10,10,10,10,10, , , ,10,10,10,10, , , , , , , , , 
499,models/cdimages/componentpeds/a_c_rottweiler.ped, , , , , , , , , , , ,1, , , , , , , , , , , , , , , , , , , , , , , 
500,models/cdimages/componentpeds/a_f_m_eastsa_01.ped, , , , , , , , , , , , , , , , , , , , , , ,1, , , , , , , , , , , , 
501,models/cdimages/componentpeds/a_f_m_soucent_01.ped, , , , , , , , , , , , , , , , , , , , , , ,2, , , , , , , , , , , , 
502,models/cdimages/componentpeds/a_f_y_runner_01.ped, , , , , , , , , , , , , , , , , , , , , , , , , , ,1, , , , , , , , 
503,models/cdimages/componentpeds/a_m_o_genstreet_01.ped, , , , , , , , , , , ,4, , , , , , , , , , , , , , , , , , , , , , , 
504,models/cdimages/componentpeds/a_m_y_breakdance_01.ped, , , , , , , , , , , ,1, , , , , , , , , , , , , , , , , , , , , , , 
505,models/cdimages/componentpeds/a_m_y_eastsa_01.ped, , , , , , , , , , , ,4, , , , , , , , , , , , , , , , , , , , , , , 
506,models/cdimages/componentpeds/g_m_m_korboss_01.ped, , , , , , , , , , , ,1, , , , , , , , , , , , , , , , , , , , , , , 
507,models/cdimages/componentpeds/s_f_y_doctor_01.ped, , , , , , , , , , , ,4, , , , , , , , , , , , , , , , , , , , , , , 
508,models/cdimages/componentpeds/s_m_m_strvend_01.ped, , , , , , , , , , , ,3, , , , , , , , , , , , , , , , , , , , , , , 
509,models/cdimages/componentpeds/s_m_y_blackops_02.ped, , , , , , , , , , , , , , , , , , , , , , ,12, , , , , , , , , , , , 
510,models/cdimages/componentpeds/s_m_y_mime.ped, , , , , , , , , , , , , ,9,9,9,9,9,9, , , ,9,9,9, , , , , , , , , , 
511,models/cdimages/componentpeds/u_m_m_robbienails.ped, , , , , , , , , , , , , , , , , , , , , , , , ,18, , , , , , , , , , 
512,models/cdimages/componentpeds/z_previewped.ped,13, , , , , , , , , , , , , , , , , , , , , , , , , , , , , , , , , , 
513,models/cdimages/componentpeds/z_z_female_clothtest.ped, , , , , , , , , , , , , , , , , , , , , , ,18, , , , , , , , , , , , 
514,models/cdimages/componentpeds_mariachi/s_m_m_mariachi_01.ped, , , , ,26,26,26,26,26,26,26,26,26,26,26, , , , , , , , , , , , , , , , , , , , 
515,models/cdimages/componentpeds_snowcop/s_m_m_snowcop_01.ped, , , , ,19,19,19,19,19,19,19,19,19,19,19, , , , , , , , , , , , , , , , , , , , 
516,models/cdimages/ped_mpheadov_txds,3,3, , ,3, , , , , , , , , , , , , , , , , , , , , , , , , , , , , , 
517,models/cdimages/ped_tattoo_txds,16,16, , ,16,16,16,16,16,16,16,16,16,16,16,16,16,16,16, , , ,16,16, , , , , , , , , , , 
518,models/cdimages/streamedpedprops,314,314, , ,322,314,314,314,314,314,314,314,314,314,314,314,319,315,315, , , ,315,389,401,419,421,421,423,445,514, ,497, , 
519,models/cdimages/streamedpeds/hc_driver.ped,36,36, , ,36,36,36,36,36,36,36,36,36,36,36,36,36,36,36, , , ,36,36,36,36,36,36,36,36,36, ,36, , 
520,models/cdimages/streamedpeds/hc_gunman.ped,87,87, , ,87,87,87,87,87,87,87,87,87,87,87,86,86,86,86, , , ,86,86,86,86,86,86,86,86,86, ,86, , 
521,models/cdimages/streamedpeds/hc_hacker.ped,20,20, , ,20,20,20,20,20,20,20,20,20,20,20,20,20,20,20, , , ,20,20,20,20,20,20,20,20,20, ,20, , 
522,models/cdimages/streamedpeds/ig_amandatownley.ped,16,16, , ,16,16,16,16,16,16,16,16,16,16,16,16,16,16,16, , , ,16,16,16,16,16,16,16,16,48, ,48, , 
523,models/cdimages/streamedpeds/ig_brad.ped,12,12, , ,12,12,12,12,12,12,12,12,12,12,12,12,12,12,12, , , ,12,12,24,24,24,24,24,24,24, ,26, , 
524,models/cdimages/streamedpeds/ig_jimmydisanto.ped,12,12, , ,12,12,12,12,12,12,12,12,12,12,12,12,12,12,12, , , ,12,12,12,12,12,12,12,39,39, ,39, , 
525,models/cdimages/streamedpeds/ig_lamardavis.ped,22,22, , ,22,22,22,22,22,22,22,22,22,22,24,28,28,28,28, , , ,28,28,28,28,28,28,28,28,28, ,28, , 
526,models/cdimages/streamedpeds/ig_lestercrest.ped,8,8, , ,8,8,8,8,8,8,8,8,8,8,8,8,8,8,8, , , ,8,16,16,16,16,16,16,16,16, ,16, , 
527,models/cdimages/streamedpeds/ig_patricia.ped,22,22, , ,22,22,22,22,22,22,22,22,22,22,22,22,22,22,22, , , ,22,22,22,22,22,22,22,22,22, ,22, , 
528,models/cdimages/streamedpeds/ig_taocheng.ped,14,14, , ,14,14,14,14,14,14,14,14,14,14,14,14,14,14,14, , , ,14,14,16,16,16,16,16,16,16, ,16, , 
529,models/cdimages/streamedpeds/mp_f_bankcashier_01.ped, , , , , , , , , , , , , , , , , , , , , , , ,18,18,18,18,18,18,18,18, ,18, , 
530,models/cdimages/streamedpeds/mp_f_bikerchick_01.ped, , , , , , , , , , , , , , , , , , , , , , , , , , , , , ,22,22, ,22, , 
531,models/cdimages/streamedpeds/mp_f_cop_01.ped,120,120, , ,120,120,120,120,120,120,120,120,120,120,120,120,120,120,120, , , ,120,126,126,130,130,130,130,130,130, ,130, , 
532,models/cdimages/streamedpeds/mp_f_deadhooker.ped, , , , , , , , , , , , , , , , , , , , , , , ,24,24,24,24,24,24,24,24, ,24, , 
533,models/cdimages/streamedpeds/mp_f_stripperlite.ped,24,24, , ,24,24,24,24,24,24,24,24,24,24,24,24,24,24,24, , , ,24,24,24,24,24,24,24,24,24, ,24, , 
534,models/cdimages/streamedpeds/mp_g_bossvagos_01.ped,6,6, , ,6,6,6,6,6,6,6,6,6,6,6,6,6,6,6, , , ,6,6,6,6,6,6,6,6,6, ,6, , 
535,models/cdimages/streamedpeds/mp_g_f_biker_01.ped,64,64, , ,76,76,76,76,74,74,74,74,74,74,74,74,74,74,74, , , ,74,80,80,80,80,80,80,80,80, ,80, , 
536,models/cdimages/streamedpeds/mp_g_f_vagos_01.ped,68,68, , ,68,68,68,68,78,78,78,78,78,78,78,78,78,78,78, , , ,78,54,84,84,84,84,84,84,84, ,84, , 
537,models/cdimages/streamedpeds/mp_g_m_biker_01.ped,68,80, , ,80,80,80,80,80,80,80,80,80,80,80,80,80,80,80, , , ,80,86,86,86,86,86,86,86,86, ,86, , 
538,models/cdimages/streamedpeds/mp_g_m_pros_01.ped,16,16, , ,16,16,16,16,16,16,16,16,16,16,16,38,38,38,38, , , ,38,38,38,38,38,38,38,38,38, ,38, , 
539,models/cdimages/streamedpeds/mp_g_m_vagos_01.ped,66,66, , ,66,66,66,66,78,78,78,78,78,78,78,78,78,78,78, , , ,78,84,84,84,84,84,84,84,84, ,84, , 
540,models/cdimages/streamedpeds/mp_headtargets.ped,56,56, , ,56,56,56,56,56,56,56,56,56,56,56,56,56,56,56, , , ,56,56,56,56,56,56,56,56,56, ,56, , 
541,models/cdimages/streamedpeds/mp_m_airctrl.ped, , , , , , , , , , , , , , , , , , , , , , , ,6,6,6,6,6,6,6,6, ,6, , 
542,models/cdimages/streamedpeds/mp_m_carsales_01.ped, , , , , , , , , , , , , , , , , , , , , , , , , , , , , , ,18, ,18, , 
543,models/cdimages/streamedpeds/mp_m_chauffeur.ped, , , , , , , , , , , , , , , , , , , , , , , , , , , , , , ,14, ,14, , 
544,models/cdimages/streamedpeds/mp_m_cop_01.ped,126,126, , ,126,126,126,126,126,126,126,126,126,126,126,126,126,126,126, , , ,126,130,130,132,132,132,132,132,132, ,132, , 
545,models/cdimages/streamedpeds/mp_m_coptrain_01.ped, , , , , , , , , , , , , , , , , , , , , , , , , ,16,16,16,16,16,16, ,16, , 
546,models/cdimages/streamedpeds/mp_m_coreyparker.ped, , , , , , , , , , , , , , , , , , , , , , , , , , , , , , ,8, ,8, , 
547,models/cdimages/streamedpeds/mp_m_deadbiker_01.ped, , , , , , , , , , , , , , , , , , , , , , , , , ,14,14,14,14,14,14, ,14, , 
548,models/cdimages/streamedpeds/mp_m_dirtyfib_01.ped, , , , , , , , , , , , , , , , , , , , , , , , , ,8,8,8,8,8,8, ,8, , 
549,models/cdimages/streamedpeds/mp_m_exarmy_01.ped, , , , , , , , , , , , , , , , , , , , , , , , , , , , , , ,10, ,10, , 
550,models/cdimages/streamedpeds/mp_m_exbiker_01.ped, , , , , , , , , , , , , , , , , , , , , , , ,10,10,10,10,10,10,10,10, ,10, , 
551,models/cdimages/streamedpeds/mp_m_famdd_01.ped, , , , , , , , , , , , , , , , , , , , , , , ,16,16,16,16,16,16,16,16, ,16, , 
552,models/cdimages/streamedpeds/mp_m_fredmendez.ped, , , , , , , , , , , , , , , , , , , , , , , , ,8,8,8,8,8,8,8, ,8, , 
553,models/cdimages/streamedpeds/mp_m_lostlieut_01.ped, , , , , , , , , , , , , , , , , , , , , , , ,34,34,34,34,34,34,34,34, ,34, , 
554,models/cdimages/streamedpeds/mp_m_lostmech.ped, , , , , , , , , , , , , , , , , , , , , , , , , , , , , , ,16, ,16, , 
555,models/cdimages/streamedpeds/mp_m_lostpresalt.ped, , , , , , , , , , , , , , , , , , , , , , , ,18,12,12,12,12,12,12,12, ,12, , 
556,models/cdimages/streamedpeds/mp_m_lostprescity.ped, , , , , , , , , , , , , , , , , , , , , , , ,21,14,14,14,14,14,14,14, ,14, , 
557,models/cdimages/streamedpeds/mp_m_losttut_01.ped, , , , , , , , , , , , , , , , , , , , , , , , , , , , , ,8,8, ,8, , 
558,models/cdimages/streamedpeds/mp_m_shopkeep_01.ped, , , , , , , , , , , , , , , , , , , , , , , , , , , , , , ,22, ,22, , 
559,models/cdimages/streamedpeds/mp_m_vaglieut_01.ped, , , , , , , , , , , , , , , , , , , , , , , ,10,10,10,10,10,10,10,10, ,10, , 
560,models/cdimages/streamedpeds/mp_m_vagoslieu.ped, , , , , , , , , , , , , , , , , , , , , , , , , ,8,8,8,8,8,8, ,8, , 
561,models/cdimages/streamedpeds/mp_m_vagosthug_01.ped, , , , , , , , , , , , , , , , , , , , , , , , , ,12,12,12,12,12,12, ,12, , 
562,models/cdimages/streamedpeds/mp_prisonguard_01.ped,14,14, , ,14,14,14,14,14,14,14,14,14,14,14,14,14,14,14, , , ,14,14,14,14,14,14,14,14,14, ,14, , 
563,models/cdimages/streamedpeds/mp_s_m_armoured_01.ped,10,10, , ,10,10,10,10,10,10,10,10,10,10,10,10,10,10,10, , , ,10,10,10,10,10,10,10,10,10, ,10, , 
564,models/cdimages/streamedpeds/player_one.ped,161,161, , ,161,161,161,165,165,165,167,167,167,167,167,167,167,168,168, , , ,168,168,178,178,178,178,178,178,178, ,180, , 
565,models/cdimages/streamedpeds/player_two.ped,157,157, , ,171,171,171,171,171,175,175,175,175,175,175,175,175,175,175, , , ,175,175,175,175,198,198,198,198,207, ,214, , 
566,models/cdimages/streamedpeds/player_zero.ped,200,200, , ,200,200,200,200,200,200,204,204,204,204,204,206,206,206,206, , , ,206,206,206,206,217,214,214,214,214, ,212, , 
567,models/cdimages/streamedpeds/s_m_m_gendel_01.ped, , , , , , , , , , , , , , , , , , , , , , , ,12,12,12,12,12,12,12,12, ,12, , 
568,textures,280,280, , ,280,280,280,281,280,280,280,281,280,280,280,280,280,280,280, , , ,280,280,280,280,280,283,283,284,286, ,291, , 
569,textures/script_txds, , , , , , , , , , , ,3, , , , , , , , , , , , , , , , , , ,5, , , , 
