0, ,Fri May 25,Thu Jun 07,Thu Jun 14,Wed Jun 20,Tue Jun 26,Fri Jun 29,Thu Jul 12,Fri Aug 03,Mon Aug 20,Fri Aug 31,Wed Oct 24,Fri Oct 26
1,data/cdimages/scaleform_generic, , , , , , , , , , ,20,20
2,textures,17,17,16,16,19,19,19,19, ,19, , 
3,textures/script_txds,47,46,46,46,46,46,36,36, ,34, , 
