0, ,Sat Mar 31,Fri Apr 06,Thu Apr 12,Thu Apr 12,Fri Apr 13,Sat Apr 14,Sat Apr 14,Tue Apr 17,Wed Apr 18,Thu Apr 19,Fri Apr 20,Sat Apr 21,Sat Apr 21,Wed Apr 25,Fri Apr 27,Sat May 12,Tue May 15,Wed May 16,Fri May 18,Mon May 21,Mon May 21,Mon May 21,Tue May 22,Fri May 25,Thu Jun 07,Thu Jun 14,Wed Jun 20,Tue Jun 26,Fri Jun 29,Thu Jul 12,Fri Aug 03,Mon Aug 20,Fri Aug 31,Wed Oct 24,Fri Oct 26
1,levels/gta5/_citye/citye_xr, ,5, , ,5,5,5,5,5,5,5,5,5,5,5,5,5,5,5, , , ,5,5,5,5,5,5,5,5,5, ,5, , 
2,levels/gta5/_citye/downtown_01/dt1_00,2,2, , ,2,2,2,2,2,2,2,2,2,2,2,2,2,2, , , , , , , , , , , , , , ,1, , 
3,levels/gta5/_citye/downtown_01/dt1_02,9,9, , ,9,9,9,9,9,9,9,9,9,9,9,9,9,9,9, , , ,9,9,9,9,9,9,9,5,3, ,8, , 
4,levels/gta5/_citye/downtown_01/dt1_03,4,4, , ,4,4,4,4,4,4,4,4,4,4,4,4,4,4,4, , , ,4,4,4,4,4,4,1,1,1, ,1, , 
5,levels/gta5/_citye/downtown_01/dt1_04,7,7, , ,7,7,7,7,7,7,7,7,7,7,7, , , , , , , , , , , , , , , , , , , , 
6,levels/gta5/_citye/downtown_01/dt1_05, , , , , , , , , , , , , , , , , , , , , , , , , , , , , , , , ,1, , 
7,levels/gta5/_citye/downtown_01/dt1_06,3,3, , ,3,3,3,3,3,3,3,3,3,3,3,3,3,3,3, , , ,3,3, , , , , , , , , , , 
8,levels/gta5/_citye/downtown_01/dt1_07, , , , , , , , , , , , , , , , , , ,1, , , ,1,1,1,1,1,1,1,1,1, ,1, , 
9,levels/gta5/_citye/downtown_01/dt1_08,2,2, , ,2,2,2,2,2,2,2,2,2,2,2,1,1,1,1, , , ,1,1,1,1,1,1,1,5,5, ,5, , 
10,levels/gta5/_citye/downtown_01/dt1_09,11,11, , ,11,11,11,11,10,10,10,10,10,10,10,6,6,6,6, , , ,6,6,6,6,6,6,6,4,4, ,1, , 
11,levels/gta5/_citye/downtown_01/dt1_10, , , , , , , , , , , , , , , , , , , , , , , , , , , , , , ,1, ,1, , 
12,levels/gta5/_citye/downtown_01/dt1_11, , , , , , , , , , , , , , , ,1,1,1,1, , , ,1,1,1,1,1,1,1,1, , , , , 
13,levels/gta5/_citye/downtown_01/dt1_13, , , , , , , , , , , , , , , , , , , , , , , , , , , , , , , , ,1, , 
14,levels/gta5/_citye/downtown_01/dt1_15,2,2, , ,2,2,2,2,2,2,2,2,2,2,2, , , , , , , , , ,9,9,9,9,9,9,9, ,9, , 
15,levels/gta5/_citye/downtown_01/dt1_16,3,3, , ,3,3,3,3,3,3,3,3,3,3,6,7,7,7,7, , , ,7,7,7,7,7,7,7,4,4, ,4, , 
16,levels/gta5/_citye/downtown_01/dt1_17,4,4, , ,4,4,4,4,4,4,4,4,4,4,4,4,4,4,4, , , ,4,4,4,4,4,4,4,4,4, ,4, , 
17,levels/gta5/_citye/downtown_01/dt1_18,11,11, , ,7,3,3,3,3,3,3,3,3,3,3,3,3,3,3, , , ,3,3,3,3,3,3,3,3,3, ,1, , 
18,levels/gta5/_citye/downtown_01/dt1_20,1,1, , ,1,1,1,1,1,1,1,1,1,1,1,1,1,1,1, , , ,1,1,1,1,1,1,1,1,2, ,1, , 
19,levels/gta5/_citye/downtown_01/dt1_22,13,13, , ,13,13,13,13,13,13,13,13,13,13,13,13,13,13,13, , , ,13,13,13,13,13,13,13,13,13, ,12, , 
20,levels/gta5/_citye/downtown_01/dt1_25,7,7, , ,7,7,7,7,7,7,7,7,7,7,7,7,7,7,7, , , ,7,7,7,7,7,7,7,7, , ,12, , 
21,levels/gta5/_citye/downtown_01/dt1_26,1,1, , ,1,1,1,1,1,1,1,1,1,1,1,1,1,1,1, , , ,1,1,1,1,1,1,1,1, , , , , 
22,levels/gta5/_citye/downtown_01/dt1_rd1,3,3, , ,3,3,3,3,3,3,3,3,3,3,3,3,3,3,3, , , ,3,3,3,3,3,3,3,3,3, ,3, , 
23,levels/gta5/_citye/downtown_01/fwy_01,11,11, , ,11,11,11,11,11,11,11,11,11,11,11,11,11,11,11, , , ,11,8,8,8,9,9,9,7,8, ,6, , 
24,levels/gta5/_citye/downtown_01/fwy_02,3,3, , ,3,3,3,3,3,3,3,3,3,3,3,3,3,3,3, , , ,3,3,4,4,4,4,4,4,4, ,4, , 
25,levels/gta5/_citye/downtown_01/fwy_03,3,3, , ,3,3,3,3,3,3,3,3,3,3,3,3,3,3,3, , , ,3,3,3,3,3,3,3,3,3, ,3, , 
26,levels/gta5/_citye/downtown_01/fwy_04,3,3, , ,3,3,3,3,3,3,3,3,3,3,3,4,4,4,4, , , ,4,4,4,4,4,4,4,4,4, ,4, , 
27,levels/gta5/_citye/hollywood_01/hw1_06,2,2, , ,2,2,2,2,2,2,2,2,2,2,2,12,12,12,13, , , ,13,10,13,13,7,7,7,7,7, ,6, , 
28,levels/gta5/_citye/hollywood_01/hw1_07,1, , , , , , , , , , , , , , , , , , , , , , , , , , , , , , , , , , 
29,levels/gta5/_citye/hollywood_01/hw1_08,6,6, , ,6,6,6,6,6,6,6,6,6,6,6,5,4,4,5, , , ,5,5,5,5,5,5,5,5,4, ,4, , 
30,levels/gta5/_citye/hollywood_01/hw1_10,5,5, , ,5,5,5,5,5,5,5,5,5,5,5,5,4,4,4, , , ,4,4,4,4,4,4,4,4,4, ,4, , 
31,levels/gta5/_citye/hollywood_01/hw1_11,4,4, , ,4,4,4,4,4,4,4,4,4,4,4,4,4,4,4, , , ,4,4,4,4,4,4,4,4,4, ,4, , 
32,levels/gta5/_citye/hollywood_01/hw1_12,1,1, , ,1,1,1,1,1,1,1,1,1,1,1,1,1,1,1, , , ,1,1,1,1,1,1,1,1,1, ,1, , 
33,levels/gta5/_citye/hollywood_01/hw1_13,4,4, , ,4,4,4,4,4,4,4,4,4,4,4,3,3,3,3, , , ,3,3,3,3,3,3,3,3,3, ,3, , 
34,levels/gta5/_citye/hollywood_01/hw1_14,4,4, , ,4,4,4,4,4,4,4,4,4,4,4,4,4,4,4, , , ,4,4,4,4,4,4,4,5,5, ,5, , 
35,levels/gta5/_citye/hollywood_01/hw1_15,5,7, , ,7,7,7,7,7,7,7,7,7,7,7,5,5,5,5, , , ,5,5,5,5,5,5,5,5,6, ,4, , 
36,levels/gta5/_citye/hollywood_01/hw1_16,9,9, , ,9,9,9,9,9,9,9,9,9,9,9,9,9,9,9, , , ,9,9,9,9,9,9,9,9,9, ,9, , 
37,levels/gta5/_citye/hollywood_01/hw1_17,1,1, , ,1,1,1,1,1,1,1,1,1,1,1,1,1,1,1, , , ,1,1,1,1,1,1, , , , , , , 
38,levels/gta5/_citye/hollywood_01/hw1_18,1, , , , , , , , , , , , , , ,1,1,1,1, , , ,1,1,1,1,1,1,1,1,1, , , , 
39,levels/gta5/_citye/hollywood_01/hw1_19, , , , , , , , , , , , , , , , , , , , , , , , , , , ,1,1,2,2, ,2, , 
40,levels/gta5/_citye/hollywood_01/hw1_22,5,5, , ,5,5,5,5,5,5,5,5,5,5,5,5,5,5,5, , , ,5,5,5,5,5,5,5,5,5, ,5, , 
41,levels/gta5/_citye/hollywood_01/hw1_23, , , , , , , , , , , , , , , , ,1,1,1, , , ,1,1,1,1,1,1,1,1,1, ,1, , 
42,levels/gta5/_citye/hollywood_01/hw1_26, , , , , , , , , , , , , , , , , , , , , , , , , , , , , , , , ,1, , 
43,levels/gta5/_citye/hollywood_01/hw1_27, , , , , , , , , , , , , , , , , , , , , , , , , , , , , , , , ,3, , 
44,levels/gta5/_citye/hollywood_01/hw1_rd,1,2, , ,2,2,2,2,2,2,2,2,2,2,2,2,2,2,2, , , ,2,2,2,2,2,2,2,2,3, ,3, , 
45,levels/gta5/_citye/indust_01/id1_04,4,4, , ,4,4,4,4,4,4,4,4,4,4,4,4,4,4,4, , , ,4,4,4,4,4,4,4,4,4, ,4, , 
46,levels/gta5/_citye/indust_01/id1_05,4,4, , ,4,4,4,4,4,4,4,4,4,4,4,4,4,4,4, , , ,4,4,4,4,4,4,4,4,3, ,3, , 
47,levels/gta5/_citye/indust_01/id1_06,2,2, , ,2,2,2,2,2,2,2,2,2,2,2,2,2,2,2, , , ,2,2,2,2,2,2,2,2,2, ,2, , 
48,levels/gta5/_citye/indust_01/id1_07, , , , , , , , , , , , , , , ,7,7,7,7, , , ,7,7,7,7,7,7,7,7,7, ,7, , 
49,levels/gta5/_citye/indust_01/id1_09,5,5, , ,5,5,5,5,5,5,5,5,5,5,5,5,5,5,5, , , ,5,5,5,5,5,5,5,5,2, ,2, , 
50,levels/gta5/_citye/indust_01/id1_10,1,1, , ,1,1,1,1,1,1,1,1,1,1,1,1,1,1,1, , , ,1,1,1,1,1,1,1,1,4, ,3, , 
51,levels/gta5/_citye/indust_01/id1_13,32,32, , ,27,27,27,27,27,27,27,27,27,27,27,24,24,24,24, , , ,24,24,24,19,19,19,19,19,19, ,19, , 
52,levels/gta5/_citye/indust_01/id1_17, , , , , , , , , , , , , , , ,1,1,1,1, , , ,1,1,1,1,1,1,1,1,1, ,1, , 
53,levels/gta5/_citye/indust_01/id1_19, , , , , , , , , , , , , , , ,1,1,1,1, , , ,1,1,1,1,1,1,1,1,1, ,4, , 
54,levels/gta5/_citye/indust_01/id1_20,1,1, , ,1,1,1,1,1,1,1,1,1,1,1,1,1,1,1, , , ,1,1,1,1,1,1,1,1,1, ,1, , 
55,levels/gta5/_citye/indust_01/id1_24,2,2, , ,2,2,2,2,2,2,2,2,2,2,2,3,3,3,3, , , ,3,3,3,3,3,3,3,3,3, ,2, , 
56,levels/gta5/_citye/indust_01/id1_25, , , , , , , , , , , , , , , , , , ,3, , , ,3,3,3,3,3,3,3, , , , , , 
57,levels/gta5/_citye/indust_01/id1_26, , , , ,1,1,1,1,1,1,1,1,1,1,1,1,1,1,1, , , , , , , , , , , , , , , , 
58,levels/gta5/_citye/indust_01/id1_29, , , , , , , , , , , , , , , , , ,2, , , , , ,2,2,2,2,2,2,2,2, ,2, , 
59,levels/gta5/_citye/indust_01/id1_30,2,2, , ,2,2,2,2,2,2,2,2,2,2,2,2,2,2,2, , , ,2,2,2,2,2,2,2,2,2, ,2, , 
60,levels/gta5/_citye/indust_01/id1_31,1,1, , ,1,1,1,1,1,1,1,1,1,1,1, , , , , , , , , , , , , , , , , , , , 
61,levels/gta5/_citye/indust_01/id1_32,5,5, , ,5,5,5,5,5,5,5,5,5,5,5, , , , , , , , ,1,1,1,1,1,1,1,1, ,1, , 
62,levels/gta5/_citye/indust_01/id1_33,9,5, , ,5,5,5,5,5,5,5,5,5,5,5,5,5,5,5, , , ,5,5,13,13,13,13,13,13,13, ,13, , 
63,levels/gta5/_citye/indust_01/id1_34,2,2, , ,2,2,2,3,3,3,3,3,3,3,3,3,3,3,3, , , ,3,3,3,3,3,3,3,3,3, ,3, , 
64,levels/gta5/_citye/indust_01/id1_35,1,1, , ,1,1,1,1,1,1,1,1,1,1,1,1,1,1,1, , , ,1,1,1,1,1,1,1,1,1, ,1, , 
65,levels/gta5/_citye/indust_01/id1_rd,5,5, , ,5,5,5,5,5,5,5,5,5,5,5,2,5,5,5, , , ,5,5,5,5,5,5,5,5,5, ,7, , 
66,levels/gta5/_citye/indust_02/id2_00,28,28, , ,28,28,28,28,28,28,28,28,28,28,28,28,28,28,28, , , ,28,28,28,5,5,5,5,5,5, ,7, , 
67,levels/gta5/_citye/indust_02/id2_00_a,10,10, , ,10,10,10,10,4,4,4,4,4,4,4,4,4,4,4, , , ,4,4,4,6,6,6,6,6,6, ,6, , 
68,levels/gta5/_citye/indust_02/id2_01,2,2, , ,2,2,2,2,2,2,2,2,2,2,2,1,1,1,1, , , ,1,1,1,1,1,1,1,1,1, ,4, , 
69,levels/gta5/_citye/indust_02/id2_02,5,5, , ,5,5,5,5,5,5,5,5,5,5,5, , , , , , , , , , , , , , , , , , , , 
70,levels/gta5/_citye/indust_02/id2_03,2,1, , ,1,1,1,1,1,1,1,1,1,1,1,1,1,1,1, , , ,1,1,1,1,1,1,1,1,1, ,1, , 
71,levels/gta5/_citye/indust_02/id2_06,1,1, , ,1,1,1,1,1,1,1,1,1,1,1,1,1,1,1, , , ,1,1,1,1,1,1,1,1,1, ,1, , 
72,levels/gta5/_citye/indust_02/id2_07,2,2, , ,2,2,2,2,2,2,2,2,2,2,2,2,2,3,3, , , ,3,3,3,9,9,9,9,9,9, ,9, , 
73,levels/gta5/_citye/indust_02/id2_08,6,6, , ,6,6,6,6,6,6,6,6,6,6,6,6,6,6,6, , , ,6,6, , , , , , , , , , , 
74,levels/gta5/_citye/indust_02/id2_09, , , , , , , , , , , , , , , ,2,2,2,2, , , ,2,2,2,2,2,2,2,2,2, ,2, , 
75,levels/gta5/_citye/indust_02/id2_13,7,7, , ,7,7,7,7,7,7,7,7,7,7,7,4,4,4,4, , , ,4,6,6,6,6,6,6,6,6, ,6, , 
76,levels/gta5/_citye/indust_02/id2_14,4,4, , ,4,4,4,4,4,4,4,4,4,4,4,23,23,23,23, , , ,23,27,27,27,27,27,4,4,4, ,4, , 
77,levels/gta5/_citye/indust_02/id2_15,6,6, , ,6,6,6,6,6,6,6,6,6,1,1,1,1,1,1, , , ,1,1,1,1,1,1,1,1,1, ,1, , 
78,levels/gta5/_citye/indust_02/id2_16,3,3, , ,3,3,3,3,3,3,3,3,3,3,3,3,3,3,3, , , ,3,3,3,3,3,3,3,3,3, ,3, , 
79,levels/gta5/_citye/indust_02/id2_18,1,1, , ,1,1,1,1,1,1,1,1,1,1,1,1,1,1,1, , , ,1,1,1,1,1,1,1,1,1, ,1, , 
80,levels/gta5/_citye/indust_02/id2_21, , , , , , , , , , , , , , , , , , , , , , , , , , , , , , ,6, ,6, , 
81,levels/gta5/_citye/indust_02/id2_21_b,3,3, , ,3,3,3,3,3,3,3,3,3,3,3,3,3,3,3, , , ,3,3,3,3,3,3,3,3,3, , , , 
82,levels/gta5/_citye/indust_02/id2_21_c,1,1, , ,1,1,1,1,1,1,1,1,1,1,1,1,1,1,1, , , ,1,1,1,1,1,1,1,1,1, , , , 
83,levels/gta5/_citye/indust_02/id2_21_d, , , , , , , , , , , , , , , , , , , , , , , , , , , , , , ,8, ,8, , 
84,levels/gta5/_citye/indust_02/id2_21_g,1,1, , ,1,1,1,1,1,1,1,1,1,1,1,1,1,1,1, , , ,1,1,1,1,1,1,1,1, , , , , 
85,levels/gta5/_citye/indust_02/id2_rail,1,1, , ,1,1,1,4,4,4,4,4,4,4,4,4,4,4,4, , , ,4,4,4,4,4,4,4,4,4, ,4, , 
86,levels/gta5/_citye/indust_02/id2_rd,2,2, , ,2,2,2,2,2,2,2,2,2,2,2,1,2,2,2, , , ,2,2,2,2,2,2,2,2, , , , , 
87,levels/gta5/_citye/port_01/po1_01,6,6, , ,9,9,9,9,9,9,9,9,9,9,9,5,5,5,5, , , ,5,5,5,5,5,5,5,5,8, ,8, , 
88,levels/gta5/_citye/port_01/po1_02,5,5, , ,8,8,8,8,8,8,4,4,8,8,8,8,8,8,8, , , ,8,8,5,5,5,5,5,5,4, ,4, , 
89,levels/gta5/_citye/port_01/po1_03,3,3, , ,3,3,3,3,3,3,3,3,3,3,3,6,6,6,6, , , ,6,6,7,6,6,6,6,6,6, ,4, , 
90,levels/gta5/_citye/port_01/po1_04,20,24, , ,19,19,27,29,19,19,19,19,19,19,19,17,17,17,17, , , ,17,17,17,25,29,22,22,24,24, ,27, , 
91,levels/gta5/_citye/port_01/po1_05,12,12, , ,12,12,12,12,12,12,12,12,12,12,12,12,12,15,15, , , ,12,13,13,13,13,13,13,11,16, ,17, , 
92,levels/gta5/_citye/port_01/po1_06,30,30, , ,36,36,36,36,36,36,36,36,36,36,36,36,36,36,36, , , ,36,39,39,44,44,44,44,44,43, ,45, , 
93,levels/gta5/_citye/port_01/po1_07,4,4, , ,4,2,2,2,2,2,2,2,2,2,2,2,2,2,2, , , ,2,2,2,2,2,3,3,3,3, ,3, , 
94,levels/gta5/_citye/port_01/po1_08,18,17, , ,17,17,17,17,17,17,17,17,17,17,17,16,16,16,16, , , ,16,16,15,6,6,5,9,9,10, ,12, , 
95,levels/gta5/_citye/port_01/po1_09,4,17, , ,17,17,17,17,17,17,17,17,17,17,17,17,17,17,17, , , ,17,17,18,18,18,18,18,18,18, ,18, , 
96,levels/gta5/_citye/port_01/po1_10,21,21, , ,34,34,34,34,34,42,42,42,42,32,34,28,28,28,28, , , , ,11,11,8,11,11,11,11,11, ,11, , 
97,levels/gta5/_citye/port_01/po1_rd,1,1, , ,1,1,1,1,1,1,1,1,1,1,1,1,1,1,1, , , ,1,1,1,1,1,1,1,1,1, ,1, , 
98,levels/gta5/_citye/port_01/po1_sh1,13,13, , ,13,13,13,13,13,13,13,13,13,13,13,13,13,13,13, , , ,13,13,13,13,13,13,13,14,14, ,14, , 
99,levels/gta5/_citye/port_01/po1_sh2,1,1, , ,1,1,1,1,1,1,1,1,1,1,1,1,1,1,1, , , ,1,1,1,1,1,1,1,1,1, ,5, , 
100,levels/gta5/_citye/scentral_01/sc1_00b, , , , , , , , , , , , , , , , , , , , , , , , ,3,3,6,6,6,6,6, ,4, , 
101,levels/gta5/_citye/scentral_01/sc1_00c,6,6, , ,4,4,4,4,4,4,4,4,4,4,4,5,5,5,5, , , ,5,5,5,5,5,5,4,4,4, ,6, , 
102,levels/gta5/_citye/scentral_01/sc1_00d,4,4, , ,4,4,4,4,4,4,4,4,4,4,4,4,4,4,4, , , ,4,4,4,4,4,4,4,4,4, ,4, , 
103,levels/gta5/_citye/scentral_01/sc1_00e, ,3, , ,3,3,3,3,3,3,3,3,3,3,3,3,3,3,3, , , ,3,3,3,3,3,3,3,3,3, ,3, , 
104,levels/gta5/_citye/scentral_01/sc1_00f, , , , ,1,1,1,1,1,1,1,1,1,1,1,1,1,1,1, , , ,1,1,1,1,1,1,1,1,1, , , , 
105,levels/gta5/_citye/scentral_01/sc1_00g,2,2, , , , , , , , , , , , , , , , , , , , , , , , , , , , , , , , , 
106,levels/gta5/_citye/scentral_01/sc1_01,2,2, , ,1,1,1,1,1,1,1,1,1,1,1,1,1,1,1, , , ,1,1,1,1,1,1,1,1,1, , , , 
107,levels/gta5/_citye/scentral_01/sc1_02,7,7, , ,7,7,7,7,7,5,5,5,5,5,5,5,5,5,5, , , ,5,5,5,5,5,5,5,5,11, ,11, , 
108,levels/gta5/_citye/scentral_01/sc1_03,8,8, , ,8,8,8,8,8,7,7,7,7,7,7,7,7,7,2, , , ,2,2, , , , ,4,4,4, , , , 
109,levels/gta5/_citye/scentral_01/sc1_04,4,4, , ,4,4,4,4,4,4,5,5,5,5,5,5,5,5,5, , , ,5,5,5,5,5,5,5,5,5, ,5, , 
110,levels/gta5/_citye/scentral_01/sc1_05, , , , , , , , , , , , , , , , , , , , , , , , ,2,2,2,4,4,4,4, ,4, , 
111,levels/gta5/_citye/scentral_01/sc1_06,3,3, , ,3,3,3,3,3,3,3,3,3,3,3,3,3,3,3, , , ,3,3,3,3,3,3,3,3,3, ,22, , 
112,levels/gta5/_citye/scentral_01/sc1_07,2,2, , ,2,2,2,2,2,2,2,2,2,2,2,2,2,2,2, , , ,2,2,2,2,2,2,2,2,2, ,2, , 
113,levels/gta5/_citye/scentral_01/sc1_08, , , , , , , , , , , , , , , , , , , , , , , , , ,1,1,1,1,1,1, ,1, , 
114,levels/gta5/_citye/scentral_01/sc1_09,21,21, , ,12,12,12,12,12,12,12,12,12,12,12,12,12,12,12, , , ,12,12,12,12,12,12,12,12,12, ,1, , 
115,levels/gta5/_citye/scentral_01/sc1_10, ,3, , ,3,3,3,3,3,3,3,3,3,3,3,3,3,3,3, , , ,3,3,3,3,3,3,3,3,3, ,3, , 
116,levels/gta5/_citye/scentral_01/sc1_11,5,5, , ,5,5,5,5,5,5,5,5,5,5,5,6,6,6,6, , , ,6,6,6,6,6,6,6,6,6, ,14, , 
117,levels/gta5/_citye/scentral_01/sc1_12,9,9, , ,9,9,9,9,9,9,9,9,9,9,9,3,3,3,3, , , ,3,3,3,3,3,3,3,3,3, ,3, , 
118,levels/gta5/_citye/scentral_01/sc1_13,2,2, , ,2,2,2,2,2,2,2,2,2,2,2,2,2,2,2, , , ,2,2,2,2,2,2,2, , , , , , 
119,levels/gta5/_citye/scentral_01/sc1_15,21,21, , ,21,21,21,21,21,21,21,21,21,21,21,9,9,9,9, , , ,9,7,7,7,7,7,7,6,6, ,6, , 
120,levels/gta5/_citye/scentral_01/sc1_17,2,2, , ,2,2,2,2,2,2,2,2,2,2,2,2,2,2,2, , , ,2,2,2,2,2,2,2,2,2, ,2, , 
121,levels/gta5/_citye/scentral_01/sc1_19,11,11, , ,11,11,11,11,11,11,11,11,11, , , , ,3,3, , , ,3,3,3,3,3,3,3,3,3, ,3, , 
122,levels/gta5/_citye/scentral_01/sc1_20,9, , , , , , , , , , , , , , , , , , , , , , , , , , , , , ,1, ,1, , 
123,levels/gta5/_citye/scentral_01/sc1_21,6,6, , ,6,6,6,6,6,6,6,6,6,6,6,6,6,6,6, , , ,6,6,6,6,6,6,5,5,8, ,8, , 
124,levels/gta5/_citye/scentral_01/sc1_22,4,4, , ,4,4,4,4,4,4,4,4,4,4,4,4,4,4,4, , , ,4,4,10,10,10,10,10,10,10, ,10, , 
125,levels/gta5/_citye/scentral_01/sc1_23,33,40, , ,40,40,40,9,9,9,9,9,9,9,9,9,9,9,9, , , ,9,9,9,9,9,9,9,9,7, ,7, , 
126,levels/gta5/_citye/scentral_01/sc1_24,5,5, , ,5,5,5,5,5,5,5,5,5,5,5,5,5,5,5, , , ,5,5,5,5,5,5,5,5,5, ,10, , 
127,levels/gta5/_citye/scentral_01/sc1_25,3,3, , ,3,3,3,3,3,3,3,3,3,3,3,3,3,3,3, , , ,3,3,3,3,3,3,3, , , , , , 
128,levels/gta5/_citye/scentral_01/sc1_27,4,4, , ,4,4,4,4,4,4,4,4,4,4,1,1,1,1,1, , , ,1,1,1,1,1, , , , , , , , 
129,levels/gta5/_citye/scentral_01/sc1_28,2,2, , ,2,2,2,2,2,2,2,2,2,2,2,2,2,2,2, , , ,2,2,2,2,2,2,2,2,2, ,2, , 
130,levels/gta5/_citye/scentral_01/sc1_29,1,1, , ,1,1,1,1,1,1,1,1,1,1,1,1,1,1,1, , , ,1,1,1,1,1,1,1,1,1, ,2, , 
131,levels/gta5/_citye/scentral_01/sc1_30,1,1, , ,1,1,1,1,1,1,1,1,1,1,1,1,1,1,1, , , ,1,1,1,1,1,1,1,1,1, ,1, , 
132,levels/gta5/_citye/scentral_01/sc1_31,1,1, , ,1,1,1,1,1,1,1,1,1,1,1,1,1,1,1, , , ,1,1,1,1,1,1,1,1, , , , , 
133,levels/gta5/_citye/scentral_01/sc1_32, ,6, , ,6,6,6,6,6, , , , , , , , , , , , , , , ,6,6,6,6,6,6,6, ,6, , 
134,levels/gta5/_citye/scentral_01/sc1_33,1,1, , ,1,1,1,1,1,1,1,1,1,1,1,1,1,1,1, , , ,1,1,1,1,1,1,1,1,1, ,1, , 
135,levels/gta5/_citye/scentral_01/sc1_34, , , , , , , , , , , , , , , , , , , , , , , , , , ,2,2,2,2,2, ,2, , 
136,levels/gta5/_citye/scentral_01/sc1_rd,2,2, , ,2,2,2,2,2,2,2,2,2,2,2,1,2,2,2, , , ,2,2,2,2,2,2,2,2,2, ,2, , 
137,levels/gta5/_citye/sunset/bt1_01,1,1, , ,1,1,1,1,1,1,1,1,1,1,1,1,1,1,1, , , ,1,1,1,1,1,1,1,1,1, ,1, , 
138,levels/gta5/_citye/sunset/bt1_02,7,7, , ,7,7,7,7,7,7,7,7,7,7,7,7,7,7,7, , , ,7,7,7,7,7,7,7,7,7, ,7, , 
139,levels/gta5/_citye/sunset/bt1_03,5,5, , ,5,5,5,5,5,5,5,5,5,5,5,5,5,5,5, , , ,5,5,5,5,5, , , , , , , , 
140,levels/gta5/_citye/sunset/bt1_05,3,3, , ,3,3,3,3,3,3,3,3,3,3,3,3,3,3,3, , , ,3,3,3,3,3,3,3,3,2, ,6, , 
141,levels/gta5/_citye/sunset/ss1_01, , , , , , , , , , , , , , , , , , , , , , , , , , , , , , , , ,1, , 
142,levels/gta5/_citye/sunset/ss1_02, , , , , , , , , , , , , , , , , , , , , , , , ,3,3,3,3,3,3,3, ,3, , 
143,levels/gta5/_citye/sunset/ss1_03,16,16, , ,16,16,16,16,16,16,1,1,1,1,1,1,1,1,1, , , ,1,1,1,1,1,1,1,1,1, ,1, , 
144,levels/gta5/_citye/sunset/ss1_04,5,5, , ,5,5,5,5,5,5,5,5,5,5,6,6,6,6,6, , , ,6,6,6,6,6,6,6,6,6, ,1, , 
145,levels/gta5/_citye/sunset/ss1_05,9,9, , ,12,12,12,12,12,12,12,12,12,12,12,12,12,12,12, , , ,12,12,12,12,12,11,11,11,11, ,11, , 
146,levels/gta5/_citye/sunset/ss1_06,4,4, , ,6,6,6,6,6,6,6,4,4,4,6,4,4,4,4, , , ,4,4,4,4,4,4,4,4,4, ,6, , 
147,levels/gta5/_citye/sunset/ss1_06b, , , , , , , , , , , , , , , , , , , , , , , , , , , , , , , , ,6, , 
148,levels/gta5/_citye/sunset/ss1_07,7,7, , ,7,7,7,7,7,7,7,7,7,7,1,1,1,1,1, , , ,1,1,1,1,1,1,1,1,1, ,1, , 
149,levels/gta5/_citye/sunset/ss1_08,8,8, , ,8,8,8,8,8,8,8,8,8,8,8,5,5,5,5, , , ,5,5,5,5,5,5,5, , , , , , 
150,levels/gta5/_citye/sunset/ss1_11, , , , , , , , , , , , , , , ,7,7,7,7, , , ,7,7,7,7,7,7,7,7,7, ,7, , 
151,levels/gta5/_citye/sunset/ss1_12,24,24, , ,24,24,24,24,24,24,24,24,24,24,24,6,6,6,6, , , ,6,6,6,6,6,6,6,6,6, ,6, , 
152,levels/gta5/_citye/sunset/ss1_13, , , , , , , , , , , , , , , , , , , , , , , , , , , , , , , , ,3, , 
153,levels/gta5/_citye/sunset/ss1_14,6,6, , ,6,6,6,6,6,6,6,6,6,6,6,6,6,6,6, , , ,6,6,6,6,6,6,6,6, , , , , 
154,levels/gta5/_citye/sunset/ss1_rd1,3,3, , ,3,3,3,3,3,3,3,3,3,4,2,4,4,4,4, , , ,4,4,4,4,4,4,4,4,4, ,4, , 
155,levels/gta5/_cityw/airport_01/ap1_01_a,9,9, , ,9,9,9,12,12,12,12,12,12,9,9,9,9,9,9, , , ,9,9,9,9,9,13,13,13,13, ,13, , 
156,levels/gta5/_cityw/airport_01/ap1_01_b,9,9, , ,9,9,9,9,9,9,9,9,9,9,9,9,9,9,9, , , ,9,9,9,9,9,9,3,3,3, ,3, , 
157,levels/gta5/_cityw/airport_01/ap1_01_c,5,5, , ,5,5,5,14,14,14,14,14,14,14,14,14,14,14,14, , , ,14,14,12,12,12,12,12,12,12, ,15, , 
158,levels/gta5/_cityw/airport_01/ap1_01_d,5,5, , ,5,5,5,5,5,5,5,5,15,15,15,15,15,15,15, , , ,15,15,16,16,16,16,16,16,16, ,14, , 
159,levels/gta5/_cityw/airport_01/ap1_03,2,2, , ,2,2,2,2,2,2,2,2,2,2,2,2,2,2,2, , , ,2,2,2,2,2,2,2,2,2, ,2, , 
160,levels/gta5/_cityw/airport_01/ap1_04,6,6, , ,6,6,6,6,6,6,6,6,6,6,6,6,7,7,7, , , ,7,7,7,8,8,8,8,9,14, ,14, , 
161,levels/gta5/_cityw/beverly_01/bh1_01, , , , , , , , , , , , , , , , , , , , , , , , , , , , , , ,5, ,9, , 
162,levels/gta5/_cityw/beverly_01/bh1_02,5,5, , ,5,5,5,4,4,4,4,4,4,4,4,4,4,4,4, , , ,4,4,4,4,4,4,4,4,4, ,4, , 
163,levels/gta5/_cityw/beverly_01/bh1_06,1,1, , ,1,1,1,1,1,1,1,1,1,1,1,1,1,1,12, , , ,12,12,13,13,13,13,13,13,1, ,2, , 
164,levels/gta5/_cityw/beverly_01/bh1_07,2,2, , ,2,2,2,2,2,2,2,2,2,2,2,11,11,11,11, , , ,11,11,11,11,11,11,11,11,11, ,12, , 
165,levels/gta5/_cityw/beverly_01/bh1_08, , , , , , , , , , , , , , , ,2,3,3,3, , , ,3,3,3,3,3,3,3, ,9, ,3, , 
166,levels/gta5/_cityw/beverly_01/bh1_09, , , , , , , , , , , , , , , ,1,1,1,1, , , ,1,1,1,1,1,1,7,7,5, ,13, , 
167,levels/gta5/_cityw/beverly_01/bh1_11, , , , , , , , , , , , , , , , , , , , , , , , , , , , , , ,4, ,4, , 
168,levels/gta5/_cityw/beverly_01/bh1_13,5,5, , ,5,5,5,5,5,5,5,5,5,5,5,5,5,5,5, , , ,5,5,2,2,2,2,2,2,2, ,2, , 
169,levels/gta5/_cityw/beverly_01/bh1_15,6,6, , ,6,6,6,6,6,6,6,6,6,6,6,6,6,6,6, , , ,6,6,6,6,1,1,1,1,3, ,3, , 
170,levels/gta5/_cityw/beverly_01/bh1_16, , , , , , , , , , , , , , , , , , , , , , , ,1,1,1,1,1,1,1,1, , , , 
171,levels/gta5/_cityw/beverly_01/bh1_17,1,1, , ,1,1,1,1,1,1,1,1,1,1,1,1,1,1,1, , , ,1,1,1,1,1,1,1,1, , , , , 
172,levels/gta5/_cityw/beverly_01/bh1_18,1,1, , ,1,1,1,1,1,1,1,1,1,1,1,2,2,2,2, , , ,2,2,2,2,2,2,2,2,1, ,2, , 
173,levels/gta5/_cityw/beverly_01/bh1_20,6,6, , ,6,6,6,6,6,6,6,6,6,6,6,6,6,6,6, , , ,6,5,5,5,5,5,5,5,5, ,5, , 
174,levels/gta5/_cityw/beverly_01/bh1_21, , , , , , , , , , , , , , , , , , , , , , , , , , , , , , ,2, ,2, , 
175,levels/gta5/_cityw/beverly_01/bh1_30,1,5, , ,5,5,5,5,5,5,5,5,5,5,5, , , ,5, , , ,1,3,3,3,3,3,3,3,3, ,3, , 
176,levels/gta5/_cityw/beverly_01/bh1_31,2,2, , ,2,2,2,2,2,2,2,2,2,2,2,2,2,2,2, , , ,2,2,2,2,2,2,2,2,2, ,2, , 
177,levels/gta5/_cityw/beverly_01/bh1_34,1,1, , ,1,1,1,1,1,1,1,1,1,1,1,1,1,1,1, , , ,1,1,1,1,1,1,1,1,1, ,1, , 
178,levels/gta5/_cityw/beverly_01/bh1_35,1,1, , ,1,1,1,1,1,1,1,1,1,1,1,1,1,1,1, , , ,1,1, , , , , ,4,4, ,4, , 
179,levels/gta5/_cityw/beverly_01/bh1_36,5,5, , , , , , , , , , ,1,1, , , , , , , , , , , , , , , , ,2, ,2, , 
180,levels/gta5/_cityw/beverly_01/bh1_38, ,4, , ,4,4,4,4,4,4,4,4,4,4,4,4,4,4,4, , , ,4,4,4,4,4,4,4,4, , , , , 
181,levels/gta5/_cityw/beverly_01/bh1_40, , , , , , , , , , , , , , , , , , , , , , , , , , , ,9,9,9, , , , , 
182,levels/gta5/_cityw/beverly_01/bh1_42,7,10, , ,10,10,10,10,10,10,10,10,10,10,10,10,10,10,10, , , ,10,10,10,10,10,10,10,10,10, ,9, , 
183,levels/gta5/_cityw/beverly_01/bh1_42b,1,1, , ,1,1,1,1,1,1,1,1,1,1,1,1,1,1,1, , , ,1,1,1, ,1,1,1,1,1, ,2, , 
184,levels/gta5/_cityw/beverly_01/bh1_43,2, , , , , , , , , , , , , , , , , , , , , , , , , , , , ,4,4, ,5, , 
185,levels/gta5/_cityw/beverly_01/bh1_44,1,1, , ,4,4,4,4,4,4,4,4,4,4,4,3,3,3,3, , , ,3,3,3,3,3,3,3,3,3, ,3, , 
186,levels/gta5/_cityw/beverly_01/bh1_45, , , , , , , , , , , , , ,7,7,7,7,7,7, , , ,7,7,7,9,9,9,9,9,9, ,9, , 
187,levels/gta5/_cityw/beverly_01/bh1_46,11,9, , ,9,9,9,9,9,9,9,9,9,9,9,9,9,9,9, , , ,9,9,6,6,6,6,6,6,10, ,6, , 
188,levels/gta5/_cityw/beverly_01/bh1_46b, , , , ,1,1,1,1,1,1, , , , , , , , , , , , , , , , , , , , , , , , , 
189,levels/gta5/_cityw/beverly_01/bh1_47,2,2, , ,2,2,2,2,2,2,2,2,2,2,2,2,2,2,2, , , ,2,2,2,2,2,2,2,2,2, ,2, , 
190,levels/gta5/_cityw/beverly_01/bh1_48,2, , , ,6,6,6,6,6,6,6,2,2,2,2,2,2,2,2, , , ,2,2,2,2,2,2,2,2,2, ,6, , 
191,levels/gta5/_cityw/beverly_01/bh1_49,4,4, , ,4,4,4,4,4,4,4,4,4,4,4,4,4,1,1, , , ,1, , , , , , , , , , , , 
192,levels/gta5/_cityw/beverly_01/bh1_49b,2,2, , ,2,2,2,2,2,2,2,2,2,2,2, , , , , , , , , , , , , , , , , , , , 
193,levels/gta5/_cityw/beverly_01/bh1_rd,6,5, , ,5,14,14,14,5,5,5,5,5,5,14,14,14,14,14, , , ,14,14,14,14,14,14,14,16,16, ,2, , 
194,levels/gta5/_cityw/beverly_01/bh1_rd2,9,9, , ,9,9,9,9,9,9,9,9,9,9,9,10,10,10,10, , , ,10,10,14,15,15,14,14,18,19, ,3, , 
195,levels/gta5/_cityw/koreatown_01/kt1_01, , , , , , , , , , , , , , , , , , , , , , , , , , , , , , , , ,1, , 
196,levels/gta5/_cityw/koreatown_01/kt1_02,21,14, , ,14,14,14,14,14,14,14,14,14,14,14,14,14,14,14, , , ,14,14, , , , , , , , , , , 
197,levels/gta5/_cityw/koreatown_01/kt1_04,1,1, , ,1,1,1,1,1,1,1,1,1,1,1,1,1,5,5, , , ,5,5,5,5,5,1,1,1,1, ,1, , 
198,levels/gta5/_cityw/koreatown_01/kt1_05,1,1, , ,1,1,1,1,1,1,1,1,1,1,1,1,1,1,1, , , ,1,1,1,1,1,1,1,1,1, ,1, , 
199,levels/gta5/_cityw/koreatown_01/kt1_06,3,3, , , , , , , ,2,17,17,17,17,17,5,5,5,5, , , ,5,5,5,5,5,2,2,2,2, ,2, , 
200,levels/gta5/_cityw/koreatown_01/kt1_07, , , , , , , , , , , , , , , , , , , , , , , , ,2,2, , , , , , , , , 
201,levels/gta5/_cityw/koreatown_01/kt1_08,1,1, , ,1,1,1,1,1,1,1,1,1,1,1,1,1,1,1, , , ,1,1, , , ,3,3,1,1, ,1, , 
202,levels/gta5/_cityw/koreatown_01/kt1_09, , , , , , , , , , , , , , , , , , , , , , , , , , ,4,1,1,1,1, ,1, , 
203,levels/gta5/_cityw/koreatown_01/kt1_11,1,4, , ,4,4,4,4,4,4,4,4,4,4,4,5,5,5,5, , , ,5,5,5, , ,2,2, , , ,3, , 
204,levels/gta5/_cityw/koreatown_01/kt1_12, , , , , , , , , , , , , , , , , , , , , , , ,5,5,5,5,1,1,1,1, , , , 
205,levels/gta5/_cityw/koreatown_01/kt1_13,1,1, , ,1,1,1,1,1,1,1,1,1,1,1,1,1,1,1, , , ,1, , , , , , , , , ,3, , 
206,levels/gta5/_cityw/koreatown_01/kt1_14, , , , , , , , , , , , , , , , ,3,3,3, , , ,3,3,3,3,5,5,5,5,5, ,10, , 
207,levels/gta5/_cityw/koreatown_01/kt1_15,5,5, , ,5,5,5,5,5,5,5,5,5,5,5,5,5,5,5, , , ,5,5,5,5,5,5,3,2,2, ,2, , 
208,levels/gta5/_cityw/koreatown_01/kt1_16,5,5, , ,5,5,5,5,5,5,5,5,5,5,5,5,5,5,5, , , ,5,5,6,6,6,6,1,1,1, ,1, , 
209,levels/gta5/_cityw/koreatown_01/kt1_rd, , , , , , , , , , , , , , , , , , , , , , , , , , , , , , , , ,2, , 
210,levels/gta5/_cityw/sanpedro_01/sp1_01,1,1, , ,1,1,1,1,1,1,1,1,1,1,1,1,1,1,1, , , ,1,1,1,1,1,1,1,1,1, ,1, , 
211,levels/gta5/_cityw/sanpedro_01/sp1_03, , , , , , , , , , , , , , , ,2, , , , , , , , , , , , , ,2,2, ,2, , 
212,levels/gta5/_cityw/sanpedro_01/sp1_04, , , , , , , , , , , , , , , ,1,1,1,1, , , ,1,1,1,1,1,1,1,1,1, ,1, , 
213,levels/gta5/_cityw/sanpedro_01/sp1_11,4,4, , ,2,2,2,2,2,2,2,2,2,2,4,4,4,4,4, , , ,4,4,4,4,4,4,4,4,4, ,4, , 
214,levels/gta5/_cityw/sanpedro_01/sp1_12,1,1, , ,1,1,1,1,1,1,1,1,1,1,1,1,1,1,1, , , ,1,1,1,1,1,1,1,1,1, ,1, , 
215,levels/gta5/_cityw/sanpedro_01/sp1_rd,5,5, , ,5,5,5,5,5,5,5,5,5,5,5,4,4,5,5, , , ,5,5,4,4,4,4,4,4,4, ,4, , 
216,levels/gta5/_cityw/santamon_01/sm_01, , , , , , , , , , , , , , , , , , , , , , , , ,28,28,28,28,28,28,24, ,24, , 
217,levels/gta5/_cityw/santamon_01/sm_06, , , , , , , , , , , , , , , ,7,7,7,7, , , ,7,7,7,7,7,7,7,12,12, ,12, , 
218,levels/gta5/_cityw/santamon_01/sm_07,12,12, , ,12,12,12,12,12,12,12,12,12,12,12,12,12,12,12, , , ,12,12,9,9,9,9,13,13,13, ,13, , 
219,levels/gta5/_cityw/santamon_01/sm_09,3,3, , ,3,3,3,3,3,3,3,3,3,3,3,5,5,5,5, , , ,5,6,6,3,3,3,3,2,2, ,2, , 
220,levels/gta5/_cityw/santamon_01/sm_10,1,1, , ,1,1,1,1,1,1,1,1,1,1,1,1,1,1,1, , , ,1,1,1,1,1,1,1,1,1, ,1, , 
221,levels/gta5/_cityw/santamon_01/sm_11,5, , , , , , , , , , , , , , , , , , , , , , , , , , ,1,1,5,5, ,5, , 
222,levels/gta5/_cityw/santamon_01/sm_12,18,7, , ,7,7,7,7,7,7,7,7,7,7,7,7,7,7,7, , , ,7,7,7,7,7,7,7,7,7, ,7, , 
223,levels/gta5/_cityw/santamon_01/sm_13, ,1, , ,1,1,1,1,1,1,1,1,1,1,1,1,1,1,1, , , ,1,1,1,1,1,1,1,1, , , , , 
224,levels/gta5/_cityw/santamon_01/sm_14,9,9, , ,9,9,9,9,9,9,9,9,9,9,9,9,9,9,9, , , ,9,9,9,9,9,9,9,9,9, ,5, , 
225,levels/gta5/_cityw/santamon_01/sm_15,6,6, , ,6,6,6,6,6,6,6,6,6,6,6,6,6,6,6, , , ,6,6,5,5,5,5,5,5,5, ,5, , 
226,levels/gta5/_cityw/santamon_01/sm_16,1,1, , ,1,1,1,1,1,1,1,1,1,1,1,1,1,1,1, , , ,1,1,1,1,1,1,1,1,1, ,1, , 
227,levels/gta5/_cityw/santamon_01/sm_17,8,8, , ,8,7,7,7,7,7,7,7,7,7,7,7,7,7,7, , , ,7,7,7,7,7,7,7,7,7, ,7, , 
228,levels/gta5/_cityw/santamon_01/sm_18,1,1, , ,1,1,1,1,1,1,1,1,1,1,1,1,1,1,1, , , ,1,1,1,1,1,1,1,1, , , , , 
229,levels/gta5/_cityw/santamon_01/sm_19,2,6, , ,6,6,6,6,6,6,6,6,6,6,6,6,6,6,6, , , ,6,6,5,5,6,6,6,6,6, ,6, , 
230,levels/gta5/_cityw/santamon_01/sm_21,2,2, , ,2,2,2,2,2,2,2,2,2,2,2,2,2,2,2, , , ,2,2, ,2,2,2,2,2, , , , , 
231,levels/gta5/_cityw/santamon_01/sm_22,5,5, , ,5,5,5,5,5,5,5,5,5,5,5,5,5,5,5, , , ,5,5,8,8,8,8,8,8,9, ,9, , 
232,levels/gta5/_cityw/santamon_01/sm_23,2,2, , ,2,2,2,2,2,2,2,2,2,2,2,2,2,2,2, , , ,2,2,2,2,2,2,2,2,2, ,2, , 
233,levels/gta5/_cityw/santamon_01/sm_24, ,1, , ,1,1,1,1,1,1,1,1,1,1,1,1,1,1,1, , , ,1,4,1,1,1,1,1,1,1, ,5, , 
234,levels/gta5/_cityw/santamon_01/sm_26,7,13, , ,13,13,13,13,13,13,13,13,13,13,13,13,13,13,13, , , ,13,13,13,13,13,13,13,11,15, ,15, , 
235,levels/gta5/_cityw/santamon_01/sm_27,1,1, , ,1,1,1,2,2,2,2,2,2,2,2,2,2,2,2, , , ,2,2,2,2,2,2,2,2,7, ,12, , 
236,levels/gta5/_cityw/santamon_01/sm_boat,8,8, , ,8,8,8,8,8,8,8,8,8,8,7,7,7,7,7, , , ,7,7,7,7,7,7,7,7,7, ,7, , 
237,levels/gta5/_cityw/santamon_01/sm_rd,8,8, , ,8,8,8,8,8,8,8,8,8,8,8, ,8,8,8, , , ,8,9,10,10,10,10,10,10,10, ,10, , 
238,levels/gta5/_cityw/venice_01/vb_02, , , , , , , , , , , , , , , , , , , , , , , , , , , , , , ,8, ,8, , 
239,levels/gta5/_cityw/venice_01/vb_03,5,5, , ,5,1,1,1,1,1,1,1,1,1,1,1,1,1,1, , , ,1,1,1,1,1,1,1,1,1, ,1, , 
240,levels/gta5/_cityw/venice_01/vb_04,3,3, , ,3,3,3,6,6,6,6,6,6,6,6,6,6,6,6, , , ,6,6,6,6,6,6,6,6,6, ,6, , 
241,levels/gta5/_cityw/venice_01/vb_05,10,10, , ,7,7,7,7,7,7,7,7,7,7,7,7,7,7,7, , , ,7,7,7,7,7,7,7,7,7, ,7, , 
242,levels/gta5/_cityw/venice_01/vb_07, , , , , , , , , , , , , , , , , , , , , , , , , ,10,10,10,10,10,10, ,10, , 
243,levels/gta5/_cityw/venice_01/vb_10,14,14, , ,14,14,14,14,14,14,14,14,14,14,14,8,8,8,8, , , ,8,8,8,8,8,8,8,8, , , , , 
244,levels/gta5/_cityw/venice_01/vb_17,2,2, , , , , , , , , , , , , , , , , , , , , , , , , , , , , , , , , 
245,levels/gta5/_cityw/venice_01/vb_18,10, , , , , , , , , , , , , , , , , , , , , , , , , , , , , , , , , , 
246,levels/gta5/_cityw/venice_01/vb_20,14,14, , ,14,14,14,14,14,14,14,14,14, , , , , , , , , , , , , , , , , , , , , , 
247,levels/gta5/_cityw/venice_01/vb_21,4,4, , ,4,4,4,4,4,4,4,4,4,4,4,4,4,4,4, , , ,4,4,4,4,4,4,4,4,4, ,4, , 
248,levels/gta5/_cityw/venice_01/vb_22,9,9, , ,9,9,9,9,9, , , , , , , , , , , , , , , , , , , , , ,5, ,3, , 
249,levels/gta5/_cityw/venice_01/vb_23,4,10, , ,10,10,10,10,10,10,10,10,10,10,10,8,8,8,8, , , ,8,8,8,8,8,8,8,8,8, ,6, , 
250,levels/gta5/_cityw/venice_01/vb_24, ,7, , ,7,7,7,7,7,7,7,7,7,7,3,3,3,3,3, , , ,3,3,3,3,3,3,3,3,3, ,3, , 
251,levels/gta5/_cityw/venice_01/vb_25, , , , , , , , , , , , , , ,1,1,1,1,1, , , ,1,1,1,8,8,8,8,8,8, ,6, , 
252,levels/gta5/_cityw/venice_01/vb_27,5,5, , ,5,5,5, , , , , , , , , , , , , , , , , , , , , , , , , , , , 
253,levels/gta5/_cityw/venice_01/vb_28,5,5, , ,5,5,5,5,6,6,6,6,6,6,6,6,6,6,6, , , ,6,6,6,6,6,6,6,6,6, ,6, , 
254,levels/gta5/_cityw/venice_01/vb_30,8,8, , ,8,8,8,8,8,8,8,8,8,8, , , , , , , , , , , , , , , , , , ,10, , 
255,levels/gta5/_cityw/venice_01/vb_32, , , , , , , , , , , , , , , , , , , , , , , , , , , , , , , , ,5, , 
256,levels/gta5/_cityw/venice_01/vb_33,16,16, , ,16,16,16,16,16,16,16,16,16,16,16,16,16,16,16, , , ,16,16,16,16,16,7,7,7,7, ,1, , 
257,levels/gta5/_cityw/venice_01/vb_34,12,13, , ,13,13,13,13,13,13,13,13,13,13,13,11,11,11,11, , , ,10,10,10,10,10,10,10,12,12, ,12, , 
258,levels/gta5/_cityw/venice_01/vb_35,6,6, , ,6,6,6,6,6,6,6,6,6, ,2,2,2,2,2, , , ,2,2,1,1,1,1,1, , , , , , 
259,levels/gta5/_cityw/venice_01/vb_36,9,9, , ,9,9,9,9,9,9,9,9,9,9,9,9,9,9,9, , , ,9,9,9,9,9,9,9,6,6, ,6, , 
260,levels/gta5/_cityw/venice_01/vb_38,9,9, , ,9,9,9,9,9,9,8,8,8,8,8, , , , , , , , , , , , , , , ,1, ,2, , 
261,levels/gta5/_cityw/venice_01/vb_39, , , , , ,2,2,2,3,2, , , , , , , , , , , , , , , , , , , , , , , , , 
262,levels/gta5/_cityw/venice_01/vb_44, , , , , , , , , , , , , , , , , , , , , , , , , , , , , , , , ,5, , 
263,levels/gta5/_cityw/venice_01/vb_ca,2,2, , ,6,6,6,6,6,6,6,6,6,6,6,5,5,5,5, , , ,5,5,2,3,3,3,3, , , , , , 
264,levels/gta5/_cityw/venice_01/vb_rd,1,1, , ,1,1,1,1, , , , , , , , , , , , , , , , , , , , , , , , , , , 
265,levels/gta5/_hills/cityhills_01/ch1_01,8,8, , ,8,8,8,8,8,8,8,8,8,8,8,8,8,8,8, , , ,8,7,7,7,7,7,7,7,8, ,8, , 
266,levels/gta5/_hills/cityhills_01/ch1_02,1,1, , ,1,1,1,1,1,1,1,1,1,1,1,1,1,1,1, , , ,1,1,1,1,1,1,1,1,1, ,1, , 
267,levels/gta5/_hills/cityhills_01/ch1_03,4,4, , ,4,4,4,4,4,4,4,4,4,4,4,4,4,4,4, , , ,4,4,3,3,3,3,3,3,4, ,5, , 
268,levels/gta5/_hills/cityhills_01/ch1_04,10,10, , ,10,10,10,10,10,10,10,10,10,10,10,10,10,10,10, , , ,10,10,10,10,10,10,10,10,10, ,10, , 
269,levels/gta5/_hills/cityhills_01/ch1_04b,3,8, , ,8,8,8,8,8,8,8,8,8,8,8,8,8,8,8, , , ,8,8,8,8,8,8,8,8,22, ,22, , 
270,levels/gta5/_hills/cityhills_01/ch1_05b,2,2, , ,2,2,2,2,2,2,2,2,2,2,2,2,2,2,2, , , ,2,2,2,2,2,2,2,2,2, ,2, , 
271,levels/gta5/_hills/cityhills_01/ch1_06,1,1, , ,1,1,1,1,1,1,1,1,1,1,1,1,1,1,1, , , ,1,1,1,1,1,1,1,1,1, ,1, , 
272,levels/gta5/_hills/cityhills_01/ch1_06b,16,16, , ,16,16,16,16,16,16,16,16,16,16,16,16,16,16,16, , , ,16,16,16,16,16,16,16,2,2, ,2, , 
273,levels/gta5/_hills/cityhills_01/ch1_06c,1,1, , ,1,1,1,1,1,1,1,1,1,1,1,1,1,1,1, , , ,1,1,1,1,1,1,1,1,1, ,1, , 
274,levels/gta5/_hills/cityhills_01/ch1_06f,12,12, , ,12,12,12,12,12,12,12,12,12,12,12,12,12,12,12, , , ,12,12,12,12,12,12,12,12,9, ,2, , 
275,levels/gta5/_hills/cityhills_01/ch1_07,1,1, , ,1,1,1,1,1,1,1,1,1,1,1,1,1,1,1, , , ,1,1,1,1,1,1,1,1,1, ,1, , 
276,levels/gta5/_hills/cityhills_01/ch1_09,21,21, , ,21,21,21,21,21,22,22,22,22,22,22,22,22,22,22, , , ,22,2,2,2,2,1,1,1,1, ,1, , 
277,levels/gta5/_hills/cityhills_01/ch1_09b,10,10, , ,10,10,10,10,10,10,10,10,10,10,10,10,10,10,10, , , ,10,10,10,10,10,10,10,10,10, ,10, , 
278,levels/gta5/_hills/cityhills_01/ch1_10,6,6, , ,6,6,6,6,6,6,6,6,6,6,11,11,11,11,11, , , ,11,11,11,11,11,11,11,11,11, ,12, , 
279,levels/gta5/_hills/cityhills_01/ch1_11,21,21, , ,21,21,21,21,21,21,21,21,21,21,21,27,27,27,27, , , ,27,27,27,27,27,27,27,27,26, ,26, , 
280,levels/gta5/_hills/cityhills_01/ch1_12,3,3, , ,3,3,3,3,3,3,3,3,3,3,3,3,3,3,3, , , ,3,3,3,3,3,3,3,3,4, ,4, , 
281,levels/gta5/_hills/cityhills_01/ch1_roads, ,1, , ,1,1,1,1,1,1,1,1,1,1,1,1,1,1,1, , , ,1,1,1,1,1,1,1, , , , , , 
282,levels/gta5/_hills/cityhills_01/ch1_roadsb,7,7, , ,7,7,7,7,7,7,7,7,7,7,7,7,7, , , , , , , , , , , , , , , , , , 
283,levels/gta5/_hills/cityhills_01/ch1_roadsc,7,7, , ,7,7,7,7,7,7,7,7,7,7,7,7,7,7,7, , , ,7,7,7,7,7,7,2,6,6, ,6, , 
284,levels/gta5/_hills/cityhills_01/ch1_roadsd,6,3, , ,3,3,3,3,3,3,3,3,3,3,3,3,3,3,3, , , ,3,3,1,1,1,1,1,1,1, ,1, , 
285,levels/gta5/_hills/cityhills_01/cityhills_01,1,1, , ,1,1,1,1,1,2,2,2,2,2,2,2,2,2,2, , , ,2,2,2,2,2,1,1,1,1, ,1, , 
286,levels/gta5/_hills/cityhills_02/ch2_01b,5,5, , ,5,5,5,5,5,5,5,5,5,5,5,5,5,5,5, , , ,5,5,4,4,4,4,4,4,4, , , , 
287,levels/gta5/_hills/cityhills_02/ch2_01c, , , , , , , , , , , , , , , , , , , , , , , , , , , , , , , , ,4, , 
288,levels/gta5/_hills/cityhills_02/ch2_03,1,1, , ,1,1,1,1,1,1,1,1,1,1,1,1,1,1,1, , , ,1,1,1,1,1,1,1,1,1, ,1, , 
289,levels/gta5/_hills/cityhills_02/ch2_03c, , , , , , , , , , , , , , , ,7,7,7,7, , , ,7,7,7,7,7,7,7,7,7, ,7, , 
290,levels/gta5/_hills/cityhills_02/ch2_04,24,24, , ,24,24,24,24,24,24,24,24,24,24,24,24,24,24,24, , , ,24,24,11,11,1,1,1,1,1, ,1, , 
291,levels/gta5/_hills/cityhills_02/ch2_05d, , , , , , , , , , , , , , , , ,1,1,1, , , ,1,1,1,1,1,1,1,1,1, ,1, , 
292,levels/gta5/_hills/cityhills_02/ch2_05e, , , , , , , , , , , , , , , , , , , , , , , , , , , , , , ,1, ,4, , 
293,levels/gta5/_hills/cityhills_02/ch2_05f,1,1, , ,1,1,1,1,1,1,1,1,1,1,1,1,1,1,1, , , ,1,1,1,1,1,1,1,1, , , , , 
294,levels/gta5/_hills/cityhills_02/ch2_06,2,2, , ,2,2,2,2,2,2,2,2,2,2,2,2,2,2,2, , , ,2,2,2,2,2,2,2,2,2, , , , 
295,levels/gta5/_hills/cityhills_02/ch2_07b, , , , ,2,2,2,2,2,2,2,2,2,2,2,2,2,2,2, , , ,2,2,2,2,2,2,2,15,15, ,15, , 
296,levels/gta5/_hills/cityhills_02/ch2_07c,1,1, , ,1,1,1,1, , , , , , , , , , , , , , , , , , , , , , , , , , , 
297,levels/gta5/_hills/cityhills_02/ch2_07d,5,5, , ,5,5,5,5,5,10,13,12,1,1,1,5,5,5,5, , , ,5,5,5,5,5,5,5,9,9, ,7, , 
298,levels/gta5/_hills/cityhills_02/ch2_08,7,7, , ,7,7,7,7,7,7,7,7,7,7,7,2,7,6,6, , , ,6,6,2,2,2,2,2,2,7, ,19, , 
299,levels/gta5/_hills/cityhills_02/ch2_08b,4,4, , ,4,4,4,4,4,4,4,4,4,4,4,4,4,4,4, , , ,4,4,4,4,4,4,4,4,4, ,4, , 
300,levels/gta5/_hills/cityhills_02/ch2_09b, , , , , , , , , , , , , , , , , , , , , , , , ,7,7,7,6,6,6,6, ,7, , 
301,levels/gta5/_hills/cityhills_02/ch2_10,25,25, , ,25,25,25,25,25,25,25,25,25,25,25,1,1,1,1, , , ,1,1,1,1,1,1,1,1,1, ,1, , 
302,levels/gta5/_hills/cityhills_02/ch2_11,1,1, , ,1,1,1,1,1,1,1,1,1,1,3,3,3,3,3, , , ,3,3,3,3,3,3,3,3,3, ,6, , 
303,levels/gta5/_hills/cityhills_02/ch2_11b,2,2, , ,2,2,2,2,2,2,2,2,2,2,2,2,2,2,2, , , ,2,2, , , , , , , , , , , 
304,levels/gta5/_hills/cityhills_02/ch2_12b,9,9, , ,9,9,9,9,9,9, , , , , , , , , , , , , , , ,5,5,5,5,5,4, ,5, , 
305,levels/gta5/_hills/cityhills_02/ch2_roads,2,2, , ,2,2,2,2,2,2,2,2,2,2,2,2,2,2,2, , , ,2,2,2,2,2,1,1,1,1, ,6, , 
306,levels/gta5/_hills/cityhills_02/ch2_roadsa,1,1, , , , , , , , , , , , , , , , , , , , , , , , , , , , , , ,2, , 
307,levels/gta5/_hills/cityhills_02/ch2_roadsb,3,3, , ,3,3,3,3,3,3,3,3,3,3,3,3,3,3,3, , , ,3,3,3,3,3,3,4,6,8, ,8, , 
308,levels/gta5/_hills/cityhills_03/ch3_01,10,7, , ,7,7,7,7,7,7,7,7,7,2,2,8,8,8,8, , , ,8,8,8,8,8,8,8,8,8, ,8, , 
309,levels/gta5/_hills/cityhills_03/ch3_03,8,8, , ,8,8,8,8,8,8,8,8,8,8,8,8,8,8,8, , , ,8,8,8,8,8, ,8,8,8, ,8, , 
310,levels/gta5/_hills/cityhills_03/ch3_04,3,3, , ,3,3,3,3,3,3,3,3,3,3,3,3,3,3,3, , , ,3,3,3,3,3, ,3,5,13, ,13, , 
311,levels/gta5/_hills/cityhills_03/ch3_06,2,2, , ,2,2,2,2,2,2,2,2,2,4,4,4,4,4,4, , , ,4,4,4,4,4, ,4,4,4, ,4, , 
312,levels/gta5/_hills/cityhills_03/ch3_08,5,4, , ,4,4,4,4,4,4,4,4,4,4,4,4,4,4,4, , , ,4,4,4,6,6, ,6,6,4, ,4, , 
313,levels/gta5/_hills/cityhills_03/ch3_10,2,2, , ,2,2,2,2,2,2,2,2,2,2,2,2,2,2,2, , , ,2,2,2,2,2, ,2,2,2, ,31, , 
314,levels/gta5/_hills/cityhills_03/ch3_11,3,3, , ,3,3,3,3,3,3,3,3,3,3,3,3,3,3,3, , , ,3,3,3,3,3, ,3,3,4, ,5, , 
315,levels/gta5/_hills/cityhills_03/ch3_12,16,16, , ,16,16,16,16,16,16,16,16,16,16,16,16,16,16,16, , , ,16,16,16,16,16, ,16,16,16, ,16, , 
316,levels/gta5/_hills/cityhills_03/ch3_13,3,3, , ,3,3,3,3,3,3,3,3,3,3,3,4,4,4,4, , , ,4,4,4,4,4, ,4,4,4, ,4, , 
317,levels/gta5/_hills/cityhills_03/ch3_railway,1,1, , ,1,1,1,1,1,1,1,1,1,1,1,1,1,1,1, , , ,1,1,1,1,1, ,1,1,1, ,1, , 
318,levels/gta5/_hills/cityhills_03/ch3_railwyb,1,1, , ,1,1,1,1,1,1,1,1,1,1,1,1,1,1,1, , , ,1,1,1,1,1, ,1,1,1, ,1, , 
319,levels/gta5/_hills/cityhills_03/ch3_rd1,3,3, , ,3,3,3,3,3,3,3,3,3,3,3,3,3,3,3, , , ,3,3,3,3,3, ,3,3,3, ,3, , 
320,levels/gta5/_hills/cityhills_03/ch3_rd1a,1,1, , ,1,1,1,1,1,1,1,1,1,1,1,1,1,1,1, , , ,1,1,1,1,1, ,1,1, , ,1, , 
321,levels/gta5/_hills/cityhills_03/ch3_rd1b, , , , , , , , , , , , , , , , ,1,1,1, , , ,1,1,1,1,1, ,1,1,1, ,1, , 
322,levels/gta5/_hills/cityhills_03/ch3_rd2,2,2, , ,2,2,2,2,2,2,2,2,2,2,2,2,2,2,2, , , ,2,2,2,2,2, ,2,2,2, ,2, , 
323,levels/gta5/_hills/cityhills_03/ch3_rd2b,4,4, , ,4,4,4,4,4,4,4,4,4,4,4,4,4,4,4, , , ,4,4,4,4,4, ,4,4,4, ,4, , 
324,levels/gta5/_hills/country_01/country_01, , , , , , , , , , , , , ,3,3,3,3,3,3, , , ,3, , , , , , , , , , , , 
325,levels/gta5/_hills/country_01/cs1_01,1,1, , ,1,1,1,1,1,1,1,1,1,1,2,1, , , , , , , , , , , , ,1,1,1, ,1, , 
326,levels/gta5/_hills/country_01/cs1_02,6,6, , ,6,6,6,6,6,6,6,6,6,6,6,6,6,6,6, , , ,6,3,3,3,3,4,4,3,3, ,3, , 
327,levels/gta5/_hills/country_01/cs1_03,9,9, , ,9,9,9,9,9,9,9,9,9,9,9,9,9,9,9, , , ,8,8,8,8,7,7,4,5,5, ,8, , 
328,levels/gta5/_hills/country_01/cs1_04,20,17, , ,17,17,17,17,17,17,17,17,17,17,17,17,17,17,17, , , ,17,17,17,17,17,3,3,3,3, ,3, , 
329,levels/gta5/_hills/country_01/cs1_05,32,32, , ,32,32,32,32,32,32,32,32,32,32,32,32,32,32,32, , , ,32,32,32,32,7,8,8,8,8, ,8, , 
330,levels/gta5/_hills/country_01/cs1_06,29,29, , ,29,29,29,29,29,29,29,29,29,29,29,30,30,30,32, , , ,32,32,32,32,20,20,20,22,16, ,7, , 
331,levels/gta5/_hills/country_01/cs1_07,38,38, , ,38,38,38,38,38,38,38,38,38,38,38,38,38,38,38, , , ,25,27,27,27,24,24,13,14,13, ,9, , 
332,levels/gta5/_hills/country_01/cs1_08,18,18, , ,18,18,18,18,18,18,18,18,18,18,18,18,18,18,18, , , ,18,18,18,18,18,18,18,18,15, ,15, , 
333,levels/gta5/_hills/country_01/cs1_09,7,7, , ,7,7,7,7,7,7,7,7,7,7,7,7,7,7,7, , , ,7,7,7,7,7,7,7,7,10, ,10, , 
334,levels/gta5/_hills/country_01/cs1_10,5,5, , ,5,5,5,5,5,5,5,5,5,5,5,5,5,5,5, , , ,5,6,6,6,6,6,6,6,6, ,5, , 
335,levels/gta5/_hills/country_01/cs1_11,10,10, , ,10,10,10,10,10,10,10,10,10,10,10,10,10,10,10, , , ,10,10,10,10,10,10,10,10,10, ,10, , 
336,levels/gta5/_hills/country_01/cs1_11b,12,12, , ,12,12,12,12,12,12,12,12,12,12,12,13,13,13,13, , , ,13,12,12,12,12,12,12,12,12, ,12, , 
337,levels/gta5/_hills/country_01/cs1_12,9,9, , ,9,9,9,9,9,9,9,9,10,11,11,8,8,8,8, , , ,8,19,24,24,24,24,24,24,24, ,24, , 
338,levels/gta5/_hills/country_01/cs1_13,2,2, , ,2,2,2,2,2,2,2,2,2,2,2,2,2,2,2, , , ,2,2,2,2,2,2,2,2,2, ,2, , 
339,levels/gta5/_hills/country_01/cs1_14,4,4, , ,4,4,4,4,4,4,4,4,4,4,4,4,4,4,4, , , ,4,4,4,4,4,4,4,4,4, ,4, , 
340,levels/gta5/_hills/country_01/cs1_14b,6,6, , ,6,6,6,6,6,6,5,5,5,5,5,5,5,5,5, , , ,5,5,5,5,5,5,5,5,5, ,5, , 
341,levels/gta5/_hills/country_01/cs1_15,4,4, , ,4,4,4,4,4,4,4,4,4,4,4,4,4,4,4, , , ,4,4,4,5,5,5,5,5,5, ,5, , 
342,levels/gta5/_hills/country_01/cs1_15b,3,3, , ,3,3,3,3,3,3,3,3,3,3,3,3,3,3,3, , , ,3,3,3,3,2,2,2,2,2, ,2, , 
343,levels/gta5/_hills/country_01/cs1_15c,8,8, , ,8,8,8,8,8,8,8,8,9,9,9,9,9,9,9, , , ,9,9,9,9,7,7,7,7,7, ,7, , 
344,levels/gta5/_hills/country_01/cs1_16,24,24, , ,24,24,24,24,24,24,24,24,24,24,24,24,24,24,24, , , ,24,24,24,24,24,24,24,24,25, ,18, , 
345,levels/gta5/_hills/country_01/cs1_railwyb,3,3, , ,3,3,3,3,3,3,3,3,3,3,3,3,3,3,3, , , ,3,3, , , , , , , , , , , 
346,levels/gta5/_hills/country_01/cs1_railwyc,3,3, , ,3,3,3,3,3,3,3,3,3,3,3,3,3,3,3, , , ,3,3, , , , , , , , , , , 
347,levels/gta5/_hills/country_01/cs1_roads,6,6, , ,6,6,6,6,6,6,6,6,6,6,6,6,6,6,6, , , ,6,6,6,6,6,6,6,6,6, ,6, , 
348,levels/gta5/_hills/country_01/cs1_roads_pb,22,22, , ,22,22,22,22,22,22,22,22,22,22,22,22,22,22,22, , , ,22,6,6,6,6,6,6,6,6, ,6, , 
349,levels/gta5/_hills/country_01/cs1_roadsa,3,3, , ,3,3,3,3,3,3,3,3,3,3,3,3,3,3,3, , , ,3,3,3,3,3,3,1,3,3, ,2, , 
350,levels/gta5/_hills/country_02/cs2_01,16,16, , ,16,16,16,16,16,16,16,16,16,16,16,26,26,26,26, , , ,26,26,26,26,26,16,16,16,16, ,16, , 
351,levels/gta5/_hills/country_02/cs2_02,6,6, , ,6,6,6,6,6,6,6,6,6,6,6,6,6,6,6, , , ,4,5,5,5,5,5,5,5,5, ,5, , 
352,levels/gta5/_hills/country_02/cs2_03,20,20, , ,20,20,20,20,20,20,20,20,20,20,20,20,20,20,20, , , ,20,21,20,20,24,21,25,17,22, ,22, , 
353,levels/gta5/_hills/country_02/cs2_04,10,10, , ,10,10,10,10,10,10,10,10,10,10,10,10,10,10,10, , , ,10,10,10,10,10,10,10,10,10, ,10, , 
354,levels/gta5/_hills/country_02/cs2_08,3,3, , ,3,3,3,3,3,3,3,3,3,3,3,3,3,3,3, , , ,3,3,3,3,4,4,4,4,4, ,4, , 
355,levels/gta5/_hills/country_02/cs2_09,10,10, , ,10,10,10,10,10,10,10,10,10,10,10,10,10,10,10, , , ,10,10,10,10,10,10,10,10,10, ,10, , 
356,levels/gta5/_hills/country_02/cs2_10,2,2, , ,2,2,2,2,2,2,2,2,2,2,2,2,2,2,2, , , ,2,2,2,2,2,2,2,2,2, ,2, , 
357,levels/gta5/_hills/country_02/cs2_11,16,16, , ,16,16,16,16,16,16,16,16,16,16,16,16,16,16,16, , , ,16,16,16,16,16,16,16,16,16, ,16, , 
358,levels/gta5/_hills/country_02/cs2_29,6,6, , ,6,6,6,6,6,6,6,6,6,6, , , , , , , , , , , , , , , , , , ,1, , 
359,levels/gta5/_hills/country_02/cs2_30,1,1, , ,1,1,1,1,1,1,1,1,1,1,1, , , , , , , , , , , , , , , , , , , , 
360,levels/gta5/_hills/country_02/cs2_railway,1,1, , ,1,1,1,1,1,1,1,1,1,1,1,1,1,1,1, , , ,1,1, ,3,4,4,4,4,4, ,4, , 
361,levels/gta5/_hills/country_02/cs2_railwyc, , , , , , , , , , , , , , , , , , , , , , , , , , ,1,1,1,1,1, ,1, , 
362,levels/gta5/_hills/country_02/cs2_roads,1,1, , ,1,1,1,1,1,1,2,1,1,1,1,1,1,1,1, , , ,1,1,1,1,1,1,2,2,1, ,1, , 
363,levels/gta5/_hills/country_02/cs2_roadsb,14,14, , ,14,14,14,14,14,14,14,14,14,14,14,18,18,18,18, , , ,18,18,18,18,18,18,18,18,18, ,18, , 
364,levels/gta5/_hills/country_03/cs3_01,6,6, , ,6,6,6,6,6,6,6,6,6,6,6,6,6,6,6, , , ,6,6,6,6,6,6,6,6,6, ,6, , 
365,levels/gta5/_hills/country_03/cs3_02,6,6, , ,6,6,6,6,6,6,6,6,6,6,6,6,6,6,6, , , ,6,6,6,6,6,6,6,6,6, ,6, , 
366,levels/gta5/_hills/country_03/cs3_03,3,3, , ,3,3,3,3,3,3,3,3,3,3,3,3,3,3,3, , , ,3,3,3,3,3,3,3,3,3, ,3, , 
367,levels/gta5/_hills/country_03/cs3_04,33,33, , ,29,33,33,33,33,33,33,33,33,46,46,46,91,91,91, , , ,91,91,75,75,75,39,33,38,32, ,25, , 
368,levels/gta5/_hills/country_03/cs3_05,1,1, , ,1,1,1,1,1,1,1,1,1,1,1,1,1,1,1, , , ,1,1,1,1,1,1,1,1,1, ,1, , 
369,levels/gta5/_hills/country_03/cs3_06,2,2, , ,2,2,2,2,2,2,2,2,2,2,2,2,2,2,2, , , ,2,2,2,3,3,3,3,4,3, ,2, , 
370,levels/gta5/_hills/country_03/cs3_07,33,34, , ,42,42,42,42,43,43,42,42,44,39,57,57,57,53,53, , , ,53,53,52,52,52,52,51,38,34, ,34, , 
371,levels/gta5/_hills/country_03/cs3_08,22,22, , ,22,14,14,14,14,14,14,14,14,14,14,14,14,14,14, , , ,14,14,10,10,10,10,10,10,10, ,10, , 
372,levels/gta5/_hills/country_03/cs3_08b,2,2, , ,2,2,2,2,2,2,2,2,4,4,4,4,4,4,4, , , ,4,4, , , , , , , , , , , 
373,levels/gta5/_hills/country_03/cs3_08e, , , , , , , , , , , , , , , , , , , , , , , , ,2,2,2,2,2,2,2, ,2, , 
374,levels/gta5/_hills/country_03/cs3_08f, , , , , , , , , , , , , , , , , , , , , , , , ,2,2,2,2,2,2,2, ,2, , 
375,levels/gta5/_hills/country_04/cs4_01,5,5, , ,5,5,5,5,5,5,5,5,5,5,5,5,5,5,5, , , ,5,5,5,5,5,5,5,5,5, ,5, , 
376,levels/gta5/_hills/country_04/cs4_02,13,13, , ,13,13,13,13,13,13,13,13,14,14,14,15,15,15,16, , , ,16,16,19,20,20,18,18,18,17, ,17, , 
377,levels/gta5/_hills/country_04/cs4_03,23,23, , ,23,23,23,23,23,23,23,23,23,23,23,19,19,19,19, , , ,19,19,19,19,19,19,19,18,18, ,21, , 
378,levels/gta5/_hills/country_04/cs4_04,21,21, , ,21,21,21,21,21,21,21,21,21,21,21,1,1,1,1, , , ,1,1,1,1,6,7,7,7,7, ,8, , 
379,levels/gta5/_hills/country_04/cs4_05,13,13, , ,13,13,13,13,13,13,15,15,15,15,15,15,15,15,15, , , ,15,15,15,15,15,15,15,15,15, ,15, , 
380,levels/gta5/_hills/country_04/cs4_06,25,25, , ,25,17,17,17,17,17,17,17,17,12,12,12,12,12,12, , , ,12,12,12,12,12,12,12,12,14, ,14, , 
381,levels/gta5/_hills/country_04/cs4_07,1,1, , ,1,1,1,1,1,1,1,1,1,1,1,1,1,1,1, , , ,1,1,1,1,1,1,1,1,1, , , , 
382,levels/gta5/_hills/country_04/cs4_08,1,1, , ,1,1,1,1,1,1,1,1,1,1,1,1,1,1,1, , , ,1,1,1,1,1,1,1,1,1, ,1, , 
383,levels/gta5/_hills/country_04/cs4_09,3,3, , ,3,3,3,3,3,3,3,3,3,3,3,4,4,4,4, , , ,4,4,4,4,4,4,4,4,4, ,4, , 
384,levels/gta5/_hills/country_04/cs4_10,15,12, , ,12,12,12,12,12,12,12,12,12,12,12,13,13,13,13, , , ,13,13,13,13,13,13,13,13,19, ,26, , 
385,levels/gta5/_hills/country_04/cs4_11,11,11, , ,11,11,11,11,11,11,11,11,11,11,11,11,11,11,11, , , ,11,11,11,11,11,11,11,11,11, ,12, , 
386,levels/gta5/_hills/country_04/cs4_12,1,1, , ,1,1,1,1,1,1,1,1,1,1,1,1,1,1,1, , , ,1,1,1,1,1,1,1,1,1, ,1, , 
387,levels/gta5/_hills/country_04/cs4_13,22,22, , ,21,21,21,21,21,21,21,21,21,21,21,21,21,21,21, , , ,21,23,23,23,23,33,33,33,33, ,33, , 
388,levels/gta5/_hills/country_04/cs4_14,3,3, , ,3,3,3,3,3,3,3,3,3,3,3,3,3,3,3, , , ,3,3,3,3,3,3,3,3,3, ,3, , 
389,levels/gta5/_hills/country_04/cs4_railway, , , , , , , , , , , , , , , , , , , , , , , , , ,1, , , , , , , , , 
390,levels/gta5/_hills/country_04/cs4_railwayb, , , , , , , , , , , , , , , , , , , , , , , , , , ,1,1,1,1,1, ,1, , 
391,levels/gta5/_hills/country_04/cs4_roads,2,2, , ,2,2,2,2,2,2,2,2,2,2,2,2,2,2,2, , , ,2,2,2,2,2,2,2,2,2, ,2, , 
392,levels/gta5/_hills/country_04/cs4_roadsb,3,3, , ,3,3,3,3,3,3,3,3,3,3,3,3,3,3,3, , , ,3,3,4,4,4,4,4,4,5, ,4, , 
393,levels/gta5/_hills/country_05/cs5_1,2,2, , ,2,2,2,2,2,2,2,2,2,2,2,2,2,2,2, , , ,2,2,2,2,2,2,2,2,2, ,2, , 
394,levels/gta5/_hills/country_05/cs5_3,18,18, , ,16,16,16,16,16,16,16,16,16,16,16,16,16,16,16, , , ,19,19,19,19,22,22,22,22,22, ,22, , 
395,levels/gta5/_hills/country_05/cs5_4,3,3, , ,4,4,4,4,4,4,4,4,4,4,4,4,6,6,4, , , ,5,4,5,4,5,5,5,5,5, ,7, , 
396,levels/gta5/_hills/country_05/cs5_roads,5,5, , ,5,5,5,5,5,5,5,5,5,5,5,5,5,5,5, , , ,5,1,1,1,1,2,2,2,2, ,2, , 
397,levels/gta5/_hills/country_06/cs6_01,9,9, , ,9,9,9,9,9,9,9,9,9,9,9,9,9,9,9, , , ,9,9,9,9,9,9,9,9,9, ,9, , 
398,levels/gta5/_hills/country_06/cs6_03,7,7, , ,7,7,7,7,7,7,7,7,7,7,7, , , , , , , , , , ,13,13,13,13,13,12, ,12, , 
399,levels/gta5/_hills/country_06/cs6_04,17,12, , ,12,12,12,12,12,12,12,12,12,12,12,12,12,12,12, , , ,12,12,12,10,15,15,15,15,4, ,9, , 
400,levels/gta5/_hills/country_06/cs6_05,25,25, , ,25,25,25,25,25,25,24,24,24,24,24,28,28,28,28, , , ,28,28,28,18,18,18,18,18,18, ,18, , 
401,levels/gta5/_hills/country_06/cs6_06,14,14, , ,14,14,14,13,13,13,13,13,13,13,13,13,13,13,13, , , ,13,13,13,13,13,13,13,13,13, ,13, , 
402,levels/gta5/_hills/country_06/cs6_08,3,3, , ,3,3,3,3,3,3,3,3,3,3,3,3,3,3,3, , , ,3,3,3,3,3,3,3,3,3, ,3, , 
403,levels/gta5/_hills/country_06/cs6_08a,11,11, , ,11,11,11,11,11,11,11,11,11,11,11,11,11,11,11, , , ,11,11,11,11,11,11,11,11,11, ,11, , 
404,levels/gta5/_hills/country_06/cs6_09,2,2, , ,2,2,2,2,2,2,2,2,2,2,2,2,2,2,2, , , ,2,2,2,2,2,2,2,2,1, ,1, , 
405,levels/gta5/_hills/country_06/cs6_10,14,14, , ,14,14,14,14,14,14,14,14,14,14,14,14,14,14,14, , , ,14,14,14,14,14,12,12,12,12, ,12, , 
406,levels/gta5/_hills/country_06/cs6_roads,21,21, , ,21,21,21,21,21,21,21,21,21,21,21,21,21,21,21, , , ,21,21,21,21,21,4,4,4,4, ,4, , 
407,levels/gta5/_hills/country_06/cs6_roadsb,18,18, , ,18,18,18,10,10,10,10,10,10,10,10,10,10,10,10, , , ,10,10,10,10,10,10,12,12,14, ,14, , 
408,levels/gta5/_hills/country_06/cs6_roadsc,3,3, , ,3,3,3,3,3,3,3,3,3,3,3,3,3,3,3, , , ,3,3,3,3,3,3,3,6,6, ,6, , 
409,levels/gta5/_prologue/plg_01,3,5, , ,3,3,3,3,3,3,3,3,3,3,3,3,3,3,3, , , ,1,1,1,3,3,3,3,3,1, ,1, , 
410,levels/gta5/_prologue/plg_03,6,6, , ,6,6,6,6,6,6,6,6,6,6,6,6,6,6,6, , , ,6,6,6,6,6,6,6,6,6, ,6, , 
411,levels/gta5/_prologue/plg_04,4,4, , ,4,4,4,4,4,4,4,4,4,4,4,4,4,4,4, , , ,1,4,4,4,4,4,4,4,4, ,4, , 
412,levels/gta5/_prologue/plg_05,4,4, , ,4,4,4,4,4,4,4,4,4,4,4,5,5,5,6, , , ,6,6,7,7,7,7,7,7,7, ,7, , 
413,levels/gta5/_prologue/plg_06,3,3, , ,3,3,3,3,3,3,3,3,3,3,3,3,3,3,3, , , ,3,3,4,4,4,4,4,4,4, ,4, , 
414,levels/gta5/_prologue/plg_rd,3,3, , ,3,3,3,3,3,3,3,3,3,3,3,3,3,3,3, , , ,3,3,3,3,3,3,3,3,3, ,3, , 
415,levels/gta5/cloudhats/v_clouds,9,9, , ,9,9,9,9,9,9,9,9,9,9,9,9,9,9,9, , , ,9,9,9,9,9,9,9,9,9, ,8, , 
416,levels/gta5/destruction/exterior/des_jetsteal,11,11, , ,11,11,11,11,11,11,11,11,11,11,11,11,11,11,11, , , ,11,11,11,11,11,11,11,11,11, ,10, , 
417,levels/gta5/destruction/exterior/des_methtrailer,15,15, , ,15,15,15,15,15,15,15,15,15,15,15,15,28,28,28, , , ,28,28,28,28,28,28,28,28,28, ,28, , 
418,levels/gta5/destruction/exterior/des_setpiece,3,3, , ,3,3,3, , , , , , , , , , , , , , , , , , , , , , , , , , , , 
419,levels/gta5/destruction/exterior/des_shipsink, , , , , , , , , , , , , , , , , , , , , , , , , , , , , ,1,1, ,1, , 
420,levels/gta5/destruction/exterior/des_stilthouse, , , , , , , , , , , , , , , , , , , , , , , , , , ,1,1,1,5,5, ,5, , 
421,levels/gta5/destruction/exterior/des_trailerparkd, , , , , , , , , , , , , , , , ,16,16,16, , , ,16,16,16,16,16,16,16,16,16, ,16, , 
422,levels/gta5/destruction/exterior/des_traincrash,1,1, , ,1,1,1,1,1,1,1,1,1,1,1,1,1,1,1, , , ,1,1,1,1,1,1,1,1,1, ,1, , 
423,levels/gta5/destruction/interior/des_coroner_window, , , , , , , , , , , , , , , , , , , , , , , , , , , , , , ,1, ,1, , 
424,levels/gta5/destruction/interior/des_fib_glass,2,2, , ,2,2,2,2,2,2,2,2,2,2,2,2,2,2,2, , , ,2,2,2,2,2,2,2, , , ,1, , 
425,levels/gta5/destruction/interior/des_showroom, , , , , , , , , , , , , , , , , , , , , , , , , , , , , , ,1, , , , 
426,levels/gta5/generic/cutsobjects, , , , , , , , , , , , , , , , , , ,2, , , ,2,2,2,2,2,2,2,2,2, ,2, , 
427,levels/gta5/generic/gtxd,6,1, , ,6, , , , , , , , , ,2,2,1,1,1, , , ,1,15,16,6,6,15,15,10,9, ,8, , 
428,levels/gta5/interiors/int_props/int_corporate,2,2, , ,2,2,2,2,2,2,2,2,2,2,2, ,6,7,6, , , ,6,7,7,7,7,7,7,7,7, ,7, , 
429,levels/gta5/interiors/int_props/int_industrial,1,1, , ,1,1,1,1,1,1,1,1,1,1,1,3,3,3,3, , , ,3,3,3,3,3,3,3,3,2, ,2, , 
430,levels/gta5/interiors/int_props/int_lev_des,32,32, , ,31,31,31,31,31,31,31,31,31,31,31,32,33,23,47, , , ,47,47,48,50,50,50,49,51,55, ,58, , 
431,levels/gta5/interiors/int_props/int_medical,4,4, , ,4,4,4,4,4,4,4,4,4,4,4,8,8,16,16, , , ,16,16,16,16,16,16,16,16,16, ,16, , 
432,levels/gta5/interiors/int_props/int_residential,10,10, , ,10,10,10,10,10,10,10,10,10,10,10,11,11,15,15, , , ,15,15,15,15,15,15,15,15,15, ,11, , 
433,levels/gta5/interiors/int_props/int_retail,4,4, , ,4,4,4,4,4,4,4,4,4,5,5,5,5,10,10, , , ,10,10,10,10,10,7,7,7,7, ,7, , 
434,levels/gta5/interiors/int_props/int_services,6,6, , ,6,6,6,6,6,6,6,6,6,6,6,6,6,5,8, , , ,8,8,8,8,8,8,8,8,8, ,5, , 
435,levels/gta5/interiors/v_int_1,5,5, , ,5,5,5,5,5,5,5,5,5,5,5,5,5,5,5, , , ,5,5,5,3,3,3,3,3,5, ,5, , 
436,levels/gta5/interiors/v_int_10,2,2, , ,2,2,2,2,2,2,2,2,2,2,2,2,2,2,2, , , ,2,2,5,4,4,4,4,4,5, ,4, , 
437,levels/gta5/interiors/v_int_11, , , , , , , , , , , , , , , ,1,1,1,1, , , ,1,1,1, , , , , ,1, ,1, , 
438,levels/gta5/interiors/v_int_14,4,4, , ,2,2,2,1,1,1,1,1,1,1,1,1,1,1,1, , , ,1,1,2, , , , , ,2, ,2, , 
439,levels/gta5/interiors/v_int_15, , , , , , , , , , , , , ,1,1,1,1,1,1, , , ,1,1,1,1,1,1,1,3,3, ,3, , 
440,levels/gta5/interiors/v_int_19, , , , , , , , , , ,1,1,1, , , , , , , , , , , , , , , , , , , , , , 
441,levels/gta5/interiors/v_int_2,1,1, , ,1,1,1,1,1,1,1,1,1,1,1,1,1,1,1, , , ,1,1,2,1,1,1,1,1,2, ,2, , 
442,levels/gta5/interiors/v_int_20,2,2, , ,1,1,1,1,1,1,1,1,1,1,1,1,1,1,1, , , ,1,1,1,1,1,1,1,1,1, ,1, , 
443,levels/gta5/interiors/v_int_21,6,6, , ,6,6,6,6,6,6,6,6,6,6,6,6,6,6,6, , , ,6,6,6,6,6,6,6,6,6, ,6, , 
444,levels/gta5/interiors/v_int_22,1,1, , ,1,1,1,1,1,1,1,1,1,1,1,1,1,1,1, , , ,1,1,1,1,1,1,1,1,1, ,1, , 
445,levels/gta5/interiors/v_int_23,1,1, , ,1,1,1,1,1,1,1,1,1,1,1,1,1,1,1, , , ,1,1,1,1,1,1,1,1,1, ,1, , 
446,levels/gta5/interiors/v_int_24, , , , , , , , , , , , ,2,2,2,2,2,2,2, , , ,2,2,1, , , , , ,1, ,1, , 
447,levels/gta5/interiors/v_int_25,1,1, , ,1,1,1,1,1,1,1,1,1,1,1,2,2,2,2, , , ,2,2,2, , , , , ,2, ,2, , 
448,levels/gta5/interiors/v_int_26, , , , , , , , , , , , , , , , , , , , , , ,1,1,1,1,1,1,2,2,2, ,2, , 
449,levels/gta5/interiors/v_int_29, , , , , , , , , , , , , , , , , , , , , , , , , , , , , , , , ,1, , 
450,levels/gta5/interiors/v_int_3,1,1, , ,1,1,1,1,1,1,1,1,1,1,1,1,1,1,1, , , ,1,1,1,1,1,1,1,1,1, ,1, , 
451,levels/gta5/interiors/v_int_31,3,3, , ,3,3,3,3,3,3,3,3,3,4,4,4,4,4,4, , , ,4,4,4,3,3,3,2,2,3, ,3, , 
452,levels/gta5/interiors/v_int_34,1,1, , ,1,1,1,1,1,1,1,1,1,1,1,1,1,1,1, , , ,1,1,1, , , , , ,1, ,1, , 
453,levels/gta5/interiors/v_int_36, , , , , , , , , , , , , , , , , , , , , , , , ,1,1,1,1,1,1,1, ,1, , 
454,levels/gta5/interiors/v_int_38,3,3, , ,3,3,3,3,3,3,3,3,3,3,3,3,3,3,3, , , ,3,3,3,2,2,2,2,2,3, ,3, , 
455,levels/gta5/interiors/v_int_39,2,2, , ,2,2,2,2,2,2,2,2,2,2,2,1,1,1,1, , , ,1,1,1,1,1,1,1,1,1, ,1, , 
456,levels/gta5/interiors/v_int_41, , , , , , , , , , , , , , , , , , , , , , , , ,1, , , , , ,5, ,5, , 
457,levels/gta5/interiors/v_int_42,2,2, , ,2,2,2,2,2,2,2,2,2,2,2,2,2,2,2, , , ,2,2,2,2,2,2,2,2,2, ,2, , 
458,levels/gta5/interiors/v_int_43, , , , , , , , , , , , , , , , , , , , , , , ,2,2,3,3,3,3,3,3, ,5, , 
459,levels/gta5/interiors/v_int_46, , , , , , , , , , , , , , , , , , , , , , , , , , , ,5,5,5,5, ,5, , 
460,levels/gta5/interiors/v_int_47, , , , , , , , , , , , , , , , , , , , , , , , ,1, , , , , , , ,2, , 
461,levels/gta5/interiors/v_int_48, , , , , , , , , , , , , , , , , , , , , , , , ,1,1,1,1,1,1,1, ,1, , 
462,levels/gta5/interiors/v_int_49, , , , , , , , , , , , , , , , , , , , , , , , , , , , , ,3,3, ,3, , 
463,levels/gta5/interiors/v_int_51,1,1, , ,1,1,1,1,1,1,1,1,1,1,1,1,1,1,1, , , ,1,1,1,1,1,1,1,1, , , , , 
464,levels/gta5/interiors/v_int_52,1,1, , ,2,2,2,2,2,2,2,2,2,2,2,2,2,2,2, , , ,2,2,2,1,1,1,1,1,2, ,2, , 
465,levels/gta5/interiors/v_int_53,1,1, , ,1,1,1,1,1,1,1,1,1,1,1,1,1,1,1, , , ,1,1,2,1,1,1,1,1,2, ,2, , 
466,levels/gta5/interiors/v_int_54,4,4, , ,4,4,4,4,4,4,4,4,4,4,4,1,1,1,1, , , ,1,1,1,1,1,1,1,1,5, ,5, , 
467,levels/gta5/interiors/v_int_55,2,2, , ,2,2,2,2,2,2,2,2,2,2,2,2,2,2,2, , , ,2,2,3,2,2,2,2,2,3, ,3, , 
468,levels/gta5/interiors/v_int_56,3,3, , ,3,3,3,3,3,3,3,3,3,3,3,3,3,3,3, , , ,3,3,3,3,3,3,3,3,3, ,3, , 
469,levels/gta5/interiors/v_int_57,1,1, , ,1,1,1,1,1,1,1,1,1,1,1,1,1,1,1, , , ,1,1,1,1,1,1,1,1,1, ,1, , 
470,levels/gta5/interiors/v_int_60,1,1, , ,1,1,1,1,1,1,1,1,1,1,1,1,1,1,1, , , ,1,1,1, , , , , ,1, ,1, , 
471,levels/gta5/interiors/v_int_61,4,4, , ,4,4,4,4,4,4,4,4,4,4,4,4,4,4,4, , , ,4,4,4,3,3,3,3, ,1, ,1, , 
472,levels/gta5/interiors/v_int_62,1,1, , ,1,1,1,1,1,1,1,1,1,1,1, , , , , , , , , , , , , , , , , , , , 
473,levels/gta5/interiors/v_int_66,1,1, , ,1,1,1,1,1,1,1,1,1,1,1,1,1,1,1, , , ,1,1,1,1,1,1,1,1,1, ,1, , 
474,levels/gta5/interiors/v_int_68,1,1, , ,1,1,1,1,1,1,1,1,1,1,1,1,1,1,1, , , ,1,1,1, , , , , ,1, ,1, , 
475,levels/gta5/interiors/v_int_69,10,10, , ,10,10,10,10,10,10,10,10,10,10,10,9,9,9,9, , , ,9,9,9,8,8,8,8,8,9, ,9, , 
476,levels/gta5/interiors/v_int_7,1,1, , ,1,1,1,1,1,1,1,1,1,1,1,1,1,1,1, , , ,1,1,1,1,1,1,1,1,1, ,1, , 
477,levels/gta5/interiors/v_int_71,1,1, , ,1,1,1,1,1,1,1,1,1,1,1,1,1,1,1, , , ,1,1,1,1,1,1,1,1,1, ,1, , 
478,levels/gta5/interiors/v_int_8,1,1, , ,1,1,1,1,1,1,1,1,1,1,1,1,1,1,1, , , ,1,1,1, , , , , ,1, ,1, , 
479,levels/gta5/interiors/v_int_9, , , , , , , , , , , , , , , , , , , , , , , , ,1, , , , , ,2, ,2, , 
480,levels/gta5/interiors/v_int_metro_join1, , , , , , , , , , , , , , , , , , , , , , , , , , , ,1,1,1,1, ,1, , 
481,levels/gta5/interiors/v_int_metro_join2, , , , , , , , , , , , , , , , , , , , , , , , , , , ,1,1,1,1, ,1, , 
482,levels/gta5/interiors/v_metro_sections,2,2, , ,2,2,2,2,2,2,2,2,2,2,2,2,2,2,2, , , ,2,2,2,2,3, , , , , , , , 
483,levels/gta5/outsource/building_xrefs,9,9, , ,9,9,9,9,9,9,9,9,9,9,9,9,9,9,9, , , ,9,9,9,9,9,9,9,9,9, ,9, , 
484,levels/gta5/props/building/v_rooftop,2,2, , ,2,2,2,2,2,2,2,2,2,2,2,2,2,2,2, , , ,2,2,2,2,2,2,2,2,2, ,2, , 
485,levels/gta5/props/commercial/v_fastfood,1,1, , ,1,1,1,1,1,1,1,1,1,1,1, ,1,1,1, , , ,1,1,1,1,1,1,1,1,1, ,1, , 
486,levels/gta5/props/industrial/v_airport,7,7, , ,7,7,7,7,6,6,6,6,6,6,6,8,8,8,10, , , ,10,10,10,10,10,10,10,10,10, ,10, , 
487,levels/gta5/props/industrial/v_industrial,1,1, , ,1,1,1,1,1,1,1,1,1,1,1,1,4,1,4, , , ,4,4,10,10,10,10,10,13,13, ,13, , 
488,levels/gta5/props/lev_des/lev_des,20,20, , ,20,20,20,20,20,20,20,20,20,20,20,20,20,20,20, , , ,20,20,20,20,20,20,21,21,21, ,21, , 
489,levels/gta5/props/lev_des/p_v_lev_des_skin,5,5, , ,5,5,5,5,5,5,5,5,5,5,5,5,5,5,5, , , ,5,5,5,5,5,5,5,5,5, ,5, , 
490,levels/gta5/props/lev_des/v_lev_doors,7,7, , ,7,7,7,7,7,7,7,7,7,7,7,7,7,7,8, , , ,8,8,12,12,12,12,12,12,12, ,10, , 
491,levels/gta5/props/lev_des/v_minigame, , , , , , , , , , , , , , , , , , , , , , , , , , , , , , , , ,1, , 
492,levels/gta5/props/recreational/v_coin_op,2,2, , ,2,2,2,2,2,2,2,2,2,2,2,2,2,2,2, , , ,2,2,2,2,1,1, , , , , , , 
493,levels/gta5/props/residential/v_electrical,1,1, , ,1,1,1,1,1,1,1,1,1,1,1,1,1,1,1, , , ,1,1,1,1,1,1,1,1,1, ,1, , 
494,levels/gta5/props/residential/v_kitchen,1,1, , ,1,1,1,1,1,1,1,1,1,1,1,1,1,1,1, , , ,1,1,1,1,1,1,1,1,1, ,1, , 
495,levels/gta5/props/roadside/v_bins,8,8, , ,8,8,8,8,8,8,8,8,8,8,8,8,8,8,8, , , ,8,8,8,8,8,8,8,8,6, ,4, , 
496,levels/gta5/props/roadside/v_construction,11,11, , ,11,11,11,11,11,11,11,11,11,11,11,11,11,11,11, , , ,11,11,11,11,11,11,11,11,11, ,11, , 
497,levels/gta5/props/roadside/v_fences_2, ,13, , ,13,13,13,13,13,13,13,13,13,13,13,13,13,27,27, , , ,27,27,5,27,27,27,27,27,25, ,29, , 
498,levels/gta5/props/roadside/v_rubbish,8,8, , ,8,8,8,8,8,8,8,8,8,8,8,8,10,10,10, , , ,10,10,10,10,10,10,10,10,10, ,2, , 
499,levels/gta5/props/roadside/v_storage,1,7, , ,7,7,7,7,7,9,9,9,9,9,9,10,14,14,14, , , ,14,14,13,15,14,14,14,14,11, ,3, , 
500,levels/gta5/props/roadside/v_traffic_lights,7,7, , ,7,7,7,7,7,7,7,7,7,7,7,6,7,32,32, , , ,32,32,32,32,32,20,18,18,20, ,11, , 
501,levels/gta5/props/roadside/v_utility,8,8, , ,8,8,8,8,8,8,8,8,8,8,8,8,8,27,3, , , ,3,27,24,27,27,27,27,27,26, ,24, , 
502,levels/gta5/props/rural/v_farm,2,2, , ,2,2,2,2,2,2,2,2,2,2,2,2,2,2,2, , , ,2,2,2,3,2,2,2,2,2, ,2, , 
503,levels/gta5/props/vegetation/v_ext_veg, , , , , , , , , , , , , , , , , ,1,1, , , ,1,1, ,1,1,1,1,1,1, ,1, , 
504,levels/gta5/vehicles,56,56, , ,54,54,54,54,54,54,54,54,54,55, ,57,61,61,61, , , ,61,61,62,62,60,43,38,30,9, ,3, , 
