0, ,Sat Mar 31,Fri Apr 06,Thu Apr 12,Thu Apr 12,Fri Apr 13,Sat Apr 14,Sat Apr 14,Tue Apr 17,Wed Apr 18,Thu Apr 19,Fri Apr 20,Sat Apr 21,Sat Apr 21,Wed Apr 25,Fri Apr 27,Sat May 12,Tue May 15,Wed May 16,Fri May 18,Mon May 21,Mon May 21,Mon May 21,Tue May 22,Fri May 25,Thu Jun 07,Thu Jun 14,Wed Jun 20,Tue Jun 26,Fri Jun 29,Thu Jul 12,Fri Aug 03,Mon Aug 20,Fri Aug 31,Wed Oct 24,Fri Oct 26
1, , , , , , , , , , , , , , , ,18, , , , , , , , , , , , , , , , , , , , 
2,levels/gta5/_citye/downtown_01/dt1_00,1,1, , ,1,1,1,1,1,1,1,1,1,1,1,1,1,1, , , , , , , , , , , , , , , , , 
3,levels/gta5/_citye/indust_01/id1_27,1,1, , ,1,1,1,1,1,1,1,1,1,1,1,1, , , , , , , , , , , , , , , , , , , 
4,levels/gta5/_citye/indust_01/id1_rd,3,3, , ,3,3,3,3,3,3,3,3,3,3,3,3,3,3,3, , , ,3,3,3,3,3,3,3,3, , , , , 
5,levels/gta5/_citye/indust_02/id2_00,7,7, , ,7,7,7,7,7,7,7,7,7,7,7, , , , , , , , , , , , , , , , , , , , 
6,levels/gta5/_citye/port_01/po1_01,1,1, , ,1,1,1,1,1,1,1,1,1,1,1, , , , , , , , , , , , , , , , , , , , 
7,levels/gta5/_citye/port_01/po1_03,2,2, , ,2,2,2,2,2,2,2,2,2,2,2, , , , , , , , , , , , , , , , , , , , 
8,levels/gta5/_citye/port_01/po1_04,1,1, , ,1,1,1,1,1,1,1,1,1,1,1, , , , , , , , , , , , , , , , , , , , 
9,levels/gta5/_citye/port_01/po1_08,3,3, , ,3,3,3,3,3,3,3,3,3,3,3, , , , , , , , , , , , , , , , , , , , 
10,levels/gta5/_citye/scentral_01/sc1_00b,2,2, , , , , , , , , , , , , , , , , , , , , , , , , , , , , , , , , 
11,levels/gta5/_citye/scentral_01/sc1_00c,2,2, , ,2,2,2,2,2,2,2,2,2,2,2,2,2,1,1, , , ,1,1,1,1,1,1,1,1,1, ,1, , 
12,levels/gta5/_citye/scentral_01/sc1_00d,3,3, , ,3,3,3,3,3,3,3,3,3,3,3,1,1,1,1, , , , , , , , , , , , , , , , 
13,levels/gta5/_citye/scentral_01/sc1_00e,3,1, , ,1,1,1,1,1,1,1,1,1,1,1,1,1,1, , , , , , , , , , , , , , , , , 
14,levels/gta5/_citye/scentral_01/sc1_00f,2,2, , ,2,2,2,2,2,2,2,2,2,2,2,2,2, , , , , , , , , , , , , , , , , , 
15,levels/gta5/_citye/scentral_01/sc1_00g,1,1, , ,1,1,1,1,1,1,1,1,1,1,1,1,1,1,1, , , ,1,1,1,1,1,1,1,1,1, ,1, , 
16,levels/gta5/_citye/scentral_01/sc1_04,1,1, , ,1,1,1,1,1,1,1,1,1,1,1,1,1,1,1, , , ,1,1,1,1,1,1,1,1,1, ,1, , 
17,levels/gta5/_citye/scentral_01/sc1_12,1,1, , ,1,1,1,1,1,1,1,1,1,1,1, , , , , , , , , , , , , , , , , , , , 
18,levels/gta5/_cityw/airport_01/ap1_01_b,4,4, , ,4,4,4,4,4,4,4,4,4,4,4,4,4,4,4, , , ,4,4,4,4,4,4,4,4,4, ,4, , 
19,levels/gta5/_cityw/sanpedro_01/sp1_03,2,2, , ,2,2,2,2,2,2,2,2,2,2,2,2, , , , , , , , , , , , , , , , , , , 
20,levels/gta5/_cityw/santamon_01/sm_22,1,1, , ,1,1,1,1,1,1,1,1,1,1,1,1,1,1,1, , , ,1,1, ,1,1,1,1,1, , , , , 
21,levels/gta5/_cityw/venice_01/vb_rd,3,3, , ,3,3,3,3,3,3,3,3,3,3,3,3,3,3,3, , , ,3,3,3,3,3,3,3, , , , , , 
22,levels/gta5/_hills/cityhills_03/ch3_01,28,21, , ,21,21,21,21,21,21,21,21,21,21,21,3, , , , , , , , , , , , , , , , , , , 
23,levels/gta5/_hills/cityhills_03/ch3_06,3,3, , ,3,3,3,3,3,3,3,3,3,3,3,3, , , , , , , , , , , , , , , , , , , 
24,levels/gta5/_hills/country_01/cs1_08,1,1, , ,1,1,1,1,1,1,1,1,1,1,1,1,1,1,1, , , ,1,1,1,1,1,1,1,1,1, ,1, , 
25,levels/gta5/_hills/country_01/cs1_11b,1,1, , ,1,1,1,1,1,1,1,1,1,1,1, , , , , , , , , , , , , , , , , , , , 
26,levels/gta5/_hills/country_02/cs2_01,1,1, , ,1,1,1,1,1, , , , , , , , , , , , , , , , , , , , , , , , , , 
27,levels/gta5/_hills/country_02/cs2_09b,4,4, , ,4, , , , , , , , , , , , , , , , , , , , , , , , , , , , , , 
28,levels/gta5/_hills/country_02/cs2_roadsb,5,5, , ,5,5,5,5,5,5,5,5,5,5,5,4,4,4, , , , , , , , , , , , , , , , , 
29,levels/gta5/_hills/country_03/cs3_04,1,1, , ,1,1,1,1,1,1,1,1,1,1,1,1, , , , , , , , , , , , , , , , , , , 
30,levels/gta5/_hills/country_04/cs4_roadsb,201, , , , , , , , , , , , , , , , , , , , , , , , , , , , , , , , , , 
31,levels/gta5/_hills/country_05/cs5_1,1,1, , ,1,1,1,1,1,1,1,1,1,1,1,1,1,1,1, , , ,1, , , , , , , , , , , , 
32,levels/gta5/_hills/country_06/cs6_roads,54,54, , ,54,54,54,54,54,54,54,54,54, , , , , , , , , , , , , , , , , , , , , , 
33,levels/gta5/_hills/country_06/cs6_roadsb,52,52, , ,52,52,52,52,52,52,52,52,52,52,52, , , , , , , , , , , , , , , , , , , , 
34,levels/gta5/_hills/country_06/cs6_roadsc,83,83, , ,83,83,83,83,83,83,83,83,83,83,83, , , , , , , , , , , , , , , , , , , , 
35,levels/gta5/interiors/v_metro_sections,1,1, , ,1,1,1,1,1,1,1,1,1,1,1,1,1,1, , , , , , , , , , , , , , , , , 
