0, ,Sat Mar 31,Fri Apr 06,Thu Apr 12,Thu Apr 12,Fri Apr 13,Sat Apr 14,Sat Apr 14,Tue Apr 17,Wed Apr 18,Thu Apr 19,Fri Apr 20,Sat Apr 21,Sat Apr 21,Wed Apr 25,Fri Apr 27,Sat May 12,Tue May 15,Wed May 16,Fri May 18,Mon May 21,Mon May 21,Mon May 21,Tue May 22,Fri May 25,Thu Jun 07,Thu Jun 14,Wed Jun 20,Tue Jun 26,Fri Jun 29,Thu Jul 12,Fri Aug 03,Mon Aug 20,Fri Aug 31,Wed Oct 24,Fri Oct 26
1,levels/gta5/_citye/downtown_01/dt1_16,1,1, , ,1,1,1,1,1,1,1,1,1,1, , , , , , , , , , , , , , , , , , , , , 
2,levels/gta5/_citye/downtown_01/dt1_21,2,2, , ,2,2,2,2,2,2,2,2,2,2,2,2,2,2,2, , , ,2,2,2,2,2,2,2,2,2, ,2, , 
3,levels/gta5/_citye/downtown_01/fwy_01,6,6, , ,6,6,6,6,6,6,6,6,6,6,6,6,6,6,6, , , ,6,5,5,5,5,5,5,5,5, ,5, , 
4,levels/gta5/_citye/downtown_01/fwy_02,1,1, , ,1,1,1,1,1,1,1,1,1,1,1,1,1,1,1, , , ,1,1,1,1,1,1,1,1,1, ,1, , 
5,levels/gta5/_citye/downtown_01/fwy_04,1,1, , ,1,1,1,1,1,1,1,1,1,1,1,2,2,2,2, , , ,2,2,2,2,2,2,2,2,2, ,2, , 
6,levels/gta5/_citye/hollywood_01/hw1_01, , , , , , , , , , , , , , , , , , , , , , , , ,1,1,1,1,1,1,1, , , , 
7,levels/gta5/_citye/hollywood_01/hw1_07,1,1, , ,1,1,1,1,1,1,1,1,1,1,1,1,1,1,1, , , ,1,1,1,1,1,1,1,1,1, ,1, , 
8,levels/gta5/_citye/hollywood_01/hw1_10,1,1, , ,1,1,1,1,1,1,1,1,1,1,1,1,1,1,1, , , ,1,1,1,1,1,1,1,1,1, ,1, , 
9,levels/gta5/_citye/hollywood_01/hw1_14, , , , , , , , , , , , , , , , , , , , , , , , , , , , , ,1,1, ,1, , 
10,levels/gta5/_citye/hollywood_01/hw1_15, , , , , , , , , , , , , , , , , , , , , , , , ,1,1,1,1,1,1,1, , , , 
11,levels/gta5/_citye/hollywood_01/hw1_22, , , , , , , , , , , , , , , , , , , , , , , , ,1,1,1,1,1,1,2, ,1, , 
12,levels/gta5/_citye/hollywood_01/hw1_26,1,1, , ,1,1,1,1,1,1,1,1,1,1,1,1,1,1,1, , , ,1,1,1,1,1,1,1, , , , , , 
13,levels/gta5/_citye/indust_01/id1_04,1,1, , ,1,1,1,1,1,1,1,1,1,1,1,1,1,1,1, , , ,1,1,1,1,1,1,1,1,1, ,1, , 
14,levels/gta5/_citye/indust_01/id1_13,8,8, , ,8,8,8,8,8,8,8,8,8,8,8,8,8,8,8, , , ,8,8,8,8,8,8,8,8,8, ,8, , 
15,levels/gta5/_citye/indust_01/id1_20,1,1, , ,1,1,1,1,1,1,1,1,1,1,1,1,1,1,1, , , ,1,1,1,1,1,1,1,1,1, ,1, , 
16,levels/gta5/_citye/indust_01/id1_23,1,1, , ,1,1,1,1,1,1,1,1,1,1,1,1,1,1,1, , , ,1,1,1,1,1,1,1,1,1, ,1, , 
17,levels/gta5/_citye/indust_01/id1_24,2,2, , ,2,2,2,2,2,2,2,2,2,2,2,2,2,2,2, , , ,2,2,2,2,2,2,2,2,2, ,2, , 
18,levels/gta5/_citye/indust_01/id1_34,2,2, , ,2,2,2,1,1,1,1,1,1,1,1,1,1,1,1, , , ,1,1,1,1,1,1,1,1,1, ,1, , 
19,levels/gta5/_citye/indust_01/id1_35,1,1, , ,1,1,1,1,1,1,1,1,1,1,1,1,1,1,1, , , ,1,1,1,1,1,1,1,1,1, ,1, , 
20,levels/gta5/_citye/indust_02/id2_00,10,10, , ,10,10,10,10,10,10,10,10,10,10,10,10,10,10,10, , , ,10,10,10,7,7,7,7,7,7, ,7, , 
21,levels/gta5/_citye/indust_02/id2_00_a,1,1, , ,1,1,1,1,1,1,1,1,1,1,1,1,1,1,1, , , ,1,1,1,1,1,1,1,1,1, ,1, , 
22,levels/gta5/_citye/indust_02/id2_21_a,1,1, , ,1,1,1,1,1,1,1,1,1,1,1,1,1,1,1, , , ,1,1,1,1,1,1,1,1,1, ,1, , 
23,levels/gta5/_citye/port_01/po1_01, , , , , , , , , , , , , , , , , , , , , , , , ,1,1,1,1,1,1,1, , , , 
24,levels/gta5/_citye/port_01/po1_02,2,2, , ,2,2,2,2,2,2,2,2,2,2,2,2,2,2,2, , , ,2,2,2,2,2,2,2,2,2, ,2, , 
25,levels/gta5/_citye/port_01/po1_03,3,3, , ,3,3,3,3,3,3,3,3,3,3,3,3,3,3,3, , , ,3,3, ,3,3,3,3,3,3, ,3, , 
26,levels/gta5/_citye/port_01/po1_04,1,1, , ,1,1,1,1,1,1,1,1,1,1,1,1,1,1,1, , , ,1,1,1,1,1,1,1,1,1, ,1, , 
27,levels/gta5/_citye/port_01/po1_05,11,11, , ,11,11,11,11,11,11,11,8,13,13,13,13,13,13,13, , , ,13,13,13,13,13,13,13,13,13, ,13, , 
28,levels/gta5/_citye/port_01/po1_rd,1,1, , ,1,1,1,1,1,1,1,1,1,1,1, , , , , , , , , , , , ,1,1,1,1, ,1, , 
29,levels/gta5/_citye/scentral_01/sc1_02,2,2, , ,2,2,2,2,2,2,2,2,2,2,2,2,2,2,2, , , ,2,2,2,2,2,2,2,2, , , , , 
30,levels/gta5/_citye/scentral_01/sc1_03,3,3, , ,3,3,3,3,3, , , , , , , , , , , , , , , , , , , , , , , , , , 
31,levels/gta5/_citye/scentral_01/sc1_15, , , , , , , , , , , , , , , , , , , , , , , , ,1,1,1,1,1,1,1, , , , 
32,levels/gta5/_citye/scentral_01/sc1_17,2,2, , ,2,2,2,2,2,2,2,2,2,2,2,2,2,2,2, , , ,2,2,2,2,2,2,2,2,2, ,2, , 
33,levels/gta5/_citye/scentral_01/sc1_25,4,4, , ,4,4,4,4,4,4,4,4,4,4,4,4,4,4,4, , , ,4,4,4,4,4,4,4, , , , , , 
34,levels/gta5/_citye/scentral_01/sc1_29,2,2, , ,2,2,2,2,2,2,2,2,2,2,2,2,2,2,2, , , ,2,2,2,2,2,2,2,2, , , , , 
35,levels/gta5/_citye/sunset/ss1_01,1,1, , ,1,1,1,1,1,1,1,1,1,1,1,1,1,1,1, , , ,1,1,1,1,1,1,1,1,1, ,1, , 
36,levels/gta5/_citye/sunset/ss1_04,2,2, , ,2,2,2,2,2,2,2,2,2,2,2,2,2,2,2, , , ,2,2,2,2,2,2,2,2,2, ,2, , 
37,levels/gta5/_citye/sunset/ss1_05,1,1, , ,1,1,1,1,1,1,1,1,1,1,1,1,1,1,1, , , ,1,1,1,1,1,1,1,1,1, ,1, , 
38,levels/gta5/_citye/sunset/ss1_06,1,1, , ,1,1,1,1,1,1,1,1,1,1,1,1,1,1,1, , , ,1,1,1,1,1,1,1,1,1, ,1, , 
39,levels/gta5/_citye/sunset/ss1_07,1,1, , ,1,1,1,1,1,1,1,1,1,1, , , , , , , , , , , , , , , , , , , , , 
40,levels/gta5/_cityw/airport_01/ap1_02,2,2, , ,2,2,2,2,2,2,2,2,2,2,2,2,2,2,2, , , ,2,2,2,2,2,2,2,2,2, ,2, , 
41,levels/gta5/_cityw/airport_01/ap1_04,3,3, , ,3,3,3,3,3,3,3,3,3,3,3,3,3,3,3, , , ,3,3,3,3,3,3,3,3,3, ,3, , 
42,levels/gta5/_cityw/beverly_01/bh1_01,2, , , , , , , , , , , , , , , , , , , , , , , , , , , , , , , ,1, , 
43,levels/gta5/_cityw/beverly_01/bh1_04,1,1, , ,1,1,1,1,1,1,1,1,1,1,1,1,1,1,1, , , ,1,1,1,1,1,1,1,1,1, ,1, , 
44,levels/gta5/_cityw/beverly_01/bh1_07,1,1, , ,1,1,1,1,1,1,1,1,1,1,1,1,1,1,1, , , ,1,1,1,1,2,2,2,2,2, ,1, , 
45,levels/gta5/_cityw/beverly_01/bh1_30, , , , , , , , , , , , , , , , , , , , , , , , ,1,1,1,1,1,1,1, , , , 
46,levels/gta5/_cityw/beverly_01/bh1_31,1,1, , ,1,1,1,1,1,1,1,1,1,1,1,1,1,1,1, , , ,1,1,1,1,1,1,1,1,1, ,1, , 
47,levels/gta5/_cityw/beverly_01/bh1_33, , , , , , , , , , , , , , , , , , , , , , , , ,1, , , , , , , , , , 
48,levels/gta5/_cityw/beverly_01/bh1_38,2, , , , , , , , , , , , , , , , , , , , , , , , , , , ,1,1,1, ,1, , 
49,levels/gta5/_cityw/beverly_01/bh1_39,1,1, , ,1,1,1,1,1,1,1,1,1,1,1,1,1,1,1, , , ,1,1,1,1,1,1,1,1,1, ,1, , 
50,levels/gta5/_cityw/beverly_01/bh1_40,1,1, , ,1,1,1,1,1,1,1,1,1,1,1,1,1,1,1, , , ,1,1,1,1,1,1,1,1,2, ,1, , 
51,levels/gta5/_cityw/beverly_01/bh1_43,3,3, , ,3,3,3,3,3,3,3,3,3,3,3,3,3,3,3, , , ,3,3,3,3,3,3,3,3,3, ,3, , 
52,levels/gta5/_cityw/koreatown_01/kt1_13, , , , , , , , , , , , , , , , , , , , , , , ,1,1,1,1,1,1,1,1, , , , 
53,levels/gta5/_cityw/koreatown_01/kt1_14, , , , , , , , , , , , , , , , , , , , , , , , ,1,1, , , , , , , , , 
54,levels/gta5/_cityw/sanpedro_01/sp1_12,3,5, , ,5,5,5,5,5,5,5,5,5,5,5,5,5,5,5, , , ,5,5,5,5,5,5,5,5,5, ,5, , 
55,levels/gta5/_cityw/sanpedro_01/sp1_rd,1,1, , ,1,1,1,1,1,1,1,1,1,1,1,1,1,1,1, , , ,1,1,1,1,1,1,1,1,1, ,1, , 
56,levels/gta5/_cityw/santamon_01/sm_07, , , , , , , , , , , , , , , , , , , , , , , , ,2,2,2,2,2,2,2, , , , 
57,levels/gta5/_cityw/santamon_01/sm_24,3,3, , ,3,3,3,3,3,3,3,3,3,3,3,3,3,3,3, , , ,3,3,3,3,3,3,3,3,3, ,3, , 
58,levels/gta5/_cityw/santamon_01/sm_27,1,1, , ,1,1,1,1,1,1,1,1,1,1,1,1,1,1,1, , , ,1,1,1,1,1,1,1,1,1, ,2, , 
59,levels/gta5/_cityw/santamon_01/sm_boat,6,6, , ,6,6,6,6,6,6,6,6,6,6,6,6,6,6,6, , , ,6,6,6,6,6,6,6,6,6, ,6, , 
60,levels/gta5/_cityw/venice_01/vb_02,1,1, , ,1,1,1,1,1,1,1,1,1,1,1,1,1,1,1, , , ,1,1,1,1,1,1,1,1,1, ,1, , 
61,levels/gta5/_cityw/venice_01/vb_05,4,4, , ,4,4,4,4,4,4,4,4,4,4,4,4,4,4,4, , , ,4,4,4,4,4,4,4,4,4, ,4, , 
62,levels/gta5/_cityw/venice_01/vb_07,1,1, , ,1,1,1,1,1,1,1,1,1,1,1,1,1,1,1, , , ,1,1,1,1,1,1,1,1,1, ,1, , 
63,levels/gta5/_cityw/venice_01/vb_10, , , , , , , , , , , , , , , , , , , , , , , , ,1,1,1,1,1,1,1, , , , 
64,levels/gta5/_cityw/venice_01/vb_17,1,1, , , , , , , , , , , , , , , , , , , , , , , , , , , , , , , , , 
65,levels/gta5/_cityw/venice_01/vb_22,2,2, , ,2,2,2,2,2,1,1,1,1,1,1,1,1,1,1, , , ,1,1,1,1,1,1,1,1,1, ,1, , 
66,levels/gta5/_cityw/venice_01/vb_33,2,2, , ,2,2,2,2,2,2,2,2,2,2,2,2,2,2,2, , , ,2,2,2,2,2,2,2,2,2, ,2, , 
67,levels/gta5/_cityw/venice_01/vb_rd,1,1, , ,1,1,1,1,1,1,1,1,1,1,1,1,1,1,1, , , ,1,1,1,1,1,1,1,1,1, ,1, , 
68,levels/gta5/_hills/cityhills_01/ch1_01,2,2, , ,2,2,2,2,2,2,2,2,2,2,2,2,2,2,2, , , ,2,2,2,2,2,2,2,2,2, ,2, , 
69,levels/gta5/_hills/cityhills_01/ch1_02,1,1, , ,1,1,1,1,1,1,1,1,1,1,1,1,1,1,1, , , ,1,1,1,1,1,1,1,1,1, ,1, , 
70,levels/gta5/_hills/cityhills_01/ch1_04b,1,1, , ,1,1,1,1,1,1,1,1,1,1,1, , , , , , , , , , , , , , , , , , , , 
71,levels/gta5/_hills/cityhills_01/ch1_06e, , , , , , , , , , , , , , , , , , , , , , , , ,1,1,1,1,1,1,1, , , , 
72,levels/gta5/_hills/cityhills_01/ch1_11,2,2, , ,2,2,2,2,2,2,2,2,2,2,2,2,2,2,2, , , ,2,2,2,2,2,2,2,2,2, ,2, , 
73,levels/gta5/_hills/cityhills_01/ch1_12,2,2, , ,2,2,2,2,2,2,2,2,2,2,2,2,2,2,2, , , ,2,2,2,2,2,2,2,2,2, ,2, , 
74,levels/gta5/_hills/cityhills_02/ch2_03c, , , , , , , , , , , , , , , ,1,1,1,1, , , ,1,1,1,1,1,1,1,1,1, ,1, , 
75,levels/gta5/_hills/cityhills_02/ch2_04,2,2, , ,2,2,2,2,2,2,2,2,2,2,2,2,2,2,2, , , ,2,2,2,2,2,2,2,1,1, ,1, , 
76,levels/gta5/_hills/cityhills_03/ch3_03,2,2, , ,2,2,2,2,2,2,2,2,2,2,2,2,2,2,2, , , ,2,2,2,2,2, ,2,2,2, ,2, , 
77,levels/gta5/_hills/cityhills_03/ch3_08,8,8, , ,8,8,8,8,8,8,8,8,8,8,8,8,8,8,8, , , ,8,8,8,8,8, ,8,8,4, ,4, , 
78,levels/gta5/_hills/cityhills_03/ch3_13,4,4, , ,4,4,4,4,4,4,4,4,4,4,4,4,4,4,4, , , ,4,4,4,4,4, ,4,4,4, ,4, , 
79,levels/gta5/_hills/cityhills_03/ch3_railway,2,2, , ,2,2,2,2,2,2,2,2,2,2,2,2,2,2,2, , , ,2,2,2,2,2, ,2,2,2, ,2, , 
80,levels/gta5/_hills/cityhills_03/ch3_railwyb,2,2, , ,2,2,2,2,2,2,2,2,2,2,2,2,2,2,2, , , ,2,2,2,2,2, ,2,2,2, ,2, , 
81,levels/gta5/_hills/cityhills_03/ch3_railwyc,4,4, , ,4,4,4,4,4,4,4,4,4,4,4,4,4,4,4, , , ,4,4,4,4,4, ,4,4,4, ,4, , 
82,levels/gta5/_hills/cityhills_03/ch3_rd1,2,2, , ,2,2,2,2,2,2,2,2,2,2,2,2,2,2,2, , , ,2,2,2,2,2, ,2,2,2, ,2, , 
83,levels/gta5/_hills/cityhills_03/cityhills_03,2,2, , ,2,2,2,2,2,2,2,2,2,2,2,2,2,2,2, , , ,2,2,2,2,2, ,2, , , , , , 
84,levels/gta5/_hills/country_01/country_01, , , , , , , , , , , , , , , , , , , , , , , , , ,2,2, , , , , , , , 
85,levels/gta5/_hills/country_01/cs1_03,1,1, , ,1,1,1,1,1,1,1,1,1,1,1,1,1,1,1, , , ,1,1,1,1,1,1,1,1,1, ,1, , 
86,levels/gta5/_hills/country_01/cs1_05,6,6, , ,6,6,6,6,6,6,6,6,6,6,6,6,6,6,6, , , ,6,6,6,6,6,6,6,6,6, ,6, , 
87,levels/gta5/_hills/country_01/cs1_06,4,4, , ,4,4,4,4,4,4,4,4,4,4,4,4,4,3,4, , , ,4,4,4,4,4,4,4,4,4, ,5, , 
88,levels/gta5/_hills/country_01/cs1_07,2,2, , ,2,2,2,2,2,2,2,2,2,2,2,2,2,2,2, , , ,2,3,3,3,4,4,2,2,2, ,2, , 
89,levels/gta5/_hills/country_01/cs1_11,1,1, , ,1,1,1,1,1,1,1,1,1,1,1,1,1,1,1, , , ,1,1,1,1,1,1,1,1,1, ,1, , 
90,levels/gta5/_hills/country_01/cs1_11b,2,2, , ,2,2,2,2,2,2,2,2,2,2,2,2,2,2,2, , , ,2,2,2,2,2,2,2,2,2, ,2, , 
91,levels/gta5/_hills/country_01/cs1_12,7,7, , ,7,7,7,7,7,7,7,7,7,7,7,7,7,7,7, , , ,7,7,7,7,7,7,7,7,7, ,7, , 
92,levels/gta5/_hills/country_01/cs1_14,2,2, , ,2,2,2,2,2,2,2,2,2,2,2,2,2,2,2, , , ,2,2,2,2,2,2,2,2,2, ,2, , 
93,levels/gta5/_hills/country_01/cs1_14b,9,9, , ,9,9,9,9,9,9,9,9,9,9,9,9,9,9,9, , , ,9,9,9,9,9,9,9,9,9, ,9, , 
94,levels/gta5/_hills/country_01/cs1_15,2,2, , ,2,2,2,2,2,2,2,2,2,2,2,2,2,2,2, , , ,2,2,2,2,2,2,2,2,2, ,2, , 
95,levels/gta5/_hills/country_01/cs1_15b,2,2, , ,2,2,2,2,2,2,2,2,2,2,2,2,2,2,2, , , ,2,2,2,2,2,2,2,2,2, ,2, , 
96,levels/gta5/_hills/country_01/cs1_15c,5,5, , ,5,5,5,5,5,5,5,5,5,5,5,5,5,5,5, , , ,5,5,5,5,5,5,5,5,5, ,5, , 
97,levels/gta5/_hills/country_01/cs1_16,1,1, , ,1,1,1,1,1,1,1,1,1,1,1,1,1,1,1, , , ,1,1,1,1,1,1,1,1,1, ,1, , 
98,levels/gta5/_hills/country_01/cs1_railway,2,2, , ,2,2,2,2,2,2,2,2,2,2,2,2,2,2,2, , , ,2,2,2,2,2,2,2,2,2, ,2, , 
99,levels/gta5/_hills/country_01/cs1_railwyb,2,2, , ,2,2,2,2,2,2,2,2,2,2,2,2,2,2,2, , , ,2,2, , , , , , , , , , , 
100,levels/gta5/_hills/country_01/cs1_railwyc,7,7, , ,7,7,7,7,7,7,7,7,7,7,7,7,7,7,7, , , ,7,7, , , , , , , , , , , 
101,levels/gta5/_hills/country_02/cs2_01,5,5, , ,5,5,5,5,5,5,5,5,5,5,5,5,5,5,5, , , ,5,5,5,5,5,2,6,5,5, ,5, , 
102,levels/gta5/_hills/country_02/cs2_05,1,1, , ,1,1,1,1,1,1,1,1,1,1,1,1,1,1,1, , , ,1,1,1,1,1,1,1,1,1, ,1, , 
103,levels/gta5/_hills/country_02/cs2_08,3,3, , ,3,3,3,3,3,3,3,3,3,3,3,3,3,3,3, , , ,3,3,3,3,3,3,3,3,3, ,3, , 
104,levels/gta5/_hills/country_02/cs2_09,4,4, , ,4,4,4,4,4,4,4,4,4,4,4,4,4,4,4, , , ,4,4,4,4,4,4,4,4,4, ,4, , 
105,levels/gta5/_hills/country_02/cs2_railway, , , , , , , , , , , , , , , , , , , , , , , , , ,7,7,7,7,7,7, ,7, , 
106,levels/gta5/_hills/country_02/cs2_railwyb,3,3, , ,3,3,3,3,3,3,3,3,3,3,3,3,3,3,3, , , ,3,3, ,2,2,2,2,2,2, ,2, , 
107,levels/gta5/_hills/country_02/cs2_railwyc, , , , , , , , , , , , , , , , , , , , , , , , , , ,4,4,4,4,4, ,4, , 
108,levels/gta5/_hills/country_02/cs2_roads,2,2, , ,2,2,2,2,2,2,2,2,2,2,2,2,2,2,2, , , ,2,2,2,2,2,2,2,2,2, ,2, , 
109,levels/gta5/_hills/country_03/cs3_05,2,2, , ,2,2,2,2,2,2,4,4,4,4,4,2,2,2,2, , , ,2,2,2,2,2,2,2,2,2, ,2, , 
110,levels/gta5/_hills/country_03/cs3_railway, , , , , , , , , , , , , , , , , , , , , , , , , ,3,3,3,3,3,3, ,3, , 
111,levels/gta5/_hills/country_04/cs4_02,1,1, , ,1,1,1,1,1,1,1,1,1,1,1,1,1,1,1, , , ,1,1,1,1,1,1,1,2,1, ,1, , 
112,levels/gta5/_hills/country_04/cs4_03,4,4, , ,4,4,4,4,4,4,4,4,4,4,4,4,4,4,4, , , ,4,4,4,4,4,4,4,4,4, ,4, , 
113,levels/gta5/_hills/country_04/cs4_04,2,2, , ,2,2,2,2,2,2,2,2,2,2,2,2,2,2,2, , , ,2,2,2,2,2,2,2,2,2, ,2, , 
114,levels/gta5/_hills/country_04/cs4_05,1,1, , ,1,1,1,1,1,1,1,1,1,1,1,1,1,1,1, , , ,1,1,1,1,1,1,1,1,1, ,1, , 
115,levels/gta5/_hills/country_04/cs4_10,2,2, , ,2,2,2,2,2,2,2,2,2,2,2,2,2,2,2, , , ,2,2,2,2,2,2,2,2,2, ,2, , 
116,levels/gta5/_hills/country_04/cs4_roads,2,2, , ,2,2,2,2,2,2,2,2,2,2,2,2,2,2,2, , , ,2,2,2,2,2,2,2,2,2, ,2, , 
117,levels/gta5/_hills/country_04/cs4_roadsb,5,5, , ,5,5,5,5,5,5,5,5,5,5,5,5,5,5,5, , , ,5,5,4,4,4,4,4,4,4, ,4, , 
118,levels/gta5/_hills/country_05/cs5_3,4,4, , ,4,4,4,4,4,4,4,4,4,4,4,4,4,4,4, , , ,4,4,4,4,4,4,4,4,4, ,4, , 
119,levels/gta5/_hills/country_05/cs5_4, , , , , , , , , , , , , , , ,1,1,1,1, , , ,1,1,1,1,1,1,1,1,3, ,3, , 
120,levels/gta5/_hills/country_06/cs6_01,1,1, , ,1,1,1,1,1,1,1,1,1,1,1,1,1,1,1, , , ,1,1,1,1,1,1,1,1,1, ,1, , 
121,levels/gta5/_hills/country_06/cs6_03,1,1, , ,1,1,1,1,1,1,1,1,1,1,1, , , , , , , , , , ,2,2,2,2,2,2, ,2, , 
122,levels/gta5/_hills/country_06/cs6_04,2,2, , ,2,2,2,2,2,2,2,2,2,2,2,2,2,2,2, , , ,2,2,2,2,2,2,2,2,1, ,1, , 
123,levels/gta5/_hills/country_06/cs6_05,4,4, , ,4,4,4,4,4,4,4,4,4,4,4,4,4,4,4, , , ,4,4,4,2,2,2,2,2,2, ,2, , 
124,levels/gta5/_hills/country_06/cs6_08,1,1, , ,1,1,1,1,1,1,1,1,1,1,1,1,1,1,1, , , ,1,1,1,1,1,1,1,1,1, ,1, , 
125,levels/gta5/_hills/country_06/cs6_10,2,2, , ,2,2,2,2,2,2,2,2,2,2,2,2,2,2,2, , , ,2,2,2,2,2,2,2,2,2, ,2, , 
126,levels/gta5/_prologue/plg_04, , , , , ,1,1,1,1,1,1,1,1,1,1,1,1,1,1, , , ,1,1,1,1,1,1,1,1,1, ,1, , 
127,levels/gta5/destruction/exterior/des_cropduster, , , , , , , , , , , , , , , , , , , , , , , , , ,1,1,1,1,1,1, ,1, , 
128,levels/gta5/destruction/exterior/des_protree, , , , , ,1,1,1,1,1,1,1,1,1,1,1,1,1,1, , , ,1,1,1,1,1,1,1,1,1, ,1, , 
129,levels/gta5/destruction/exterior/des_scaffolding,1,1, , ,1,1,1,1,1,1,1,1,1,1,1,1,1,1,1, , , ,1,1,1,1,1,1,1,1,1, ,1, , 
130,levels/gta5/destruction/interior/des_fib_glass,1,1, , ,1,1,1,1,1,1,1,1,1,1,1,1,1,1,1, , , ,1,1,1,1,1,1,1,1,1, ,2, , 
131,levels/gta5/destruction/interior/des_jewel_cab,3,3, , ,3,3,3,3,3,3,3,3,3,3,3,3,3,3,2, , , ,2,2,2,2,2,2,2,2,2, ,2, , 
132,levels/gta5/destruction/interior/des_jewel_cab2,3,3, , ,3,3,3,3,3,3,3,3,3,3,3,3,3,3,3, , , ,3,3,3,3,3,3,3,3,3, ,3, , 
133,levels/gta5/destruction/interior/des_jewel_cab3,3,3, , ,3,3,3,3,3,3,3,3,3,3,3,3,3,3,3, , , ,3,3,3,3,3,3,3,3,3, ,3, , 
134,levels/gta5/destruction/interior/des_jewel_cab4,2,2, , ,2,2,2,2,2,2,2,2,2,2,2,2,2,2,2, , , ,2,2,2,2,2,2,2,2,2, ,2, , 
135,levels/gta5/destruction/interior/des_showroom,1,1, , ,1,1,1,1,1,1,1,1,1,1,1,1,1,1,1, , , ,1,1,1,1,1,1,1,1,1, , , , 
136,levels/gta5/generic/gtxd, , , , , , , , , , , , , , , ,1,1,1,1, , , ,1,1,1,1, , , , , , , , , 
137,levels/gta5/interiors/int_props/int_industrial,4,4, , ,4,4,4,4,4,4,4,4,4,4,4,4,4,4,4, , , ,4,4,4,4,4,4,4,4,4, ,4, , 
138,levels/gta5/interiors/int_props/int_residential,1,1, , ,1,1,1,1,1,1,1,1,1,1,1,1,1,3,3, , , ,3,3,3,3,3,3,3,3,3, ,3, , 
139,levels/gta5/interiors/int_props/int_services,4,4, , ,4,4,4,4,4,4,4,4,4,4,4,4,4,2,8, , , ,8,8,8,8,8,8,8,8,8, ,5, , 
140,levels/gta5/interiors/v_int_11, , , , , , , , , , , , , , , ,1,1,1,1, , , ,1,1,1, , , , , ,1, ,1, , 
141,levels/gta5/interiors/v_int_19, , , , , , , , , , , , , , , , , , , , , , , , , , , , , , ,3, ,3, , 
142,levels/gta5/interiors/v_int_3,1,1, , ,1,1,1,1,1,1,1,1,1,1,1,1,1,1,1, , , ,1,1,1,1,1,1,1,1,1, ,1, , 
143,levels/gta5/interiors/v_int_30,3,3, , ,3,3,3,3,3,3,3,3,3,3,3,3,3,3,3, , , ,3,3,3, , , , , ,3, ,3, , 
144,levels/gta5/interiors/v_int_31,14,14, , ,14,14,14,14,14,14,14,14,14,14,14,14,14,14,14, , , ,14,14,17,9,9,9,10,9,17, ,17, , 
145,levels/gta5/interiors/v_int_34, , , , , , , , , , , , , , , , , , , , , , , , , , , , , , ,2, ,2, , 
146,levels/gta5/interiors/v_int_36,3,3, , ,3,3,3,3,3,3,3,3,3,3,3,3,3,3,3, , , ,3,3,3,3,3,3,3,3,3, ,3, , 
147,levels/gta5/interiors/v_int_39,2,2, , ,2,2,2,2,2,2,2,2,2,2,2,2,2,2,2, , , ,2,2, ,2,2,2,2,2,2, ,2, , 
148,levels/gta5/interiors/v_int_40,1,1, , ,1,1,1,1,1,1,1,1,1,1,1,1,1,1,1, , , ,1,1,1,1,1,1,1,1,1, ,1, , 
149,levels/gta5/interiors/v_int_49,1,1, , ,1,1,1,1,1,1,1,1,1,1,1,1,1,1,1, , , ,1,1,1,1,1,1,1,1,1, ,1, , 
150,levels/gta5/interiors/v_int_5,2,2, , ,2,2,2,2,2,2,2,2,2,2,2,2,2,2,2, , , ,2,2,2,2,2,2,2,2,2, ,2, , 
151,levels/gta5/interiors/v_int_53,1,1, , ,1,1,1,1,1,1,1,1,1,1,1,1,1,1,1, , , ,1,1,1,1,1,1,1,1,1, ,1, , 
152,levels/gta5/interiors/v_int_metro_join1, , , , , , , , , , , , , , , , , , , , , , , , , , , ,1,1,1,1, ,1, , 
153,levels/gta5/interiors/v_metro_sections,2,2, , ,2,2,2,2,2,2,2,2,2,2,2,2,2,2,2, , , ,2,2,2,1,1, , , ,3, ,3, , 
154,levels/gta5/outsource/building_xrefs,5,5, , ,5,5,5,5,5,5,5,5,5,5,5,5,5,5,5, , , ,5,5,5,5,5,5,5,5,5, ,5, , 
155,levels/gta5/props/lev_des/p_v_lev_des_skin,8,8, , ,8,8,8,8,8,8,8,8,8,8,8,8,8,8,8, , , ,8,8,8,8,8,8,8,7,8, ,8, , 
156,levels/gta5/props/roadside/v_fences,1,1, , ,1,1,1,1,1,1,1,1,1,1,1,1,1,1,1, , , ,1,1,1,1,1,1,1,1,1, ,1, , 
157,levels/gta5/vehicles,21,21, , ,21,21,21,21,21,21,24,24,24,24, ,21,20,20,20, , , ,20,20,20,20,18,11,8,5,2, , , , 
