                 CNC @@ x:/gta5/assets_ng/gametext/.../american/americannetarcadecnc.txt
                ARMY @@ x:/gta5/assets_ng/gametext/.../american/americannetarmy.txt
                 CNC @@ x:/gta5/assets_ng/gametext/.../american/americannetcnc.txt
                 CNC @@ x:/gta5/assets_ng/gametext/.../chinese/chinesenetarcadecnc.txt
                ARMY @@ x:/gta5/assets_ng/gametext/.../chinese/chinesenetarmy.txt
                 CNC @@ x:/gta5/assets_ng/gametext/.../chinese/chinesenetcnc.txt
                 CNC @@ x:/gta5/assets_ng/gametext/.../chinesesimp/chinesesimpnetarcadecnc.txt
                ARMY @@ x:/gta5/assets_ng/gametext/.../chinesesimp/chinesesimpnetarmy.txt
                 CNC @@ x:/gta5/assets_ng/gametext/.../chinesesimp/chinesesimpnetcnc.txt
                 CNC @@ x:/gta5/assets_ng/gametext/.../french/frenchnetarcadecnc.txt
                ARMY @@ x:/gta5/assets_ng/gametext/.../french/frenchnetarmy.txt
                 CNC @@ x:/gta5/assets_ng/gametext/.../french/frenchnetcnc.txt
                 CNC @@ x:/gta5/assets_ng/gametext/.../german/germannetarcadecnc.txt
                ARMY @@ x:/gta5/assets_ng/gametext/.../german/germannetarmy.txt
                 CNC @@ x:/gta5/assets_ng/gametext/.../german/germannetcnc.txt
                 CNC @@ x:/gta5/assets_ng/gametext/.../italian/italiannetarcadecnc.txt
                ARMY @@ x:/gta5/assets_ng/gametext/.../italian/italiannetarmy.txt
                 CNC @@ x:/gta5/assets_ng/gametext/.../italian/italiannetcnc.txt
                 CNC @@ x:/gta5/assets_ng/gametext/.../japanese/japanesenetarcadecnc.txt
                ARMY @@ x:/gta5/assets_ng/gametext/.../japanese/japanesenetarmy.txt
                 CNC @@ x:/gta5/assets_ng/gametext/.../japanese/japanesenetcnc.txt
                 CNC @@ x:/gta5/assets_ng/gametext/.../korean/koreannetarcadecnc.txt
                ARMY @@ x:/gta5/assets_ng/gametext/.../korean/koreannetarmy.txt
                 CNC @@ x:/gta5/assets_ng/gametext/.../korean/koreannetcnc.txt
                 CNC @@ x:/gta5/assets_ng/gametext/.../mexican/mexicannetarcadecnc.txt
                ARMY @@ x:/gta5/assets_ng/gametext/.../mexican/mexicannetarmy.txt
                 CNC @@ x:/gta5/assets_ng/gametext/.../mexican/mexicannetcnc.txt
                 CNC @@ x:/gta5/assets_ng/gametext/.../polish/polishnetarcadecnc.txt
                ARMY @@ x:/gta5/assets_ng/gametext/.../polish/polishnetarmy.txt
                 CNC @@ x:/gta5/assets_ng/gametext/.../polish/polishnetcnc.txt
                 CNC @@ x:/gta5/assets_ng/gametext/.../portuguese/portuguesenetarcadecnc.txt
                ARMY @@ x:/gta5/assets_ng/gametext/.../portuguese/portuguesenetarmy.txt
                 CNC @@ x:/gta5/assets_ng/gametext/.../portuguese/portuguesenetcnc.txt
                 CNC @@ x:/gta5/assets_ng/gametext/.../russian/russiannetarcadecnc.txt
                ARMY @@ x:/gta5/assets_ng/gametext/.../russian/russiannetarmy.txt
                 CNC @@ x:/gta5/assets_ng/gametext/.../russian/russiannetcnc.txt
                 CNC @@ x:/gta5/assets_ng/gametext/.../spanish/spanishnetarcadecnc.txt
                ARMY @@ x:/gta5/assets_ng/gametext/.../spanish/spanishnetarmy.txt
                 CNC @@ x:/gta5/assets_ng/gametext/.../spanish/spanishnetcnc.txt
