               AGENT @@ X:/gta5/tools_ng/script/util/BuildDept/GTA5_SensitiveKeywordSearch/results/bintext/bintext_output.txt: 000001951348   0000019512d5      0   user-agent
               AGENT @@ X:/gta5/tools_ng/script/util/BuildDept/GTA5_SensitiveKeywordSearch/results/bintext/bintext_output.txt: 000001951348   0000019512d5      0   user-agent
                 AGT @@ X:/gta5/tools_ng/script/util/BuildDept/GTA5_SensitiveKeywordSearch/results/bintext/bintext_output.txt: 0000018da230   0000018da1bd      0   impactexagtime
                 AGT @@ X:/gta5/tools_ng/script/util/BuildDept/GTA5_SensitiveKeywordSearch/results/bintext/bintext_output.txt: 0000018de238   0000018de1c5      0   exagtwistmag
                 AGT @@ X:/gta5/tools_ng/script/util/BuildDept/GTA5_SensitiveKeywordSearch/results/bintext/bintext_output.txt: 00000196b360   00000196b2ed      0     exportinfo: tagtype = %d, tool ver = %d.%d, imgfmt = %d, prefix = '%s', swfname = '%s', flags = 0x%x
                 AGT @@ X:/gta5/tools_ng/script/util/BuildDept/GTA5_SensitiveKeywordSearch/results/bintext/bintext_output.txt: 00000196d570   00000196d4fd      0     fonttextureinfo: taginfo.tagtype = %d, id = 0x%x, fmt = %d, name = '%s', w = %d, h = %d
                 AGT @@ X:/gta5/tools_ng/script/util/BuildDept/GTA5_SensitiveKeywordSearch/results/bintext/bintext_output.txt: 00000196d5d0   00000196d55d      0     defineexternalimage2: taginfo.tagtype = %d, id = 0x%x, fmt = %d, name = '%s', exp = '%s', w = %d, h = %d
                 AGT @@ X:/gta5/tools_ng/script/util/BuildDept/GTA5_SensitiveKeywordSearch/results/bintext/bintext_output.txt: 00000196d640   00000196d5cd      0     defineexternalimage: taginfo.tagtype = %d, id = 0x%x, fmt = %d, name = '%s', exp = '%s', w = %d, h = %d
                 AGT @@ X:/gta5/tools_ng/script/util/BuildDept/GTA5_SensitiveKeywordSearch/results/bintext/bintext_output.txt: 00000196d8a0   00000196d82d      0     defbitslossless2: taginfo.tagtype = %d, id = %d, fmt = %d, w = %d, h = %d
                 AGT @@ X:/gta5/tools_ng/script/util/BuildDept/GTA5_SensitiveKeywordSearch/results/bintext/bintext_output.txt: 00000196e550   00000196e4dd      0     defineexternalgradientimage: taginfo.tagtype = %d, id = 0x%x, fmt = %d, name = '%s', size = %d
                 AGT @@ X:/gta5/tools_ng/script/util/BuildDept/GTA5_SensitiveKeywordSearch/results/bintext/bintext_output.txt: 00000196e988   00000196e915      0     flagtype = %s, gridfit = %s
                 AGT @@ X:/gta5/tools_ng/script/util/BuildDept/GTA5_SensitiveKeywordSearch/results/bintext/bintext_output.txt: 000001e4c870   000001e4c7fd      0   .?avgtafragtype@@
                 AGT @@ X:/gta5/tools_ng/script/util/BuildDept/GTA5_SensitiveKeywordSearch/results/bintext/bintext_output.txt: 000001e4c8f0   000001e4c87d      0   .?av?$atsingleton@vfragtunestruct@rage@@@@
                 AGT @@ X:/gta5/tools_ng/script/util/BuildDept/GTA5_SensitiveKeywordSearch/results/bintext/bintext_output.txt: 000001e4c930   000001e4c8bd      0   .?avfragtype@rage@@
                 AGT @@ X:/gta5/tools_ng/script/util/BuildDept/GTA5_SensitiveKeywordSearch/results/bintext/bintext_output.txt: 000001e4ca80   000001e4ca0d      0   .?avfragtunestruct@rage@@
                 AGT @@ X:/gta5/tools_ng/script/util/BuildDept/GTA5_SensitiveKeywordSearch/results/bintext/bintext_output.txt: 000001e77598   000001e77525      0   .?avfragtypechild@rage@@
                 AGT @@ X:/gta5/tools_ng/script/util/BuildDept/GTA5_SensitiveKeywordSearch/results/bintext/bintext_output.txt: 000001e778d0   000001e7785d      0   .?avfragtunebreakpreset@rage@@
                 AGT @@ X:/gta5/tools_ng/script/util/BuildDept/GTA5_SensitiveKeywordSearch/results/bintext/bintext_output.txt: 000001e97600   000001e9758d      0   .?av?$fwassetstore@vfragtype@rage@@vfwfragmentdef@2@@rage@@
                 AGT @@ X:/gta5/tools_ng/script/util/BuildDept/GTA5_SensitiveKeywordSearch/results/bintext/bintext_output.txt: 000001e979e0   000001e9796d      0   .?av?$fwassetrscstore@vfragtype@rage@@vfwfragmentdef@2@@rage@@
                 AGT @@ X:/gta5/tools_ng/script/util/BuildDept/GTA5_SensitiveKeywordSearch/results/bintext/bintext_output.txt: 0000018da230   0000018da1bd      0   impactexagtime
                 AGT @@ X:/gta5/tools_ng/script/util/BuildDept/GTA5_SensitiveKeywordSearch/results/bintext/bintext_output.txt: 0000018de238   0000018de1c5      0   exagtwistmag
                 AGT @@ X:/gta5/tools_ng/script/util/BuildDept/GTA5_SensitiveKeywordSearch/results/bintext/bintext_output.txt: 00000196b360   00000196b2ed      0     exportinfo: tagtype = %d, tool ver = %d.%d, imgfmt = %d, prefix = '%s', swfname = '%s', flags = 0x%x
                 AGT @@ X:/gta5/tools_ng/script/util/BuildDept/GTA5_SensitiveKeywordSearch/results/bintext/bintext_output.txt: 00000196d570   00000196d4fd      0     fonttextureinfo: taginfo.tagtype = %d, id = 0x%x, fmt = %d, name = '%s', w = %d, h = %d
                 AGT @@ X:/gta5/tools_ng/script/util/BuildDept/GTA5_SensitiveKeywordSearch/results/bintext/bintext_output.txt: 00000196d5d0   00000196d55d      0     defineexternalimage2: taginfo.tagtype = %d, id = 0x%x, fmt = %d, name = '%s', exp = '%s', w = %d, h = %d
                 AGT @@ X:/gta5/tools_ng/script/util/BuildDept/GTA5_SensitiveKeywordSearch/results/bintext/bintext_output.txt: 00000196d640   00000196d5cd      0     defineexternalimage: taginfo.tagtype = %d, id = 0x%x, fmt = %d, name = '%s', exp = '%s', w = %d, h = %d
                 AGT @@ X:/gta5/tools_ng/script/util/BuildDept/GTA5_SensitiveKeywordSearch/results/bintext/bintext_output.txt: 00000196d8a0   00000196d82d      0     defbitslossless2: taginfo.tagtype = %d, id = %d, fmt = %d, w = %d, h = %d
                 AGT @@ X:/gta5/tools_ng/script/util/BuildDept/GTA5_SensitiveKeywordSearch/results/bintext/bintext_output.txt: 00000196e550   00000196e4dd      0     defineexternalgradientimage: taginfo.tagtype = %d, id = 0x%x, fmt = %d, name = '%s', size = %d
                 AGT @@ X:/gta5/tools_ng/script/util/BuildDept/GTA5_SensitiveKeywordSearch/results/bintext/bintext_output.txt: 00000196e988   00000196e915      0     flagtype = %s, gridfit = %s
                 AGT @@ X:/gta5/tools_ng/script/util/BuildDept/GTA5_SensitiveKeywordSearch/results/bintext/bintext_output.txt: 000001e4c870   000001e4c7fd      0   .?avgtafragtype@@
                 AGT @@ X:/gta5/tools_ng/script/util/BuildDept/GTA5_SensitiveKeywordSearch/results/bintext/bintext_output.txt: 000001e4c8f0   000001e4c87d      0   .?av?$atsingleton@vfragtunestruct@rage@@@@
                 AGT @@ X:/gta5/tools_ng/script/util/BuildDept/GTA5_SensitiveKeywordSearch/results/bintext/bintext_output.txt: 000001e4c930   000001e4c8bd      0   .?avfragtype@rage@@
                 AGT @@ X:/gta5/tools_ng/script/util/BuildDept/GTA5_SensitiveKeywordSearch/results/bintext/bintext_output.txt: 000001e4ca80   000001e4ca0d      0   .?avfragtunestruct@rage@@
                 AGT @@ X:/gta5/tools_ng/script/util/BuildDept/GTA5_SensitiveKeywordSearch/results/bintext/bintext_output.txt: 000001e77598   000001e77525      0   .?avfragtypechild@rage@@
                 AGT @@ X:/gta5/tools_ng/script/util/BuildDept/GTA5_SensitiveKeywordSearch/results/bintext/bintext_output.txt: 000001e778d0   000001e7785d      0   .?avfragtunebreakpreset@rage@@
                 AGT @@ X:/gta5/tools_ng/script/util/BuildDept/GTA5_SensitiveKeywordSearch/results/bintext/bintext_output.txt: 000001e97600   000001e9758d      0   .?av?$fwassetstore@vfragtype@rage@@vfwfragmentdef@2@@rage@@
                 AGT @@ X:/gta5/tools_ng/script/util/BuildDept/GTA5_SensitiveKeywordSearch/results/bintext/bintext_output.txt: 000001e979e0   000001e9796d      0   .?av?$fwassetrscstore@vfragtype@rage@@vfwfragmentdef@2@@rage@@
                ARMY @@ X:/gta5/tools_ng/script/util/BuildDept/GTA5_SensitiveKeywordSearch/results/bintext/bintext_output.txt: 000001e4a038   000001e49fc5      0   .?avcarmyvehicledispatch@@
                ARMY @@ X:/gta5/tools_ng/script/util/BuildDept/GTA5_SensitiveKeywordSearch/results/bintext/bintext_output.txt: 000001e584a8   000001e58435      0   .?avctaskarmy@@
                ARMY @@ X:/gta5/tools_ng/script/util/BuildDept/GTA5_SensitiveKeywordSearch/results/bintext/bintext_output.txt: 000001e4a038   000001e49fc5      0   .?avcarmyvehicledispatch@@
                ARMY @@ X:/gta5/tools_ng/script/util/BuildDept/GTA5_SensitiveKeywordSearch/results/bintext/bintext_output.txt: 000001e584a8   000001e58435      0   .?avctaskarmy@@
  ASSASSIN,ASSASSINS @@ X:/gta5/tools_ng/script/util/BuildDept/GTA5_SensitiveKeywordSearch/results/bintext/bintext_output.txt: 0000018a21f0   0000018a217d      0   employ_assassins
  ASSASSIN,ASSASSINS @@ X:/gta5/tools_ng/script/util/BuildDept/GTA5_SensitiveKeywordSearch/results/bintext/bintext_output.txt: 000001e49510   000001e4949d      0   .?autunables@cassassinsdispatch@@
  ASSASSIN,ASSASSINS @@ X:/gta5/tools_ng/script/util/BuildDept/GTA5_SensitiveKeywordSearch/results/bintext/bintext_output.txt: 000001e4aae0   000001e4aa6d      0   .?avcassassinsdispatch@@
  ASSASSIN,ASSASSINS @@ X:/gta5/tools_ng/script/util/BuildDept/GTA5_SensitiveKeywordSearch/results/bintext/bintext_output.txt: 000001e55f20   000001e55ead      0   .?avmetricspentemployassassins@money_commands@@
  ASSASSIN,ASSASSINS @@ X:/gta5/tools_ng/script/util/BuildDept/GTA5_SensitiveKeywordSearch/results/bintext/bintext_output.txt: 0000018a21f0   0000018a217d      0   employ_assassins
  ASSASSIN,ASSASSINS @@ X:/gta5/tools_ng/script/util/BuildDept/GTA5_SensitiveKeywordSearch/results/bintext/bintext_output.txt: 000001e49510   000001e4949d      0   .?autunables@cassassinsdispatch@@
  ASSASSIN,ASSASSINS @@ X:/gta5/tools_ng/script/util/BuildDept/GTA5_SensitiveKeywordSearch/results/bintext/bintext_output.txt: 000001e4aae0   000001e4aa6d      0   .?avcassassinsdispatch@@
  ASSASSIN,ASSASSINS @@ X:/gta5/tools_ng/script/util/BuildDept/GTA5_SensitiveKeywordSearch/results/bintext/bintext_output.txt: 000001e55f20   000001e55ead      0   .?avmetricspentemployassassins@money_commands@@
               CARLA @@ X:/gta5/tools_ng/script/util/BuildDept/GTA5_SensitiveKeywordSearch/results/bintext/bintext_output.txt: 000001e368b8   000001e36845      0   .?avaudcachedcarlandingtestresults@@
               CARLA @@ X:/gta5/tools_ng/script/util/BuildDept/GTA5_SensitiveKeywordSearch/results/bintext/bintext_output.txt: 000001e368b8   000001e36845      0   .?avaudcachedcarlandingtestresults@@
               CRANK @@ X:/gta5/tools_ng/script/util/BuildDept/GTA5_SensitiveKeywordSearch/results/bintext/bintext_output.txt: 0000018f2908   0000018f2895      0   crank
               CRANK @@ X:/gta5/tools_ng/script/util/BuildDept/GTA5_SensitiveKeywordSearch/results/bintext/bintext_output.txt: 000001e632e8   000001e63275      0   .?avmetricrank_up@stats_commands@@
               CRANK @@ X:/gta5/tools_ng/script/util/BuildDept/GTA5_SensitiveKeywordSearch/results/bintext/bintext_output.txt: 0000018f2908   0000018f2895      0   crank
               CRANK @@ X:/gta5/tools_ng/script/util/BuildDept/GTA5_SensitiveKeywordSearch/results/bintext/bintext_output.txt: 000001e632e8   000001e63275      0   .?avmetricrank_up@stats_commands@@
          SCRIPT.RPF @@ X:/gta5/tools_ng/script/util/BuildDept/GTA5_SensitiveKeywordSearch/results/bintext/bintext_output.txt: 00000187b600   00000187b58d      0   bgscript.rpf
          SCRIPT.RPF @@ X:/gta5/tools_ng/script/util/BuildDept/GTA5_SensitiveKeywordSearch/results/bintext/bintext_output.txt: 00000189ce78   00000189ce05      0   script.rpf
          SCRIPT.RPF @@ X:/gta5/tools_ng/script/util/BuildDept/GTA5_SensitiveKeywordSearch/results/bintext/bintext_output.txt: 000001911a88   000001911a15      0   platform:/levels/gta5/script/script.rpf
          SCRIPT.RPF @@ X:/gta5/tools_ng/script/util/BuildDept/GTA5_SensitiveKeywordSearch/results/bintext/bintext_output.txt: 00000187b600   00000187b58d      0   bgscript.rpf
          SCRIPT.RPF @@ X:/gta5/tools_ng/script/util/BuildDept/GTA5_SensitiveKeywordSearch/results/bintext/bintext_output.txt: 00000189ce78   00000189ce05      0   script.rpf
          SCRIPT.RPF @@ X:/gta5/tools_ng/script/util/BuildDept/GTA5_SensitiveKeywordSearch/results/bintext/bintext_output.txt: 000001911a88   000001911a15      0   platform:/levels/gta5/script/script.rpf
                 SKI @@ X:/gta5/tools_ng/script/util/BuildDept/GTA5_SensitiveKeywordSearch/results/bintext/bintext_output.txt: 000000de6d0f   000000de6c9c      0   fa;g(ski
                 SKI @@ X:/gta5/tools_ng/script/util/BuildDept/GTA5_SensitiveKeywordSearch/results/bintext/bintext_output.txt: 000001182eef   000001182e7c      0   f;ghski
                 SKI @@ X:/gta5/tools_ng/script/util/BuildDept/GTA5_SensitiveKeywordSearch/results/bintext/bintext_output.txt: 000001840110   00000184009d      0   iskickenabled
                 SKI @@ X:/gta5/tools_ng/script/util/BuildDept/GTA5_SensitiveKeywordSearch/results/bintext/bintext_output.txt: 00000184a028   000001849fb5      0   veui_marker_skip
                 SKI @@ X:/gta5/tools_ng/script/util/BuildDept/GTA5_SensitiveKeywordSearch/results/bintext/bintext_output.txt: 00000184a040   000001849fcd      0   veui_clip_skip
                 SKI @@ X:/gta5/tools_ng/script/util/BuildDept/GTA5_SensitiveKeywordSearch/results/bintext/bintext_output.txt: 00000184a050   000001849fdd      0   veui_beat_skip
                 SKI @@ X:/gta5/tools_ng/script/util/BuildDept/GTA5_SensitiveKeywordSearch/results/bintext/bintext_output.txt: 000001871420   0000018713ad      0   drawskinbump
                 SKI @@ X:/gta5/tools_ng/script/util/BuildDept/GTA5_SensitiveKeywordSearch/results/bintext/bintext_output.txt: 000001871990   00000187191d      0   skinblend
                 SKI @@ X:/gta5/tools_ng/script/util/BuildDept/GTA5_SensitiveKeywordSearch/results/bintext/bintext_output.txt: 000001871d90   000001871d1d      0   common:/data/effects/peds/ped_skin_tones
                 SKI @@ X:/gta5/tools_ng/script/util/BuildDept/GTA5_SensitiveKeywordSearch/results/bintext/bintext_output.txt: 000001872b90   000001872b1d      0   skintoneblendpalettergb
                 SKI @@ X:/gta5/tools_ng/script/util/BuildDept/GTA5_SensitiveKeywordSearch/results/bintext/bintext_output.txt: 000001872ba8   000001872b35      0   skintoneblendpalettetex
                 SKI @@ X:/gta5/tools_ng/script/util/BuildDept/GTA5_SensitiveKeywordSearch/results/bintext/bintext_output.txt: 000001877590   00000187751d      0   skincolourtweak
                 SKI @@ X:/gta5/tools_ng/script/util/BuildDept/GTA5_SensitiveKeywordSearch/results/bintext/bintext_output.txt: 0000018775d0   00000187755d      0   skinparams
                 SKI @@ X:/gta5/tools_ng/script/util/BuildDept/GTA5_SensitiveKeywordSearch/results/bintext/bintext_output.txt: 000001877640   0000018775cd      0   sss_skin
                 SKI @@ X:/gta5/tools_ng/script/util/BuildDept/GTA5_SensitiveKeywordSearch/results/bintext/bintext_output.txt: 00000187bf00   00000187be8d      0   skirt
                 SKI @@ X:/gta5/tools_ng/script/util/BuildDept/GTA5_SensitiveKeywordSearch/results/bintext/bintext_output.txt: 00000187f7b0   00000187f73d      0   pedskilledofthistype
                 SKI @@ X:/gta5/tools_ng/script/util/BuildDept/GTA5_SensitiveKeywordSearch/results/bintext/bintext_output.txt: 0000018802f0   00000188027d      0   sg_auto_ld_skip
                 SKI @@ X:/gta5/tools_ng/script/util/BuildDept/GTA5_SensitiveKeywordSearch/results/bintext/bintext_output.txt: 000001887ef8   000001887e85      0   input_skip_cutscene
                 SKI @@ X:/gta5/tools_ng/script/util/BuildDept/GTA5_SensitiveKeywordSearch/results/bintext/bintext_output.txt: 0000018a1170   0000018a10fd      0   job_skip
                 SKI @@ X:/gta5/tools_ng/script/util/BuildDept/GTA5_SensitiveKeywordSearch/results/bintext/bintext_output.txt: 0000018a11c0   0000018a114d      0   skip_prep_mission
                 SKI @@ X:/gta5/tools_ng/script/util/BuildDept/GTA5_SensitiveKeywordSearch/results/bintext/bintext_output.txt: 0000018a1248   0000018a11d5      0   skill_progression
                 SKI @@ X:/gta5/tools_ng/script/util/BuildDept/GTA5_SensitiveKeywordSearch/results/bintext/bintext_output.txt: 0000018a1470   0000018a13fd      0   trip_skip
                 SKI @@ X:/gta5/tools_ng/script/util/BuildDept/GTA5_SensitiveKeywordSearch/results/bintext/bintext_output.txt: 0000018a1c20   0000018a1bad      0   skill_award
                 SKI @@ X:/gta5/tools_ng/script/util/BuildDept/GTA5_SensitiveKeywordSearch/results/bintext/bintext_output.txt: 0000018c57a8   0000018c5735      0   ggrassskipinstance
                 SKI @@ X:/gta5/tools_ng/script/util/BuildDept/GTA5_SensitiveKeywordSearch/results/bintext/bintext_output.txt: 0000019129f8   000001912985      0   skills
                 SKI @@ X:/gta5/tools_ng/script/util/BuildDept/GTA5_SensitiveKeywordSearch/results/bintext/bintext_output.txt: 000001932358   0000019322e5      0   skipped
                 SKI @@ X:/gta5/tools_ng/script/util/BuildDept/GTA5_SensitiveKeywordSearch/results/bintext/bintext_output.txt: 0000019444e0   00000194446d      0   drawskinnedinstancedtessellated
                 SKI @@ X:/gta5/tools_ng/script/util/BuildDept/GTA5_SensitiveKeywordSearch/results/bintext/bintext_output.txt: 000001944510   00000194449d      0   drawskinnedinstanced
                 SKI @@ X:/gta5/tools_ng/script/util/BuildDept/GTA5_SensitiveKeywordSearch/results/bintext/bintext_output.txt: 000001944548   0000019444d5      0   drawskinnedtessellated
                 SKI @@ X:/gta5/tools_ng/script/util/BuildDept/GTA5_SensitiveKeywordSearch/results/bintext/bintext_output.txt: 000001944570   0000019444fd      0   drawskinned
                 SKI @@ X:/gta5/tools_ng/script/util/BuildDept/GTA5_SensitiveKeywordSearch/results/bintext/bintext_output.txt: 0000019447b0   00000194473d      0   unlit_drawskinned
                 SKI @@ X:/gta5/tools_ng/script/util/BuildDept/GTA5_SensitiveKeywordSearch/results/bintext/bintext_output.txt: 000001e45708   000001e45695      0   .?avctaskinfo@@
                 SKI @@ X:/gta5/tools_ng/script/util/BuildDept/GTA5_SensitiveKeywordSearch/results/bintext/bintext_output.txt: 000001e461d8   000001e46165      0   .?avcserialisedfsmtaskinfo@@
                 SKI @@ X:/gta5/tools_ng/script/util/BuildDept/GTA5_SensitiveKeywordSearch/results/bintext/bintext_output.txt: 000001e46238   000001e461c5      0   .?avcclonedcombattaskinfo@@
                 SKI @@ X:/gta5/tools_ng/script/util/BuildDept/GTA5_SensitiveKeywordSearch/results/bintext/bintext_output.txt: 000001e46f70   000001e46efd      0   .?avcclonedfsmtaskinfo@@
                 SKI @@ X:/gta5/tools_ng/script/util/BuildDept/GTA5_SensitiveKeywordSearch/results/bintext/bintext_output.txt: 000001e4f4d0   000001e4f45d      0   .?autunables@ctaskincover@@
                 SKI @@ X:/gta5/tools_ng/script/util/BuildDept/GTA5_SensitiveKeywordSearch/results/bintext/bintext_output.txt: 000001e4fce8   000001e4fc75      0   .?autunables@ctaskinvestigate@@
                 SKI @@ X:/gta5/tools_ng/script/util/BuildDept/GTA5_SensitiveKeywordSearch/results/bintext/bintext_output.txt: 000001e50398   000001e50325      0   .?avctaskincover@@
                 SKI @@ X:/gta5/tools_ng/script/util/BuildDept/GTA5_SensitiveKeywordSearch/results/bintext/bintext_output.txt: 000001e50ef8   000001e50e85      0   .?avctaskinvestigate@@
                 SKI @@ X:/gta5/tools_ng/script/util/BuildDept/GTA5_SensitiveKeywordSearch/results/bintext/bintext_output.txt: 000001e52b48   000001e52ad5      0   .?avcdynamicentityskinneddrawhandler@@
                 SKI @@ X:/gta5/tools_ng/script/util/BuildDept/GTA5_SensitiveKeywordSearch/results/bintext/bintext_output.txt: 000001e53cd0   000001e53c5d      0   .?avmetricspendgangopstripskip@@
                 SKI @@ X:/gta5/tools_ng/script/util/BuildDept/GTA5_SensitiveKeywordSearch/results/bintext/bintext_output.txt: 000001e53e98   000001e53e25      0   .?avmetricspendjobskip@@
                 SKI @@ X:/gta5/tools_ng/script/util/BuildDept/GTA5_SensitiveKeywordSearch/results/bintext/bintext_output.txt: 000001e560d0   000001e5605d      0   .?avmetricearnfromarenaskilllevelprogression@@
                 SKI @@ X:/gta5/tools_ng/script/util/BuildDept/GTA5_SensitiveKeywordSearch/results/bintext/bintext_output.txt: 000001e581b8   000001e58145      0   .?avcscenarioskiliftinfo@@
                 SKI @@ X:/gta5/tools_ng/script/util/BuildDept/GTA5_SensitiveKeywordSearch/results/bintext/bintext_output.txt: 000001e5a6a8   000001e5a635      0   .?autunables@ctaskinvehiclebasic@@
                 SKI @@ X:/gta5/tools_ng/script/util/BuildDept/GTA5_SensitiveKeywordSearch/results/bintext/bintext_output.txt: 000001e5aad8   000001e5aa65      0   .?avctaskinvehiclebasic@@
                 SKI @@ X:/gta5/tools_ng/script/util/BuildDept/GTA5_SensitiveKeywordSearch/results/bintext/bintext_output.txt: 000001e5ab68   000001e5aaf5      0   .?avctaskinvehicleseatshuffle@@
                 SKI @@ X:/gta5/tools_ng/script/util/BuildDept/GTA5_SensitiveKeywordSearch/results/bintext/bintext_output.txt: 000001e60d70   000001e60cfd      0   .?autunables@ctaskintimidate@@
                 SKI @@ X:/gta5/tools_ng/script/util/BuildDept/GTA5_SensitiveKeywordSearch/results/bintext/bintext_output.txt: 000001e60e80   000001e60e0d      0   .?avctaskintimidate@@
                 SKI @@ X:/gta5/tools_ng/script/util/BuildDept/GTA5_SensitiveKeywordSearch/results/bintext/bintext_output.txt: 000001e647d0   000001e6475d      0   .?avcgadgetskis@@
                 SKI @@ X:/gta5/tools_ng/script/util/BuildDept/GTA5_SensitiveKeywordSearch/results/bintext/bintext_output.txt: 000001e6a5e8   000001e6a575      0   .?avmetriccharacter_skills@@
                 SKI @@ X:/gta5/tools_ng/script/util/BuildDept/GTA5_SensitiveKeywordSearch/results/bintext/bintext_output.txt: 000000de6d0f   000000de6c9c      0   fa;g(ski
                 SKI @@ X:/gta5/tools_ng/script/util/BuildDept/GTA5_SensitiveKeywordSearch/results/bintext/bintext_output.txt: 000001182eef   000001182e7c      0   f;ghski
                 SKI @@ X:/gta5/tools_ng/script/util/BuildDept/GTA5_SensitiveKeywordSearch/results/bintext/bintext_output.txt: 000001840110   00000184009d      0   iskickenabled
                 SKI @@ X:/gta5/tools_ng/script/util/BuildDept/GTA5_SensitiveKeywordSearch/results/bintext/bintext_output.txt: 00000184a028   000001849fb5      0   veui_marker_skip
                 SKI @@ X:/gta5/tools_ng/script/util/BuildDept/GTA5_SensitiveKeywordSearch/results/bintext/bintext_output.txt: 00000184a040   000001849fcd      0   veui_clip_skip
                 SKI @@ X:/gta5/tools_ng/script/util/BuildDept/GTA5_SensitiveKeywordSearch/results/bintext/bintext_output.txt: 00000184a050   000001849fdd      0   veui_beat_skip
                 SKI @@ X:/gta5/tools_ng/script/util/BuildDept/GTA5_SensitiveKeywordSearch/results/bintext/bintext_output.txt: 000001871420   0000018713ad      0   drawskinbump
                 SKI @@ X:/gta5/tools_ng/script/util/BuildDept/GTA5_SensitiveKeywordSearch/results/bintext/bintext_output.txt: 000001871990   00000187191d      0   skinblend
                 SKI @@ X:/gta5/tools_ng/script/util/BuildDept/GTA5_SensitiveKeywordSearch/results/bintext/bintext_output.txt: 000001871d90   000001871d1d      0   common:/data/effects/peds/ped_skin_tones
                 SKI @@ X:/gta5/tools_ng/script/util/BuildDept/GTA5_SensitiveKeywordSearch/results/bintext/bintext_output.txt: 000001872b90   000001872b1d      0   skintoneblendpalettergb
                 SKI @@ X:/gta5/tools_ng/script/util/BuildDept/GTA5_SensitiveKeywordSearch/results/bintext/bintext_output.txt: 000001872ba8   000001872b35      0   skintoneblendpalettetex
                 SKI @@ X:/gta5/tools_ng/script/util/BuildDept/GTA5_SensitiveKeywordSearch/results/bintext/bintext_output.txt: 000001877590   00000187751d      0   skincolourtweak
                 SKI @@ X:/gta5/tools_ng/script/util/BuildDept/GTA5_SensitiveKeywordSearch/results/bintext/bintext_output.txt: 0000018775d0   00000187755d      0   skinparams
                 SKI @@ X:/gta5/tools_ng/script/util/BuildDept/GTA5_SensitiveKeywordSearch/results/bintext/bintext_output.txt: 000001877640   0000018775cd      0   sss_skin
                 SKI @@ X:/gta5/tools_ng/script/util/BuildDept/GTA5_SensitiveKeywordSearch/results/bintext/bintext_output.txt: 00000187bf00   00000187be8d      0   skirt
                 SKI @@ X:/gta5/tools_ng/script/util/BuildDept/GTA5_SensitiveKeywordSearch/results/bintext/bintext_output.txt: 00000187f7b0   00000187f73d      0   pedskilledofthistype
                 SKI @@ X:/gta5/tools_ng/script/util/BuildDept/GTA5_SensitiveKeywordSearch/results/bintext/bintext_output.txt: 0000018802f0   00000188027d      0   sg_auto_ld_skip
                 SKI @@ X:/gta5/tools_ng/script/util/BuildDept/GTA5_SensitiveKeywordSearch/results/bintext/bintext_output.txt: 000001887ef8   000001887e85      0   input_skip_cutscene
                 SKI @@ X:/gta5/tools_ng/script/util/BuildDept/GTA5_SensitiveKeywordSearch/results/bintext/bintext_output.txt: 0000018a1170   0000018a10fd      0   job_skip
                 SKI @@ X:/gta5/tools_ng/script/util/BuildDept/GTA5_SensitiveKeywordSearch/results/bintext/bintext_output.txt: 0000018a11c0   0000018a114d      0   skip_prep_mission
                 SKI @@ X:/gta5/tools_ng/script/util/BuildDept/GTA5_SensitiveKeywordSearch/results/bintext/bintext_output.txt: 0000018a1248   0000018a11d5      0   skill_progression
                 SKI @@ X:/gta5/tools_ng/script/util/BuildDept/GTA5_SensitiveKeywordSearch/results/bintext/bintext_output.txt: 0000018a1470   0000018a13fd      0   trip_skip
                 SKI @@ X:/gta5/tools_ng/script/util/BuildDept/GTA5_SensitiveKeywordSearch/results/bintext/bintext_output.txt: 0000018a1c20   0000018a1bad      0   skill_award
                 SKI @@ X:/gta5/tools_ng/script/util/BuildDept/GTA5_SensitiveKeywordSearch/results/bintext/bintext_output.txt: 0000018c57a8   0000018c5735      0   ggrassskipinstance
                 SKI @@ X:/gta5/tools_ng/script/util/BuildDept/GTA5_SensitiveKeywordSearch/results/bintext/bintext_output.txt: 0000019129f8   000001912985      0   skills
                 SKI @@ X:/gta5/tools_ng/script/util/BuildDept/GTA5_SensitiveKeywordSearch/results/bintext/bintext_output.txt: 000001932358   0000019322e5      0   skipped
                 SKI @@ X:/gta5/tools_ng/script/util/BuildDept/GTA5_SensitiveKeywordSearch/results/bintext/bintext_output.txt: 0000019444e0   00000194446d      0   drawskinnedinstancedtessellated
                 SKI @@ X:/gta5/tools_ng/script/util/BuildDept/GTA5_SensitiveKeywordSearch/results/bintext/bintext_output.txt: 000001944510   00000194449d      0   drawskinnedinstanced
                 SKI @@ X:/gta5/tools_ng/script/util/BuildDept/GTA5_SensitiveKeywordSearch/results/bintext/bintext_output.txt: 000001944548   0000019444d5      0   drawskinnedtessellated
                 SKI @@ X:/gta5/tools_ng/script/util/BuildDept/GTA5_SensitiveKeywordSearch/results/bintext/bintext_output.txt: 000001944570   0000019444fd      0   drawskinned
                 SKI @@ X:/gta5/tools_ng/script/util/BuildDept/GTA5_SensitiveKeywordSearch/results/bintext/bintext_output.txt: 0000019447b0   00000194473d      0   unlit_drawskinned
                 SKI @@ X:/gta5/tools_ng/script/util/BuildDept/GTA5_SensitiveKeywordSearch/results/bintext/bintext_output.txt: 000001e45708   000001e45695      0   .?avctaskinfo@@
                 SKI @@ X:/gta5/tools_ng/script/util/BuildDept/GTA5_SensitiveKeywordSearch/results/bintext/bintext_output.txt: 000001e461d8   000001e46165      0   .?avcserialisedfsmtaskinfo@@
                 SKI @@ X:/gta5/tools_ng/script/util/BuildDept/GTA5_SensitiveKeywordSearch/results/bintext/bintext_output.txt: 000001e46238   000001e461c5      0   .?avcclonedcombattaskinfo@@
                 SKI @@ X:/gta5/tools_ng/script/util/BuildDept/GTA5_SensitiveKeywordSearch/results/bintext/bintext_output.txt: 000001e46f70   000001e46efd      0   .?avcclonedfsmtaskinfo@@
                 SKI @@ X:/gta5/tools_ng/script/util/BuildDept/GTA5_SensitiveKeywordSearch/results/bintext/bintext_output.txt: 000001e4f4d0   000001e4f45d      0   .?autunables@ctaskincover@@
                 SKI @@ X:/gta5/tools_ng/script/util/BuildDept/GTA5_SensitiveKeywordSearch/results/bintext/bintext_output.txt: 000001e4fce8   000001e4fc75      0   .?autunables@ctaskinvestigate@@
                 SKI @@ X:/gta5/tools_ng/script/util/BuildDept/GTA5_SensitiveKeywordSearch/results/bintext/bintext_output.txt: 000001e50398   000001e50325      0   .?avctaskincover@@
                 SKI @@ X:/gta5/tools_ng/script/util/BuildDept/GTA5_SensitiveKeywordSearch/results/bintext/bintext_output.txt: 000001e50ef8   000001e50e85      0   .?avctaskinvestigate@@
                 SKI @@ X:/gta5/tools_ng/script/util/BuildDept/GTA5_SensitiveKeywordSearch/results/bintext/bintext_output.txt: 000001e52b48   000001e52ad5      0   .?avcdynamicentityskinneddrawhandler@@
                 SKI @@ X:/gta5/tools_ng/script/util/BuildDept/GTA5_SensitiveKeywordSearch/results/bintext/bintext_output.txt: 000001e53cd0   000001e53c5d      0   .?avmetricspendgangopstripskip@@
                 SKI @@ X:/gta5/tools_ng/script/util/BuildDept/GTA5_SensitiveKeywordSearch/results/bintext/bintext_output.txt: 000001e53e98   000001e53e25      0   .?avmetricspendjobskip@@
                 SKI @@ X:/gta5/tools_ng/script/util/BuildDept/GTA5_SensitiveKeywordSearch/results/bintext/bintext_output.txt: 000001e560d0   000001e5605d      0   .?avmetricearnfromarenaskilllevelprogression@@
                 SKI @@ X:/gta5/tools_ng/script/util/BuildDept/GTA5_SensitiveKeywordSearch/results/bintext/bintext_output.txt: 000001e581b8   000001e58145      0   .?avcscenarioskiliftinfo@@
                 SKI @@ X:/gta5/tools_ng/script/util/BuildDept/GTA5_SensitiveKeywordSearch/results/bintext/bintext_output.txt: 000001e5a6a8   000001e5a635      0   .?autunables@ctaskinvehiclebasic@@
                 SKI @@ X:/gta5/tools_ng/script/util/BuildDept/GTA5_SensitiveKeywordSearch/results/bintext/bintext_output.txt: 000001e5aad8   000001e5aa65      0   .?avctaskinvehiclebasic@@
                 SKI @@ X:/gta5/tools_ng/script/util/BuildDept/GTA5_SensitiveKeywordSearch/results/bintext/bintext_output.txt: 000001e5ab68   000001e5aaf5      0   .?avctaskinvehicleseatshuffle@@
                 SKI @@ X:/gta5/tools_ng/script/util/BuildDept/GTA5_SensitiveKeywordSearch/results/bintext/bintext_output.txt: 000001e60d70   000001e60cfd      0   .?autunables@ctaskintimidate@@
                 SKI @@ X:/gta5/tools_ng/script/util/BuildDept/GTA5_SensitiveKeywordSearch/results/bintext/bintext_output.txt: 000001e60e80   000001e60e0d      0   .?avctaskintimidate@@
                 SKI @@ X:/gta5/tools_ng/script/util/BuildDept/GTA5_SensitiveKeywordSearch/results/bintext/bintext_output.txt: 000001e647d0   000001e6475d      0   .?avcgadgetskis@@
                 SKI @@ X:/gta5/tools_ng/script/util/BuildDept/GTA5_SensitiveKeywordSearch/results/bintext/bintext_output.txt: 000001e6a5e8   000001e6a575      0   .?avmetriccharacter_skills@@
          SKI,SKIING @@ X:/gta5/tools_ng/script/util/BuildDept/GTA5_SensitiveKeywordSearch/results/bintext/bintext_output.txt: 000001e589d8   000001e58965      0   .?avcscenarioskiinginfo@@
          SKI,SKIING @@ X:/gta5/tools_ng/script/util/BuildDept/GTA5_SensitiveKeywordSearch/results/bintext/bintext_output.txt: 000001e5f078   000001e5f005      0   .?avcfleeskiingtransitions@@
          SKI,SKIING @@ X:/gta5/tools_ng/script/util/BuildDept/GTA5_SensitiveKeywordSearch/results/bintext/bintext_output.txt: 000001e589d8   000001e58965      0   .?avcscenarioskiinginfo@@
          SKI,SKIING @@ X:/gta5/tools_ng/script/util/BuildDept/GTA5_SensitiveKeywordSearch/results/bintext/bintext_output.txt: 000001e5f078   000001e5f005      0   .?avcfleeskiingtransitions@@
                 ZMB @@ X:/gta5/tools_ng/script/util/BuildDept/GTA5_SensitiveKeywordSearch/results/bintext/bintext_output.txt: 0000014116cf   00000141165c      0   x(=zmb
                 ZMB @@ X:/gta5/tools_ng/script/util/BuildDept/GTA5_SensitiveKeywordSearch/results/bintext/bintext_output.txt: 0000014116cf   00000141165c      0   x(=zmb
