{
    "stickbug": {
        "get_callback": "handle_service_get",
        "start": "handle_service_start",
        "stop": "handle_service_stop"
    },
    "compare": {
        "get_callback": "handle_service_get",
        "post_callback": "handle_service_post",
        "start": "handle_service_start",
        "stop": "handle_service_stop"
    },
    "dev": {
        "get_callback": "handle_service_get",
        "post_callback": "handle_service_post",
        "start": "handle_service_start",
        "stop": "handle_service_stop"
    }
}