'HandMiddleToWrist':'8.70933437347'
'HandInToWrist':'1.93269705772'
'HandBottomToWrist':'1.14059519768'
'FootMiddleToAnkle':'9.06568241119'
'FootBottomToAnkle':'6.59952020645'
'FootBackToAnkle':'3.48785400391'
'HandBackToWrist':'0.01'
'FootOutToAnkle':'5.69506788254'
'FootFrontToMiddle':'6.59798049927'
'HandFrontToMiddle':'8.70933437347'
'HandOutToWrist':'2.97130942345'
'FootInToAnkle':'3.34726858139'
