'HandMiddleToWrist':'8.7093372345'
'HandInToWrist':'2.11508631706'
'HandBottomToWrist':'1.25375127792'
'FootMiddleToAnkle':'9.44377613068'
'FootBottomToAnkle':'6.5995182991'
'FootBackToAnkle':'6.59798288345'
'HandBackToWrist':'0.01'
'FootOutToAnkle':'4.1098446846'
'FootFrontToMiddle':'6.59798288345'
'HandFrontToMiddle':'8.7093372345'
'HandOutToWrist':'3.92363286018'
'FootInToAnkle':'5.24527311325'
