'HandMiddleToWrist':'8.70933532715'
'HandInToWrist':'2.79772305489'
'HandBottomToWrist':'0.525590121746'
'FootMiddleToAnkle':'12.3469667435'
'FootBottomToAnkle':'6.59896993637'
'FootBackToAnkle':'5.42570304871'
'HandBackToWrist':'1.60089027882'
'FootOutToAnkle':'6.2872505188'
'FootFrontToMiddle':'8.12194347382'
'HandFrontToMiddle':'8.70933532715'
'HandOutToWrist':'2.65154576302'
'FootInToAnkle':'4.26246976852'

