'HandMiddleToWrist':'10.1263484955'
'HandInToWrist':'2.79300951958'
'HandBottomToWrist':'1.45314514637'
'FootMiddleToAnkle':'17.1791687012'
'FootBottomToAnkle':'8.82981014252'
'FootBackToAnkle':'6.3060836792'
'HandBackToWrist':'0.01'
'FootOutToAnkle':'6.56455659866'
'FootFrontToMiddle':'7.6714758873'
'HandFrontToMiddle':'10.1263484955'
'HandOutToWrist':'3.45742917061'
'FootInToAnkle':'5.31927251816'
