'HandMiddleToWrist':'11.8849220276'
'HandInToWrist':'3.67195010185'
'HandBottomToWrist':'1.20917272568'
'FootMiddleToAnkle':'13.3852539063'
'FootBottomToAnkle':'8.82984256744'
'FootBackToAnkle':'7.42050790787'
'HandBackToWrist':'0.204253897071'
'FootOutToAnkle':'6.51032876968'
'FootFrontToMiddle':'7.89284610748'
'HandFrontToMiddle':'10.1263418198'
'HandOutToWrist':'2.81658792496'
'FootInToAnkle':'5.35624313354'
