'HandMiddleToWrist':'10.1263523102'
'HandInToWrist':'3.45455813408'
'HandBottomToWrist':'1.29553127289'
'FootMiddleToAnkle':'16.7703018188'
'FootBottomToAnkle':'8.82980537415'
'FootBackToAnkle':'6.26291704178'
'HandBackToWrist':'0.01'
'FootOutToAnkle':'6.69985866547'
'FootFrontToMiddle':'7.67147922516'
'HandFrontToMiddle':'10.1263523102'
'HandOutToWrist':'3.13068461418'
'FootInToAnkle':'6.31121063232'
