'HandMiddleToWrist':'10.1263542175'
'HandInToWrist':'2.85422873497'
'HandBottomToWrist':'2.31731796265'
'FootMiddleToAnkle':'14.5700845718'
'FootBottomToAnkle':'8.82978534698'
'FootBackToAnkle':'6.70016765594'
'HandBackToWrist':'0.01'
'FootOutToAnkle':'6.31986284256'
'FootFrontToMiddle':'8.6074552536'
'HandFrontToMiddle':'10.1263542175'
'HandOutToWrist':'3.09751391411'
'FootInToAnkle':'4.97857284546'
