'HandMiddleToWrist':'10.1263465881'
'HandInToWrist':'3.1187543869'
'HandBottomToWrist':'1.57092380524'
'FootMiddleToAnkle':'11.0959224701'
'FootBottomToAnkle':'8.82981491089'
'FootBackToAnkle':'11.0395183563'
'HandBackToWrist':'0.01'
'FootOutToAnkle':'5.0501499176'
'FootFrontToMiddle':'7.67147445679'
'HandFrontToMiddle':'10.1263465881'
'HandOutToWrist':'3.66261959076'
'FootInToAnkle':'5.87666702271'
