'HandMiddleToWrist':'10.1263523102'
'HandInToWrist':'4.69947767258'
'HandBottomToWrist':'1.15718472004'
'FootMiddleToAnkle':'16.3943729401'
'FootBottomToAnkle':'8.82980537415'
'FootBackToAnkle':'5.24986791611'
'HandBackToWrist':'0.01'
'FootOutToAnkle':'6.35530042648'
'FootFrontToMiddle':'7.67147922516'
'HandFrontToMiddle':'10.1263523102'
'HandOutToWrist':'3.7729382515'
'FootInToAnkle':'5.86442613602'
