'HandMiddleToWrist':'10.1263523102'
'HandInToWrist':'3.02485132217'
'HandBottomToWrist':'1.32161569595'
'FootMiddleToAnkle':'16.577703476'
'FootBottomToAnkle':'8.82980537415'
'FootBackToAnkle':'4.86592483521'
'HandBackToWrist':'0.01'
'FootOutToAnkle':'4.62797880173'
'FootFrontToMiddle':'7.67147922516'
'HandFrontToMiddle':'10.1263523102'
'HandOutToWrist':'2.37267255783'
'FootInToAnkle':'5.78740739822'
