'HandMiddleToWrist':'10.1263418198'
'HandInToWrist':'1.9128203392'
'HandBottomToWrist':'1.8447650671'
'FootMiddleToAnkle':'15.3429431915'
'FootBottomToAnkle':'8.82980823517'
'FootBackToAnkle':'6.68989133835'
'HandBackToWrist':'0.01'
'FootOutToAnkle':'5.07170057297'
'FootFrontToMiddle':'4.69540691376'
'HandFrontToMiddle':'10.1263418198'
'HandOutToWrist':'1.7696287632'
'FootInToAnkle':'5.90893316269'
