'HandMiddleToWrist':'10.1263418198'
'HandInToWrist':'2.99537587166'
'HandBottomToWrist':'1.17909765244'
'FootMiddleToAnkle':'15.3429412842'
'FootBottomToAnkle':'8.82982826233'
'FootBackToAnkle':'7.20505857468'
'HandBackToWrist':'0.01'
'FootOutToAnkle':'6.60182571411'
'FootFrontToMiddle':'7.67147064209'
'HandFrontToMiddle':'10.1263418198'
'HandOutToWrist':'2.37141633034'
'FootInToAnkle':'4.81908416748'
