'HandMiddleToWrist':'10.1263418198'
'HandInToWrist':'3.34796857834'
'HandBottomToWrist':'1.42869579792'
'FootMiddleToAnkle':'16.3666973114'
'FootBottomToAnkle':'8.82982826233'
'FootBackToAnkle':'5.80697536469'
'HandBackToWrist':'0.01'
'FootOutToAnkle':'5.35397911072'
'FootFrontToMiddle':'7.67147064209'
'HandFrontToMiddle':'10.1263418198'
'HandOutToWrist':'3.09218072891'
'FootInToAnkle':'5.98366308212'
