'HandMiddleToWrist':'10.1263418198'
'HandInToWrist':'2.37545228004'
'HandBottomToWrist':'1.73427891731'
'FootMiddleToAnkle':'16.3186397552'
'FootBottomToAnkle':'8.82982826233'
'FootBackToAnkle':'5.32577562332'
'HandBackToWrist':'0.01'
'FootOutToAnkle':'6.37601280212'
'FootFrontToMiddle':'7.67147064209'
'HandFrontToMiddle':'10.1263418198'
'HandOutToWrist':'3.69837212563'
'FootInToAnkle':'5.48734045029'
