'HandMiddleToWrist':'9.6169719696'
'HandInToWrist':'2.11782574654'
'HandBottomToWrist':'0.891256690025'
'FootMiddleToAnkle':'13.9701824188'
'FootBottomToAnkle':'9.49718761444'
'FootBackToAnkle':'6.51765727997'
'HandBackToWrist':'0.01'
'FootOutToAnkle':'6.50079011917'
'FootFrontToMiddle':'7.28558444977'
'HandFrontToMiddle':'9.6169719696'
'HandOutToWrist':'2.72822141647'
'FootInToAnkle':'3.27441334724'
