'HandMiddleToWrist':'10.1263418198'
'HandInToWrist':'2.79583382607'
'HandBottomToWrist':'1.42865383625'
'FootMiddleToAnkle':'15.3429422379'
'FootBottomToAnkle':'8.8298330307'
'FootBackToAnkle':'6.66445875168'
'HandBackToWrist':'0.01'
'FootOutToAnkle':'5.80124855042'
'FootFrontToMiddle':'9.89100837708'
'HandFrontToMiddle':'10.1263418198'
'HandOutToWrist':'2.79583382607'
'FootInToAnkle':'7.67147111893'
147111893'
