'HandMiddleToWrist':'8.70933532715'
'HandInToWrist':'2.98115825653'
'HandBottomToWrist':'1.05726146698'
'FootMiddleToAnkle':'9.39597797394'
'FootBottomToAnkle':'6.5995426178'
'FootBackToAnkle':'7.02664804459'
'HandBackToWrist':'0.01'
'FootOutToAnkle':'4.68858909607'
'FootFrontToMiddle':'6.59798145294'
'HandFrontToMiddle':'8.70933532715'
'HandOutToWrist':'3.90049552917'
'FootInToAnkle':'5.08215093613'
