'HandMiddleToWrist':'10.1263437271'
'HandInToWrist':'3.84805774689'
'HandBottomToWrist':'1.4645345211'
'FootMiddleToAnkle':'15.9124183655'
'FootBottomToAnkle':'8.82979679108'
'FootBackToAnkle':'6.47557878494'
'HandBackToWrist':'0.01'
'FootOutToAnkle':'6.71890830994'
'FootFrontToMiddle':'8.070104599'
'HandFrontToMiddle':'10.1263437271'
'HandOutToWrist':'3.53725147247'
'FootInToAnkle':'6.42581176758'
