'HandMiddleToWrist':'10.1263437271'
'HandInToWrist':'3.66951227188'
'HandBottomToWrist':'3.27795219421'
'FootMiddleToAnkle':'15.3429450989'
'FootBottomToAnkle':'8.8297996521'
'FootBackToAnkle':'7.67147254944'
'HandBackToWrist':'0.01'
'FootOutToAnkle':'6.71481084824'
'FootFrontToMiddle':'7.67147254944'
'HandFrontToMiddle':'10.1263437271'
'HandOutToWrist':'3.66951227188'
'FootInToAnkle':'6.91621351242'
