'HandMiddleToWrist':'10.1263437271'
'HandInToWrist':'3.85994768143'
'HandBottomToWrist':'1.22952365875'
'FootMiddleToAnkle':'15.3429450989'
'FootBottomToAnkle':'8.82979679108'
'FootBackToAnkle':'8.59764957428'
'HandBackToWrist':'0.01'
'FootOutToAnkle':'7.24663209915'
'FootFrontToMiddle':'8.59764957428'
'HandFrontToMiddle':'10.1263437271'
'HandOutToWrist':'2.90405678749'
'FootInToAnkle':'7.24663209915'
