'HandMiddleToWrist':'10.1263523102'
'HandInToWrist':'2.99304389954'
'HandBottomToWrist':'1.2861301899'
'FootMiddleToAnkle':'17.1713752747'
'FootBottomToAnkle':'8.82980537415'
'FootBackToAnkle':'4.53269863129'
'HandBackToWrist':'0.01'
'FootOutToAnkle':'5.64860057831'
'FootFrontToMiddle':'7.67147922516'
'HandFrontToMiddle':'10.1263523102'
'HandOutToWrist':'3.21250486374'
'FootInToAnkle':'6.60680627823'
