'HandMiddleToWrist':'10.0808296204'
'HandInToWrist':'3.02764225006'
'HandBottomToWrist':'1.51569712162'
'FootMiddleToAnkle':'18.1158046722'
'FootBottomToAnkle':'8.38065242767'
'FootBackToAnkle':'6.32112407684'
'HandBackToWrist':'0.01'
'FootOutToAnkle':'7.56423711777'
'FootFrontToMiddle':'6.60552358627'
'HandFrontToMiddle':'10.0808296204'
'HandOutToWrist':'2.31575512886'
'FootInToAnkle':'4.20519256592'
