'HandMiddleToWrist':'9.93830776215'
'HandInToWrist':'3.09977316856'
'HandBottomToWrist':'1.04685795307'
'FootMiddleToAnkle':'17.9837436676'
'FootBottomToAnkle':'9.84828948975'
'FootBackToAnkle':'6.80626344681'
'HandBackToWrist':'0.01'
'FootOutToAnkle':'7.47582769394'
'FootFrontToMiddle':'5.87890291214'
'HandFrontToMiddle':'9.93830776215'
'HandOutToWrist':'3.47706890106'
'FootInToAnkle':'5.61889266968'
