'HandMiddleToWrist':'10.1263437271'
'HandInToWrist':'3.94169592857'
'HandBottomToWrist':'3.27795243263'
'FootMiddleToAnkle':'15.3429450989'
'FootBottomToAnkle':'8.82979679108'
'FootBackToAnkle':'4.60229253769'
'HandBackToWrist':'0.01'
'FootOutToAnkle':'7.67147254944'
'FootFrontToMiddle':'7.67147254944'
'HandFrontToMiddle':'10.1263437271'
'HandOutToWrist':'3.2480905056'
'FootInToAnkle':'6.62915229797'
