'HandMiddleToWrist':'10.1263418198'
'HandInToWrist':'2.83901000023'
'HandBottomToWrist':'1.4421889782'
'FootMiddleToAnkle':'15.8581047058'
'FootBottomToAnkle':'8.82982826233'
'FootBackToAnkle':'7.49974966049'
'HandBackToWrist':'0.01'
'FootOutToAnkle':'5.23043107986'
'FootFrontToMiddle':'7.67147064209'
'HandFrontToMiddle':'10.1263418198'
'HandOutToWrist':'2.80322337151'
'FootInToAnkle':'6.20239257813'
