'HandMiddleToWrist':'10.1263418198'
'HandInToWrist':'3.68720006943'
'HandBottomToWrist':'1.44265210629'
'FootMiddleToAnkle':'17.3371582031'
'FootBottomToAnkle':'8.82982826233'
'FootBackToAnkle':'7.34683036804'
'HandBackToWrist':'0.01'
'FootOutToAnkle':'6.30979681015'
'FootFrontToMiddle':'7.67147064209'
'HandFrontToMiddle':'10.1263418198'
'HandOutToWrist':'3.65395569801'
'FootInToAnkle':'6.02611446381'
