'HandMiddleToWrist':'10.1263418198'
'HandInToWrist':'2.72759962082'
'HandBottomToWrist':'1.12219917774'
'FootMiddleToAnkle':'15.3429412842'
'FootBottomToAnkle':'8.82982826233'
'FootBackToAnkle':'8.41178607941'
'HandBackToWrist':'0.01'
'FootOutToAnkle':'5.8671708107'
'FootFrontToMiddle':'6.19084024429'
'HandFrontToMiddle':'10.1263418198'
'HandOutToWrist':'2.97422432899'
'FootInToAnkle':'6.59864377975'
