'HandMiddleToWrist':'10.1609859467'
'HandInToWrist':'2.80678892136'
'HandBottomToWrist':'3.27795267105'
'FootMiddleToAnkle':'15.3954334259'
'FootBottomToAnkle':'8.82978534698'
'FootBackToAnkle':'6.03733778'
'HandBackToWrist':'0.01'
'FootOutToAnkle':'5.54537391663'
'FootFrontToMiddle':'5.29939317703'
'HandFrontToMiddle':'10.1609859467'
'HandOutToWrist':'2.73662590981'
'FootInToAnkle':'6.2833199501'
