'HandMiddleToWrist':'10.1609897614'
'HandInToWrist':'3.92157959938'
'HandBottomToWrist':'2.28872013092'
'FootMiddleToAnkle':'15.3954391479'
'FootBottomToAnkle':'8.82979202271'
'FootBackToAnkle':'6.63526010513'
'HandBackToWrist':'0.01'
'FootOutToAnkle':'5.69530010223'
'FootFrontToMiddle':'7.69771957397'
'HandFrontToMiddle':'10.1609897614'
'HandOutToWrist':'3.33938837051'
'FootInToAnkle':'6.12188386917'
