'HandMiddleToWrist':'8.70933628082'
'HandInToWrist':'1.91476142406'
'HandBottomToWrist':'0.404695242643'
'FootMiddleToAnkle':'11.449347496'
'FootBottomToAnkle':'6.59952878952'
'FootBackToAnkle':'5.4147901535'
'HandBackToWrist':'0.01'
'FootOutToAnkle':'4.61425733566'
'FootFrontToMiddle':'6.59798240662'
'HandFrontToMiddle':'8.70933628082'
'HandOutToWrist':'3.03167796135'
'FootInToAnkle':'3.68851876259'
