'HandMiddleToWrist':'8.70933628082'
'HandInToWrist':'2.18675065041'
'HandBottomToWrist':'1.31607711315'
'FootMiddleToAnkle':'9.89585113525'
'FootBottomToAnkle':'6.5995182991'
'FootBackToAnkle':'6.59798240662'
'HandBackToWrist':'0.01'
'FootOutToAnkle':'5.44693803787'
'FootFrontToMiddle':'6.59798240662'
'HandFrontToMiddle':'8.70933628082'
'HandOutToWrist':'3.01806044579'
'FootInToAnkle':'4.80746889114'
