movertranslation,*,0.0001,maxdecompressioncost=60;
moverrotation,*,0.0001,maxdecompressioncost=60;
bonetranslation,#0,0.0001,maxdecompressioncost=60;
bonerotation,#0,0.0001,maxdecompressioncost=60;
bonerotation,Char_Pelvis,0.000250;
bonerotation,Char_Spine_Root,0.000300;
bonerotation,Char_Spine,0.000300;
bonerotation,Char_Spine1,0.000300;
bonerotation,Char_Spine2,0.000300;
bonerotation,Char_Spine3,0.000300;
bonerotation,Char_Neck,0.000700;
bonerotation,Char_Head,0.001000;
bonerotation,Char_L_Clavicle,0.000450;
bonerotation,?arm,0.000800;
bonerotation,?Arm,0.000800;
bonerotation,?Finger?,0.000800;
bonerotation,?Calf?,0.004000;
bonerotation,?Foot?,0.009950;
bonerotation,?Toe?,0.009950;
bonetranslation,*,0.0005;
bonerotation,*,0.0005;