facialtranslation,#23080,0.001;
facialtranslation,#11049,0.001;
facialtranslation,#46473,0.001;
facialtranslation,#29577,0.001;
facialtranslation,#60518,0.001;
facialtranslation,#10760,0.001;
facialtranslation,#4187,0.001;
facialtranslation,#59855,0.001;
facialtranslation,*,0.001;
facialrotation,*,0.01;
facialControl,#36263,0.001;
facialControl,#35937,0.001;
facialControl,*,0.001;
viseme,#25778,0.001;
viseme,#19205,0.001;
viseme,*,0.001;