movertranslation,*,0.01,maxdecompressioncost=60;
moverrotation,*,0.005,maxdecompressioncost=60;
bonetranslation,#0,0.01,maxdecompressioncost=60;
bonerotation,#0,0.005,maxdecompressioncost=60;
bonerotation,*IK_Root*,0.05000;
bonerotation,*Clavicle*,10.0;
bonerotation,*Hand*,10.0;
bonerotation,*Elbow*,10.0;
bonerotation,*Bicep*,10.0;
bonerotation,*arm*,10.0;
bonerotation,*Arm*,10.0;
bonerotation,*Finger*,10.0;
bonerotation,*Neck*,10.0;
bonerotation,*Head*,10.0;
bonerotation,*Thigh*,0.005;
bonerotation,*Calf*,0.005;
bonerotation,*Foot*,0.005;
bonerotation,*Toe*,0.01;
bonetranslation,*,10.0;
bonerotation,*,10.0;
cameratranslation,*,0.00001;
camerarotation,*,0.00001;
cameraFOV,*,0.00001;
cameraDOF,*,0.00001;
facialtranslation,*,0.00001;
facialrotation,*,0.00001;
facialControl,*,0.00001;
shaderSlideU,*,0.00001;
shaderSlideV,*,0.00001;