movertranslation,*,0.0001,maxdecompressioncost=60;
moverrotation,*,0.0001,maxdecompressioncost=60;
bonetranslation,#0,0.001,maxdecompressioncost=60;
bonerotation,#0,0.0001,maxdecompressioncost=60;
bonerotation,*Clav*,0.0001;
bonerotation,*arm*,0.0001;
bonerotation,*Arm*,0.0001;
bonerotation,*Hand*,0.0001;
bonerotation,*Finger*,0.0001;
bonerotation,*Spine*,0.0001;
bonerotation,*Neck*,0.0001;
bonerotation,*Head*,0.0005;
bonerotation,*Tail*,0.0005;
bonerotation,*Thigh*,0.0001;
bonerotation,*Calf*,0.0001;
bonerotation,*Foot*,0.0001;
bonerotation,*Toe*,0.0001;
bonetranslation,*,0.00005;
bonerotation,*,0.0005;
cameratranslation,*,0.00001;
camerarotation,*,0.00001;
cameraFOV,*,0.00001;
cameraDOF,*,0.00001;
facialtranslation,*,0.00001;
facialrotation,*,0.00001;
facialControl,*,0.00001;
shaderSlideU,*,0.00001;
shaderSlideV,*,0.00001;
